Measurements/Power Reception/Metingen 3/Meting met pin 2 -114 -132 74 -18.csv

CH1,CH2,CH3,Start,Increment,
Volt,Volt,Volt,-29.975,0.05
2.7,2.7,0,
2.7,2.7,0.08,
2.7,2.7,0.08,
2.7,2.7,0,
2.7,2.7,0.08,
2.7,2.7,0,
2.7,2.7,0,
2.7,2.7,0.08,
2.7,2.7,0,
2.7,2.7,0.08,
2.7,2.7,0,
2.7,2.7,0.08,
2.7,2.7,0,
2.7,2.7,0.08,
2.7,2.7,0,
2.7,2.7,0.08,
2.7,2.7,0.08,
2.7,2.7,0,
2.7,2.7,0.08,
2.7,2.7,0,
2.7,2.7,0.08,
2.7,2.7,0,
2.7,2.7,0,
2.7,2.7,0.08,
2.7,2.7,0,
2.7,2.7,0.08,
2.7,2.7,0.08,
2.7,2.7,0,
2.7,2.7,0.08,
2.7,2.7,0,
2.7,2.7,0.08,
2.7,2.7,0,
2.7,2.7,0.08,
2.7,2.7,0,
2.7,2.7,0,
2.7,2.7,0.08,
2.7,2.7,0,
2.7,2.7,0.08,
2.7,2.7,0,
2.7,2.7,0.08,
2.7,2.7,0,
2.7,2.7,0.08,
2.7,2.7,0.08,
2.7,2.7,0,
2.7,2.7,0.08,
2.7,2.7,0,
2.7,2.7,0,
2.7,2.7,0.08,
2.7,2.7,0.08,
2.7,2.7,0,
2.7,2.7,0,
2.7,2.7,0.08,
2.7,2.7,0,
2.7,2.7,0.08,
2.7,2.7,0.08,
2.7,2.7,0,
2.7,2.7,0,
2.7,2.7,0.08,
2.7,2.7,0.08,
2.7,2.7,0,
2.7,2.7,0,
2.7,2.7,0.08,
2.7,2.7,0,
2.7,2.7,0.08,
2.7,2.7,0,
2.7,2.7,0.08,
2.7,2.7,0.08,
2.7,2.7,0,
2.7,2.7,0,
2.7,2.7,0.08,
2.7,2.7,0,
2.7,2.7,0.08,
2.7,2.7,0.08,
2.7,2.7,0,
2.7,2.7,0.08,
2.7,2.7,0,
2.7,2.7,0,
2.7,2.7,0.08,
2.7,2.7,0,
2.7,2.7,0.08,
2.7,2.7,0.08,
2.7,2.7,0,
2.7,2.7,0.08,
2.7,2.7,0,
2.7,2.7,0,
2.7,2.7,0.08,
2.7,2.7,0,
2.7,2.7,0.08,
2.7,2.7,0.08,
2.7,2.7,0,
2.7,2.7,0,
2.7,2.7,0.08,
2.7,2.7,0,
2.7,2.7,0.08,
2.7,2.7,0,
2.7,2.7,0.08,
2.7,2.7,0.08,
2.7,2.7,0,
2.7,2.7,0.08,
2.7,2.7,0,
2.7,2.7,0,
2.7,2.7,0.08,
2.7,2.7,0.08,
2.7,2.7,0,
2.7,2.7,0.08,
2.7,2.7,0,
2.7,2.7,0,
2.7,2.7,0.08,
2.7,2.7,0.08,
2.7,2.7,0,
2.7,2.7,0,
2.7,2.7,0.08,
2.7,2.7,0.08,
2.7,2.7,0,
2.7,2.7,0.08,
2.7,2.7,0,
2.7,2.7,0.08,
2.7,2.7,0,
2.7,2.7,0.08,
2.7,2.7,0,
2.7,2.7,0.08,
2.7,2.7,0,
2.7,2.7,0,
2.7,2.7,0.08,
2.7,2.7,0,
2.7,2.7,0.08,
2.7,2.7,0.08,
2.7,2.7,0,
2.7,2.7,0,
2.7,2.7,0.08,
2.7,2.7,0.08,
2.7,2.7,0,
2.7,2.7,0.08,
2.7,2.7,0,
2.7,2.7,0.08,
4.188,4.196,0,
4.18,4.188,0.08,
4.204,4.22,0,
4.204,4.196,0.08,
4.196,4.22,0,
4.204,4.22,0.08,
4.196,4.196,0,
4.204,4.22,0,
4.196,4.196,0.08,
4.204,4.204,0,
4.196,4.22,0.08,
4.196,4.196,0.08,
4.204,4.22,0,
4.204,4.196,0.08,
4.196,4.22,0,
4.204,4.22,0,
4.196,4.196,0.08,
4.204,4.22,0.08,
4.196,4.196,0,
4.196,4.196,0,
4.22,4.22,0.08,
4.196,4.22,0.08,
4.204,4.196,0,
4.212,4.22,0.08,
4.196,4.196,0,
4.204,4.22,0,
4.196,4.196,0.08,
4.204,4.22,0,
4.196,4.196,0.08,
4.204,4.22,0.08,
4.196,4.196,0,
4.196,4.22,0.08,
4.212,4.196,0,
4.204,4.196,0.08,
4.196,4.22,0,
4.196,4.22,0.08,
4.22,4.196,0,
4.196,4.22,0.08,
4.22,4.196,0,
4.196,4.22,0.08,
4.22,4.196,0,
4.196,4.22,0.08,
4.22,4.196,0,
4.204,4.22,0.08,
4.196,4.196,0,
4.204,4.22,0,
4.196,4.196,0.08,
4.22,4.22,0.08,
4.196,4.196,0,
4.204,4.22,0,
4.196,4.196,0.08,
4.204,4.204,0,
4.196,4.22,0.08,
4.196,4.22,0,
4.212,4.196,0.08,
4.196,4.22,0,
4.212,4.204,0.08,
4.204,4.22,0.08,
4.196,4.196,0,
4.22,4.22,0,
4.196,4.196,0.08,
4.204,4.22,0.08,
4.196,4.196,0,
4.204,4.22,0.08,
4.196,4.204,0,
4.196,4.22,0.08,
4.22,4.196,0,
4.204,4.196,0,
4.196,4.22,0.08,
4.196,4.22,0.08,
4.204,4.196,0,
4.22,4.22,0,
4.196,4.204,0.08,
4.204,4.22,0,
4.196,4.196,3.4,
4.204,4.22,3.36,
4.132,4.172,3.44,
4.172,4.196,3.32,
4.108,4.156,3.44,
4.132,4.18,3.36,
4.156,4.204,3.4,
4.14,4.204,3.36,
4.164,4.18,3.4,
4.164,4.196,3.4,
4.124,4.172,3.32,
4.124,4.204,3.32,
4.164,4.164,3.4,
4.108,4.164,3.32,
4.228,4.252,3.4,
4.204,4.22,3.44,
4.116,4.156,3.32,
4.148,4.18,3.32,
4.124,4.196,3.4,
4.132,4.18,3.36,
4.164,4.204,3.44,
4.228,4.244,3.36,
4.132,4.164,3.4,
4.172,4.164,3.32,
4.116,4.196,3.44,
4.124,4.18,3.36,
4.156,4.204,3.4,
4.14,4.18,3.32,
4.164,4.204,3.4,
4.164,4.18,3.44,
4.124,4.204,3.32,
4.164,4.204,3.32,
4.116,4.172,3.4,
4.164,4.204,3.36,
4.116,4.172,3.4,
4.124,4.204,3.44,
4.164,4.164,3.32,
4.124,4.18,3.32,
4.14,4.196,3.44,
4.124,4.18,3.36,
4.14,4.196,3.44,
4.124,4.18,3.36,
4.14,4.196,3.4,
4.124,4.18,3.44,
4.14,4.196,3.32,
4.124,4.18,3.36,
4.14,4.196,3.44,
4.124,4.18,3.36,
4.14,4.196,3.44,
4.124,4.18,3.44,
4.14,4.196,3.32,
4.124,4.18,3.32,
4.14,4.196,3.44,
4.124,4.18,3.36,
4.14,4.196,3.4,
4.124,4.18,3.32,
4.14,4.196,3.44,
4.124,4.18,3.36,
4.14,4.196,3.44,
4.14,4.196,3.32,
4.124,4.18,3.44,
4.124,4.18,3.36,
4.14,4.196,3.44,
4.124,4.18,3.44,
4.14,4.196,3.32,
4.124,4.18,3.32,
4.14,4.196,3.44,
4.14,4.18,3.36,
4.124,4.196,3.44,
4.124,4.196,3.44,
4.14,4.18,3.32,
4.14,4.196,3.32,
4.028,4.132,3.44,
4.044,4.14,3.32,
4.148,4.204,3.44,
4.124,4.18,3.36,
4.14,4.196,3.4,
4.124,4.18,3.32,
4.14,4.196,3.44,
4.124,4.18,3.4,
4.14,4.196,3.32,
4.124,4.18,3.36,
4.14,4.196,3.44,
4.124,4.18,3.36,
4.14,4.196,3.44,
4.14,4.18,3.4,
4.124,4.196,3.32,
4.036,4.124,3.4,
4.164,4.22,3.32,
4.14,4.18,3.36,
4.124,4.196,3.44,
4.124,4.18,3.44,
4.14,4.196,3.32,
4.14,4.196,3.36,
4.1,4.164,3.44,
4.124,4.18,3.44,
4.164,4.204,3.36,
4.164,4.204,3.44,
4.012,4.108,3.32,
4.124,4.156,3.32,
4.084,4.188,3.4,
4.084,4.164,3.36,
4.116,4.196,3.44,
4.02,4.14,3.36,
4.156,4.22,3.44,
4.044,4.148,3.32,
4.14,4.196,3.44,
4.076,4.156,3.32,
4.124,4.196,3.44,
4.116,4.188,3.36,
4.028,4.132,3.44,
4.116,4.148,3.4,
4.036,4.188,3.32,
4.028,4.148,3.36,
4.116,4.188,3.4,
4.116,4.156,3.36,
4.06,4.188,3.44,
4.044,4.148,3.36,
4.108,4.188,3.44,
4.108,4.188,3.32,
3.996,4.124,3.44,
4.1,4.172,3.36,
3.988,4.124,3.44,
4.052,4.156,3.32,
4.132,4.196,3.44,
4.1,4.164,3.32,
4.148,4.204,3.4,
4.14,4.196,3.44,
4.004,4.116,3.32,
4.108,4.172,3.36,
4.02,4.132,3.4,
4.012,4.204,3.4,
4.14,4.14,0.04,
4.148,4.204,0.08,
4.028,4.14,0.04,
4.108,4.14,0.08,
4.044,4.188,0.04,
4.036,4.228,0.08,
4.172,4.14,0,
4.004,4.124,0.08,
4.14,4.204,0.04,
4.028,4.14,0.08,
4.132,4.204,0.04,
4.068,4.228,0,
4.196,4.14,3.44,
4.092,4.156,3.44,
4.148,4.204,3.32,
4.148,4.196,3.32,
4.124,4.18,3.4,
4.14,4.18,3.44,
4.124,4.196,3.32,
4.14,4.18,3.36,
4.124,4.196,3.44,
4.14,4.196,3.32,
4.124,4.18,3.44,
4.172,4.204,3.36,
4.108,4.164,3.44,
4.092,4.156,3.36,
4.18,4.212,3.4,
4.188,4.22,3.44,
4.124,4.172,3.32,
4.188,4.18,3.36,
4.124,4.22,3.44,
4.124,4.18,3.44,
4.188,4.22,3.32,
4.188,4.22,3.4,
4.124,4.172,3.32,
4.092,4.156,3.32,
4.156,4.204,3.44,
4.132,4.18,3.36,
4.18,4.22,3.4,
4.108,4.204,3.36,
4.18,4.164,3.4,
4.188,4.22,3.44,
4.108,4.156,3.32,
4.172,4.204,3.32,
4.076,4.148,3.4,
4.14,4.156,3.36,
4.092,4.204,3.4,
4.14,4.18,3.4,
4.124,4.196,3.32,
4.14,4.18,3.36,
4.124,4.196,3.44,
4.14,4.18,3.36,
4.124,4.196,3.44,
4.164,4.204,3.36,
4.092,4.156,3.44,
4.116,4.164,3.4,
4.18,4.22,3.32,
4.172,4.204,3.32,
4.156,4.188,3.44,
4.108,4.164,3.36,
4.188,4.22,3.4,
4.18,4.164,3.44,
4.108,4.22,3.32,
4.084,4.204,3.36,
4.164,4.156,3.4,
4.148,4.196,3.36,
4.124,4.164,3.44,
4.188,4.22,3.36,
4.124,4.172,3.44,
4.18,4.22,3.32,
4.124,4.164,3.36,
4.124,4.22,3.36,
4.188,4.164,3.44,
4.124,4.172,3.36,
4.188,4.22,3.44,
4.18,4.212,3.44,
4.092,4.164,3.32,
4.092,4.156,3.4,
4.14,4.196,3.32,
4.124,4.196,3.36,
4.14,4.18,3.44,
4.14,4.196,3.44,
4.124,4.18,3.32,
4.14,4.196,3.44,
4.124,4.18,3.32,
4.172,4.204,3.36,
4.124,4.172,3.44,
4.036,4.124,3.36,
4.196,4.22,3.44,
4.18,4.22,3.4,
4.124,4.164,3.32,
4.188,4.22,3.36,
4.092,4.156,3.44,
4.14,4.196,3.44,
4.092,4.156,3.36,
4.14,4.196,3.4,
4.124,4.18,3.32,
4.14,4.18,3.32,
4.124,4.196,3.44,
4.14,4.18,3.36,
4.124,4.196,3.44,
4.124,4.18,3.44,
4.14,4.196,3.32,
4.172,4.204,3.32,
4.116,4.172,3.4,
4.14,4.18,3.36,
4.124,4.196,3.44,
4.148,4.204,3.32,
4.092,4.164,3.4,
4.108,4.164,3.4,
4.188,4.22,3.32,
4.188,4.22,3.36,
4.124,4.164,3.44,
4.124,4.22,3.36,
4.188,4.172,3.44,
4.172,4.156,3.44,
4.084,4.204,3.32,
4.116,4.18,3.32,
4.14,4.196,3.44,
4.124,4.18,3.4,
4.14,4.196,3.32,
4.14,4.196,3.36,
4.124,4.18,3.44,
4.14,4.196,3.32,
4.124,4.18,3.44,
4.164,4.204,3.36,
4.092,4.148,3.4,
4.148,4.204,3.36,
4.092,4.164,3.4,
4.124,4.18,3.44,
4.18,4.22,3.32,
4.188,4.22,3.44,
4.124,4.18,3.32,
4.188,4.22,3.4,
4.084,4.156,3.32,
4.1,4.164,3.44,
4.188,4.212,3.32,
4.172,4.204,3.32,
4.156,4.188,3.44,
4.116,4.164,3.4,
4.188,4.22,3.32,
4.18,4.22,3.32,
4.116,4.164,3.44,
4.14,4.196,3.32,
4.092,4.156,3.4,
4.14,4.196,3.36,
4.124,4.18,3.4,
4.14,4.196,3.36,
4.124,4.18,3.36,
4.14,4.18,3.44,
4.124,4.196,3.32,
4.124,4.18,3.4,
4.164,4.204,3.32,
4.14,4.164,3.36,
4.108,4.196,3.44,
4.14,4.18,3.36,
4.124,4.196,3.44,
4.132,4.18,3.4,
4.116,4.196,3.32,
4.14,4.196,3.32,
4.084,4.156,3.44,
4.092,4.156,3.32,
4.164,4.204,3.44,
4.14,4.18,3.44,
4.116,4.196,3.32,
4.148,4.196,3.32,
4.116,4.172,3.44,
4.14,4.18,3.36,
4.124,4.196,3.4,
4.124,4.196,3.36,
4.148,4.18,3.36,
4.188,4.22,3.32,
4.124,4.172,3.44,
4.124,4.22,3.32,
4.18,4.164,3.4,
4.124,4.18,3.32,
4.18,4.22,3.44,
4.124,4.164,3.44,
4.188,4.22,3.32,
4.124,4.18,3.32,
4.18,4.22,3.4,
4.124,4.18,3.32,
4.188,4.22,3.44,
4.124,4.172,3.4,
4.188,4.22,3.32,
4.124,4.18,3.32,
4.18,4.22,3.44,
4.188,4.22,3.36,
4.1,4.164,3.4,
4.124,4.18,3.36,
4.188,4.22,3.44,
4.124,4.18,3.36,
4.188,4.22,3.32,
4.124,4.18,3.36,
4.188,4.22,3.44,
4.124,4.164,3.32,
4.18,4.22,3.44,
4.124,4.164,3.36,
4.188,4.22,3.32,
4.124,4.164,3.36,
4.18,4.22,3.32,
4.124,4.18,3.36,
4.188,4.22,3.4,
4.124,4.164,3.44,
4.188,4.22,3.32,
4.1,4.172,3.4,
4.188,4.22,3.32,
4.124,4.18,3.36,
4.188,4.22,3.44,
4.124,4.164,3.36,
4.188,4.22,3.4,
4.124,4.22,3.36,
4.188,4.164,3.32,
4.124,4.212,3.32,
4.18,4.172,3.44,
4.124,4.22,3.32,
4.188,4.164,3.44,
4.18,4.164,3.36,
4.1,4.212,3.4,
4.124,4.18,3.32,
4.14,4.196,3.4,
4.124,4.18,3.36,
4.14,4.196,3.44,
4.124,4.18,3.36,
4.14,4.196,3.4,
4.14,4.196,3.32,
4.124,4.18,3.4,
4.124,4.18,3.36,
4.14,4.196,3.44,
4.124,4.18,3.36,
4.14,4.196,3.4,
4.124,4.18,3.44,
4.14,4.196,3.32,
4.14,4.18,3.36,
4.124,4.196,3.4,
4.14,4.18,3.44,
4.124,4.196,3.32,
4.124,4.196,3.36,
4.14,4.18,3.44,
4.124,4.196,3.32,
4.14,4.18,3.4,
4.14,4.18,3.36,
4.124,4.196,3.44,
4.124,4.18,3.32,
4.14,4.196,3.44,
4.14,4.18,3.44,
4.124,4.196,3.32,
4.14,4.196,3.32,
4.124,4.18,3.4,
4.14,4.18,3.36,
4.124,4.196,3.44,
4.14,4.196,3.36,
4.124,4.18,3.44,
4.14,4.196,3.32,
4.124,4.18,3.44,
4.14,4.18,3.36,
4.124,4.196,3.44,
4.124,4.196,3.36,
4.14,4.18,3.44,
4.14,4.18,3.32,
4.124,4.196,3.4,
4.14,4.18,3.4,
4.124,4.196,3.36,
4.14,4.196,3.36,
4.108,4.156,3.4,
4.108,4.164,3.36,
4.148,4.196,3.4,
4.14,4.18,3.32,
4.124,4.196,3.44,
4.14,4.18,3.36,
4.124,4.196,3.4,
4.14,4.18,3.36,
4.124,4.196,3.4,
4.14,4.196,3.32,
4.124,4.18,3.4,
4.14,4.196,3.32,
4.124,4.18,3.4,
4.124,4.18,3.36,
4.14,4.196,3.4,
4.124,4.18,3.44,
4.14,4.196,3.32,
4.14,4.18,3.32,
4.124,4.196,3.44,
4.124,4.18,3.4,
4.18,4.204,3.32,
4.18,4.212,3.36,
3.988,4.1,3.44,
4.076,4.156,3.32,
4.14,4.196,3.44,
4.108,4.164,3.32,
4.132,4.196,3.44,
4.124,4.164,3.36,
4.1,4.188,3.44,
4.124,4.196,3.44,
4.1,4.164,3.32,
4.132,4.196,3.32,
4.108,4.164,3.44,
4.164,4.204,3.44,
3.204,3.74,3.4,
3.324,3.868,3.44,
3.388,3.9,3.32,
3.372,3.884,3.36,
4.332,4.38,3.44,
4.124,4.22,3.32,
4.188,4.164,3.44,
4.18,4.212,3.44,
3.18,3.708,3.36,
3.356,3.884,3.36,
4.332,4.372,3.44,
4.188,4.22,3.36,
4.108,4.172,3.44,
4.172,4.204,3.36,
4.116,4.164,3.4,
3.228,3.716,3.44,
4.188,4.236,3.32,
3.316,3.82,3.32,
4.324,4.388,3.44,
4.188,4.228,3.36,
4.108,4.164,3.4,
4.18,4.164,3.36,
4.108,4.212,3.4,
4.18,4.22,3.32,
4.156,4.188,3.4,
4.18,3.724,3.36,
3.252,4.228,3.44,
4.116,4.22,3.36,
4.196,4.172,3.44,
4.116,4.172,3.44,
4.172,4.204,3.32,
4.18,4.22,3.44,
3.244,3.716,3.32,
3.252,3.74,3.36,
4.204,4.244,3.44,
4.172,4.212,3.4,
4.108,4.164,3.32,
3.236,3.716,3.36,
4.196,4.252,3.4,
4.108,4.18,3.36,
4.188,4.22,3.44,
3.26,3.74,3.36,
4.196,4.244,3.4,
4.124,4.204,3.32,
4.18,4.18,3.4,
4.18,4.212,3.36,
4.108,4.164,3.4,
4.108,4.164,3.36,
4.18,4.22,3.44,
4.172,4.204,3.32,
4.156,4.188,3.44,
4.172,3.732,3.32,
3.252,4.228,3.44,
3.252,3.748,3.36,
4.204,4.252,3.44,
4.18,4.204,3.36,
4.1,4.164,3.44,
3.236,3.716,3.32,
4.236,4.284,3.44,
4.116,4.18,3.32,
4.188,4.212,3.44,
4.172,4.204,3.36,
4.108,4.164,3.4,
4.116,4.164,3.32,
4.18,4.204,3.44,
4.18,3.724,3.32,
3.236,4.228,3.44,
3.244,3.732,3.36,
4.204,4.26,3.4,
4.124,4.18,3.36,
4.18,4.212,3.36,
4.116,4.164,3.44,
4.188,4.22,3.32,
3.26,3.74,3.36,
4.268,4.332,3.44,
4.18,4.212,3.36,
4.116,4.164,3.44,
4.116,4.164,3.32,
4.18,4.204,3.4,
4.124,4.18,3.36,
4.18,4.22,3.4,
4.18,4.22,3.36,
3.252,3.732,3.4,
4.18,4.22,3.44,
4.108,4.172,3.32,
4.124,4.18,3.32,
4.18,4.22,3.4,
4.172,4.204,3.44,
3.388,3.788,3.36,
3.26,3.748,3.36,
4.18,4.228,3.4,
4.124,4.18,3.32,
4.18,4.22,3.4,
4.172,4.188,3.4,
4.156,4.204,3.32,
4.172,4.204,3.36,
4.108,4.164,3.44,
4.172,3.74,3.4,
3.26,4.228,3.32,
4.14,4.196,3.44,
4.108,4.164,3.32,
4.124,4.18,3.36,
4.14,4.196,3.44,
4.14,4.18,3.44,
4.124,4.196,3.32,
4.14,4.196,3.32,
4.124,4.172,3.4,
4.116,4.22,3.36,
4.18,4.164,3.36,
4.116,4.172,3.36,
4.188,4.22,3.4,
4.172,4.204,3.32,
4.124,4.18,3.44,
4.188,3.74,3.32,
3.26,4.228,3.44,
4.124,4.164,3.36,
4.18,4.22,3.4,
4.172,4.204,3.44,
4.124,4.18,3.32,
3.252,4.22,3.32,
4.188,3.732,3.44,
3.996,4.116,3.36,
4.188,4.228,3.4,
4.18,4.22,3.36,
4.124,4.164,3.44,
3.252,3.732,3.44,
4.18,4.22,3.32,
3.252,3.74,3.4,
4.204,4.244,3.32,
3.26,3.748,3.36,
4.204,4.252,3.4,
4.124,4.18,3.32,
4.18,4.22,3.44,
3.252,3.732,3.36,
4.204,4.252,3.4,
4.14,4.196,3.36,
4.108,4.172,3.4,
4.172,4.22,3.36,
4.108,4.172,0,
4.172,3.732,0.08,
3.252,4.212,0,
4.116,4.18,0,
4.172,4.22,3.44,
4.164,4.204,3.36,
4.108,4.164,3.4,
4.14,4.18,3.44,
4.108,4.196,3.32,
4.188,4.22,3.32,
4.108,4.164,3.44,
4.108,4.164,3.36,
4.14,4.196,3.4,
4.116,4.18,3.44,
4.18,4.212,3.32,
4.172,4.204,3.36,
4.108,4.164,3.32,
4.14,4.18,3.36,
4.108,4.196,3.4,
4.172,4.164,3.36,
4.108,4.212,3.44,
4.108,4.164,3.32,
4.14,4.196,3.4,
4.124,4.18,3.32,
4.172,4.204,3.44,
4.172,4.204,3.32,
4.108,4.164,3.44,
4.116,4.18,3.44,
4.14,4.196,3.32,
4.172,4.204,3.36,
4.076,4.14,3.4,
4.164,4.196,3.36,
4.068,4.148,3.4,
4.108,4.172,3.44,
4.18,4.22,3.32,
4.172,4.212,3.32,
4.108,4.164,3.4,
4.14,4.18,3.36,
4.108,4.196,3.44,
4.084,4.148,3.44,
4.188,4.22,3.36,
4.172,4.204,3.4,
4.004,4.108,3.32,
4.14,4.196,3.32,
4.116,4.172,3.44,
4.18,4.212,3.36,
4.084,4.148,3.4,
4.14,4.196,3.4,
4.116,4.164,3.32,
4.116,4.172,3.32,
4.18,4.204,3.4,
4.172,4.204,3.36,
4.052,4.132,3.44,
4.172,4.204,3.4,
3.26,3.756,3.44,
3.404,3.892,3.44,
3.468,3.94,0,
3.444,3.916,0.08,
4.324,4.38,0.04,
4.188,4.22,0,
4.116,4.164,0.08,
4.18,4.204,0.16,
3.244,3.732,0.04,
3.3,3.788,0.08,
4.316,4.372,0.04,
4.148,4.204,0,
4.124,4.18,0.08,
4.124,4.18,0.08,
4.14,4.196,0.04,
4.124,4.196,0.08,
4.14,4.164,0,
4.108,4.18,0.04,
4.18,4.22,0.12,
3.26,3.732,0.04,
4.292,4.348,3.44,
4.188,4.22,3.4,
4.148,4.188,3.32,
4.1,4.156,3.36,
4.18,4.212,3.44,
4.172,3.74,3.36,
3.284,4.22,3.4,
4.108,4.212,3.36,
4.18,4.172,3.44,
4.116,4.164,3.36,
4.188,4.22,3.32,
4.156,4.188,3.32,
4.172,4.204,3.4,
4.172,3.756,3.32,
3.292,4.22,3.44,
4.172,4.22,3.4,
3.3,3.764,3.32,
4.188,4.228,3.36,
4.116,4.164,3.44,
3.292,3.772,3.36,
4.204,4.26,3.44,
4.116,4.172,3.4,
4.172,4.204,3.32,
4.172,4.204,3.4,
4.084,4.156,3.32,
4.14,4.196,3.36,
4.092,4.148,3.4,
4.124,4.22,3.36,
4.188,4.164,3.44,
4.124,4.172,3.32,
4.14,4.196,3.44,
4.116,4.164,3.36,
4.188,4.22,3.44,
4.172,4.204,3.36,
4.1,4.156,3.44,
4.14,4.196,3.4,
4.06,4.132,3.32,
4.188,4.22,3.36,
4.116,4.172,3.44,
4.108,4.164,3.36,
4.14,4.196,3.4,
4.124,4.164,3.36,
4.18,4.22,3.44,
4.172,4.204,3.4,
4.108,4.164,3.32,
4.14,4.196,3.44,
4.108,4.164,3.32,
4.108,4.18,3.32,
4.18,4.22,3.44,
4.172,4.204,3.32,
4.108,4.164,3.44,
4.14,4.196,3.32,
4.108,4.172,3.4,
4.172,4.22,3.36,
4.108,4.164,3.44,
4.14,4.196,3.44,
4.116,4.172,3.32,
4.124,4.18,3.36,
4.172,4.22,3.4,
4.172,4.204,3.36,
4.108,4.164,3.44,
4.124,4.18,3.36,
4.14,4.196,3.44,
4.188,4.212,3.32,
4.1,4.164,3.4,
4.14,4.164,3.4,
4.108,4.196,3.32,
4.124,4.18,3.44,
4.188,4.212,3.36,
4.172,4.204,3.4,
4.108,4.164,3.32,
4.124,4.172,3.32,
4.14,4.196,3.44,
4.188,4.212,3.4,
4.116,4.164,3.32,
4.124,4.172,3.4,
4.14,4.196,0.04,
4.108,4.164,0.08,
4.172,4.22,0,
4.172,4.204,0.08,
4.124,4.164,0.04,
4.14,4.18,0.08,
4.116,4.196,0.04,
4.108,4.164,0.08,
4.18,4.22,0.04,
4.172,4.204,0.08,
4.124,4.164,0,
4.124,4.196,0.08,
4.14,4.172,0.04,
4.124,4.18,0.08,
4.14,4.196,0.04,
4.14,4.18,0.04,
4.124,4.196,0.08,
4.14,4.18,0.08,
4.124,4.196,0,
4.14,4.196,0.08,
4.124,4.164,0.04,
4.14,4.196,0.08,
4.108,4.172,0,
4.14,4.196,0.08,
4.124,4.18,0,
4.124,4.18,0.08,
4.14,4.196,0.04,
4.124,4.172,0.08,
4.172,4.212,0.04,
4.172,4.204,0.08,
4.1,4.164,0.04,
4.14,4.18,0.08,
4.108,4.196,0,
4.188,4.22,0.08,
4.108,4.164,0,
4.14,4.164,0.08,
4.116,4.196,0,
4.124,4.172,0.08,
4.18,4.22,0,
4.172,4.204,0.08,
4.108,4.164,0.04,
4.14,4.196,0.08,
4.108,4.172,0,
4.172,4.22,0.08,
4.116,4.164,0,
4.108,4.164,0,
4.18,4.212,0.08,
4.172,4.188,0.04,
4.14,4.204,0.12,
4.172,3.74,0.04,
3.284,4.22,0.08,
4.18,3.756,0.08,
3.292,4.228,0.04,
4.132,4.212,0.08,
4.188,4.18,0,
3.268,3.748,0.08,
4.204,4.252,0,
4.14,4.196,0.08,
4.116,4.164,0.04,
4.188,4.22,0.08,
4.108,4.164,0,
4.14,4.172,0.08,
4.116,4.196,0,
4.124,4.18,0.04,
4.188,4.22,0.08,
4.172,4.204,0.08,
4.1,4.164,0,
4.14,4.196,0,
4.108,4.172,0.08,
4.188,4.22,0.08,
4.108,4.164,0,
4.108,4.18,0.08,
4.14,4.196,0.04,
4.108,4.172,0.08,
4.188,4.212,0,
4.172,4.204,0.08,
4.108,4.164,0.04,
4.14,4.18,0.08,
4.108,4.196,0.04,
4.188,4.172,0.08,
4.108,4.204,0,
4.1,4.172,0.08,
4.14,4.196,0,
4.124,4.18,0.08,
4.172,4.22,0,
4.172,4.204,0.08,
4.108,4.164,0,
4.108,4.196,0.08,
4.14,4.164,0,
4.124,4.18,0.08,
4.18,4.22,0.04,
4.108,4.164,0.04,
4.14,4.196,0.08,
4.124,4.18,0.08,
4.188,4.22,0.04,
4.18,4.204,0.08,
4.116,4.164,0,
4.14,4.172,0.08,
4.124,4.196,0.04,
4.124,4.18,0.08,
4.18,4.204,0,
4.172,4.204,0.08,
4.092,4.156,0,
4.14,4.18,0.08,
4.116,4.196,0,
4.172,4.22,0.08,
4.108,4.164,0,
4.124,4.18,0.08,
4.14,4.196,0.04,
4.14,4.196,0.08,
4.116,4.164,0.04,
4.18,4.212,0.08,
4.108,4.164,0,
4.124,4.18,0.08,
4.14,4.196,0,
4.14,4.196,0.08,
4.108,4.172,0,
4.14,4.196,0.08,
4.124,4.18,0,
4.124,4.196,0.08,
4.14,4.164,0,
4.14,4.196,0.08,
4.124,4.18,0,
4.14,4.18,0.08,
4.116,4.196,0,
4.14,4.18,0.08,
4.124,4.196,0,
4.14,4.196,0.08,
4.116,4.172,0.04,
4.124,4.18,0.08,
4.188,4.22,0.04,
4.172,4.204,0.08,
4.108,4.164,0,
4.124,4.18,0.08,
4.14,4.196,0.04,
4.124,4.18,0.08,
4.18,4.22,0,
4.172,4.164,0.08,
4.116,4.196,0.04,
4.124,4.18,0.08,
4.18,4.212,0.04,
4.172,4.204,0.04,
4.116,4.164,0.08,
4.124,4.18,0.08,
4.14,4.196,0,
4.108,4.18,0.08,
4.18,4.22,0,
4.172,4.204,0.08,
4.108,4.164,0,
4.14,4.196,0.08,
4.124,4.172,0.04,
4.18,4.22,0.08,
4.108,4.164,0,
4.124,4.196,0.08,
4.14,4.164,0,
4.108,4.18,0.08,
4.172,4.22,0.04,
4.172,4.204,0.04,
4.108,4.164,0.08,
4.124,4.196,0.08,
4.14,4.164,0.04,
4.172,4.212,0.08,
4.108,4.164,0.04,
4.108,4.172,0.08,
4.14,4.196,0.04,
4.1,4.164,0.08,
4.172,4.22,0.04,
4.172,4.188,0.04,
4.148,4.204,0.12,
4.172,3.74,0.08,
3.292,4.22,0.04,
3.332,3.796,0.08,
4.204,4.26,0.04,
4.18,3.748,0.08,
3.292,4.228,0.04,
4.124,4.22,0.04,
4.188,4.18,0.08,
4.18,4.204,0.16,
3.268,3.74,0.04,
3.332,3.804,0.08,
4.316,4.356,0,
4.124,4.18,0.08,
4.18,4.212,0.04,
4.1,4.164,0.08,
4.18,4.22,0.04,
4.164,3.756,0.08,
3.3,4.22,0,
4.188,4.22,0.16,
4.108,4.164,0.04,
3.316,3.772,0.08,
4.204,4.26,0.04,
4.108,4.172,0.08,
4.172,4.22,0.04,
4.172,4.204,0.08,
4.108,4.164,0.04,
4.132,4.18,0.08,
4.108,4.196,0.04,
4.188,4.22,0.08,
4.1,4.164,0.04,
4.132,4.172,0.04,
4.108,4.196,0.08,
4.1,4.164,0.08,
4.172,4.212,0.04,
4.172,4.204,0.08,
4.1,4.164,0.04,
4.132,4.196,0.04,
4.108,4.172,0.08,
4.172,4.22,0.08,
4.108,4.164,0,
4.108,4.164,0.08,
4.132,4.196,0.04,
4.14,4.196,0.04,
4.108,4.164,0.08,
4.124,4.18,0.08,
4.188,4.22,0.04,
4.124,4.18,0.08,
4.14,4.196,0.04,
4.14,4.196,0.08,
4.116,4.164,0,
4.068,4.14,0.08,
4.148,4.204,0.04,
4.084,4.14,0.08,
4.164,4.204,0.04,
4.14,4.172,0.08,
4.108,4.196,0,
4.14,4.18,0.08,
4.108,4.196,0.04,
4.092,4.196,0.08,
4.148,4.164,0,
4.14,4.196,0.08,
4.1,4.164,0,
4.1,4.164,0.08,
4.188,4.22,0,
4.124,4.204,0.04,
4.188,4.164,0.08,
4.124,4.22,0.08,
4.18,4.164,0.04,
4.18,4.164,0.04,
4.108,4.22,0.08,
4.18,4.212,0.08,
4.036,4.124,0,
4.06,4.14,0.08,
4.204,4.228,0,
4.164,4.204,0.08,
4.188,4.188,0,
4.188,4.204,0.08,
4.164,4.188,0.04,
4.164,4.204,0.08,
4.188,4.188,0.04,
4.18,4.204,0.08,
4.156,4.188,0,
4.164,4.204,0.08,
4.188,4.188,0.04,
4.164,4.204,0.08,
4.188,4.188,0,
4.188,4.204,0.08,
4.164,4.188,0,
4.164,4.204,0.08,
4.188,4.188,0,
4.164,4.204,0.08,
4.188,4.188,0,
4.188,4.188,0.08,
4.164,4.22,0,
4.164,4.204,0.08,
4.18,4.188,0,
4.164,4.204,0.08,
4.188,4.188,0,
4.188,4.204,0.08,
4.164,4.188,0.04,
4.188,4.204,0.08,
4.164,4.188,0.04,
4.164,4.188,0.08,
4.188,4.204,0.04,
