Measurements/Power Reception/Metingen 3/Meting met pin 1 -113 -124 117 -11.csv

CH1,CH2,CH3,Start,Increment,
Volt,Volt,Volt,-29.975,0.05
4.196,4.196,0.08,
4.22,4.22,0.04,
4.196,4.22,0.08,
4.204,4.196,0,
4.196,4.22,0.08,
4.22,4.196,0,
4.204,4.22,0.08,
4.196,4.196,0,
4.196,4.22,0.08,
4.22,4.196,0.04,
4.204,4.22,0.08,
4.196,4.204,0,
4.204,4.22,0.08,
4.196,4.196,0.04,
4.196,4.196,0.08,
4.212,4.22,0,
4.204,4.22,0.08,
4.196,4.196,0,
4.196,4.22,0.08,
4.22,4.196,0,
4.204,4.22,0.08,
4.196,4.196,0,
4.204,4.22,0.08,
4.196,4.196,0,
4.204,4.22,0.08,
4.196,4.196,0,
4.204,4.22,0.08,
4.196,4.196,0,
4.204,4.22,0.08,
4.196,4.204,0,
4.204,4.22,0.08,
4.196,4.196,0,
4.204,4.22,0.08,
4.196,4.196,0,
4.196,4.196,0.08,
4.212,4.22,0,
4.204,4.22,0.08,
4.196,4.196,0,
4.204,4.22,0.08,
4.196,4.196,0,
4.196,4.22,0,
4.22,4.196,0.08,
4.212,4.22,0.08,
4.196,4.196,0,
4.204,4.22,0,
4.196,4.196,0.08,
4.204,4.22,0.08,
4.196,4.196,0.04,
4.196,4.22,0.08,
4.212,4.196,0,
4.204,4.22,0.08,
4.196,4.196,0,
4.22,4.22,0.08,
4.196,4.204,0,
4.204,4.196,0.08,
4.196,4.22,0.04,
4.196,4.22,0.08,
4.22,4.196,0,
4.196,4.196,0.08,
4.22,4.22,0,
4.196,4.22,0.08,
4.204,4.196,0,
4.204,4.22,0.08,
4.196,4.204,0,
4.196,4.22,0.08,
4.212,4.196,0,
4.196,4.22,0.08,
4.22,4.196,0,
4.196,4.22,0.08,
4.22,4.196,0,
4.204,4.22,0.08,
4.196,4.204,0,
4.204,4.22,0.08,
4.196,4.204,0,
4.212,4.22,0.08,
4.196,4.196,0,
4.196,4.22,0.08,
4.212,4.196,0,
4.196,4.22,0.08,
4.22,4.196,0,
4.204,4.22,0.08,
4.196,4.196,0,
4.204,4.22,0.08,
4.196,4.196,0,
4.196,4.22,0.08,
4.22,4.196,0,
4.196,4.22,0.08,
4.204,4.196,0,
4.22,4.22,0.08,
4.196,4.204,0,
4.204,4.22,0.08,
4.196,4.196,0,
4.196,4.22,0.08,
4.212,4.196,0,
4.196,4.22,0,
4.22,4.196,0.08,
4.196,4.196,0.08,
4.22,4.22,0,
4.196,4.22,0.08,
4.22,4.196,0,
4.204,4.204,0.08,
4.196,4.22,0,
4.196,4.22,0.08,
4.212,4.196,0,
4.204,4.196,0.08,
4.196,4.22,0,
4.196,4.204,0.08,
4.22,4.22,0,
4.204,4.22,0.08,
4.196,4.196,0,
4.204,4.196,0.08,
4.196,4.22,0,
4.204,4.22,0.08,
4.196,4.196,0,
4.212,4.22,0.08,
4.196,4.196,0,
4.22,4.22,0.08,
4.196,4.196,0,
4.196,4.22,0.08,
4.212,4.196,0,
4.196,4.22,0.08,
4.204,4.196,0,
4.204,4.22,0.04,
4.196,4.196,0.08,
4.22,4.22,0.08,
4.196,4.196,0,
4.204,4.22,0.08,
4.196,4.196,0.04,
4.204,4.22,0.08,
4.196,4.196,0,
4.196,4.22,0.08,
4.212,4.204,0,
4.204,4.22,0.08,
4.196,4.196,0,
4.196,4.196,0.08,
4.22,4.22,0,
4.196,4.22,0.08,
4.212,4.196,0,
4.204,4.22,0.08,
4.196,4.196,0,
4.196,4.22,0.08,
4.22,4.196,0,
4.196,4.22,0.08,
4.22,4.196,0,
4.204,4.22,0.08,
4.196,4.196,0,
4.196,4.22,0.08,
4.22,4.196,0,
4.204,4.22,0,
4.196,4.196,3.36,
4.204,4.22,3.32,
4.196,4.164,3.44,
4.204,4.188,3.32,
4.124,4.204,3.44,
4.132,4.188,3.32,
4.148,4.204,3.4,
4.132,4.204,3.44,
4.164,4.188,3.32,
4.164,4.204,3.36,
4.14,4.18,3.44,
4.172,4.204,3.36,
4.124,4.18,3.44,
4.132,4.244,3.36,
4.172,4.164,3.32,
4.116,4.204,3.4,
4.236,4.172,3.32,
4.172,4.188,3.44,
4.124,4.204,3.32,
4.132,4.188,3.36,
4.164,4.236,3.44,
4.148,4.236,3.32,
4.228,4.164,3.4,
4.228,4.188,3.32,
4.124,4.204,3.44,
4.148,4.204,3.44,
4.132,4.188,3.32,
4.132,4.204,3.32,
4.164,4.188,3.4,
4.164,4.204,3.44,
4.14,4.18,3.32,
4.172,4.18,3.36,
4.132,4.204,3.4,
4.172,4.18,3.36,
4.124,4.22,3.4,
4.172,4.204,3.32,
4.124,4.18,3.44,
4.164,4.188,3.4,
4.124,4.204,3.32,
4.132,4.18,3.36,
4.148,4.204,3.4,
4.132,4.188,3.44,
4.14,4.204,3.32,
4.14,4.188,3.36,
4.132,4.196,3.4,
4.132,4.188,3.4,
4.148,4.204,3.32,
4.132,4.18,3.44,
4.148,4.204,3.32,
4.132,4.204,3.32,
4.148,4.18,3.44,
4.132,4.188,3.36,
4.148,4.204,3.4,
4.132,4.188,3.36,
4.148,4.204,3.4,
4.132,4.18,3.32,
4.14,4.204,3.4,
4.132,4.188,3.36,
4.148,4.204,3.44,
4.14,4.188,3.4,
4.132,4.196,3.32,
4.132,4.18,3.44,
4.14,4.204,3.32,
4.132,4.188,3.36,
4.148,4.204,3.44,
4.132,4.18,3.36,
4.14,4.204,3.4,
4.132,4.188,3.36,
4.14,4.204,3.44,
4.132,4.188,3.32,
4.14,4.204,3.44,
4.132,4.148,3.36,
4.148,4.204,3.4,
4.052,4.204,3.36,
4.148,4.18,3.4,
4.132,4.196,3.32,
4.148,4.18,3.44,
4.14,4.188,3.36,
4.132,4.204,3.44,
4.132,4.188,3.36,
4.148,4.204,3.44,
4.132,4.188,3.4,
4.148,4.204,3.32,
4.132,4.18,3.44,
4.148,4.204,3.32,
4.132,4.14,3.36,
4.14,4.22,3.44,
4.052,4.204,3.36,
4.18,4.188,3.44,
4.148,4.188,3.32,
4.132,4.204,3.4,
4.132,4.204,3.36,
4.148,4.18,3.4,
4.132,4.204,3.36,
4.148,4.172,3.36,
4.148,4.212,3.32,
4.108,4.18,3.4,
4.132,4.204,3.32,
4.172,4.132,3.44,
4.164,4.18,3.4,
4.028,4.196,3.32,
4.1,4.18,3.36,
4.132,4.196,3.44,
4.1,4.156,3.32,
4.132,4.212,3.44,
4.044,4.164,3.36,
4.156,4.204,3.44,
4.068,4.196,3.36,
4.14,4.156,3.44,
4.132,4.196,3.44,
4.044,4.164,3.32,
4.124,4.196,3.32,
4.068,4.156,3.44,
4.028,4.196,3.36,
4.132,4.172,3.44,
4.116,4.196,3.44,
4.084,4.164,3.32,
4.068,4.196,3.32,
4.116,4.148,3.44,
4.116,4.156,3.36,
4.02,4.196,3.4,
4.036,4.148,3.36,
4.124,4.204,3.44,
4.02,4.204,3.36,
4.14,4.18,3.4,
4.108,4.18,3.36,
4.14,4.22,3.44,
4.124,4.204,3.36,
4.164,4.132,3.44,
4.14,4.196,3.44,
4.028,4.148,3.32,
4.108,4.212,3.44,
4.028,4.14,0.04,
4.148,4.156,0.04,
4.012,4.22,0.08,
4.06,4.148,0.08,
4.148,4.244,0.04,
4.036,4.204,0.08,
4.204,4.132,0.04,
4.148,4.132,0.04,
4.012,4.196,0.08,
4.012,4.164,0.08,
4.116,4.252,0.04,
4.076,4.22,0.08,
4.22,4.18,0.04,
4.124,4.22,0.04,
4.196,4.164,3.4,
4.1,4.188,3.4,
4.196,4.204,3.32,
4.132,4.188,3.36,
4.148,4.204,3.44,
4.132,4.188,3.32,
4.148,4.204,3.44,
4.132,4.188,3.36,
4.148,4.204,3.44,
4.148,4.188,3.36,
4.132,4.204,3.4,
4.148,4.188,3.32,
4.132,4.204,3.44,
4.132,4.204,3.36,
4.148,4.18,3.44,
4.132,4.188,3.36,
4.148,4.204,3.44,
4.148,4.188,3.4,
4.132,4.204,3.32,
4.132,4.188,3.36,
4.148,4.204,3.44,
4.132,4.204,3.36,
4.148,4.18,3.44,
4.132,4.188,3.36,
4.148,4.204,3.4,
4.148,4.188,3.32,
4.132,4.204,3.4,
4.132,4.188,3.36,
4.148,4.204,3.36,
4.132,4.188,3.36,
4.148,4.204,3.44,
4.132,4.188,3.32,
4.148,4.204,3.44,
4.132,4.188,3.36,
4.148,4.204,3.32,
4.132,4.188,3.36,
4.148,4.204,3.44,
4.132,4.188,3.36,
4.148,4.204,3.44,
4.132,4.188,3.32,
4.148,4.204,3.4,
4.148,4.188,3.36,
4.132,4.204,3.4,
4.132,4.204,3.36,
4.148,4.188,3.44,
4.132,4.204,3.36,
4.148,4.18,3.4,
4.132,4.188,3.32,
4.148,4.204,3.4,
4.132,4.188,3.36,
4.148,4.204,3.4,
4.132,4.188,3.36,
4.148,4.204,3.32,
4.132,4.188,3.32,
4.148,4.204,3.4,
4.132,4.188,3.36,
4.148,4.204,3.4,
4.132,4.188,3.36,
4.148,4.204,3.44,
4.148,4.204,3.32,
4.132,4.18,3.44,
4.148,4.188,3.36,
4.124,4.204,3.44,
4.132,4.212,3.36,
4.148,4.124,3.44,
4.172,4.18,3.44,
4.012,4.204,3.32,
4.14,4.18,3.36,
4.108,4.196,3.4,
4.14,4.196,3.36,
4.116,4.18,3.32,
4.14,4.196,3.4,
4.108,4.156,3.32,
4.14,4.148,3.44,
4.092,4.204,3.32,
4.14,3.828,3.36,
4.044,4.364,3.44,
3.308,3.844,3.36,
4.316,4.388,3.44,
3.308,3.828,3.32,
4.332,4.236,3.44,
3.34,4.388,3.44,
4.204,3.908,3.36,
4.332,4.26,3.44,
3.452,3.852,3.36,
4.212,3.844,3.44,
3.372,4.316,3.32,
3.38,4.204,3.32,
4.252,4.18,3.4,
4.148,4.188,3.36,
4.116,4.204,3.44,
4.148,4.188,3.36,
4.124,4.204,3.44,
4.132,4.204,3.32,
4.148,4.18,3.4,
4.148,4.188,3.32,
4.124,4.204,3.4,
4.148,4.204,3.36,
4.124,4.18,3.44,
4.148,4.188,3.4,
4.124,4.22,3.32,
4.132,3.844,3.44,
4.18,4.348,3.36,
3.364,4.372,3.36,
4.3,3.868,3.44,
4.316,3.852,3.44,
3.42,4.332,3.32,
3.404,3.86,3.44,
4.276,4.316,3.32,
4.26,4.364,3.44,
3.404,3.844,3.36,
4.3,4.244,3.36,
3.404,3.852,3.44,
4.196,3.868,3.44,
3.396,4.324,3.32,
3.364,4.26,3.44,
4.276,3.892,3.32,
4.204,4.204,3.36,
3.428,4.18,3.4,
4.124,4.156,3.32,
4.148,4.204,3.44,
4.148,4.18,3.4,
4.084,4.204,0.04,
4.124,4.204,0.08,
4.148,4.18,0.04,
4.124,4.18,0.04,
4.148,4.204,3.4,
4.124,4.188,3.32,
4.148,4.204,3.44,
4.124,4.18,3.36,
4.148,4.204,3.4,
4.124,4.196,3.36,
4.14,4.18,3.36,
4.124,4.204,3.4,
4.148,4.18,3.32,
4.148,4.18,3.44,
4.124,4.204,3.32,
4.124,4.204,3.44,
4.148,4.18,3.32,
4.124,4.204,3.36,
4.148,4.18,3.44,
4.124,4.204,3.32,
4.148,4.18,3.4,
4.124,4.204,3.36,
4.148,4.18,3.4,
4.148,4.18,3.32,
4.124,4.204,3.44,
4.124,4.188,3.36,
4.148,4.204,3.44,
4.124,4.204,3.36,
4.148,4.188,3.4,
4.124,4.204,3.4,
4.148,4.148,3.32,
4.044,4.204,3.44,
4.156,4.156,3.32,
4.148,4.18,3.32,
4.092,4.196,3.44,
4.124,4.204,3.36,
4.148,4.18,3.44,
4.124,4.164,3.36,
4.148,4.204,3.4,
4.1,4.204,3.32,
4.148,4.132,3.44,
4.148,4.18,3.32,
4.028,4.22,3.44,
4.124,3.852,3.44,
4.18,4.364,3.36,
3.396,3.972,3.44,
4.308,4.372,3.32,
3.492,3.868,3.44,
4.316,4.388,3.32,
3.396,3.852,3.36,
4.324,4.252,3.44,
3.396,3.876,3.36,
4.204,4.316,3.44,
3.412,4.204,3.36,
4.26,4.164,3.44,
4.148,4.188,3.32,
4.1,4.204,3.4,
4.124,4.196,3.36,
4.148,4.18,0,
4.148,4.204,0.08,
4.124,4.172,0.04,
4.148,4.204,0.08,
4.108,4.164,0.04,
4.148,4.204,0.08,
4.084,4.18,0,
4.148,4.204,0.08,
4.124,4.18,0,
4.148,4.204,0.08,
4.124,4.164,0.04,
4.092,4.164,0.08,
4.164,4.204,0,
4.1,4.204,0.08,
4.148,4.18,0,
4.148,4.148,0.04,
4.124,4.204,3.4,
4.044,4.188,3.36,
4.148,4.204,3.32,
4.148,4.204,3.4,
4.124,4.18,3.32,
4.148,4.204,3.4,
4.124,4.18,3.32,
4.148,4.204,3.44,
4.124,4.18,3.32,
4.124,4.204,3.36,
4.148,4.18,3.4,
4.148,4.204,3.36,
4.124,4.18,3.36,
4.124,4.18,3.4,
4.148,4.204,3.32,
4.124,4.204,3.32,
4.148,4.18,3.4,
4.148,4.18,3.36,
4.124,4.204,3.32,
4.148,4.204,3.44,
4.124,4.18,3.32,
4.148,4.18,3.32,
4.124,4.204,3.44,
4.124,4.204,3.36,
4.148,4.164,3.44,
4.148,4.204,3.36,
4.092,4.172,3.4,
4.148,4.18,3.36,
4.1,4.204,3.4,
4.148,4.18,3.36,
4.124,4.204,3.44,
4.116,4.18,3.32,
4.148,4.204,3.4,
4.148,4.18,3.44,
4.124,4.204,3.32,
4.148,4.204,3.4,
4.124,4.14,3.36,
4.052,4.204,3.36,
4.156,4.18,3.4,
4.148,4.18,3.36,
4.124,4.204,3.44,
4.124,4.188,3.32,
4.148,4.204,3.36,
4.148,4.204,3.36,
4.124,4.18,3.4,
4.124,3.852,3.36,
4.148,4.364,3.44,
3.388,3.892,3.36,
4.308,4.372,3.44,
3.42,4.372,3.44,
4.316,3.876,3.32,
4.324,4.316,3.36,
3.428,3.852,3.44,
4.26,4.26,3.36,
3.412,4.164,3.32,
4.204,4.132,3.32,
4.1,4.244,3.4,
4.036,4.236,3.44,
4.212,4.188,3.32,
4.204,4.196,3.36,
4.164,4.22,3.44,
4.188,4.22,3.32,
4.164,4.196,3.4,
4.188,4.22,3.36,
4.164,4.188,3.36,
4.188,4.204,3.36,
4.164,4.188,3.4,
4.164,4.18,3.36,
4.188,4.22,3.32,
4.188,4.22,3.36,
4.132,4.196,3.44,
4.188,4.188,3.4,
4.164,4.22,3.32,
4.188,4.204,3.36,
4.164,4.196,3.36,
4.188,4.204,3.4,
4.164,4.188,0.08,
4.164,4.164,0.08,
4.188,4.22,0.04,
4.188,4.196,0.08,
4.124,4.212,0,
4.164,4.204,0.04,
4.188,4.196,0.08,
4.164,4.204,0.08,
4.188,4.188,0,
4.164,4.204,0.08,
4.188,4.188,0.04,
4.188,4.196,0.04,
4.164,4.212,0.08,
4.188,4.196,0.08,
4.164,4.22,0,
4.164,4.22,0.08,
4.188,4.188,0,
4.188,4.196,0.08,
4.164,4.22,0,
4.164,4.196,0.08,
4.188,4.212,0.04,
4.188,4.204,0.08,
4.164,4.196,0,
4.164,4.188,0.04,
4.188,4.212,0.08,
4.164,4.22,0.08,
4.188,4.196,0.04,
4.188,4.22,0.08,
4.164,4.188,0,
4.188,4.22,0,
4.164,4.188,0.08,
4.188,4.196,0.08,
4.164,4.22,0,
4.164,4.204,0.08,
4.188,4.196,0.04,
4.164,4.22,0.08,
4.188,4.188,0.04,
4.164,4.212,0.04,
4.188,4.18,0.08,
4.188,4.212,0.08,
4.132,4.188,0,
4.188,4.188,0.08,
4.164,4.212,0,
4.164,4.204,0.08,
4.188,4.188,0.04,
4.188,4.22,0.08,
4.164,4.188,0,
4.164,4.196,0.08,
4.188,4.212,0,
4.164,4.212,0.08,
4.188,4.196,0,
4.188,4.212,0.08,
4.164,4.196,0,
4.188,4.196,0.08,
4.164,4.22,0,
4.164,4.212,0.08,
4.188,4.188,0,
4.164,4.188,0.08,
4.188,4.212,0.04,
4.188,4.196,0.08,
4.164,4.22,0.04,
4.188,4.212,0.08,
4.164,4.188,0,
4.164,4.188,0.08,
4.188,4.22,0,
4.164,4.196,0.08,
4.196,4.22,0,
4.188,4.22,0.08,
4.172,4.188,0,
4.188,4.22,0.08,
4.164,4.188,0.04,
4.164,4.22,0.08,
4.188,4.188,0,
4.188,4.22,0.08,
4.164,4.188,0,
4.164,4.204,0.08,
4.188,4.188,0,
4.164,4.196,0.08,
4.188,4.22,0.04,
4.164,4.188,0.04,
4.188,4.22,0.08,
4.164,4.196,0.08,
4.188,4.212,0,
4.164,4.204,0.08,
4.188,4.196,0.04,
4.164,4.212,0.08,
4.188,4.188,0.04,
4.164,4.212,0.08,
4.188,4.188,0.04,
4.164,4.204,0.08,
4.188,4.196,0,
4.164,4.204,0.08,
4.188,4.188,0,
4.188,4.204,0.08,
4.164,4.188,0,
4.164,4.22,0.08,
4.188,4.188,0.04,
4.164,4.196,0.08,
4.188,4.22,0,
4.188,4.22,0.08,
4.164,4.188,0.04,
4.164,4.204,0.04,
4.188,4.188,0.08,
4.188,4.196,0.08,
4.156,4.22,0,
4.164,4.22,0.08,
4.196,4.188,0.04,
4.188,4.196,0.08,
4.172,4.212,0,
4.188,4.188,0.08,
4.164,4.22,0,
4.188,4.22,0.08,
4.164,4.196,0,
4.188,4.204,0.08,
4.164,4.188,0,
4.188,4.196,0.08,
4.164,4.22,0,
4.164,4.22,0.08,
4.188,4.188,0,
4.188,4.212,0.08,
4.164,4.196,0,
4.188,4.22,0.08,
4.164,4.188,0,
4.188,4.212,0.08,
4.164,4.188,0.04,
4.164,4.212,0.08,
4.188,4.188,0.04,
4.188,4.196,0.08,
4.164,4.212,0,
4.188,4.196,0.08,
4.164,4.212,0,
4.164,4.188,0.08,
4.188,4.22,0,
4.188,4.22,0.08,
4.164,4.188,0.04,
4.188,4.204,0.08,
4.164,4.196,0,
4.188,4.196,0.08,
4.164,4.22,0,
4.188,4.196,0.08,
4.164,4.22,0,
4.188,4.212,0.08,
4.164,4.188,0.04,
4.188,4.196,0.08,
4.164,4.22,0,
4.164,4.22,0.08,
4.196,4.196,0,
4.188,4.212,0.08,
4.172,4.196,0,
4.188,4.204,0.08,
4.164,4.196,0,
4.164,4.22,0.04,
4.188,4.188,0.08,
4.164,4.22,0.08,
4.188,4.188,0.04,
4.188,4.196,0.08,
4.164,4.22,0,
4.164,4.188,0.08,
4.188,4.22,0.04,
4.188,4.196,0.08,
4.164,4.212,0.04,
4.164,4.212,0.08,
4.188,4.188,0.04,
4.188,4.196,0.08,
4.164,4.22,0,
4.164,4.22,0.08,
4.188,4.188,0,
4.188,4.212,0.08,
4.164,4.196,0,
4.164,4.196,0.08,
4.188,4.212,0.04,
4.188,4.196,0.04,
4.164,4.212,0.08,
4.164,4.196,0.08,
4.188,4.22,0,
4.164,4.22,0.08,
4.188,4.196,0,
4.188,4.188,0.08,
4.164,4.22,0,
4.188,4.204,0.08,
4.164,4.196,0.04,
4.188,4.212,0.08,
4.164,4.196,0,
4.188,4.196,0.08,
4.164,4.22,0,
4.164,4.22,0.08,
4.196,4.196,0,
4.188,4.22,0.08,
4.172,4.188,0,
4.188,4.204,0.08,
4.164,4.196,0.04,
4.188,4.188,0.08,
4.164,4.22,0.04,
4.164,4.204,0.08,
4.188,4.188,0,
4.188,4.22,0.08,
4.164,4.188,0,
4.188,4.188,0.08,
4.164,4.22,0,
4.164,4.188,0.08,
4.188,4.22,0,
4.164,4.22,0.08,
4.188,4.188,0,
4.164,4.132,0.08,
4.188,4.228,0.04,
4.06,4.22,0.04,
4.204,4.196,0.08,
4.196,4.188,0.08,
4.164,4.22,0,
4.188,4.22,0.08,
4.164,4.188,0,
4.188,4.188,0.08,
4.164,4.22,0,
4.164,4.212,0.08,
4.188,4.188,0.04,
4.164,4.188,0.08,
4.188,4.22,0,
4.164,4.22,0.08,
4.188,4.156,0,
4.1,4.132,0.08,
4.196,4.228,0,
4.052,4.196,0.08,
4.204,4.212,0,
4.164,4.196,0.08,
4.188,4.22,0.04,
4.164,4.196,0.08,
4.188,4.22,0,
4.188,4.188,0.08,
4.164,4.212,0,
4.188,4.196,0.08,
4.164,4.22,0,
4.188,4.188,0.08,
4.164,4.22,0,
4.164,4.196,0.08,
4.188,4.22,0,
4.164,4.22,0.08,
4.188,4.196,0,
4.164,4.204,0.08,
4.188,4.188,0.04,
4.188,4.22,0.08,
4.164,4.188,0,
4.188,4.22,0.08,
4.164,4.196,0,
4.188,4.22,0.08,
4.164,4.196,0.04,
4.164,4.196,0.08,
4.188,4.22,0,
4.188,4.22,0.04,
4.164,4.188,0.08,
4.188,4.188,0.08,
4.164,4.22,0,
4.188,4.196,0.08,
4.164,4.22,0,
4.188,4.22,0.08,
4.164,4.196,0,
4.188,4.196,0.08,
4.164,4.22,0,
4.188,4.196,0.08,
4.164,4.22,0,
4.164,4.188,0.08,
4.188,4.22,0.04,
4.164,4.22,0.08,
4.188,4.196,0,
4.188,4.196,0.08,
4.164,4.22,0.04,
4.188,4.196,0.08,
4.164,4.22,0,
4.172,4.196,0.08,
4.188,4.212,0,
4.188,4.22,0.08,
4.164,4.188,0,
4.188,4.212,0.08,
4.164,4.188,0.04,
4.188,4.212,0.08,
4.164,4.196,0,
4.188,4.188,0.08,
4.164,4.22,0,
4.188,4.22,0.04,
4.164,4.188,0.08,
4.164,4.22,0.08,
4.188,4.188,0,
4.188,4.22,0.08,
4.164,4.188,0.04,
4.188,4.196,0.08,
4.164,4.22,0.04,
4.164,4.196,0.08,
4.188,4.22,0.04,
4.188,4.204,0.08,
4.164,4.196,0.04,
4.164,4.196,0.08,
4.188,4.22,0.04,
4.164,4.212,0,
4.188,4.196,0.08,
4.188,4.22,0.08,
4.164,4.196,0,
4.164,4.188,0.04,
4.188,4.212,0.08,
4.164,4.22,0.08,
4.188,4.188,0.04,
4.188,4.196,0.08,
4.164,4.212,0,
4.188,4.22,0.08,
4.164,4.188,0,
4.188,4.196,0.08,
4.148,4.22,0,
4.164,4.196,0.08,
4.196,4.22,0,
4.188,4.22,0.08,
4.164,4.188,0,
4.188,4.188,0.08,
4.164,4.212,0,
4.164,4.22,0.08,
4.188,4.188,0,
4.164,4.22,0.08,
4.188,4.188,0.04,
4.188,4.196,0.04,
4.164,4.22,0.08,
4.164,4.204,0.08,
4.188,4.196,0.04,
4.188,4.212,0.08,
4.164,4.188,0,
4.188,4.22,0.08,
4.164,4.196,0,
4.164,4.196,0.08,
4.188,4.212,0,
4.164,4.196,0.08,
4.188,4.22,0.04,
4.188,4.196,0.08,
4.164,4.212,0,
4.164,4.22,0,
4.188,4.196,0.08,
4.164,4.196,0.08,
4.188,4.22,0,
4.188,4.22,0.08,
4.164,4.196,0,
4.188,4.22,0.08,
4.164,4.188,0,
4.188,4.156,0.08,
4.164,4.228,0,
4.084,4.22,0.08,
4.196,4.156,0,
4.188,4.188,0.08,
4.084,4.204,0,
4.132,4.204,0.08,
4.148,4.18,0,
4.148,4.156,0.08,
4.124,4.204,0.04,
4.092,4.204,0.08,
4.148,4.164,0,
4.148,4.18,0.04,
4.1,4.228,0.08,
4.124,4.22,0.08,
4.196,4.188,0,
4.164,4.22,0.08,
4.188,4.196,0.04,
4.164,4.188,0.08,
4.188,4.22,0,
4.188,4.212,0.08,
4.164,4.188,0,
4.188,4.22,0.08,
4.164,4.196,0,
4.188,4.196,0.08,
4.164,4.22,0,
4.188,4.196,0.08,
4.164,4.22,0,
4.188,4.22,0.08,
4.164,4.188,0.04,
4.188,4.22,0.08,
4.164,4.196,0.04,
4.188,4.212,0.08,
4.164,4.188,0,
4.164,4.196,0.04,
4.188,4.22,0.08,
4.188,4.212,0.08,
4.164,4.188,0,
4.188,4.22,0.08,
4.164,4.196,0,
4.188,4.204,0.08,
4.164,4.196,0.04,
4.164,4.22,0.08,
4.188,4.196,0,
4.188,4.212,0.08,
4.164,4.188,0,
4.164,4.22,0.08,
4.188,4.188,0,
4.188,4.196,0.08,
4.164,4.22,0,
4.188,4.22,0.08,
4.164,4.188,0.04,
4.196,4.196,0.08,
4.164,4.212,0,
4.188,4.22,0.08,
4.164,4.188,0,
4.188,4.22,0.08,
4.164,4.196,0,
4.164,4.22,0.08,
4.188,4.196,0.04,
4.164,4.188,0.08,
4.188,4.22,0,
4.164,4.204,0.08,
4.188,4.196,0,
4.164,4.212,0.08,
4.188,4.188,0,
4.188,4.22,0.08,
4.156,4.188,0,
4.188,4.196,0.08,
4.164,4.22,0.04,
4.188,4.196,0.08,
4.164,4.22,0.04,
4.164,4.22,0.08,
4.188,4.188,0.04,
4.188,4.22,0.08,
4.164,4.188,0.04,
4.164,4.196,0.08,
4.188,4.22,0.04,
4.188,4.188,0.08,
4.164,4.22,0,
4.164,4.196,0.08,
4.188,4.22,0.04,
4.188,4.188,0.08,
4.164,4.22,0,
4.164,4.212,0.08,
4.188,4.188,0,
4.188,4.188,0.08,
4.164,4.212,0,
4.164,4.188,0.08,
4.196,4.22,0,
4.188,4.22,0.08,
4.164,4.188,0.04,
4.188,4.22,0.08,
4.164,4.188,0.04,
4.164,4.22,0.08,
4.188,4.188,0,
4.164,4.22,0.08,
4.188,4.196,0,
4.164,4.22,0.08,
4.188,4.196,0,
4.188,4.188,0.08,
4.164,4.22,0,
4.164,4.204,0.08,
4.188,4.188,0,
4.188,4.22,0.08,
4.164,4.188,0.04,
4.188,4.22,0.08,
4.164,4.188,0.04,
4.188,4.212,0.08,
4.164,4.196,0.04,
4.164,4.204,0.08,
4.188,4.188,0.04,
4.188,4.212,0.08,
4.164,4.188,0.04,
4.188,4.196,0.08,
4.164,4.22,0,
4.164,4.212,0.08,
4.188,4.188,0,
4.188,4.196,0.08,
4.164,4.22,0,
4.188,4.22,0.08,
4.164,4.188,0,
4.188,4.204,0.08,
4.164,4.196,0,
4.188,4.212,0.08,
4.164,4.196,0,
4.164,4.196,0.08,
4.188,4.22,0,
4.164,4.196,0.08,
4.196,4.22,0,
4.196,4.22,0.08,
4.164,4.188,0,
4.188,4.22,0.08,
4.164,4.188,0,
4.188,4.22,0.08,
4.164,4.188,0,
4.164,4.188,0.08,
4.188,4.212,0,
4.188,4.204,0.08,
4.164,4.196,0,
4.164,4.212,0.08,
4.188,4.196,0,
4.164,4.204,0.08,
4.188,4.188,0,
4.188,4.196,0.08,
4.164,4.212,0,
4.164,4.196,0,
4.188,4.22,0.08,
4.188,4.22,0.08,
4.164,4.188,0.04,
4.164,4.22,0.08,
4.188,4.188,0,
4.188,4.196,0.08,
4.164,4.22,0,
4.164,4.212,0.08,
4.188,4.188,0,
4.188,4.204,0.08,
4.164,4.196,0.04,
4.188,4.22,0.08,
4.164,4.188,0,
4.188,4.188,0.08,
4.164,4.22,0,
4.164,4.188,0.08,
4.188,4.212,0,
4.188,4.188,0.04,
4.164,4.212,0.08,
4.164,4.22,0.08,
4.188,4.196,0,
4.164,4.22,0.08,
4.196,4.188,0,
4.188,4.22,0,
4.164,4.196,0.08,
4.188,4.22,0.08,
4.164,4.188,0,
4.164,4.212,0.08,
4.188,4.188,0,
4.188,4.196,0.08,
4.164,4.22,0,
4.188,4.212,0.08,
4.164,4.196,0.04,
4.188,4.212,0.08,
4.164,4.196,0,
4.188,4.196,0.08,
4.164,4.212,0.04,
4.188,4.196,0.08,
4.164,4.212,0,
4.188,4.22,0.08,
4.164,4.188,0.04,
4.188,4.212,0.08,
4.164,4.188,0,
4.188,4.196,0.08,
4.164,4.22,0.04,
4.164,4.22,0.08,
4.188,4.188,0.04,
4.188,4.196,0.08,
4.164,4.212,0,
4.164,4.188,0.08,
4.188,4.212,0,
4.164,4.204,0.04,
4.188,4.196,0.08,
4.188,4.196,0.08,
4.164,4.22,0,
4.188,4.204,0.08,
4.164,4.188,0.04,
4.188,4.196,0.08,
4.156,4.22,0.04,
4.164,4.196,0.08,
4.188,4.22,0.04,
4.164,4.22,0.08,
4.196,4.196,0,
4.188,4.22,0.08,
4.164,4.188,0,
4.188,4.188,0.08,
4.164,4.22,0,
4.164,4.188,0.08,
4.188,4.22,0.04,
4.188,4.196,0.08,
4.164,4.22,0,
4.164,4.196,0.08,
4.188,4.212,0,
4.188,4.196,0.08,
4.164,4.22,0,
4.188,4.212,0.08,
4.164,4.188,0.04,
4.188,4.22,0.08,
4.164,4.188,0,
4.164,4.196,0.08,
4.188,4.22,0.04,
4.188,4.22,0.08,
4.164,4.188,0,
4.164,4.204,0.08,
4.188,4.188,0,
4.164,4.22,0.08,
4.188,4.188,0.04,
4.188,4.196,0.08,
4.164,4.22,0,
4.188,4.22,0.04,
4.164,4.196,0.08,
4.164,4.196,0.08,
4.188,4.22,0.04,
4.188,4.22,0.08,
4.164,4.188,0.04,
4.164,4.22,0.08,
4.188,4.188,0.04,
4.188,4.22,0.08,
4.164,4.188,0,
4.188,4.188,0.08,
4.164,4.22,0,
4.164,4.22,0.08,
4.196,4.188,0,
4.196,4.196,0.08,
4.164,4.22,0,
4.188,4.196,0.08,
4.164,4.212,0.04,
4.164,4.204,0.08,
4.188,4.196,0,
4.188,4.22,0.08,
4.164,4.188,0,
4.188,4.196,0.04,
4.164,4.212,0.08,
4.188,4.188,0.08,
4.164,4.212,0,
4.188,4.196,0.08,
4.164,4.212,0,
4.188,4.22,0.08,
4.164,4.188,0,
4.188,4.196,0.08,
4.148,4.212,0.04,
4.188,4.196,0.08,
4.164,4.22,0,
4.188,4.196,0.08,
4.164,4.22,0,
4.188,4.22,0.08,
4.164,4.188,0.04,
4.188,4.196,0.08,
4.164,4.22,0.04,
4.188,4.196,0.08,
4.164,4.212,0.04,
