Measurements/Power Reception/Metingen 3/Meting met pin 1 -113 -119 130 -5.csv

CH1,CH2,CH3,Start,Increment,
Volt,Volt,Volt,-29.975,0.05
4.14,4.196,0,
4.124,4.18,0.24,
4.14,4.18,0.2,
4.108,4.196,0,
4.124,4.18,0.12,
4.14,4.196,-0.08,
4.14,4.196,0,
4.108,4.164,0.16,
4.14,4.196,0.16,
4.124,4.18,0,
4.14,4.196,0.32,
4.108,4.18,-0.24,
4.124,4.18,-0.08,
4.14,4.196,0.16,
4.14,4.18,0.36,
4.108,4.196,-0.08,
4.14,4.18,-0.2,
4.124,4.196,0.64,
4.14,4.18,-0.12,
4.116,4.196,0.6,
4.124,4.18,-0.08,
4.14,4.196,0.6,
4.124,4.196,0.68,
4.14,4.18,0.08,
4.14,4.18,0.76,
4.124,4.196,-0.04,
4.14,4.18,-0.12,
4.108,4.196,0.92,
4.14,4.196,-0.08,
4.124,4.18,0.84,
4.14,4.196,0,
4.124,4.18,2.92,
4.14,4.196,0.32,
4.124,4.18,3,
4.124,4.196,0.28,
4.14,4.18,3.16,
4.14,4.196,0.36,
4.124,4.18,3,
4.124,4.18,0.2,
4.14,4.196,3.16,
4.14,4.196,3,
4.124,4.18,0.16,
4.14,4.196,0.92,
4.108,4.164,0.08,
4.14,4.196,1.04,
4.116,4.172,0.04,
4.14,4.196,0.2,
4.108,4.172,0.04,
4.14,4.196,0.08,
4.124,4.18,0,
4.14,4.18,0,
4.116,4.196,0.08,
4.14,4.18,0.08,
4.124,4.196,0,
4.14,4.18,0.08,
4.124,4.196,0,
4.14,4.18,0.08,
4.124,4.196,-0.04,
4.14,4.196,-0.04,
4.124,4.164,0.08,
4.14,4.196,0.08,
4.108,4.164,0,
4.14,4.196,0.08,
4.124,4.18,0,
4.124,4.18,0.08,
4.14,4.196,0,
4.14,4.18,0.08,
4.124,4.196,0,
4.14,4.18,0.08,
4.124,4.196,0,
4.14,4.18,0.08,
4.124,4.196,0,
4.14,4.196,0.08,
4.124,4.172,0,
4.14,4.196,0.08,
4.108,4.164,0,
4.124,4.18,0,
4.14,4.196,0.08,
4.14,4.18,0.08,
4.124,4.196,0,
4.14,4.18,0.08,
4.124,4.196,0,
4.14,4.196,0.08,
4.108,4.172,0,
4.14,4.18,0.08,
4.116,4.196,0,
4.14,4.18,0.08,
4.124,4.196,0,
4.124,4.196,0.08,
4.14,4.164,0,
4.14,4.196,0,
4.108,4.18,0.08,
4.14,4.196,0.08,
4.124,4.18,0,
4.14,4.196,0.08,
4.116,4.18,0,
4.14,4.18,0.08,
4.116,4.196,0,
4.14,4.196,0,
4.116,4.172,0.08,
4.14,4.18,0,
4.124,4.196,0.08,
4.124,4.18,0.08,
4.14,4.196,0,
4.124,4.18,0,
4.14,4.196,0.08,
4.14,4.18,0.08,
4.116,4.196,0,
4.124,4.196,0,
4.14,4.18,0.08,
4.14,4.196,0.08,
4.124,4.18,0,
4.14,4.18,0.08,
4.124,4.196,0,
4.14,4.196,0,
4.124,4.18,0.08,
4.14,4.18,0.08,
4.124,4.196,0,
4.14,4.18,0.08,
4.124,4.196,0,
4.14,4.18,0.08,
4.124,4.196,0,
4.14,4.196,0.08,
4.116,4.18,0,
4.108,4.164,0.08,
4.14,4.196,0,
4.14,4.18,0,
4.124,4.196,0.08,
4.148,4.196,0,
4.124,4.18,0.08,
4.14,4.18,0.08,
4.124,4.196,0,
4.14,4.18,0.08,
4.124,4.196,0,
4.14,4.196,0.08,
4.116,4.172,0,
4.124,4.196,0,
4.14,4.164,0.08,
4.124,4.18,0.08,
4.14,4.196,0,
4.124,4.196,0.08,
4.14,4.18,0,
4.14,4.18,0.08,
4.124,4.196,0,
4.14,4.196,0.08,
4.124,4.164,0,
4.14,4.18,0,
4.124,4.196,0.08,
4.14,4.18,0.08,
4.124,4.196,0,
4.14,4.196,0,
4.124,4.18,0.08,
4.14,4.18,0,
4.124,4.196,0.08,
4.14,4.18,0.08,
4.124,4.196,0,
4.14,4.196,0.08,
4.124,4.18,0,
4.14,4.18,0.08,
4.124,4.196,0,
4.14,4.18,0.08,
4.124,4.196,0,
4.14,4.196,0,
4.124,4.164,0.08,
4.14,4.18,0.08,
4.116,4.196,0,
4.14,4.196,0.08,
4.116,4.18,0,
4.14,4.196,0.08,
4.124,4.18,0,
4.14,4.196,0.08,
4.124,4.18,0,
4.14,4.196,0,
4.124,4.18,0.16,
4.14,4.196,0.08,
4.116,4.172,0,
4.14,4.18,0.08,
4.124,4.196,0,
4.14,4.196,0,
4.108,4.18,0.08,
4.14,4.18,0.08,
4.124,4.196,0,
4.124,4.18,0,
4.14,4.196,0.08,
4.14,4.18,0.08,
4.124,4.196,0,
4.124,4.18,0,
4.14,4.196,0.08,
4.14,4.18,0.08,
4.124,4.196,0,
4.14,4.196,0,
4.124,4.18,0.08,
4.14,4.196,0,
4.116,4.18,0.08,
4.14,4.196,0.08,
4.116,4.18,0,
4.124,4.18,0,
4.14,4.196,0.08,
4.14,4.18,0.08,
4.124,4.196,0,
4.124,4.18,0,
4.14,4.196,0.12,
4.14,4.196,0,
4.116,4.172,0.08,
4.14,4.164,0.08,
4.108,4.196,0,
4.14,4.196,0.08,
4.116,4.18,0,
4.14,4.196,0.08,
4.124,4.18,0,
4.14,4.196,0,
4.124,4.172,0.08,
4.14,4.18,0.08,
4.124,4.196,0,
4.14,4.196,0.08,
4.124,4.18,0,
4.14,4.18,0.08,
4.116,4.196,0,
4.14,4.196,0.08,
4.108,4.18,0,
4.14,4.196,0,
4.124,4.18,0.08,
4.14,4.196,0.08,
4.108,4.18,0,
4.14,4.18,0,
4.116,4.196,0.08,
4.14,4.196,0.08,
4.108,4.18,0,
4.14,4.196,0.08,
4.124,4.18,0,
4.14,4.196,0.08,
4.124,4.18,0,
4.14,4.196,0,
4.108,4.164,0.08,
4.14,4.18,0.08,
4.124,4.196,0,
4.124,4.196,0.08,
4.14,4.164,0,
4.14,4.18,0.08,
4.124,4.196,0,
4.14,4.196,0.08,
4.108,4.18,0,
4.124,4.196,0.08,
4.14,4.172,0,
4.14,4.18,0.08,
4.108,4.196,-0.04,
4.14,4.196,0.08,
4.108,4.164,0,
4.14,4.196,0.08,
4.116,4.18,0,
4.14,4.18,0.12,
4.124,4.196,-0.08,
4.108,4.18,0.12,
4.14,4.196,-0.04,
4.14,4.196,0.12,
4.116,4.172,-0.08,
4.14,4.18,0,
4.124,4.196,0.12,
4.14,4.164,-0.04,
4.116,4.196,0.16,
4.124,4.18,-0.04,
4.14,4.196,0.12,
4.14,4.18,-0.04,
4.108,4.196,0.2,
4.14,4.18,-0.04,
4.124,4.196,0.2,
4.124,4.18,-0.04,
4.14,4.196,0.2,
4.14,4.196,-0.04,
4.124,4.18,0.28,
4.14,4.18,-0.04,
4.124,4.196,0.24,
4.14,4.18,0,
4.124,4.196,0.08,
4.14,4.196,0.08,
4.092,4.172,0,
4.14,4.196,0.08,
4.124,4.18,0,
4.14,4.18,-0.04,
4.116,4.196,2.52,
4.14,4.196,2.52,
4.124,4.18,-0.04,
4.124,4.196,0,
4.14,4.172,1,
4.116,4.196,0,
4.14,4.18,0.08,
4.14,4.18,0,
4.116,4.196,2.24,
4.14,4.18,0.08,
4.124,4.196,0,
4.14,4.196,0.08,
4.108,4.18,0,
4.124,4.18,0.08,
4.14,4.196,0,
4.124,4.196,0.08,
4.14,4.18,0,
4.124,4.18,0.08,
4.14,4.196,0,
4.14,4.196,0.08,
4.116,4.18,0,
3.26,3.716,0.08,
4.204,4.26,0,
4.148,4.196,0,
4.116,4.18,0.08,
4.076,4.148,0.08,
4.204,4.228,0,
4.188,4.204,0.08,
4.164,4.188,0,
4.164,4.188,0.08,
4.188,4.204,0,
4.188,4.204,0,
4.164,4.188,0.08,
4.188,4.204,0.08,
4.164,4.188,0,
4.188,4.204,0.08,
4.164,4.188,0,
4.164,4.204,0.08,
4.188,4.188,0,
4.188,4.204,0.08,
4.164,4.188,0,
4.164,4.188,0.08,
4.188,4.204,0,
4.164,4.204,0.08,
4.188,4.188,0,
4.164,4.188,0.08,
4.188,4.204,0,
4.164,4.188,0,
4.188,4.204,0.08,
4.164,4.204,0.08,
4.188,4.188,0,
4.188,4.204,0.08,
4.164,4.188,0,
4.188,4.204,0,
4.164,4.188,0.08,
4.164,4.188,0.08,
4.188,4.204,0,
4.164,4.188,0.08,
4.188,4.204,0,
4.164,4.188,0.08,
4.188,4.204,0,
4.084,4.148,0,
4.196,4.22,0.08,
4.18,4.196,0.08,
4.092,4.156,0,
4.124,4.196,0,
4.148,4.18,0.08,
4.124,4.18,0.08,
4.196,4.22,0,
4.164,4.204,0.08,
4.188,4.188,0,
4.164,4.204,0.08,
4.188,4.188,0,
4.076,4.148,0.08,
4.196,4.22,0,
4.084,4.14,0.08,
4.188,4.212,0,
4.092,4.156,0.08,
4.196,4.228,0,
4.164,4.204,0.08,
4.188,4.188,0,
4.188,4.204,0.08,
4.164,4.188,0,
4.164,4.204,0.08,
4.188,4.188,0,
4.164,4.188,0.08,
4.188,4.204,0,
4.164,4.188,0,
4.188,4.204,0.08,
4.188,4.204,0.08,
4.164,4.188,0,
4.164,4.188,0.08,
4.188,4.204,0,
4.188,4.212,0.08,
4.084,4.148,0,
4.196,4.22,0.08,
4.092,4.156,0,
4.148,4.188,0.08,
4.196,4.22,0,
4.164,4.204,0.08,
4.188,4.188,0,
4.164,4.204,0.08,
4.188,4.188,0,
4.164,4.204,0.08,
4.188,4.188,0,
4.164,4.204,0.08,
4.188,4.188,0,
4.164,4.204,0.08,
4.188,4.188,0,
4.164,4.188,0.08,
4.188,4.204,0,
4.188,4.204,0.08,
4.156,4.188,0,
4.188,4.14,0.08,
4.092,4.22,0,
4.124,4.212,0.08,
4.18,4.164,0,
4.14,4.196,0,
4.092,4.156,0.08,
4.092,4.156,0.08,
4.14,4.196,0,
4.148,4.156,0.08,
4.092,4.204,0,
4.148,4.196,0.08,
4.124,4.18,0,
4.116,4.18,0.08,
4.196,4.22,0,
4.164,4.204,0.08,
4.188,4.188,0,
4.188,4.204,0.08,
4.164,4.188,0,
4.188,4.188,0.08,
4.164,4.204,0,
4.188,4.204,0.08,
4.164,4.188,0,
4.188,4.204,0.08,
4.164,4.188,0,
4.164,4.204,0.08,
4.188,4.188,0,
4.188,4.204,0.08,
4.164,4.188,0,
4.164,4.204,0.08,
4.188,4.188,0,
4.188,4.204,0.08,
4.164,4.188,0,
4.188,4.204,0,
4.164,4.188,0.08,
4.188,4.204,0,
4.164,4.188,0.08,
4.164,4.188,0.08,
4.188,4.22,0,
4.164,4.188,0.08,
4.188,4.204,0,
4.164,4.188,0.08,
4.188,4.204,0,
4.188,4.204,0,
4.164,4.188,0.08,
4.164,4.204,0.08,
4.188,4.188,0,
4.188,4.204,0.08,
4.164,4.188,0,
4.164,4.204,0.08,
4.188,4.188,0,
4.188,4.204,0.08,
4.14,4.188,0,
4.076,4.14,0.08,
4.18,4.204,0,
4.18,4.22,0.08,
4.116,4.164,0,
4.148,4.196,0.08,
4.108,4.172,0,
4.124,4.18,0,
4.196,4.22,0.08,
4.204,4.228,0.08,
4.164,4.188,0,
4.164,4.204,0.08,
4.188,4.188,0,
4.188,4.204,0.08,
4.164,4.188,0,
4.188,4.204,0.08,
4.164,4.188,0,
4.164,4.204,0.08,
4.188,4.188,0,
4.156,4.204,0.08,
4.188,4.188,0,
4.164,4.204,0.08,
4.188,4.188,0,
4.164,4.188,0.08,
4.188,4.204,0,
4.164,4.188,0.08,
4.188,4.22,0,
4.164,4.204,0.08,
4.188,4.188,0,
4.164,4.204,0.08,
4.188,4.188,0,
4.188,4.18,0.08,
4.132,4.212,0,
4.188,4.22,0.08,
4.164,4.188,0,
4.188,4.204,0.08,
2.7,2.7,0,
2.7,2.7,0.08,
2.7,2.7,0,
2.7,2.7,0.08,
2.7,2.7,0,
2.7,2.7,0.08,
2.7,2.7,0,
2.7,2.7,0.08,
2.7,2.7,0,
2.7,2.7,0,
2.7,2.7,0.08,
2.7,2.7,0.08,
2.7,2.7,0,
2.7,2.7,0.08,
2.7,2.7,0,
2.7,2.7,0.08,
2.7,2.7,0,
2.7,2.7,0,
2.7,2.7,0.08,
2.7,2.7,0,
2.7,2.7,0.08,
2.7,2.7,0.08,
2.7,2.7,0,
2.7,2.7,0.08,
4.132,4.14,0,
4.14,4.132,0.08,
4.204,4.212,0,
4.204,4.196,0,
4.188,4.22,0.08,
4.204,4.204,0.08,
4.188,4.22,0,
4.204,4.22,0.08,
4.188,4.196,0,
4.204,4.22,0.08,
4.188,4.196,0,
4.204,4.22,0.08,
4.188,4.196,0,
4.204,4.196,0.08,
4.188,4.22,0,
4.204,4.22,0,
4.188,4.196,0.08,
4.204,4.22,0,
4.188,4.196,0.08,
4.204,4.196,0.08,
4.196,4.22,0,
4.204,4.22,0.08,
4.188,4.196,0,
4.204,4.196,0.08,
4.196,4.22,0,
4.204,4.22,0,
4.196,4.196,0.08,
4.196,4.22,0.08,
4.22,4.196,0,
4.204,4.196,0,
4.196,4.22,0.08,
4.204,4.22,0,
4.188,4.196,3.36,
4.212,4.204,3.32,
4.188,4.22,3.44,
4.204,4.22,3.36,
4.108,4.156,3.44,
4.124,4.164,3.44,
4.148,4.196,3.36,
4.132,4.18,3.44,
4.164,4.204,3.32,
4.14,4.204,3.32,
4.164,4.18,3.44,
4.164,4.204,3.36,
4.132,4.18,3.44,
4.124,4.18,3.36,
4.164,4.204,3.44,
4.124,4.236,3.32,
4.228,4.164,3.44,
4.172,4.156,3.36,
4.116,4.204,3.44,
4.132,4.18,3.36,
4.164,4.204,3.4,
4.164,4.204,3.4,
4.14,4.18,3.32,
4.228,4.244,3.32,
4.108,4.156,3.44,
4.124,4.18,3.36,
4.148,4.196,3.44,
4.132,4.204,3.44,
4.164,4.18,3.32,
4.164,4.18,3.44,
4.14,4.204,3.32,
4.164,4.18,3.4,
4.124,4.204,3.36,
4.164,4.164,3.36,
4.124,4.204,3.44,
4.124,4.18,3.32,
4.164,4.204,3.44,
4.124,4.196,3.36,
4.148,4.18,3.44,
4.14,4.18,3.36,
4.124,4.196,3.44,
4.124,4.18,3.32,
4.14,4.196,3.4,
4.124,4.196,3.44,
4.14,4.18,3.32,
4.124,4.196,3.36,
4.14,4.18,3.44,
4.14,4.18,3.36,
4.124,4.196,3.44,
4.124,4.196,3.32,
4.14,4.18,3.44,
4.14,4.196,3.36,
4.124,4.18,3.44,
4.124,4.196,3.36,
4.14,4.18,3.44,
4.124,4.196,3.32,
4.14,4.18,3.44,
4.124,4.18,3.44,
4.14,4.196,3.32,
4.124,4.18,3.36,
4.14,4.196,3.44,
4.124,4.196,3.4,
4.14,4.18,3.32,
4.124,4.196,3.44,
4.14,4.164,3.32,
4.124,4.18,3.36,
4.14,4.196,3.44,
4.124,4.196,3.36,
4.14,4.18,3.4,
4.124,4.18,3.44,
4.14,4.196,3.32,
4.124,4.18,3.36,
4.14,4.196,3.44,
4.044,4.132,3.44,
4.148,4.204,3.32,
4.14,4.18,3.44,
4.124,4.196,3.32,
4.14,4.196,3.32,
4.124,4.18,3.44,
4.124,4.18,3.36,
4.14,4.196,3.44,
4.124,4.18,3.36,
4.14,4.196,3.44,
4.124,4.196,3.32,
4.14,4.172,3.44,
4.124,4.18,3.36,
4.14,4.196,3.44,
4.044,4.132,3.36,
4.156,4.212,3.44,
4.172,4.212,3.44,
4.124,4.18,3.32,
4.124,4.18,3.36,
4.14,4.196,3.44,
4.124,4.18,3.36,
4.14,4.196,3.44,
4.14,4.196,3.44,
4.108,4.164,3.32,
4.124,4.18,3.32,
4.164,4.204,3.44,
4.164,4.204,3.44,
4.02,4.108,3.32,
4.084,4.164,3.36,
4.124,4.196,3.4,
4.116,4.188,3.44,
4.092,4.164,3.36,
4.156,4.212,3.36,
4.012,4.14,3.44,
4.052,4.156,3.36,
4.14,4.196,3.44,
4.124,4.164,3.36,
4.092,4.196,3.44,
4.036,4.148,3.32,
4.116,4.196,3.4,
4.116,4.148,3.36,
4.036,4.196,3.4,
4.052,4.156,3.36,
4.116,4.188,3.44,
4.116,4.188,3.44,
4.06,4.156,3.32,
4.108,4.188,3.36,
3.996,4.14,3.44,
4.004,4.132,3.36,
4.116,4.196,3.44,
3.988,4.132,3.44,
4.14,4.204,3.32,
4.06,4.156,3.44,
4.14,4.204,3.32,
4.1,4.164,3.36,
4.148,4.204,3.44,
4.14,4.196,3.36,
4.004,4.116,3.44,
4.036,4.148,3.44,
4.14,4.204,3.32,
4.044,4.14,1.72,
4.132,4.204,0,
4.14,4.204,0.08,
4.044,4.148,0,
4.052,4.156,0.08,
4.172,4.228,0,
4.148,4.204,0.08,
4.02,4.124,0,
4.14,4.196,0.08,
4.044,4.14,0,
4.012,4.14,0.08,
4.172,4.228,0,
4.076,4.156,0,
4.196,4.228,3.36,
4.092,4.156,3.4,
4.18,4.212,3.32,
4.188,4.22,3.36,
4.124,4.164,3.44,
4.172,4.204,3.4,
4.1,4.156,3.32,
4.124,4.18,3.36,
4.14,4.196,3.44,
4.124,4.18,3.36,
4.14,4.196,3.44,
4.124,4.196,3.44,
4.14,4.18,3.32,
4.124,4.196,3.32,
4.14,4.18,3.44,
4.172,4.204,3.36,
4.108,4.164,3.44,
4.108,4.164,3.44,
4.196,4.228,3.32,
4.124,4.164,3.36,
4.188,4.22,3.44,
4.18,4.22,3.36,
4.092,4.156,3.44,
4.14,4.196,3.36,
4.092,4.156,3.44,
4.14,4.196,3.44,
4.108,4.18,3.32,
4.124,4.18,3.36,
4.14,4.204,3.44,
4.14,4.196,3.36,
4.124,4.18,3.4,
4.124,4.18,3.44,
4.172,4.212,3.32,
4.092,4.156,3.44,
4.156,4.204,3.32,
4.108,4.172,3.36,
4.188,4.22,3.44,
4.18,4.22,3.36,
4.124,4.172,3.44,
4.188,4.18,3.32,
4.124,4.22,3.44,
4.188,4.212,3.44,
4.084,4.156,3.32,
4.14,4.196,3.4,
4.124,4.18,3.36,
4.14,4.18,3.44,
4.124,4.196,3.32,
4.14,4.18,3.32,
4.124,4.196,3.44,
4.124,4.196,3.36,
4.14,4.18,3.44,
4.124,4.204,3.36,
4.172,4.172,3.44,
4.092,4.156,3.44,
4.156,4.204,3.32,
4.18,4.22,3.36,
4.124,4.164,3.44,
4.124,4.22,3.32,
4.188,4.172,3.44,
4.188,4.212,3.44,
4.1,4.172,3.32,
4.14,4.18,3.32,
4.124,4.204,3.4,
4.14,4.196,3.36,
4.124,4.18,3.44,
4.124,4.18,3.4,
4.14,4.196,3.36,
4.14,4.196,3.4,
4.116,4.18,3.32,
4.172,4.204,3.44,
4.1,4.156,3.32,
4.108,4.172,3.36,
4.18,4.204,3.44,
4.188,4.22,3.4,
4.124,4.172,3.32,
4.028,4.124,3.36,
4.196,4.22,3.44,
4.124,4.18,3.36,
4.172,4.204,3.4,
4.132,4.18,3.44,
4.148,4.196,3.32,
4.132,4.18,3.44,
4.148,4.196,3.32,
4.132,4.196,3.36,
4.148,4.18,3.44,
4.148,4.204,3.44,
4.012,4.124,3.32,
4.132,4.18,3.32,
4.108,4.196,3.44,
4.108,4.196,3.36,
4.132,4.172,3.44,
4.108,4.172,3.36,
4.132,4.196,3.4,
4.108,4.196,3.44,
4.132,4.172,3.32,
4.172,4.204,3.32,
3.268,3.764,3.44,
4.268,4.332,3.36,
3.244,3.748,3.44,
3.268,3.772,3.44,
4.316,4.372,3.32,
4.228,4.268,3.32,
3.26,3.732,3.44,
3.276,3.756,3.36,
4.204,4.236,3.44,
4.204,4.26,3.32,
4.092,4.156,3.44,
4.14,4.196,3.32,
4.124,4.164,3.44,
4.18,4.204,3.36,
3.252,3.732,3.44,
4.3,4.356,3.44,
3.268,3.764,3.36,
4.316,4.356,3.36,
3.3,3.764,3.44,
3.292,3.764,3.44,
4.228,4.268,3.32,
3.252,3.724,3.44,
4.228,4.26,3.32,
4.228,4.284,3.36,
3.284,3.748,3.44,
3.26,3.772,3.32,
4.22,4.252,3.44,
4.14,4.196,3.32,
4.124,4.18,3.44,
4.14,4.18,3.44,
4.116,4.196,0,
4.124,4.18,0.08,
4.14,4.196,0,
4.124,4.196,0,
4.14,4.18,3.44,
4.14,4.196,3.36,
4.108,4.172,3.44,
4.14,4.172,3.44,
4.108,4.204,3.32,
3.292,3.764,3.32,
4.236,4.316,3.44,
4.292,3.756,3.32,
3.284,4.364,3.44,
4.236,4.276,3.36,
3.3,3.764,3.44,
4.124,4.196,3.44,
4.14,4.164,3.32,
4.14,4.196,3.36,
4.116,4.164,3.44,
4.124,4.196,3.4,
4.14,4.164,3.32,
4.124,4.196,3.32,
4.14,4.164,3.4,
4.14,4.196,3.32,
4.108,4.164,3.44,
4.124,4.196,3.36,
4.14,4.164,3.44,
4.14,4.18,3.36,
4.108,4.196,3.44,
4.14,4.196,3.44,
4.052,4.124,3.32,
4.044,4.132,3.44,
4.148,4.204,3.32,
4.052,4.196,3.36,
4.148,4.132,3.44,
4.14,4.196,3.44,
4.108,4.164,3.32,
4.116,4.196,3.32,
4.14,4.18,3.44,
4.14,4.196,3.36,
4.076,4.156,3.44,
4.14,4.196,3.44,
4.076,4.148,3.32,
4.14,4.196,3.36,
4.092,4.164,3.44,
4.14,4.196,3.36,
4.1,4.156,3.44,
4.14,4.196,3.32,
4.1,4.172,3.44,
4.14,4.196,3.44,
4.036,4.124,3.32,
4.14,4.196,3.36,
4.028,4.124,3.44,
4.14,4.196,3.44,
4.124,4.18,3.36,
4.14,4.196,3.44,
4.084,4.156,0,
4.14,4.196,0,
4.084,4.156,0.08,
4.14,4.196,0.08,
4.092,4.156,0,
4.14,4.196,0.08,
4.116,4.18,0,
4.14,4.196,0.08,
4.108,4.172,0,
4.14,4.196,0.08,
4.076,4.148,0,
4.14,4.164,0.08,
4.108,4.204,0,
4.124,4.18,0.08,
4.14,4.196,0,
4.124,4.18,0.08,
4.14,4.196,0,
4.14,4.18,0,
4.124,4.196,3.44,
4.14,4.124,3.36,
4.02,4.196,3.4,
4.124,4.196,3.32,
4.14,4.164,3.44,
4.124,4.196,3.32,
4.14,4.164,3.44,
4.124,4.172,3.36,
4.14,4.196,3.44,
4.124,4.196,3.32,
4.14,4.164,3.44,
4.124,4.196,3.36,
4.14,4.164,3.44,
4.14,4.196,3.44,
4.116,4.164,3.32,
4.116,4.18,3.44,
4.14,4.196,3.32,
4.124,4.196,3.36,
4.14,4.164,3.44,
4.14,4.196,3.44,
4.124,4.172,3.32,
4.124,4.196,3.36,
4.14,4.172,3.44,
4.14,4.196,3.32,
4.092,4.156,3.4,
4.14,4.196,3.36,
4.092,4.156,3.44,
4.084,4.156,3.36,
4.14,4.196,3.44,
4.14,4.164,3.44,
4.108,4.196,3.32,
4.14,4.196,3.32,
4.116,4.164,3.44,
4.14,4.18,3.36,
4.108,4.196,3.44,
4.14,4.196,3.36,
4.02,4.124,3.44,
4.18,4.204,3.44,
3.26,3.732,3.32,
4.316,4.356,3.36,
3.308,3.772,3.44,
4.308,4.364,3.36,
3.404,3.844,3.44,
4.18,4.22,3.44,
3.332,3.756,3.32,
3.268,3.74,3.36,
4.188,4.228,3.44,
4.196,4.236,3.44,
3.284,3.756,3.36,
3.276,3.74,3.36,
4.292,4.348,3.44,
4.284,4.34,3.32,
3.308,3.756,3.44,
3.26,3.716,3.36,
4.236,4.292,3.44,
3.324,3.788,3.36,
4.316,4.372,3.44,
3.292,3.756,3.32,
4.196,4.244,3.4,
4.108,4.172,3.44,
4.14,4.196,3.32,
4.124,4.18,3.36,
4.14,4.196,3.44,
3.244,3.716,3.44,
4.252,4.324,3.32,
3.316,3.78,3.44,
4.3,4.364,3.32,
4.316,4.364,3.36,
3.316,3.772,3.44,
4.26,4.308,3.36,
3.268,3.732,3.44,
4.212,4.268,3.32,
3.268,3.732,3.44,
3.268,3.74,3.44,
4.252,4.292,3.36,
4.044,4.132,3.44,
4.22,4.236,0.04,
4.188,4.188,0.08,
4.14,4.22,0,
4.188,4.204,0.08,
4.156,4.188,0.04,
4.164,4.204,0.08,
4.188,4.188,0,
4.164,4.204,0.08,
4.18,4.188,0,
4.164,4.188,0.08,
4.188,4.204,0,
4.164,4.204,0.08,
4.188,4.188,0,
4.164,4.188,0.08,
4.188,4.204,0,
4.164,4.204,0.08,
4.188,4.188,0,
4.164,4.204,0.08,
4.18,4.188,0,
4.164,4.204,0,
4.18,4.188,0.08,
4.164,4.204,0,
4.188,4.188,0.08,
4.164,4.188,0.08,
4.188,4.212,0,
4.164,4.188,0.08,
4.188,4.22,0,
4.188,4.188,0,
4.156,4.212,0.08,
4.164,4.188,0.08,
4.188,4.204,0,
4.164,4.188,0.08,
4.18,4.204,0,
4.164,4.188,0.08,
4.188,4.204,0,
4.18,4.204,0,
4.148,4.18,0.08,
4.18,4.188,0.08,
4.164,4.212,0,
4.164,4.204,0.08,
4.18,4.188,0,
4.164,4.204,0,
4.188,4.188,0.08,
4.164,4.188,0,
4.188,4.22,0.08,
4.164,4.188,0.08,
4.188,4.204,0,
4.164,4.188,0.08,
4.188,4.204,0,
4.188,4.188,0.08,
4.164,4.204,0,
4.164,4.204,0.08,
4.188,4.188,0,
4.164,4.188,0.08,
4.18,4.204,0,
4.164,4.204,0,
4.188,4.188,0.08,
4.164,4.188,0.08,
4.18,4.22,0,
4.156,4.188,0.08,
4.188,4.204,0,
4.164,4.204,0.08,
4.188,4.188,0,
4.164,4.188,0.08,
4.188,4.204,0,
4.164,4.204,0.08,
4.188,4.188,0,
4.164,4.188,0.08,
4.188,4.204,0,
4.164,4.204,0.08,
4.18,4.188,0,
4.164,4.204,0.08,
4.188,4.188,0,
4.164,4.188,0.08,
4.188,4.204,0,
4.18,4.188,0.08,
4.164,4.204,0,
4.164,4.204,0.08,
4.188,4.188,0,
4.164,4.188,0.08,
4.188,4.212,0,
4.164,4.188,0.08,
4.188,4.204,0,
4.164,4.204,0.08,
4.188,4.188,0,
4.188,4.188,0.08,
4.164,4.204,0,
4.164,4.204,0.08,
4.188,4.188,0,
4.188,4.188,0.08,
4.164,4.204,0,
4.164,4.188,0.08,
4.188,4.204,0,
4.164,4.188,0.08,
4.188,4.204,0,
4.164,4.204,0.08,
4.188,4.188,0,
4.164,4.204,0.08,
4.188,4.188,0,
4.028,4.116,0.08,
4.196,4.22,0,
4.188,4.22,0.08,
4.092,4.148,0,
4.124,4.196,0.08,
4.14,4.164,0,
4.124,4.18,0.08,
4.196,4.22,0,
4.188,4.188,0.08,
4.156,4.22,0,
4.164,4.188,0.08,
4.18,4.204,0,
4.164,4.204,0.08,
4.188,4.188,0,
4.164,4.204,0,
4.188,4.188,0.08,
4.164,4.188,0,
4.188,4.22,0.08,
4.164,4.204,0.08,
4.188,4.188,0,
4.164,4.204,0.08,
4.188,4.188,0,
4.164,4.204,0,
4.188,4.188,0.08,
4.156,4.188,0.08,
4.188,4.22,0,
4.188,4.188,0.08,
4.164,4.204,0,
4.164,4.188,0.08,
4.188,4.22,0,
4.164,4.204,0.08,
4.188,4.188,0,
4.164,4.204,0.08,
4.188,4.188,0,
4.164,4.204,0.08,
4.188,4.188,0.04,
4.164,4.188,0.08,
4.188,4.22,0,
4.164,4.204,0.08,
4.188,4.188,0,
4.164,4.188,0.08,
4.188,4.204,0,
4.18,4.204,0.08,
4.164,4.188,0,
4.164,4.188,0.08,
4.188,4.22,0,
4.188,4.188,0.08,
4.164,4.204,0,
4.188,4.204,0.08,
4.156,4.188,0,
4.188,4.188,0.08,
4.164,4.22,0,
4.164,4.204,0,
4.188,4.188,0.08,
4.164,4.188,0.08,
4.18,4.212,0,
4.164,4.204,0.08,
4.188,4.188,0,
4.164,4.188,0.08,
4.188,4.204,0,
4.164,4.204,0.08,
4.188,4.188,0,
4.164,4.204,0.08,
4.18,4.188,0,
4.156,4.188,0.08,
4.188,4.204,0,
4.164,4.188,0.08,
4.188,4.204,0,
4.164,4.204,0.08,
4.188,4.188,0,
4.164,4.188,0.08,
4.188,4.212,0,
4.164,4.204,0.08,
4.188,4.188,0,
4.164,4.204,0.08,
4.188,4.188,0,
4.164,4.188,0.08,
4.188,4.212,0,
4.164,4.204,0.08,
4.188,4.188,0,
4.164,4.204,0.08,
4.188,4.188,0,
4.164,4.204,0.08,
4.18,4.188,0,
4.164,4.188,0,
4.188,4.22,0.08,
4.188,4.188,0.08,
4.164,4.204,0,
4.188,4.204,0.08,
4.156,4.188,0,
4.164,4.188,0,
4.188,4.204,0.08,
4.164,4.188,0,
4.188,4.204,0.08,
4.164,4.188,0.08,
4.188,4.204,0,
4.164,4.188,0.08,
4.188,4.22,0,
4.18,4.204,0.08,
4.164,4.188,0,
4.188,4.204,0.08,
4.14,4.188,0,
4.188,4.204,0.08,
4.164,4.188,0,
4.164,4.188,0.08,
4.188,4.204,0,
4.164,4.204,0.08,
4.188,4.188,0,
4.164,4.204,0.08,
4.188,4.188,0,
4.188,4.204,0.08,
4.148,4.18,0,
4.164,4.188,0.08,
4.188,4.204,0,
4.164,4.188,0.08,
4.188,4.212,0,
4.164,4.188,0.08,
4.188,4.204,0,
4.188,4.204,0.08,
4.164,4.188,0,
4.156,4.204,0.08,
4.188,4.188,0,
4.164,4.188,0.08,
4.188,4.204,0,
4.164,4.204,0.08,
4.188,4.188,0,
4.164,4.188,0.08,
4.188,4.204,0,
4.188,4.188,0.08,
4.156,4.212,0,
4.164,4.204,0.08,
4.188,4.188,0,
4.164,4.204,0.08,
4.188,4.188,0,
4.164,4.18,0.08,
4.188,4.22,0,
4.092,4.148,0,
4.196,4.22,0.08,
4.052,4.14,0.08,
4.204,4.22,0,
4.164,4.22,0.08,
4.188,4.188,0,
4.164,4.188,0,
4.188,4.22,0.08,
