Measurements/Power Reception/Metingen 3/Meting met pin 0 -112 -118 134 -5.csv

CH1,CH2,CH3,Start,Increment,
Volt,Volt,Volt,-29.975,0.05
4.164,4.22,0.08,
4.188,4.196,0,
4.188,4.22,0.08,
4.164,4.196,0,
4.188,4.196,0.08,
4.164,4.22,0,
4.164,4.196,0.08,
4.188,4.22,0,
4.164,4.196,0.08,
4.188,4.22,0,
4.188,4.196,0.08,
4.164,4.22,0,
4.188,4.22,0.08,
4.164,4.196,0,
4.164,4.196,0.08,
4.188,4.22,0,
4.188,4.22,0.08,
4.164,4.188,0,
4.164,4.22,0.08,
4.188,4.196,0,
4.188,4.196,0.08,
4.164,4.22,0,
4.164,4.196,0.08,
4.188,4.22,0,
4.188,4.22,0.08,
4.164,4.188,0,
4.188,4.196,0.08,
4.164,4.22,0,
4.164,4.22,0.08,
4.196,4.196,0,
4.196,4.22,0.08,
4.172,4.188,0,
4.196,4.22,0.08,
4.164,4.196,0,
4.188,4.196,0.08,
4.156,4.22,0,
4.188,4.196,0.08,
4.164,4.22,0,
4.164,4.212,0.08,
4.188,4.196,0,
4.188,4.196,0.08,
4.164,4.22,0,
4.164,4.22,0.08,
4.188,4.196,0,
4.188,4.22,0,
4.164,4.196,0.08,
4.164,4.22,0.08,
4.188,4.196,0,
4.164,4.196,0.08,
4.188,4.22,0,
4.188,4.22,0.08,
4.164,4.196,0,
4.188,4.196,0.08,
4.164,4.22,0,
4.188,4.22,0.08,
4.164,4.196,0,
4.188,4.196,0.08,
4.164,4.22,0,
4.164,4.196,0.08,
4.188,4.22,0,
4.188,4.188,0,
4.164,4.22,0.08,
4.164,4.22,0.08,
4.188,4.196,0,
4.188,4.196,0.08,
4.164,4.22,0,
4.188,4.196,0.08,
4.164,4.22,0,
4.164,4.22,0.08,
4.196,4.196,0,
4.18,4.196,0.08,
4.196,4.22,0,
4.196,4.196,0.08,
4.164,4.22,0,
4.164,4.196,0.08,
4.188,4.22,0,
4.164,4.196,0.08,
4.188,4.22,0,
4.164,4.22,0.08,
4.188,4.196,0,
4.188,4.22,0.08,
4.164,4.196,0,
4.188,4.212,0.08,
4.164,4.188,0,
4.188,4.22,0,
4.164,4.196,0.08,
4.164,4.196,0.08,
4.188,4.22,0,
4.188,4.196,0.08,
4.164,4.22,0,
4.188,4.22,0.08,
4.164,4.196,0,
4.188,4.22,0.08,
4.164,4.196,0,
4.164,4.196,0.08,
4.188,4.22,0,
4.188,4.196,0.08,
4.164,4.22,0,
4.188,4.212,0.08,
4.164,4.196,0,
4.188,4.196,0.08,
4.164,4.22,0,
4.188,4.196,0.08,
4.164,4.22,0,
4.164,4.212,0.08,
4.188,4.188,0,
4.188,4.188,0,
4.164,4.22,0.08,
4.164,4.196,0.08,
4.196,4.22,0,
4.164,4.22,0.08,
4.196,4.188,0,
4.164,4.196,0.08,
4.196,4.22,0,
4.188,4.22,0.08,
4.164,4.196,0,
4.164,4.22,0.08,
4.188,4.196,0,
4.188,4.22,0,
4.164,4.196,0.08,
4.188,4.196,0,
4.164,4.22,0.08,
4.188,4.196,0.08,
4.164,4.22,0,
4.188,4.196,0.08,
4.164,4.22,0,
4.188,4.196,0.08,
4.164,4.22,0,
4.164,4.22,0.08,
4.188,4.196,0,
4.188,4.196,0.08,
4.164,4.22,0,
4.188,4.22,0.08,
4.164,4.196,0,
4.188,4.22,0,
4.164,4.196,0.08,
4.188,4.22,0.08,
4.164,4.188,0,
4.164,4.196,0.08,
4.188,4.22,0,
4.164,4.22,0.08,
4.188,4.196,0,
4.188,4.212,0.08,
4.164,4.188,0,
4.188,4.22,0.08,
4.164,4.196,0,
4.188,4.196,0.08,
4.164,4.22,0,
4.164,4.196,0.08,
4.196,4.22,0,
4.196,4.22,0,
4.164,4.196,0.08,
4.196,4.212,0.08,
4.164,4.196,0,
4.188,4.22,0.08,
4.164,4.188,0,
4.188,4.196,0.08,
4.164,4.22,0,
4.164,4.196,0.08,
4.188,4.22,0,
4.188,4.196,0.08,
4.164,4.22,0,
4.164,4.22,0.08,
4.188,4.196,0,
4.188,4.196,0.08,
4.164,4.22,0,
4.188,4.196,0.08,
4.164,4.22,0,
4.188,4.22,0.08,
4.164,4.196,0,
4.164,4.196,0.08,
4.188,4.22,0,
4.188,4.22,0.08,
4.164,4.196,0,
4.188,4.196,0,
4.164,4.22,0.08,
4.164,4.196,0,
4.188,4.22,0.08,
4.188,4.22,0.08,
4.164,4.196,0,
4.188,4.196,0.08,
4.164,4.22,0,
4.188,4.22,0.08,
4.164,4.196,0,
4.164,4.196,0.08,
4.188,4.22,0,
4.188,4.22,0.08,
4.164,4.196,0,
4.164,4.22,0.08,
4.196,4.196,0,
4.196,4.22,0.08,
4.172,4.188,0,
4.188,4.196,0.08,
4.164,4.22,0,
4.188,4.22,0.08,
4.164,4.196,0,
4.188,4.188,0.08,
4.164,4.212,0,
4.188,4.22,0.08,
4.164,4.196,0,
4.188,4.196,0.08,
4.164,4.22,0,
4.188,4.196,0.08,
4.164,4.22,0,
4.188,4.196,0.08,
4.164,4.22,0,
4.164,4.22,0,
4.188,4.196,0.08,
4.164,4.22,0.08,
4.188,4.196,0,
4.188,4.172,0.08,
4.164,4.228,0,
4.1,4.196,0,
4.204,4.22,0.08,
4.188,4.196,0.08,
4.164,4.22,0,
4.164,4.22,0.08,
4.188,4.196,0,
4.188,4.196,0.08,
4.164,4.22,0,
4.188,4.22,0.08,
4.164,4.188,0,
4.188,4.196,0.08,
4.164,4.22,0,
4.188,4.156,0.08,
4.164,4.228,0,
4.1,4.204,0.08,
4.196,4.156,0.04,
4.18,4.188,0.08,
4.1,4.204,0,
4.148,4.204,0.08,
4.14,4.18,0,
4.164,4.204,0.08,
4.108,4.188,0,
4.156,4.188,0.08,
4.132,4.204,0,
4.148,4.18,0,
4.132,4.228,0.08,
4.132,4.196,0.08,
4.204,4.22,0,
4.164,4.22,0.08,
4.188,4.188,0,
4.188,4.22,0.08,
4.164,4.196,0,
4.164,4.22,0.08,
4.188,4.196,0,
4.164,4.196,0.08,
4.188,4.22,0,
4.164,4.22,0.08,
4.188,4.196,0,
4.188,4.22,0,
4.164,4.196,0.08,
4.164,4.22,0.08,
4.188,4.196,0,
4.164,4.196,0.08,
4.188,4.22,0,
4.188,4.196,0.08,
4.164,4.22,0,
4.164,4.212,0.08,
4.188,4.196,0,
4.188,4.22,0.08,
4.164,4.196,0,
4.188,4.196,0.08,
4.164,4.22,0,
4.164,4.22,0.08,
4.188,4.196,0,
4.188,4.196,0.08,
4.164,4.22,0,
4.164,4.22,0.08,
4.196,4.196,0,
4.196,4.22,0.08,
4.172,4.196,0,
4.196,4.196,0.08,
4.164,4.22,0,
4.164,4.22,0.08,
4.188,4.196,0,
4.164,4.22,0.08,
4.188,4.196,0,
4.188,4.22,0.08,
4.164,4.196,0,
4.188,4.22,0.08,
4.164,4.196,0,
4.188,4.22,0.08,
4.164,4.188,0,
4.188,4.22,0.08,
4.148,4.196,0,
4.188,4.22,0.08,
4.164,4.196,0,
4.188,4.196,0.08,
4.164,4.22,0,
4.188,4.22,0.08,
4.164,4.188,0,
4.164,4.196,0.08,
4.188,4.22,0,
4.188,4.196,0.08,
4.164,4.22,0,
4.188,4.196,0.08,
4.164,4.22,0,
4.164,4.196,0.08,
4.188,4.22,0,
4.164,4.196,0.08,
4.188,4.22,0,
4.164,4.196,0.08,
4.188,4.22,0,
4.188,4.196,0.08,
4.164,4.22,0,
4.188,4.196,0.08,
4.164,4.22,0,
4.164,4.22,0.08,
4.188,4.196,0,
4.196,4.188,0,
4.164,4.22,0.08,
4.196,4.196,0.08,
4.164,4.22,0,
4.188,4.196,0,
4.164,4.22,0.08,
4.188,4.22,0.08,
4.164,4.196,0,
4.188,4.22,0.08,
4.164,4.196,0,
4.164,4.196,0.08,
4.188,4.22,0,
4.164,4.22,0.08,
4.188,4.196,0,
4.188,4.22,0.08,
4.164,4.188,0,
4.164,4.22,0.08,
4.188,4.196,0,
4.188,4.22,0,
4.164,4.196,0.08,
4.188,4.22,0.08,
4.164,4.196,0,
4.164,4.196,0.08,
4.188,4.22,0,
4.188,4.22,0.08,
4.164,4.188,0,
4.188,4.204,0.08,
4.156,4.188,0,
4.164,4.22,0.08,
4.188,4.188,0,
4.18,4.204,0,
4.164,4.188,0.08,
4.164,4.188,0.08,
4.188,4.22,0,
4.164,4.196,0.08,
4.188,4.212,0,
4.164,4.22,0.08,
4.188,4.196,0,
4.164,4.196,0.08,
4.196,4.22,0.04,
4.164,4.22,0.08,
4.188,4.188,0,
4.188,4.196,0.08,
4.164,4.22,0,
4.164,4.196,0.08,
4.188,4.22,0,
4.188,4.22,0.08,
4.164,4.196,0,
4.164,4.196,0.08,
4.188,4.22,0,
4.164,4.196,0.08,
4.188,4.22,0,
4.188,4.196,0.08,
4.164,4.22,0,
4.164,4.196,0.08,
4.188,4.22,0.04,
4.164,4.22,0.08,
4.188,4.196,0,
4.164,4.22,0.08,
4.188,4.196,0,
4.164,4.196,0.08,
4.188,4.22,0,
4.164,4.196,0.08,
4.188,4.22,0,
4.188,4.196,0.08,
4.164,4.22,0,
4.188,4.22,0.08,
4.164,4.196,0,
4.188,4.196,0.08,
4.164,4.22,0,
4.164,4.22,0.08,
4.188,4.196,0,
4.188,4.212,0.08,
4.164,4.188,0,
4.188,4.188,0.08,
4.164,4.22,0.04,
4.188,4.196,0.08,
4.164,4.22,0,
4.164,4.196,0.08,
4.196,4.22,0,
4.196,4.196,0.08,
4.172,4.22,0,
4.196,4.196,0.08,
4.164,4.22,0,
4.164,4.196,0.08,
4.188,4.22,0,
4.188,4.22,0.08,
4.164,4.188,0,
4.164,4.22,0.08,
4.188,4.196,0,
4.188,4.22,0.08,
4.164,4.188,0,
4.188,4.22,0,
4.164,4.188,0.08,
4.164,4.196,0.08,
4.188,4.22,0,
4.188,4.196,0,
4.164,4.22,0.08,
4.188,4.188,0.08,
4.164,4.22,0,
4.188,4.22,0.08,
4.164,4.188,0,
4.188,4.196,0.08,
4.164,4.22,0,
4.188,4.196,0.08,
4.164,4.22,0,
4.188,4.22,0.08,
4.164,4.188,0,
4.188,4.22,0,
4.164,4.196,0.08,
4.188,4.22,0,
4.164,4.188,0.08,
4.188,4.196,0.08,
4.164,4.22,0,
4.18,4.22,0.08,
4.164,4.196,0,
4.188,4.188,0.08,
4.164,4.22,0,
4.164,4.22,0.08,
4.196,4.196,0,
4.196,4.22,0.08,
4.164,4.196,0,
4.196,4.22,0,
4.164,4.188,0.08,
4.188,4.196,0.08,
4.164,4.22,0,
4.188,4.196,0.08,
4.164,4.22,0,
4.188,4.22,0.08,
4.164,4.196,0,
4.188,4.196,0.08,
4.164,4.22,0,
4.188,4.196,0,
4.164,4.22,0.08,
4.164,4.196,0.08,
4.188,4.22,0,
4.188,4.22,0.08,
4.164,4.188,0,
4.188,4.196,0.08,
4.164,4.22,0,
4.164,4.22,0.08,
4.188,4.188,0,
4.188,4.196,0.08,
4.164,4.22,0,
4.164,4.22,0.08,
4.188,4.196,0,
4.188,4.22,0.08,
4.164,4.188,0,
4.164,4.196,0.08,
4.188,4.22,0,
4.188,4.22,0,
4.164,4.196,0.08,
4.164,4.196,0.08,
4.188,4.212,0,
4.164,4.196,0.08,
4.188,4.22,0,
4.188,4.22,0,
4.164,4.188,0.08,
4.172,4.22,0.08,
4.196,4.188,0,
4.196,4.22,0.08,
4.164,4.188,0,
4.196,4.22,0.08,
4.164,4.196,0,
4.188,4.22,0.08,
4.164,4.196,0,
4.164,4.188,0.08,
4.188,4.22,0,
4.188,4.196,0,
4.164,4.22,0.08,
4.188,4.188,0.08,
4.164,4.212,0,
4.188,4.22,0.08,
4.164,4.196,0,
4.164,4.196,0.08,
4.188,4.22,0,
4.188,4.22,0.08,
4.164,4.196,0,
4.164,4.196,0.08,
4.188,4.22,0,
4.188,4.22,0.08,
4.164,4.196,0,
4.188,4.22,0.08,
4.164,4.188,0,
4.188,4.22,0.08,
4.164,4.196,0,
4.188,4.22,0.08,
4.164,4.196,0,
4.188,4.196,0.08,
4.164,4.22,0,
4.164,4.22,0.08,
4.188,4.196,0,
4.164,4.22,0,
4.188,4.188,0.08,
4.164,4.22,0.08,
4.188,4.188,0,
4.164,4.196,0,
4.188,4.22,0.08,
4.164,4.22,0.08,
4.196,4.196,0,
4.196,4.212,0,
4.164,4.188,0.08,
4.196,4.188,0.08,
4.164,4.212,0,
4.164,4.196,0.08,
4.188,4.22,0,
4.164,4.22,0.08,
4.188,4.188,0,
4.188,4.188,0.08,
4.164,4.22,0,
4.164,4.22,0.08,
4.188,4.188,0,
4.188,4.22,0.08,
4.164,4.188,0,
4.164,4.196,0.08,
4.188,4.22,0,
4.164,4.188,0.08,
4.188,4.22,0,
4.188,4.196,0.08,
4.164,4.22,0,
4.164,4.22,0.08,
4.188,4.196,0,
4.188,4.196,0.08,
4.164,4.22,0,
4.164,4.196,0.08,
4.188,4.212,0,
4.188,4.196,0.08,
4.164,4.212,0,
4.164,4.196,0,
4.188,4.22,0.08,
4.164,4.196,0.08,
4.188,4.22,0,
4.164,4.196,0.08,
4.188,4.22,0,
4.188,4.22,0.08,
4.164,4.196,0,
4.188,4.22,0.08,
4.164,4.196,0,
4.164,4.22,0.08,
4.196,4.196,0,
4.196,4.22,0.08,
4.164,4.188,0,
4.196,4.196,0.08,
4.164,4.22,0,
4.164,4.22,0.08,
4.188,4.188,0,
4.188,4.212,0.08,
4.164,4.196,0,
4.164,4.188,0.08,
4.188,4.22,0,
4.164,4.22,0,
4.188,4.188,3.44,
4.188,4.22,3.4,
4.164,4.196,3.32,
4.188,4.188,3.32,
4.164,4.212,3.44,
4.148,4.212,3.44,
4.188,4.188,3.32,
4.188,4.22,3.4,
4.164,4.188,3.32,
4.164,4.204,3.36,
4.188,4.18,3.32,
4.188,4.22,3.36,
4.148,4.132,3.36,
4.188,4.148,3.36,
4.044,4.22,3.36,
4.068,4.156,3.36,
4.196,4.252,3.32,
4.092,4.204,3.4,
4.244,4.18,3.32,
4.18,4.204,3.44,
4.124,4.188,3.32,
4.132,4.188,3.4,
4.164,4.244,3.32,
4.148,4.244,3.32,
4.228,4.164,3.44,
4.236,4.188,3.44,
4.124,4.204,3.32,
4.132,4.204,3.36,
4.164,4.188,3.36,
4.132,4.188,3.32,
4.164,4.204,3.44,
4.148,4.204,3.36,
4.164,4.18,3.44,
4.132,4.204,3.36,
4.172,4.18,3.44,
4.132,4.188,3.44,
4.172,4.22,3.32,
4.132,4.204,3.4,
4.172,4.18,3.32,
4.156,4.188,3.36,
4.132,4.204,3.44,
4.132,4.188,3.36,
4.148,4.204,3.4,
4.132,4.188,3.32,
4.148,4.204,3.4,
4.148,4.204,3.36,
4.132,4.188,3.32,
4.132,4.188,3.36,
4.148,4.204,3.36,
4.132,4.188,3.36,
4.148,4.204,3.32,
4.132,4.188,3.32,
4.148,4.204,3.36,
4.148,4.188,3.36,
4.132,4.204,3.36,
4.132,4.204,3.44,
4.148,4.188,3.32,
4.132,4.188,3.32,
4.148,4.204,3.44,
4.132,4.204,3.36,
4.148,4.188,3.44,
4.132,4.204,3.36,
4.148,4.188,3.44,
4.132,4.204,3.44,
4.148,4.188,3.32,
4.148,4.188,3.44,
4.132,4.204,3.32,
4.132,4.188,3.36,
4.148,4.204,3.44,
4.132,4.188,3.44,
4.148,4.204,3.32,
4.132,4.204,3.44,
4.148,4.188,3.32,
4.132,4.204,3.36,
4.148,4.148,3.44,
4.068,4.204,3.36,
4.156,4.188,3.44,
4.132,4.188,3.32,
4.148,4.204,3.44,
4.148,4.204,3.36,
4.132,4.188,3.4,
4.148,4.204,3.36,
4.132,4.18,3.4,
4.132,4.188,3.4,
4.148,4.204,3.32,
4.148,4.188,3.32,
4.132,4.204,3.44,
4.132,4.148,3.36,
4.148,4.228,3.4,
4.052,4.188,3.36,
4.188,4.204,3.32,
4.148,4.204,3.36,
4.132,4.18,3.32,
4.132,4.188,3.36,
4.148,4.204,3.36,
4.132,4.204,3.36,
4.148,4.18,3.36,
4.148,4.22,3.4,
4.116,4.18,3.32,
4.132,4.204,3.4,
4.172,4.132,3.32,
4.172,4.18,3.36,
4.044,4.204,3.32,
4.108,4.18,3.32,
4.14,4.204,3.4,
4.1,4.156,3.32,
4.14,4.22,3.4,
4.172,4.204,3.36,
4.044,4.18,3.32,
4.14,4.204,3.36,
4.076,4.172,3.44,
4.132,4.164,3.32,
4.052,4.204,3.4,
4.076,4.156,3.36,
4.132,4.204,3.44,
4.044,4.18,3.36,
4.124,4.204,3.36,
4.084,4.204,3.4,
4.124,4.164,3.32,
4.124,4.196,3.32,
4.068,4.156,3.4,
4.132,4.204,3.36,
4.028,4.156,3.36,
4.124,4.148,3.36,
4.036,4.22,3.32,
4.02,4.204,3.36,
4.148,4.18,3.36,
4.108,4.204,3.36,
4.14,4.156,3.4,
4.148,4.132,3.36,
4.052,4.196,3.4,
4.028,4.196,3.44,
4.116,4.164,0.04,
4.108,4.22,0.04,
4.044,4.164,0.08,
4.06,4.212,0.08,
4.156,4.164,0.04,
4.148,4.156,0.08,
4.076,4.252,0.04,
4.036,4.14,0.08,
4.22,4.22,0.04,
4.164,4.196,0.08,
4.036,4.14,0.04,
4.14,4.172,0.08,
4.02,4.236,0.04,
4.044,4.148,0.04,
4.204,4.228,3.4,
4.068,4.22,3.36,
4.196,4.18,3.4,
4.188,4.204,3.32,
4.108,4.188,3.4,
4.148,4.204,3.44,
4.132,4.188,3.32,
4.148,4.188,3.36,
4.132,4.204,3.4,
4.148,4.204,3.4,
4.132,4.188,3.32,
4.148,4.188,3.36,
4.132,4.204,3.36,
4.148,4.188,3.36,
4.132,4.204,3.32,
4.148,4.188,3.36,
4.132,4.204,3.32,
4.148,4.204,3.36,
4.132,4.188,3.36,
4.148,4.188,3.36,
4.132,4.204,3.32,
4.148,4.188,3.32,
4.14,4.204,3.4,
4.148,4.204,3.32,
4.132,4.18,3.4,
4.148,4.188,3.44,
4.132,4.204,3.32,
4.132,4.204,3.36,
4.148,4.188,3.32,
4.148,4.188,3.36,
4.132,4.204,3.4,
4.148,4.188,3.36,
4.132,4.204,3.44,
4.148,4.204,3.44,
4.132,4.188,3.32,
4.148,4.188,3.32,
4.132,4.204,3.44,
4.148,4.188,3.32,
4.132,4.204,3.44,
4.148,4.188,3.44,
4.132,4.204,3.32,
4.148,4.204,3.4,
4.132,4.188,3.32,
4.148,4.204,3.4,
4.124,4.188,3.32,
4.148,4.204,3.36,
4.132,4.124,3.44,
4.156,4.188,3.32,
4.012,4.204,3.44,
4.14,4.18,3.36,
4.124,4.204,3.44,
4.14,4.204,3.44,
4.124,4.188,3.36,
4.14,4.188,3.44,
4.124,4.204,3.32,
4.124,4.22,3.44,
4.14,4.1,3.36,
4.172,4.348,3.36,
3.868,3.876,3.44,
4.292,3.868,3.44,
3.372,4.316,3.32,
3.38,3.884,3.36,
4.268,4.252,3.36,
3.412,4.204,3.32,
4.204,4.172,3.44,
4.148,4.188,3.36,
4.1,4.204,3.44,
4.132,4.188,3.32,
4.148,4.204,3.44,
4.132,3.908,3.36,
4.148,4.34,3.44,
4.276,4.284,3.4,
3.436,3.9,3.32,
4.236,4.228,3.44,
3.412,4.188,3.32,
4.172,4.156,3.44,
4.132,4.22,3.32,
4.148,4.188,3.36,
4.068,4.204,3.44,
4.148,4.204,3.36,
4.132,4.188,3.44,
4.148,4.212,3.32,
4.132,3.9,3.44,
4.196,4.34,3.36,
3.452,3.9,3.44,
4.3,3.868,3.44,
3.404,4.26,3.32,
4.204,4.252,3.44,
3.396,3.868,3.32,
4.22,3.9,3.36,
3.396,4.26,3.32,
3.38,4.204,3.36,
4.228,4.18,3.36,
4.148,4.204,3.36,
4.124,4.18,3.32,
4.148,4.204,3.32,
4.124,4.18,3.4,
4.148,4.204,3.36,
4.124,4.18,3.44,
4.148,4.188,3.32,
4.124,4.204,3.44,
4.148,4.204,3.44,
4.124,4.164,0,
4.1,4.188,0.08,
4.164,4.204,0,
4.148,4.18,0,
4.124,4.204,3.4,
4.148,4.188,3.44,
4.124,4.204,3.32,
4.148,4.204,3.32,
4.124,4.18,3.44,
4.148,4.188,3.36,
4.124,4.204,3.44,
4.132,4.204,3.36,
4.148,4.18,3.4,
4.148,4.188,3.36,
4.124,4.204,3.32,
4.148,4.204,3.36,
4.124,4.188,3.36,
4.148,4.204,3.4,
4.132,4.18,3.32,
4.148,4.204,3.44,
4.124,4.188,3.32,
4.124,4.188,3.44,
4.148,4.204,3.32,
4.148,4.188,3.4,
4.124,4.204,3.32,
4.148,4.204,3.36,
4.132,4.188,3.44,
4.148,4.188,3.32,
4.132,4.204,3.44,
4.148,4.188,3.36,
4.124,4.204,3.44,
4.132,4.148,3.36,
4.148,4.212,3.44,
4.044,4.204,3.36,
4.164,4.156,3.32,
4.148,4.204,3.36,
4.068,4.18,3.4,
4.148,4.188,3.4,
4.124,4.204,3.32,
4.148,4.204,3.4,
4.124,4.164,3.32,
4.148,4.204,3.32,
4.108,4.132,3.44,
4.148,4.228,3.36,
4.036,3.9,3.44,
4.18,4.34,3.36,
3.452,3.876,3.44,
4.292,4.244,3.32,
3.396,3.892,3.44,
3.404,4.236,3.44,
4.204,3.876,3.32,
4.196,4.22,3.36,
3.404,4.148,3.44,
4.164,4.18,3.36,
4.052,4.244,3.32,
4.124,4.22,3.36,
4.204,4.188,3.32,
4.188,4.196,3.36,
4.156,4.22,0.04,
4.164,4.188,0.08,
4.188,4.22,0,
4.188,4.22,0.08,
4.164,4.188,0,
4.188,4.14,0,
4.148,4.228,0.08,
4.052,4.156,0.08,
4.204,4.228,0,
4.076,4.22,0.08,
4.204,4.188,0,
4.188,4.188,0.08,
4.164,4.22,0,
4.188,4.188,0.08,
4.156,4.22,0,
4.156,4.188,0,
4.188,4.22,3.36,
4.188,4.172,3.36,
4.14,4.22,3.32,
4.188,4.188,3.36,
4.1,4.22,3.44,
4.188,4.22,3.36,
4.164,4.188,3.44,
4.188,4.188,3.44,
4.148,4.22,3.32,
4.156,4.22,3.36,
4.188,4.188,3.4,
4.188,4.22,3.36,
4.156,4.188,3.4,
4.188,4.196,3.44,
4.164,4.22,3.32,
4.164,4.22,3.36,
4.188,4.188,3.36,
4.188,4.188,3.36,
4.156,4.22,3.32,
4.164,4.22,3.36,
4.188,4.188,3.4,
4.164,4.22,3.32,
4.188,4.188,3.44,
4.188,4.22,3.36,
4.164,4.188,3.44,
4.188,4.18,3.36,
4.164,4.22,3.4,
4.188,4.188,3.32,
4.156,4.22,3.4,
4.188,4.22,3.32,
4.156,4.188,3.44,
4.164,4.196,3.36,
4.196,4.22,3.32,
4.164,4.22,3.4,
4.188,4.188,3.32,
4.196,4.196,3.32,
4.164,4.22,3.44,
4.164,4.204,3.36,
4.188,4.14,3.44,
4.18,4.204,3.36,
4.044,4.172,3.44,
4.108,4.156,3.44,
4.148,4.204,3.32,
4.084,4.164,3.36,
4.148,4.22,3.44,
4.092,4.204,3.36,
4.164,4.188,3.36,
4.148,4.204,3.36,
4.132,4.18,3.32,
4.116,4.204,3.32,
4.172,4.188,3.44,
4.148,4.204,3.36,
4.132,4.156,3.44,
4.164,4.18,3.36,
4.092,4.204,3.44,
4.108,4.18,3.44,
4.14,4.204,3.32,
4.14,4.204,3.36,
4.116,4.18,3.44,
4.14,3.9,3.36,
4.124,4.356,3.44,
3.396,3.9,3.44,
4.292,4.364,3.32,
3.404,4.308,3.32,
4.308,3.876,3.44,
4.244,3.916,3.36,
3.388,4.276,3.44,
3.436,4.204,3.44,
4.212,4.188,3.32,
4.132,4.204,3.32,
4.148,4.164,3.44,
4.148,4.204,3.32,
4.092,4.18,3.4,
4.148,4.188,3.32,
4.124,4.204,3.4,
4.124,4.204,3.44,
4.148,4.164,0.16,
4.148,4.204,0.08,
4.092,4.18,0,
4.148,4.204,0.08,
4.116,4.172,0,
4.148,4.204,0.08,
4.092,4.18,0.04,
4.148,4.188,0.08,
4.132,4.204,0,
4.132,4.188,0.08,
4.148,4.204,0.04,
4.148,4.188,0.08,
4.132,4.204,0.04,
4.148,4.204,0.04,
4.132,4.188,0.08,
4.132,4.188,0.08,
4.148,4.204,0,
4.148,4.204,0.08,
4.132,4.188,0,
4.148,4.188,0.08,
4.132,4.204,0,
4.148,4.188,0.08,
4.124,4.204,0.04,
4.148,4.204,0.08,
4.124,4.164,0,
4.148,4.204,0.08,
4.084,4.188,0,
4.132,4.188,0.08,
4.148,4.204,0,
4.132,4.204,0.08,
4.148,4.18,0,
4.148,4.188,0.08,
4.124,4.204,0,
4.148,4.188,0.08,
4.124,4.204,0,
4.148,4.188,0.08,
4.132,4.204,0.04,
4.132,4.188,0.08,
4.148,4.204,0.04,
4.148,4.188,0.08,
4.124,4.204,0.04,
4.132,4.204,0.08,
4.148,4.188,0,
4.148,4.188,0.08,
4.124,4.204,0.04,
4.148,4.188,0.08,
4.124,4.204,0,
4.132,4.188,0.08,
4.148,4.204,0,
4.132,4.188,0.08,
4.148,4.204,0,
4.148,4.204,0.04,
4.132,4.188,0.08,
4.132,4.204,0.08,
4.148,4.18,0,
4.132,4.188,0.08,
4.148,4.204,0,
4.148,4.204,0.08,
4.132,4.188,0.04,
4.148,4.204,0.08,
4.132,4.156,0,
4.148,4.188,0.08,
4.092,4.204,0,
4.148,4.188,0.08,
4.124,4.204,0,
4.148,4.188,0.08,
4.132,4.204,0.04,
4.148,4.204,0.08,
4.124,4.18,0.04,
4.132,4.204,0.08,
4.148,4.18,0,
4.148,4.188,0.08,
4.124,4.204,0,
4.148,4.204,0,
4.124,4.188,0.08,
4.148,4.204,0.08,
4.124,4.188,0.04,
4.132,4.204,0.08,
4.148,4.18,0.04,
4.132,4.188,0.04,
4.148,4.204,0.08,
4.148,4.204,0.08,
4.124,4.188,0,
4.148,4.188,0.08,
4.132,4.204,0,
4.148,4.188,0.08,
4.124,4.204,0,
4.132,4.188,0.08,
4.148,4.204,0,
4.132,4.188,0.08,
4.148,4.204,0,
4.148,4.204,0.08,
4.124,4.18,0.04,
4.148,4.188,0.08,
4.124,4.204,0,
4.132,4.204,0.08,
4.148,4.188,0,
4.148,4.204,0.08,
4.132,4.188,0,
4.148,4.204,0.08,
4.132,4.18,0,
4.148,4.188,0.08,
4.124,4.204,0,
4.148,4.188,0.08,
4.132,4.204,0.04,
4.148,4.204,0.08,
4.132,4.188,0,
4.148,4.204,0.08,
4.132,4.188,0,
4.132,4.188,0.08,
4.148,4.204,0,
4.148,4.204,0.08,
4.124,4.18,0,
4.148,4.204,0.08,
4.132,4.188,0.04,
4.148,4.204,0.08,
4.132,4.188,0.04,
4.148,4.204,0.08,
4.124,4.188,0,
4.148,4.204,0.08,
4.132,4.188,0.04,
4.132,4.204,0.08,
4.148,4.188,0,
4.148,4.204,0.08,
4.132,4.18,0,
4.148,4.204,0.08,
4.108,4.188,0.04,
4.148,4.204,0.08,
4.124,4.188,0,
4.132,4.204,0.08,
4.148,4.188,0,
4.148,4.204,0.08,
4.132,4.188,0,
4.148,4.204,0,
4.132,4.188,0.08,
4.148,4.204,0.08,
4.132,4.188,0.04,
4.148,4.204,0.08,
4.132,4.188,0.04,
4.148,4.204,0.08,
4.132,4.18,0,
4.148,4.204,0.08,
4.132,4.188,0,
4.148,4.188,0.08,
4.132,4.204,0.04,
4.148,4.204,0.08,
4.132,4.18,0.04,
4.132,4.188,0.08,
4.148,4.204,0.04,
4.148,4.188,0.08,
4.132,4.204,0,
4.148,4.204,0.08,
4.132,4.18,0,
4.148,4.188,0.08,
4.124,4.204,0,
4.148,4.204,0.08,
4.124,4.188,0.04,
4.132,4.188,0.08,
4.148,4.204,0.04,
4.148,4.204,0.08,
4.132,4.188,0,
4.148,4.188,0.08,
4.132,4.204,0,
4.132,4.188,0.08,
4.148,4.204,0,
4.148,4.188,0.04,
4.124,4.204,0.08,
4.132,4.188,0.08,
4.148,4.204,0,
4.148,4.204,0.08,
4.124,4.18,0.04,
4.148,4.188,0.08,
4.132,4.204,0,
4.148,4.204,0.08,
4.124,4.188,0,
4.132,4.188,0.08,
4.148,4.204,0.04,
4.132,4.204,0.08,
4.148,4.188,0,
4.148,4.204,0.08,
4.132,4.188,0,
4.132,4.188,0.08,
4.148,4.204,0,
4.132,4.204,0,
4.148,4.188,0.08,
4.132,4.188,0.08,
4.148,4.204,0,
4.148,4.204,0.08,
4.124,4.188,0,
4.132,4.188,0.08,
4.148,4.204,0,
4.148,4.204,0.08,
4.124,4.18,0,
4.132,4.204,0.08,
4.148,4.188,0.04,
4.148,4.188,0.08,
4.124,4.204,0.04,
4.148,4.188,0.08,
4.124,4.204,0,
4.132,4.188,0.08,
4.148,4.204,0,
4.132,4.204,0.08,
4.148,4.188,0,
4.148,4.188,0.04,
4.124,4.204,0.16,
4.132,3.892,0.08,
4.148,4.252,0.04,
3.404,4.22,0.08,
4.204,4.156,0,
4.164,4.18,0.08,
4.068,4.244,0,
4.116,4.196,0.08,
4.212,4.22,0,
4.164,4.212,0.08,
4.188,4.188,0.04,
4.164,4.196,0.08,
4.188,4.22,0,
4.164,4.22,0.08,
4.196,4.196,0,
4.196,4.22,0,
4.172,4.188,0.08,
4.188,4.188,0.08,
4.164,4.22,0,
4.188,4.22,0.08,
4.164,4.188,0.04,
4.188,4.22,0.08,
4.164,4.188,0,
4.188,4.212,0.08,
4.164,4.188,0,
4.164,4.22,0.08,
4.188,4.188,0,
4.188,4.196,0.08,
4.164,4.22,0.04,
4.164,4.196,0.08,
4.188,4.22,0,
4.164,4.196,0.08,
