Measurements/Power Reception/Metingen 3/Meting met pin 0 -105 -107 135 0.csv

CH1,CH2,CH3,Start,Increment,
Volt,Volt,Volt,-29.975,0.05
4.21,4.21,0.08,
4.198,4.198,0,
4.21,4.21,0,
4.198,4.198,0.12,
4.21,4.198,0.12,
4.198,4.21,0,
4.21,4.21,0.12,
4.198,4.198,0,
4.21,4.21,0,
4.198,4.198,0.12,
4.21,4.21,0.12,
4.198,4.198,0,
4.198,4.21,0,
4.21,4.198,0.16,
4.21,4.21,-0.04,
4.198,4.198,0.12,
4.21,4.21,0.12,
4.198,4.198,-0.04,
4.21,4.198,0.16,
4.198,4.21,-0.04,
4.21,4.21,-0.04,
4.198,4.198,0.16,
4.198,4.21,0,
4.21,4.198,0.2,
4.21,4.21,0.12,
4.198,4.198,-0.04,
4.21,4.21,-0.04,
4.198,4.198,0.16,
4.21,4.21,0.12,
4.198,4.198,-0.04,
4.198,4.198,-0.04,
4.216,4.216,0.24,
4.21,4.21,-0.04,
4.198,4.198,0.16,
4.198,4.21,0.12,
4.21,4.198,-0.04,
4.21,4.21,0,
4.198,4.198,0.12,
4.21,4.21,0,
4.198,4.198,0.12,
4.21,4.21,0.12,
4.198,4.198,0,
4.21,4.21,0.12,
4.198,4.198,0,
4.198,4.21,0,
4.21,4.198,0.16,
4.198,4.198,0.12,
4.21,4.21,0,
4.21,4.21,0,
4.198,4.198,0.12,
4.198,4.198,0,
4.21,4.21,0.12,
4.21,4.21,0,
4.198,4.198,0.12,
4.21,4.21,0,
4.198,4.198,0.12,
4.198,4.198,0.12,
4.21,4.21,0,
4.198,4.198,0,
4.21,4.21,0.12,
4.21,4.21,0.12,
4.198,4.198,-0.04,
4.21,4.198,0,
4.198,4.21,0.12,
4.21,4.21,0,
4.198,4.198,0.12,
4.21,4.21,0,
4.198,4.198,0.12,
4.21,4.21,0,
4.198,4.198,0.16,
4.21,4.198,0.12,
4.198,4.21,-0.04,
4.21,4.21,0,
4.198,4.198,0.12,
4.21,4.21,0.12,
4.198,4.198,0,
4.21,4.21,0,
4.198,4.198,0.12,
4.198,4.21,0.12,
4.21,4.198,0,
4.21,4.21,0.16,
4.198,4.198,0,
4.21,4.21,0,
4.198,4.198,0.12,
4.21,4.21,0.12,
4.198,4.198,0,
4.21,4.21,0,
4.198,4.198,0.12,
4.21,4.21,0,
4.198,4.198,0.12,
4.21,4.198,0.12,
4.198,4.21,0,
4.198,4.21,0,
4.21,4.198,0.12,
4.21,4.198,0,
4.198,4.21,0.12,
4.21,4.21,0.12,
4.198,4.198,0,
4.198,4.198,0,
4.21,4.21,0.12,
4.21,4.21,0,
4.198,4.198,0.12,
4.21,4.198,0.12,
4.198,4.21,-0.04,
4.21,4.21,0.12,
4.198,4.198,0,
4.21,4.21,0.08,
4.198,4.198,0,
4.21,4.21,0,
4.198,4.198,0.12,
4.21,4.21,0,
4.198,4.198,0.12,
4.21,4.21,0,
4.198,4.198,0.12,
4.21,4.21,0.12,
4.198,4.198,0,
4.21,4.21,0.12,
4.198,4.198,0,
4.198,4.21,0,
4.21,4.198,0.12,
4.21,4.198,0.12,
4.198,4.21,0,
4.21,4.21,0,
4.198,4.198,3.4,
4.21,4.21,3.32,
4.114,4.162,3.44,
4.138,4.18,3.36,
4.15,4.192,3.44,
4.138,4.18,3.36,
4.162,4.198,3.44,
4.15,4.198,3.32,
4.162,4.186,3.44,
4.168,4.198,3.36,
4.126,4.174,3.44,
4.168,4.18,3.36,
4.126,4.204,3.44,
4.234,4.24,3.44,
4.12,4.156,3.32,
4.12,4.156,3.4,
4.174,4.192,3.32,
4.138,4.18,3.36,
4.162,4.198,3.44,
4.15,4.186,3.36,
4.228,4.228,3.44,
4.228,4.24,3.32,
4.12,4.162,3.44,
4.126,4.174,3.36,
4.156,4.192,3.44,
4.138,4.18,3.36,
4.162,4.198,3.4,
4.162,4.186,3.44,
4.15,4.198,3.32,
4.132,4.198,3.32,
4.168,4.18,3.44,
4.126,4.204,3.36,
4.168,4.168,3.44,
4.168,4.18,3.36,
4.126,4.204,3.4,
4.126,4.18,3.32,
4.15,4.192,3.44,
4.138,4.18,3.36,
4.126,4.192,3.44,
4.126,4.18,3.36,
4.138,4.192,3.44,
4.126,4.18,3.44,
4.138,4.192,3.32,
4.138,4.18,3.44,
4.126,4.192,3.32,
4.138,4.192,3.44,
4.126,4.18,3.32,
4.138,4.18,3.44,
4.126,4.192,3.32,
4.126,4.18,3.36,
4.138,4.192,3.44,
4.138,4.18,3.36,
4.126,4.192,3.44,
4.126,4.18,3.36,
4.138,4.192,3.44,
4.138,4.18,3.44,
4.126,4.192,3.32,
4.126,4.18,3.32,
4.138,4.192,3.44,
4.138,4.192,3.32,
4.126,4.18,3.44,
4.138,4.18,3.32,
4.126,4.192,3.44,
4.138,4.18,3.44,
4.126,4.192,3.32,
4.126,4.192,3.36,
4.138,4.18,3.44,
4.126,4.18,3.36,
4.144,4.192,3.44,
4.138,4.18,3.32,
4.126,4.192,3.44,
4.048,4.132,3.44,
4.15,4.198,3.36,
4.138,4.18,3.44,
4.126,4.192,3.32,
4.126,4.18,3.44,
4.144,4.192,3.32,
4.138,4.18,3.36,
4.126,4.192,3.44,
4.138,4.18,3.36,
4.126,4.192,3.44,
4.126,4.18,3.36,
4.144,4.192,3.44,
4.126,4.18,3.32,
4.138,4.192,3.44,
4.054,4.132,3.36,
4.174,4.21,3.44,
4.174,4.21,3.36,
4.126,4.18,3.44,
4.144,4.18,3.32,
4.126,4.192,3.44,
4.138,4.192,3.32,
4.126,4.18,3.44,
4.138,4.192,3.36,
4.114,4.168,3.44,
4.168,4.204,3.44,
4.126,4.168,3.32,
4.162,4.198,3.32,
4.024,4.126,3.44,
4.102,4.168,3.36,
4.126,4.186,3.44,
4.102,4.168,3.36,
4.12,4.18,3.44,
4.036,4.144,3.32,
4.156,4.204,3.44,
4.066,4.15,3.44,
4.138,4.192,3.32,
4.126,4.192,3.36,
4.102,4.168,3.44,
4.12,4.144,3.44,
4.036,4.186,3.32,
4.12,4.186,3.36,
4.03,4.144,3.44,
4.114,4.15,3.44,
4.048,4.18,3.36,
4.114,4.15,3.44,
4.054,4.186,3.32,
4.108,4.174,3.32,
4.072,4.156,3.44,
4.114,4.18,3.36,
4.012,4.132,3.44,
4.114,4.18,3.36,
4.006,4.132,3.44,
3.994,4.126,3.36,
4.144,4.204,3.44,
4.09,4.162,3.4,
4.156,4.204,3.32,
4.138,4.192,3.36,
4.018,4.114,3.44,
4.012,4.114,3.44,
4.108,4.18,3.32,
4.024,4.138,3.44,
4.144,4.198,0.04,
3.988,4.114,0.08,
4.15,4.204,0,
4.054,4.144,0.08,
4.186,4.222,0.04,
4.156,4.204,0.08,
4.018,4.126,0,
4.132,4.192,0.08,
4.012,4.114,0,
4.048,4.15,0.08,
4.192,4.222,0,
4.072,4.144,0.08,
4.204,4.222,0,
4.192,4.21,0,
4.102,4.168,3.44,
4.15,4.156,3.44,
4.096,4.198,3.32,
4.132,4.18,3.44,
4.144,4.192,3.32,
4.138,4.18,3.32,
4.126,4.192,3.44,
4.138,4.192,3.36,
4.132,4.18,3.44,
4.168,4.18,3.36,
4.132,4.204,3.44,
4.162,4.168,3.44,
4.108,4.204,3.32,
4.192,4.21,3.44,
4.126,4.162,3.32,
4.186,4.21,3.4,
4.126,4.168,3.32,
4.186,4.21,3.44,
4.102,4.156,3.32,
4.108,4.168,3.32,
4.162,4.204,3.44,
4.102,4.156,3.36,
4.192,4.21,3.4,
4.18,4.168,3.36,
4.12,4.21,3.44,
4.18,4.21,3.32,
4.126,4.168,3.44,
4.18,4.168,3.32,
4.12,4.21,3.4,
4.096,4.156,3.36,
4.15,4.198,3.44,
4.126,4.192,3.44,
4.15,4.18,3.32,
4.126,4.18,3.32,
4.144,4.192,3.44,
4.15,4.192,3.44,
4.126,4.18,3.32,
4.174,4.18,3.36,
4.126,4.204,3.4,
4.102,4.156,3.4,
4.192,4.21,3.32,
4.18,4.204,3.36,
4.162,4.192,3.4,
4.12,4.21,3.36,
4.186,4.168,3.44,
4.192,4.21,3.44,
4.114,4.162,3.32,
4.102,4.168,3.4,
4.174,4.21,3.32,
4.192,4.21,3.44,
4.126,4.174,3.32,
4.186,4.21,3.32,
4.126,4.168,3.44,
4.18,4.204,3.32,
4.096,4.156,3.44,
4.114,4.18,3.36,
4.15,4.198,3.44,
4.132,4.192,3.36,
4.15,4.18,3.44,
4.144,4.192,3.44,
4.126,4.168,3.32,
4.126,4.192,3.32,
4.15,4.18,3.44,
4.168,4.204,3.36,
4.12,4.174,3.44,
4.096,4.162,3.44,
4.18,4.21,3.32,
4.126,4.174,3.32,
4.192,4.21,3.44,
4.192,4.21,3.44,
4.096,4.156,3.32,
4.108,4.162,3.44,
4.15,4.198,3.32,
4.036,4.12,3.44,
4.156,4.198,3.32,
4.072,4.144,3.36,
4.156,4.198,3.4,
4.132,4.18,3.36,
4.144,4.192,3.4,
4.12,4.18,3.36,
4.174,4.204,3.44,
4.108,4.162,3.4,
4.162,4.198,3.32,
4.102,4.162,3.44,
4.192,4.21,3.32,
4.126,4.174,3.4,
4.186,4.21,3.32,
4.186,4.18,3.32,
4.126,4.21,3.44,
4.15,4.192,3.4,
4.132,4.18,3.36,
4.138,4.192,3.4,
4.15,4.18,3.36,
4.15,4.18,3.4,
4.138,4.192,3.32,
4.138,4.192,3.36,
4.15,4.18,3.44,
4.138,4.192,3.36,
4.15,4.18,3.44,
4.138,4.192,3.44,
4.15,4.18,3.32,
4.168,4.204,3.4,
4.024,4.114,3.32,
4.024,4.114,3.44,
4.138,4.198,3.32,
4.126,4.174,3.36,
4.114,4.186,3.4,
4.108,4.186,3.32,
4.132,4.168,3.44,
4.132,4.168,3.4,
4.114,4.192,3.32,
4.114,4.174,3.36,
4.132,4.186,3.44,
3.886,4.048,3.44,
4.216,4.258,3.32,
3.544,3.88,3.32,
4.204,4.24,3.44,
3.58,3.904,3.44,
4.24,4.282,3.32,
4.18,4.222,3.44,
3.586,3.898,3.32,
4.18,3.91,3.36,
3.598,4.222,3.44,
4.186,4.216,3.32,
3.568,3.892,3.44,
4.21,4.24,3.36,
3.658,3.934,3.44,
4.15,4.198,3.44,
4.126,4.174,3.32,
4.138,4.192,3.32,
4.12,4.174,3.4,
4.138,4.18,3.36,
4.126,4.192,3.4,
4.126,4.18,3.44,
4.144,4.192,3.32,
4.138,4.192,3.32,
4.12,4.174,3.4,
4.138,4.18,3.4,
4.126,4.192,3.36,
4.138,4.192,3.36,
4.12,4.168,3.44,
4.12,4.192,3.44,
4.144,4.174,0.04,
4.138,4.18,0.08,
4.12,4.192,0.04,
4.12,4.192,0.08,
4.15,4.174,0,
4.138,4.192,2.6,
4.114,4.174,3.44,
4.138,4.192,3.44,
4.12,4.18,3.32,
4.138,4.192,3.36,
4.126,4.174,3.44,
4.12,4.192,3.36,
4.144,4.168,3.44,
4.138,4.192,3.32,
4.12,4.18,3.44,
4.138,4.18,3.36,
4.12,4.192,3.4,
4.138,4.192,3.36,
4.12,4.168,3.44,
4.126,4.192,3.4,
4.15,4.18,3.32,
4.126,4.192,3.36,
4.144,4.18,3.44,
4.15,4.192,3.36,
4.12,4.174,3.4,
4.138,4.18,3.44,
4.126,4.192,3.32,
4.138,4.18,3.44,
4.126,4.192,3.32,
4.054,4.138,3.36,
4.15,4.198,3.44,
4.06,4.138,3.36,
4.144,4.198,3.44,
4.144,4.192,3.44,
4.048,4.132,3.32,
4.138,4.192,3.32,
4.126,4.174,3.4,
4.096,4.162,3.32,
4.144,4.198,3.44,
4.138,4.192,3.32,
4.096,4.156,3.44,
4.036,4.12,3.32,
4.156,4.204,3.44,
4.096,4.192,3.36,
4.144,4.156,3.44,
4.138,4.192,3.36,
4.12,4.162,3.44,
4.18,4.21,3.36,
3.88,4.042,3.44,
3.574,4.252,3.36,
4.216,3.904,3.44,
3.568,4.234,3.36,
4.204,3.898,3.44,
4.204,4.24,3.44,
3.622,3.928,3.32,
4.054,4.138,3.44,
4.21,4.234,3.32,
4.168,4.204,3.4,
4.186,4.192,0,
4.192,4.204,0.08,
4.168,4.192,0,
4.186,4.204,0.08,
4.168,4.192,0,
4.186,4.204,0.08,
4.162,4.192,0,
4.168,4.204,0.08,
4.186,4.192,0,
4.168,4.204,0,
4.186,4.192,0.08,
4.18,4.18,0.08,
4.144,4.204,0,
4.18,4.192,0.08,
4.168,4.204,0,
4.126,4.204,0,
4.186,4.168,3.4,
4.168,4.192,3.36,
4.186,4.204,3.44,
4.18,4.204,3.36,
4.168,4.192,3.4,
4.168,4.204,3.36,
4.186,4.192,3.44,
4.138,4.204,3.44,
4.186,4.18,3.32,
4.168,4.204,3.36,
4.18,4.192,3.44,
4.18,4.192,3.36,
4.168,4.204,3.44,
4.168,4.192,3.4,
4.186,4.204,3.32,
4.186,4.204,3.32,
4.168,4.192,3.44,
4.18,4.204,3.36,
4.168,4.192,3.44,
4.18,4.192,3.36,
4.168,4.204,3.44,
4.186,4.204,3.4,
4.162,4.192,3.32,
4.18,4.204,3.36,
4.15,4.18,3.4,
4.192,4.204,3.32,
4.15,4.18,3.4,
4.168,4.192,3.44,
4.186,4.204,3.32,
4.18,4.204,3.4,
4.162,4.186,3.36,
4.18,4.204,3.4,
4.168,4.192,3.36,
4.18,4.204,3.4,
4.138,4.174,3.32,
4.06,4.132,3.36,
4.192,4.21,3.44,
4.168,4.216,3.36,
3.892,4.048,3.4,
3.922,4.084,3.4,
4.216,4.258,3.36,
3.544,3.88,3.32,
4.204,4.234,3.44,
3.586,3.91,3.36,
4.21,4.258,3.44,
4.15,4.204,3.36,
4.12,4.18,3.44,
4.138,4.192,3.44,
4.12,4.174,3.32,
4.138,4.192,3.36,
4.12,4.18,3.36,
4.138,4.18,3.36,
4.12,4.192,3.44,
4.126,4.18,3.36,
4.144,4.192,3.44,
4.138,4.168,3.32,
4.12,4.192,3.44,
4.138,4.18,3.36,
4.12,4.192,3.44,
4.138,4.192,3.36,
4.108,4.168,3.44,
4.138,4.192,3.44,
4.126,4.174,3.32,
4.138,4.18,3.32,
4.12,4.192,3.44,
4.126,4.192,3.44,
4.15,4.18,3.32,
4.138,4.192,3.44,
4.114,4.168,3.32,
4.12,4.18,3.44,
4.144,4.192,3.32,
4.126,4.18,3.44,
4.144,4.192,3.32,
4.12,4.168,3.36,
4.138,4.192,3.44,
4.144,4.192,3.44,
4.096,4.156,3.32,
4.138,4.18,3.4,
4.126,4.192,0,
4.138,4.192,0.08,
4.12,4.174,0,
4.138,4.174,0.08,
4.126,4.192,0,
4.144,4.192,0.08,
4.126,4.18,0,
4.138,4.192,0.08,
4.12,4.174,0,
4.06,4.138,0.08,
4.15,4.198,0,
4.126,4.18,0.08,
4.144,4.192,0,
4.138,4.192,0.08,
4.12,4.174,0,
4.138,4.192,0.08,
4.09,4.15,0,
4.144,4.192,0.08,
4.12,4.18,0,
4.138,4.174,0.08,
4.12,4.192,0,
4.138,4.18,0.08,
4.12,4.192,0,
4.138,4.192,0.08,
4.12,4.174,0,
4.138,4.168,0.08,
4.12,4.192,0,
4.138,4.174,0.04,
4.12,4.192,0.08,
4.138,4.18,0,
4.12,4.192,0.08,
4.138,4.192,0.08,
4.12,4.174,0,
4.138,4.192,0.08,
4.12,4.18,0,
4.138,4.18,0.08,
4.12,4.192,0,
4.12,4.192,0,
4.144,4.168,0.08,
4.138,4.192,0.04,
4.12,4.18,0.08,
4.138,4.174,0.08,
4.12,4.192,0,
4.138,4.192,0.08,
4.12,4.174,0,
4.138,4.168,0.08,
4.114,4.192,0,
4.138,4.192,0.08,
4.12,4.174,0,
4.102,4.192,0.08,
4.144,4.162,0,
4.138,4.192,0.08,
4.126,4.168,0.04,
4.138,4.192,0.08,
4.12,4.168,0,
4.138,4.192,0.08,
4.12,4.174,0,
4.138,4.192,0.08,
4.12,4.168,0,
4.138,4.192,0.08,
4.12,4.168,0.04,
4.138,4.192,0.08,
4.12,4.174,0,
4.138,4.192,0.08,
4.12,4.168,0,
4.138,4.192,0.08,
4.114,4.168,0,
4.12,4.174,0.08,
4.138,4.192,0,
4.138,4.192,0.08,
4.12,4.174,0.04,
4.138,4.192,0.08,
4.12,4.18,0,
4.138,4.192,0.08,
4.12,4.168,0,
4.138,4.18,0.08,
4.12,4.192,0,
4.138,4.18,0.08,
4.12,4.192,0,
4.138,4.192,0.08,
4.12,4.168,0,
4.138,4.192,0.08,
4.102,4.162,0,
4.138,4.168,0.08,
4.114,4.192,0,
4.138,4.192,0.08,
4.12,4.174,0,
4.138,4.18,0.08,
4.12,4.192,0,
4.12,4.18,0.08,
4.144,4.192,0,
4.126,4.18,0,
4.144,4.192,0.08,
4.138,4.174,0.08,
4.126,4.192,0,
4.138,4.192,0.08,
4.12,4.168,0,
4.138,4.192,0.08,
4.12,4.174,0,
4.144,4.192,0.08,
4.12,4.174,0,
4.138,4.18,0.08,
4.12,4.192,0,
4.138,4.174,0,
4.12,4.192,0.08,
4.126,4.192,0.08,
4.144,4.174,0,
4.138,4.18,0.08,
4.12,4.192,0,
4.108,4.192,0.08,
4.138,4.174,0,
4.138,4.174,0.08,
4.12,4.192,0,
4.138,4.186,0,
4.12,4.174,0.08,
4.138,4.192,0.08,
4.12,4.174,0,
4.12,4.192,0.08,
4.138,4.174,0,
4.12,4.192,0.08,
4.144,4.168,0,
4.138,4.192,0.08,
4.12,4.168,0,
4.138,4.174,0.04,
4.12,4.192,0.08,
4.12,4.192,0.08,
4.144,4.174,0,
4.138,4.192,0.08,
4.12,4.174,0,
4.12,4.192,0.08,
4.144,4.174,0,
4.138,4.192,0.08,
4.12,4.18,0,
4.12,4.192,0.08,
4.15,4.18,0,
4.12,4.168,0.08,
4.138,4.192,0,
4.138,4.192,0.08,
4.12,4.174,0,
4.12,4.168,0.08,
4.138,4.192,0,
4.138,4.174,0.08,
4.12,4.192,0,
4.12,4.18,0.08,
4.138,4.192,0,
4.138,4.174,0.08,
4.12,4.192,0,
4.138,4.192,0.08,
4.12,4.174,0,
4.12,4.192,0,
4.138,4.168,0.08,
4.138,4.174,0.08,
4.12,4.192,0.04,
4.138,4.192,0.08,
4.12,4.174,0,
4.12,4.174,0.08,
4.138,4.192,0,
4.138,4.192,0.08,
4.12,4.174,0,
4.138,4.192,0.08,
4.12,4.174,0,
4.138,4.192,0.08,
4.12,4.18,0,
4.138,4.168,0.08,
4.12,4.192,0,
4.138,4.168,0.08,
4.12,4.192,0,
4.12,4.174,0.08,
4.144,4.192,0,
4.102,4.192,0.08,
4.15,4.162,0,
4.126,4.18,0,
4.15,4.192,0.08,
4.15,4.18,0.08,
4.12,4.192,0,
4.12,4.192,0.08,
4.138,4.174,0.04,
4.138,4.192,0.08,
4.12,4.174,0,
4.12,4.174,0.08,
4.138,4.192,0,
4.138,4.174,0.08,
4.12,4.192,0,
4.18,4.21,0.08,
3.562,3.886,0,
4.198,4.222,0.08,
3.598,3.91,0.04,
4.066,4.144,0.08,
4.21,4.234,0,
4.18,4.192,0.08,
4.168,4.204,0,
4.168,4.192,0.08,
4.186,4.204,0,
4.18,4.192,0.08,
4.168,4.204,0,
4.18,4.192,0.08,
4.168,4.204,0,
4.18,4.204,0.08,
4.168,4.192,0,
4.18,4.192,0.08,
4.168,4.204,0,
4.168,4.192,0.08,
4.186,4.204,0,
4.168,4.192,0.08,
4.186,4.204,0,
4.18,4.204,0.08,
4.168,4.192,0,
4.168,4.192,0.08,
4.186,4.204,0,
4.168,4.204,0.08,
4.192,4.186,0,
4.174,4.192,0.08,
4.192,4.204,0,
4.18,4.192,0.08,
4.162,4.204,0,
4.168,4.192,0.08,
4.186,4.204,0,
4.18,4.192,0.08,
4.168,4.204,0,
4.18,4.204,0.08,
4.168,4.192,0,
4.168,4.192,0.08,
4.186,4.204,0,
4.168,4.192,0.08,
4.186,4.204,0,
4.168,4.192,0.08,
4.186,4.204,0,
4.18,4.192,0.08,
4.168,4.204,0,
4.168,4.204,0.08,
4.18,4.192,0,
4.168,4.204,0.08,
4.186,4.192,0,
4.18,4.192,0.08,
4.168,4.204,0,
4.09,4.15,0.08,
4.198,4.216,0,
4.072,4.138,0.08,
4.204,4.222,0,
4.168,4.192,0.08,
4.186,4.204,0,
4.168,4.192,0,
4.186,4.204,0.08,
4.18,4.204,0.08,
4.168,4.192,0,
4.168,4.192,0.08,
4.186,4.204,0,
4.18,4.192,0.08,
4.168,4.204,0,
4.168,4.192,0.08,
4.186,4.204,0,
4.192,4.192,0.08,
4.174,4.204,0,
4.192,4.204,0.08,
4.168,4.192,0,
4.18,4.204,0.08,
4.168,4.192,0,
4.18,4.204,0.08,
4.168,4.192,0,
4.186,4.204,0.08,
4.168,4.192,0,
4.18,4.204,0.08,
4.168,4.192,0,
4.168,4.204,0.08,
4.186,4.186,0,
4.18,4.204,0.08,
4.162,4.192,0,
4.18,4.204,0.08,
4.168,4.192,0,
4.186,4.204,0.08,
4.168,4.192,0,
4.168,4.192,0.08,
4.186,4.204,0,
4.18,4.204,0.08,
4.168,4.192,0,
4.168,4.192,0.08,
4.186,4.204,0,
4.168,4.192,0.08,
4.186,4.204,0,
4.168,4.192,0.08,
4.18,4.204,0,
4.138,4.204,0.08,
4.186,4.174,0,
4.186,4.192,0.08,
4.168,4.204,0,
4.186,4.204,0.08,
4.162,4.192,0,
4.18,4.192,0,
4.168,4.204,0.08,
4.162,4.192,0.08,
4.192,4.204,0,
4.168,4.204,0.08,
4.192,4.192,0,
4.192,4.192,0.08,
4.168,4.204,0,
4.168,4.192,0,
4.186,4.204,0.08,
4.186,4.192,0.08,
4.168,4.204,0,
4.18,4.192,0.08,
4.168,4.204,0,
4.168,4.192,0.08,
4.186,4.204,0,
4.186,4.204,0.08,
4.084,4.144,0,
4.198,4.216,0.08,
4.078,4.15,0,
4.126,4.192,0.04,
4.144,4.18,0.08,
4.126,4.18,0.08,
4.156,4.192,0,
4.15,4.156,0.08,
4.09,4.198,0,
4.102,4.198,0.08,
4.156,4.156,0,
4.084,4.15,0.08,
4.174,4.204,0,
4.138,4.18,0.08,
4.15,4.192,0,
4.138,4.192,0.08,
4.15,4.18,0,
4.12,4.198,0,
4.156,4.174,0.08,
4.15,4.216,0.08,
4.198,4.192,0,
4.18,4.192,0.08,
4.168,4.204,0,
4.18,4.204,0.08,
4.168,4.192,0,
4.168,4.204,0.08,
4.192,4.192,0,
4.174,4.204,0.08,
4.186,4.192,0,
4.186,4.204,0.08,
4.168,4.192,0,
4.168,4.192,0,
4.186,4.204,0.08,
4.186,4.192,0.08,
4.168,4.204,0,
4.18,4.204,0.08,
4.168,4.192,0,
4.168,4.192,0.08,
4.186,4.204,0,
4.18,4.192,0.08,
4.168,4.204,0,
4.18,4.204,0.08,
4.168,4.192,0,
4.18,4.204,0,
4.168,4.192,0.08,
4.186,4.204,0.08,
4.168,4.192,0,
4.186,4.204,0.08,
4.168,4.192,0,
4.18,4.204,0.08,
4.168,4.192,0,
4.186,4.204,0.08,
4.168,4.192,0,
4.168,4.192,0.08,
4.186,4.204,0,
4.18,4.192,0.08,
4.168,4.204,0,
4.18,4.192,0.08,
4.168,4.204,0.04,
4.18,4.192,0.08,
4.168,4.204,0.04,
4.18,4.192,0.08,
4.168,4.204,0,
4.18,4.192,0.08,
4.168,4.204,0,
4.168,4.204,0.08,
4.192,4.192,0.04,
4.192,4.204,0.08,
4.174,4.192,0,
4.192,4.204,0.08,
4.168,4.192,0,
4.18,4.192,0.08,
4.168,4.204,0,
4.168,4.204,0.08,
4.186,4.186,0,
4.186,4.204,0.08,
4.168,4.192,0,
4.186,4.204,0.08,
4.156,4.186,0.04,
4.168,4.192,0.08,
4.18,4.204,0,
4.18,4.192,0.08,
4.168,4.204,0,
4.18,4.192,0.08,
4.168,4.204,0,
4.168,4.192,0,
4.186,4.204,0.08,
4.168,4.192,0.08,
4.186,4.204,0,
4.168,4.192,0,
4.186,4.204,0.08,
4.18,4.192,0.08,
4.168,4.204,0,
4.168,4.204,0.08,
4.186,4.192,0,
4.18,4.204,0.08,
4.168,4.192,0,
4.18,4.204,0.08,
4.168,4.192,0,
4.168,4.192,0.08,
4.186,4.204,0,
4.168,4.192,0.08,
4.186,4.204,0,
4.168,4.192,0.08,
4.18,4.204,0,
4.156,4.204,0.08,
4.192,4.186,0,
4.174,4.192,0.08,
4.192,4.204,0,
4.192,4.204,0,
4.168,4.192,0.08,
4.168,4.204,0.08,
4.186,4.192,0,
4.186,4.192,0.08,
4.168,4.204,0,
4.186,4.192,0.08,
4.168,4.204,0,
4.168,4.192,0,
4.186,4.204,0.08,
4.18,4.192,0.08,
4.168,4.204,0,
4.168,4.192,0.08,
4.186,4.204,0.04,
4.168,4.204,0.08,
4.186,4.192,0,
4.18,4.192,0.08,
4.168,4.204,0,
4.18,4.192,0.08,
4.168,4.204,0,
4.168,4.204,0.08,
4.186,4.192,0,
4.168,4.192,0,
4.186,4.204,0.08,
4.168,4.192,0.08,
4.186,4.204,0,
4.168,4.192,0.08,
4.186,4.204,0.04,
4.168,4.192,0.08,
4.186,4.204,0,
4.168,4.192,0.08,
4.186,4.204,0,
4.168,4.192,0.08,
4.18,4.204,0,
4.186,4.204,0.08,
4.168,4.186,0,
4.168,4.192,0.08,
4.192,4.204,0,
4.174,4.204,0.08,
4.192,4.192,0,
4.192,4.192,0,
4.168,4.204,0.08,
4.168,4.204,0.08,
4.18,4.192,0,
4.168,4.204,0.08,
4.186,4.192,0,
4.168,4.192,0.08,
4.186,4.204,0,
4.18,4.192,0.08,
4.168,4.204,0,
4.168,4.204,0.08,
4.18,4.192,0,
4.162,4.204,0.08,
4.186,4.186,0,
4.186,4.204,0,
4.162,4.192,0.08,
4.186,4.192,0.08,
4.162,4.204,0,
4.18,4.204,0.08,
4.168,4.192,0,
4.168,4.192,0.08,
4.186,4.204,0,
4.168,4.192,0.08,
4.186,4.204,0,
4.18,4.192,0.08,
4.168,4.204,0,
4.18,4.192,0.08,
4.168,4.204,0,
4.18,4.192,0.08,
4.168,4.204,0,
4.18,4.204,0.08,
4.168,4.192,0,
4.18,4.204,0.08,
4.168,4.192,0,
4.186,4.204,0.08,
4.168,4.192,0,
4.168,4.192,0.08,
4.192,4.204,0,
4.186,4.192,0.08,
4.174,4.204,0,
4.192,4.192,0.08,
4.168,4.204,0,
4.18,4.204,0.08,
4.168,4.192,0,
4.18,4.204,0.08,
4.162,4.186,0,
4.18,4.204,0.08,
4.168,4.192,0,
4.162,4.192,0.08,
4.186,4.204,0,
4.186,4.192,0,
4.162,4.204,0.08,
4.168,4.204,0.08,
4.186,4.192,0,
4.168,4.204,0.08,
4.186,4.192,0,
4.168,4.192,0.08,
4.186,4.204,0,
4.168,4.192,0.08,
4.186,4.204,0,
4.186,4.192,0.08,
4.168,4.204,0,
4.18,4.204,0.08,
4.168,4.192,0,
4.18,4.192,0.08,
4.168,4.204,0,
4.18,4.192,0.08,
4.168,4.204,0,
4.18,4.204,0.08,
4.168,4.192,0,
4.168,4.204,0.08,
4.186,4.192,0,
4.168,4.192,0.08,
4.186,4.204,0,
4.18,4.204,0.08,
4.162,4.192,0,
4.168,4.186,0.08,
4.192,4.21,0,
4.168,4.192,0.08,
4.192,4.204,0,
4.186,4.192,0.08,
4.168,4.204,0,
4.168,4.192,0.08,
4.186,4.204,0,
4.18,4.192,0.08,
4.168,4.204,0,
4.168,4.204,0.08,
4.186,4.192,0,
4.168,4.204,0.08,
4.186,4.192,0,
4.168,4.204,0.08,
4.186,4.192,0,
4.18,4.192,0.08,
4.168,4.204,0,
4.168,4.192,0.08,
4.186,4.204,0,
4.186,4.204,0.08,
4.168,4.192,0,
4.18,4.204,0.08,
4.168,4.192,0,
4.168,4.192,0.08,
4.186,4.204,0,
4.18,4.192,0.08,
4.168,4.204,0,
4.168,4.204,0.08,
4.186,4.192,0,
4.186,4.192,0.08,
4.168,4.204,0,
4.18,4.192,0.04,
4.168,4.204,0.08,
4.186,4.204,0.08,
4.168,4.192,0,
4.18,4.192,0.08,
4.168,4.204,0,
4.18,4.204,0.08,
4.168,4.192,0,
4.168,4.192,0.08,
4.192,4.204,0,
4.186,4.204,0.08,
4.174,4.192,0,
4.192,4.192,0.08,
4.168,4.204,0,
4.18,4.204,0.08,
4.168,4.192,0,
4.18,4.192,0.08,
4.168,4.204,0,
4.186,4.204,0.08,
4.168,4.192,0.04,
4.138,4.204,0.08,
4.186,4.18,0,
4.186,4.192,0.08,
4.168,4.204,0,
4.168,4.192,0.08,
4.18,4.204,0.04,
4.18,4.192,0.08,
4.168,4.204,0,
4.168,4.192,0.08,
4.186,4.204,0,
4.168,4.192,0,
4.18,4.204,0.08,
4.168,4.192,0.08,
4.186,4.204,0.04,
4.186,4.204,0.08,
4.168,4.192,0.04,
4.18,4.204,0.08,
4.168,4.192,0,
4.18,4.192,0.08,
4.168,4.204,0,
4.168,4.192,0.08,
4.186,4.204,0,
4.168,4.192,0.08,
4.186,4.204,0,
4.18,4.192,0.08,
4.168,4.204,0,
4.186,4.192,0.08,
4.168,4.204,0,
4.168,4.204,0.08,
4.192,4.192,0,
4.186,4.192,0.08,
4.168,4.204,0,
4.186,4.192,0.08,
4.168,4.204,0,
4.168,4.192,0.08,
4.186,4.204,0,
4.168,4.204,0.08,
4.186,4.192,0,
4.168,4.192,0.08,
4.186,4.204,0,
4.168,4.192,0.08,
4.186,4.204,0,
4.168,4.204,0.08,
4.186,4.192,0.04,
4.168,4.192,0,
4.186,4.204,0.08,
4.168,4.204,0.08,
4.186,4.192,0,
4.18,4.204,0.08,
4.168,4.192,0.04,
4.186,4.204,0,
4.168,4.192,0.08,
4.18,4.192,0.08,
4.168,4.204,0,
4.168,4.192,0.08,
4.186,4.204,0,
