Power Payload/Metingen 1/Payload 1 200.csv

CH1,CH2,CH3,Start,Increment,
Volt,Volt,Volt,-2.9975,0.005
4.108,4.164,0.04,
4.092,4.148,0.16,
4.108,4.164,0.04,
4.076,4.14,0.16,
4.108,4.148,0.04,
4.076,4.164,0.16,
4.108,4.148,0.04,
4.068,4.164,0.16,
4.084,4.148,0.04,
4.116,4.164,0.16,
4.092,4.148,0.04,
4.108,4.164,0.16,
4.108,4.164,0.04,
4.076,4.14,0.16,
4.108,4.148,0.04,
4.076,4.164,0.16,
4.108,4.148,0.16,
4.084,4.164,0.04,
4.108,4.164,0.04,
4.076,4.148,0.16,
4.108,4.148,0.12,
4.084,4.172,0.04,
4.108,4.148,0.16,
4.076,4.164,0.04,
4.076,4.164,0.04,
4.116,4.148,0.12,
4.108,4.148,0.04,
4.076,4.164,0.16,
4.108,4.164,0.04,
4.084,4.148,0.16,
4.084,4.164,0.16,
4.108,4.148,0.04,
4.108,4.164,0.12,
4.084,4.132,0.04,
4.108,4.164,0.04,
4.092,4.148,0.16,
4.108,4.148,0.04,
4.076,4.164,0.16,
4.108,4.164,0.16,
4.084,4.14,0.04,
4.108,4.164,0.12,
4.076,4.14,0.04,
4.108,4.148,0.16,
4.084,4.164,0.04,
4.108,4.148,0.04,
4.076,4.172,0.16,
4.108,4.148,0.04,
4.076,4.164,0.16,
4.108,4.148,0.04,
4.092,4.164,0.12,
4.076,4.164,0.04,
4.116,4.148,0.16,
4.108,4.164,0.04,
4.084,4.148,0.16,
4.108,4.148,0.04,
4.092,4.164,0.16,
4.108,4.164,0.04,
4.084,4.148,0.16,
4.108,4.164,0.12,
4.084,4.14,0.04,
4.092,4.164,0.04,
4.108,4.148,0.16,
4.108,4.148,0.04,
4.076,4.164,0.16,
4.108,4.164,0.16,
4.092,4.148,0.04,
4.108,4.132,0.12,
4.076,4.164,0.04,
4.108,4.164,0.16,
4.076,4.14,0.04,
4.084,4.164,0.16,
4.108,4.148,0.04,
4.108,4.164,0.04,
4.076,4.148,0.16,
4.084,4.164,0.04,
4.116,4.148,0.16,
4.108,4.148,0.12,
4.084,4.164,0.04,
4.108,4.164,0.04,
4.084,4.148,0.16,
4.108,4.148,0.04,
4.092,4.172,0.16,
4.108,4.164,0.04,
4.076,4.148,0.16,
4.108,4.148,0.04,
4.076,4.164,0.16,
4.108,4.148,0.04,
4.076,4.164,0.12,
4.108,4.164,0.16,
4.084,4.148,0.04,
4.108,4.148,0.04,
4.092,4.164,0.16,
4.108,4.164,0.04,
4.076,4.14,0.16,
4.108,4.164,0.04,
4.076,4.148,0.12,
4.108,4.148,0.04,
4.084,4.164,0.16,
4.108,4.164,0.04,
4.092,4.148,0.16,
4.108,4.148,0.04,
4.076,4.164,0.16,
4.108,4.164,0.04,
4.076,4.14,0.16,
4.084,4.164,0.16,
4.116,4.148,0.04,
4.108,4.148,0.04,
4.076,4.164,0.12,
4.108,4.164,0.12,
4.084,4.148,0.04,
4.076,4.148,0.04,
4.108,4.164,0.16,
4.108,4.164,0.12,
4.076,4.124,0.04,
4.108,4.164,0.04,
4.092,4.148,0.16,
4.108,4.148,0.04,
4.044,4.164,0.16,
4.092,4.164,0.04,
4.108,4.14,0.16,
4.108,4.148,0.04,
4.084,4.164,0.12,
4.108,4.164,0.16,
4.076,4.132,0.04,
4.092,4.164,0.16,
4.108,4.148,0.04,
4.108,4.164,0.04,
4.068,4.148,0.16,
4.108,4.164,0.04,
4.092,4.14,0.16,
4.108,4.148,0.04,
4.076,4.164,0.16,
4.108,4.148,0.16,
4.076,4.164,0.04,
4.092,4.164,0.04,
4.116,4.148,0.16,
4.108,4.164,0.04,
4.076,4.148,0.16,
4.108,4.164,0.16,
4.092,4.132,0.04,
4.092,4.164,0.04,
4.108,4.148,0.16,
4.108,4.164,0.04,
4.076,4.14,0.16,
4.108,4.148,0.04,
4.092,4.172,0.16,
4.108,4.148,0.12,
4.084,4.172,0.04,
4.116,4.164,0.16,
4.076,4.14,0.04,
4.092,4.164,0.16,
4.116,4.148,0.04,
4.068,4.148,0.04,
4.116,4.172,0.16,
4.092,4.164,0.16,
4.116,4.148,0.04,
4.116,4.148,0.16,
4.076,4.172,0.04,
4.116,4.148,0.04,
4.084,4.164,0.16,
4.092,4.148,0.04,
4.116,4.172,0.16,
4.092,4.148,0.04,
4.116,4.172,0.16,
4.116,4.164,0.04,
4.084,4.14,0.16,
4.092,4.164,0.04,
4.116,4.148,0.16,
4.116,4.164,0.04,
4.076,4.132,0.16,
4.108,4.164,0.04,
4.092,4.148,0.16,
4.108,4.164,0.04,
4.076,4.14,0.16,
4.108,4.148,0.16,
4.076,4.164,0.04,
4.108,4.148,0.04,
4.084,4.164,0.12,
4.092,4.148,0.04,
4.108,4.164,0.16,
4.108,4.164,0.16,
4.076,4.14,0.04,
4.108,4.164,0.04,
4.076,4.148,0.12,
4.108,4.148,0.04,
4.084,4.164,0.16,
4.108,4.164,0.16,
4.076,4.14,0.04,
4.092,4.164,0.04,
4.108,4.132,0.16,
4.076,4.164,0.04,
4.108,4.148,0.16,
4.108,4.164,0.16,
4.076,4.132,0.04,
4.108,4.148,0.04,
4.092,4.164,0.16,
4.108,4.148,0.04,
4.076,4.164,0.16,
4.108,4.164,0.04,
4.092,4.14,0.12,
4.108,4.164,0.04,
4.076,4.148,0.16,
4.108,4.164,0.04,
4.084,4.14,0.16,
4.108,4.164,0.04,
4.092,4.148,0.16,
4.108,4.164,0.04,
4.084,4.148,0.16,
4.108,4.164,0.04,
4.092,4.148,0.16,
4.108,4.164,0.04,
4.092,4.148,0.16,
4.108,4.148,0.04,
4.084,4.164,0.16,
4.092,4.164,0.04,
4.108,4.148,0.16,
4.108,4.148,0.04,
4.076,4.164,0.12,
4.092,4.164,0.04,
4.108,4.148,0.16,
4.108,4.164,0.04,
4.076,4.148,0.16,
4.108,4.164,0.04,
4.084,4.132,0.16,
4.108,4.148,0.04,
4.092,4.164,0.16,
4.108,4.148,0.16,
4.068,4.164,0.04,
4.108,4.148,0.04,
4.076,4.164,0.16,
4.084,4.164,0.12,
4.108,4.148,0.04,
4.108,4.164,0.16,
4.076,4.148,0.04,
4.108,4.148,0.16,
4.092,4.164,0.04,
4.108,4.164,0.04,
4.084,4.148,0.16,
4.108,4.164,0.12,
4.084,4.132,0.04,
4.108,4.164,0.12,
4.092,4.148,0.04,
4.108,4.164,0.04,
4.076,4.14,0.16,
4.108,4.148,0.12,
4.084,4.164,0.04,
4.108,4.164,0.04,
4.076,4.148,0.16,
4.108,4.164,0.04,
4.076,4.148,0.16,
4.108,4.148,0.04,
4.092,4.164,0.16,
4.108,4.164,0.16,
4.084,4.148,0.04,
4.108,4.164,0.12,
4.076,4.148,0.04,
4.108,4.164,0.04,
4.076,4.148,0.16,
4.092,4.164,0.12,
4.116,4.148,0.04,
4.108,4.164,0.04,
4.076,4.14,0.16,
4.108,4.164,0.04,
4.084,4.148,0.12,
4.108,4.148,0.16,
4.084,4.164,0.04,
4.108,4.164,0.04,
4.076,4.14,0.16,
4.092,4.148,0.04,
4.116,4.164,0.16,
4.076,4.164,0.12,
4.108,4.148,0.04,
4.108,4.164,0.12,
4.092,4.14,0.04,
4.108,4.148,0.04,
4.092,4.164,0.16,
4.108,4.164,0.04,
4.068,4.14,0.16,
4.092,4.148,0.04,
4.108,4.164,0.12,
4.108,4.164,0.04,
4.084,4.148,0.16,
4.108,4.164,0.16,
4.084,4.132,0.04,
4.108,4.164,0.04,
4.076,4.148,0.16,
4.108,4.164,0.04,
4.076,4.148,0.12,
4.092,4.164,0.16,
4.108,4.148,0.04,
4.108,4.164,0.04,
4.092,4.148,0.16,
4.108,4.164,0.16,
4.068,4.148,0.04,
4.108,4.164,0.04,
4.092,4.132,0.16,
4.108,4.164,0.04,
4.084,4.148,0.16,
4.108,4.164,0.16,
4.084,4.14,0.04,
4.108,4.148,0.04,
4.076,4.164,0.16,
4.108,4.164,0.16,
4.076,4.124,0.04,
4.108,4.164,0.16,
4.092,4.14,0.04,
4.108,4.148,0.12,
4.06,4.164,0.04,
4.108,4.164,0.12,
4.076,4.148,0.04,
4.084,4.164,0.04,
4.108,4.148,0.16,
4.108,4.164,0.04,
4.084,4.14,0.16,
4.108,4.164,0.04,
4.092,4.148,0.16,
4.108,4.164,0.04,
4.076,4.148,0.16,
4.108,4.164,0.16,
4.084,4.14,0.04,
4.092,4.148,0.04,
4.108,4.164,0.16,
4.108,4.148,0.04,
4.084,4.164,0.16,
4.108,4.164,0.04,
4.084,4.148,0.16,
4.108,4.164,0.16,
4.076,4.148,0.04,
4.108,4.148,0.04,
4.076,4.164,0.16,
4.108,4.148,0.04,
4.092,4.164,0.16,
4.108,4.164,0.04,
4.076,4.14,0.16,
4.108,4.148,0.12,
4.084,4.164,0.04,
4.108,4.164,0.16,
4.068,4.148,0.04,
4.108,4.148,0.12,
4.092,4.164,0.04,
4.108,4.148,0.04,
4.084,4.164,0.16,
4.092,4.164,0.04,
4.108,4.14,0.16,
4.108,4.148,0.12,
4.076,4.172,0.04,
4.108,4.148,0.04,
4.076,4.172,0.16,
4.084,4.164,0.04,
4.116,4.148,0.16,
4.116,4.148,0.16,
4.084,4.172,0.04,
4.116,4.164,0.12,
4.092,4.132,0.04,
4.092,4.164,0.04,
4.116,4.148,0.16,
4.116,4.164,0.16,
4.076,4.148,0.04,
4.116,4.164,0.04,
4.092,4.148,0.16,
4.116,4.148,0.04,
4.076,4.172,0.16,
4.116,4.148,0.12,
4.092,4.164,0.04,
4.092,4.164,0.12,
4.116,4.148,0.04,
4.092,4.164,0.12,
4.116,4.148,0.04,
4.116,4.164,0.04,
4.076,4.14,0.16,
4.108,4.148,0.12,
4.092,4.164,0.04,
4.108,4.164,0.04,
4.076,4.14,0.16,
4.108,4.164,0.04,
4.092,4.148,0.16,
4.108,4.164,0.08,
4.076,4.148,0.16,
4.108,4.164,0.04,
4.092,4.148,0.12,
4.108,4.164,0.04,
4.076,4.148,0.16,
4.108,4.148,0.04,
4.076,4.164,0.16,
4.108,4.164,0.04,
4.092,4.148,0.16,
4.108,4.148,0.04,
4.076,4.164,0.16,
4.108,4.148,0.04,
4.084,4.164,0.16,
4.084,4.164,0.04,
4.108,4.148,0.16,
4.108,4.164,0.04,
4.084,4.14,0.12,
4.108,4.148,0.04,
4.092,4.164,0.16,
4.108,4.164,0.04,
4.076,4.148,0.16,
4.108,4.164,0.04,
4.084,4.14,0.16,
4.108,4.164,0.04,
4.092,4.148,0.16,
4.108,4.164,0.16,
4.076,4.132,0.04,
4.108,4.148,0.04,
4.076,4.164,0.16,
4.108,4.164,0.04,
4.076,4.148,0.16,
4.108,4.148,0.04,
4.084,4.164,0.12,
4.108,4.164,0.04,
4.092,4.148,0.16,
4.076,4.164,0.04,
4.108,4.14,0.12,
4.108,4.148,0.04,
4.092,4.164,0.12,
4.108,4.148,0.04,
4.076,4.164,0.16,
4.092,4.164,0.04,
4.108,4.132,0.16,
4.108,4.148,0.12,
4.084,4.164,0.04,
4.108,4.164,0.04,
4.076,4.148,0.16,
4.108,4.148,0.04,
4.084,4.164,0.16,
4.108,4.148,0.04,
4.084,4.164,0.16,
4.108,4.164,0.04,
4.076,4.14,0.16,
4.084,4.164,0.04,
4.108,4.148,0.16,
4.108,4.148,0.04,
4.076,4.164,0.16,
4.108,4.164,0.12,
4.076,4.148,0.04,
4.108,4.164,0.04,
4.076,4.148,0.16,
4.108,4.164,0.16,
4.092,4.148,0.04,
4.108,4.148,0.04,
4.084,4.164,0.16,
4.108,4.164,0.04,
4.092,4.148,0.16,
4.108,4.164,0.04,
4.092,4.148,0.16,
4.108,4.148,0.04,
4.084,4.164,0.12,
4.084,4.164,0.04,
4.108,4.132,0.16,
4.092,4.164,0.04,
4.108,4.148,0.16,
4.108,4.164,0.16,
4.076,4.148,0.04,
4.092,4.148,0.04,
4.108,4.164,0.16,
4.108,4.148,0.16,
4.084,4.164,0.04,
4.092,4.164,0.04,
4.108,4.148,0.16,
4.108,4.148,0.12,
4.092,4.164,0.04,
4.108,4.164,0.12,
4.076,4.148,0.04,
4.108,4.148,0.04,
4.084,4.164,0.16,
4.108,4.148,0.04,
4.076,4.164,3.44,
4.108,4.164,3.44,
4.084,4.148,3.32,
4.092,4.164,3.36,
4.108,4.1,3.44,
4.108,4.124,3.36,
4.084,4.164,3.44,
4.108,4.148,3.44,
4.028,4.164,3.32,
4.06,4.164,3.36,
4.108,4.148,3.44,
4.108,4.164,3.44,
4.084,4.14,3.36,
4.084,4.164,3.44,
4.108,4.132,3.32,
4.108,4.148,3.44,
4.084,4.196,3.32,
4.108,4.196,3.44,
4.068,4.14,3.32,
4.092,4.14,3.44,
4.164,4.172,3.36,
4.164,4.196,3.44,
4.084,3.452,3.36,
4.076,4.188,3.44,
4.14,4.156,3.36,
4.164,4.172,3.36,
2.972,4.148,3.44,
4.132,4.148,3.44,
4.1,4.196,3.32,
4.116,4.196,3.36,
4.076,3.484,3.44,
4.092,4.172,3.44,
4.164,4.156,3.36,
4.164,4.164,3.44,
3.02,4.148,3.32,
4.116,4.164,3.44,
4.092,4.148,3.36,
4.108,4.148,3.44,
4.084,4.164,3.32,
4.108,4.148,3.44,
4.084,4.164,3.32,
4.092,4.164,3.36,
4.108,4.148,3.44,
4.084,4.148,3.32,
4.108,4.164,3.44,
4.108,4.164,3.36,
4.076,4.14,3.44,
4.108,4.164,3.36,
4.076,4.116,3.44,
4.108,4.1,3.36,
4.076,4.172,3.44,
4.108,4.172,3.36,
4.036,4.148,3.44,
4.012,4.164,3.44,
4.116,4.084,3.32,
4.116,4.156,3.36,
4.076,4.22,3.44,
4.116,4.212,3.36,
3.988,4.188,3.44,
4.1,4.196,3.36,
4.196,4.18,3.44,
4.172,4.196,3.36,
4.156,4.108,3.44,
4.172,4.164,3.36,
4.156,4.132,3.44,
4.164,4.164,3.44,
4.036,4.148,3.36,
4.108,4.148,3.44,
4.068,4.172,3.32,
4.108,4.14,3.44,
4.092,4.164,3.32,
4.084,4.164,3.36,
4.116,4.148,3.44,
4.076,4.148,3.36,
4.116,4.164,3.44,
4.116,4.164,3.36,
4.076,4.148,3.44,
4.116,4.148,3.36,
4.076,4.172,3.44,
4.092,4.172,3.44,
4.116,4.148,3.36,
4.092,4.132,3.44,
4.116,4.188,3.32,
4.116,4.172,3.44,
4.1,4.148,3.36,
4.076,4.172,3.36,
4.14,4.14,3.44,
4.116,4.148,3.44,
4.092,4.172,3.32,
4.116,4.172,3.44,
4.084,4.132,3.32,
4.116,4.172,3.36,
4.084,4.132,3.44,
4.116,4.1,3.36,
4.068,4.172,3.44,
4.116,4.172,3.44,
4.068,4.124,3.32,
4.116,4.172,3.36,
4.02,4.116,3.44,
4.132,4.172,3.44,
4.052,4.132,3.36,
4.116,4.124,3.36,
4.036,4.172,3.44,
4.116,4.172,3.36,
4.052,4.148,3.44,
4.116,4.172,3.44,
4.044,4.148,3.32,
4.116,4.172,3.44,
4.092,4.148,3.32,
4.116,4.148,3.32,
4.092,4.18,3.44,
4.116,4.164,3.44,
4.084,4.148,3.36,
4.092,4.164,3.36,
4.156,4.148,3.44,
4.116,4.164,3.44,
4.092,4.148,3.32,
4.116,4.148,3.36,
4.1,4.172,3.44,
4.116,4.148,3.36,
4.092,4.172,3.44,
4.092,4.172,3.44,
4.116,4.148,3.32,
4.116,4.164,3.36,
4.1,4.148,3.44,
4.116,4.164,3.44,
4.092,4.148,3.36,
4.1,4.124,3.36,
4.116,4.172,3.44,
4.116,4.156,3.44,
4.092,4.172,3.36,
4.116,4.132,3.44,
4.06,4.22,3.36,
4.116,4.212,3.44,
4.1,4.18,3.36,
4.076,4.196,3.44,
4.188,4.156,3.32,
4.172,4.196,3.36,
4.156,4.18,3.44,
4.172,4.196,3.36,
4.116,4.18,3.44,
4.172,4.196,3.36,
4.148,4.172,3.44,
4.156,4.18,3.32,
4.172,4.196,3.44,
4.172,4.196,3.32,
4.132,4.156,3.44,
4.172,4.18,3.44,
4.148,4.196,3.36,
4.172,4.196,3.36,
4.108,4.18,3.44,
4.148,4.18,3.32,
4.172,4.196,3.44,
4.156,4.18,3.36,
4.172,4.196,3.44,
4.172,4.196,3.44,
4.148,4.18,3.32,
4.156,4.196,3.44,
4.172,4.18,3.32,
4.172,4.196,3.36,
4.148,4.172,3.44,
4.172,4.18,3.44,
4.148,4.196,3.36,
4.172,4.196,3.44,
4.14,4.18,3.32,
4.172,4.196,3.36,
4.148,4.18,3.44,
4.156,4.196,3.44,
4.172,4.18,3.32,
4.172,4.18,3.44,
4.148,4.196,3.36,
4.148,4.196,3.44,
4.172,4.172,3.36,
4.156,4.18,3.36,
4.172,4.196,3.44,
4.172,4.18,3.44,
4.132,4.196,3.36,
4.156,4.196,3.44,
4.172,4.18,3.32,
4.172,4.196,3.36,
4.148,4.18,3.44,
4.148,4.196,3.36,
4.172,4.156,3.44,
4.172,4.172,3.44,
4.156,4.108,3.36,
4.172,4.164,3.44,
4.116,4.124,3.36,
4.124,4.124,3.36,
4.044,4.196,3.44,
4.116,4.164,3.44,
4.052,4.148,3.32,
4.06,4.164,3.36,
4.164,4.148,3.44,
4.092,4.172,3.36,
4.116,4.148,3.44,
4.092,4.164,3.44,
4.116,4.148,3.36,
4.116,4.164,3.44,
4.092,4.148,3.32,
4.116,4.148,3.36,
4.092,4.164,3.44,
4.116,4.148,3.36,
4.084,4.164,3.44,
4.116,4.164,3.44,
4.092,4.148,3.32,
4.092,4.164,3.44,
4.116,4.148,3.32,
4.092,4.172,3.36,
4.116,4.148,3.44,
4.116,4.124,3.36,
4.092,4.212,3.44,
4.116,4.164,3.44,
4.076,4.116,3.36,
4.06,4.092,3.44,
4.172,4.14,3.36,
4.108,4.124,3.44,
4.036,4.156,3.36,
4.012,4.156,3.44,
4.084,4.132,3.32,
4.084,4.132,3.44,
4.06,4.156,3.32,
4.068,4.156,3.36,
4.084,4.132,3.44,
4.084,4.132,3.44,
4.068,4.156,3.36,
4.084,4.132,3.44,
4.06,4.156,3.36,
4.068,4.132,3.36,
4.084,4.156,3.44,
4.084,4.132,3.44,
4.06,4.156,3.36,
4.084,4.132,3.44,
4.068,4.156,3.32,
4.084,4.132,3.36,
4.068,4.156,3.44,
4.084,4.156,3.36,
4.06,4.132,3.44,
4.084,4.156,3.36,
4.068,4.132,3.44,
4.068,4.156,3.44,
4.084,4.132,3.32,
4.084,4.132,3.44,
4.068,4.156,3.36,
4.084,4.156,3.36,
4.068,4.132,3.44,
4.084,4.132,3.36,
4.06,4.156,3.44,
4.084,4.156,3.44,
4.068,4.132,3.36,
4.084,4.132,3.36,
4.068,4.156,3.44,
4.084,4.132,3.44,
4.06,4.156,3.32,
4.084,4.156,3.44,
4.068,4.132,3.32,
4.084,4.156,3.44,
4.06,4.132,3.32,
4.084,4.132,3.44,
4.068,4.156,3.32,
4.084,4.132,3.32,
4.068,4.156,3.44,
4.084,4.132,3.36,
4.06,4.156,3.44,
4.084,4.132,3.4,
4.068,4.156,3.44,
4.084,4.156,3.4,
4.06,4.124,3.44,
4.084,4.188,3.4,
4.068,3.444,3.44,
4.084,3.564,3.4,
4.06,3.628,3.44,
4.14,3.62,3.44,
2.956,3.652,3.4,
3.068,3.628,3.4,
3.132,3.66,3.44,
3.116,3.644,3.4,
3.164,3.66,3.48,
3.148,3.668,3.4,
3.172,3.644,3.44,
3.18,3.668,3.44,
3.148,3.652,3.32,
3.156,3.668,3.44,
3.188,3.652,3.36,
3.188,3.668,3.36,
3.172,3.652,3.44,
3.188,3.652,3.44,
3.156,4.38,3.32,
3.188,4.3,3.36,
3.172,4.212,3.44,
3.172,4.22,3.36,
4.332,4.18,3.44,
4.26,4.196,3.44,
4.18,4.148,3.32,
4.196,4.164,3.36,
4.148,4.148,3.44,
4.164,4.148,3.44,
4.076,4.196,3.36,
4.108,4.196,3.36,
4.092,4.14,3.44,
4.092,4.14,3.44,
4.164,4.196,3.32,
4.164,4.196,3.4,
4.092,4.172,3.44,
4.076,4.196,3.4,
4.164,4.148,3.48,
4.164,4.196,3.44,
4.132,3.42,3.36,
4.164,3.516,3.36,
4.092,3.604,3.44,
4.172,3.596,3.36,
2.932,3.644,3.44,
3.012,3.62,3.36,
3.132,4.348,3.44,
3.084,4.332,3.44,
3.172,4.244,3.32,
3.108,4.252,3.44,
4.308,4.196,3.36,
4.284,4.204,3.36,
4.212,4.148,3.44,
4.22,4.164,3.36,
4.156,4.148,3.44,
4.172,4.148,3.36,
4.092,4.196,3.44,
4.092,4.196,3.44,
4.116,4.14,3.36,
4.092,4.148,3.44,
4.164,4.164,3.36,
4.164,4.132,3.36,
4.092,4.196,3.44,
4.108,4.196,3.36,
4.092,4.18,3.44,
4.068,4.196,3.36,
4.172,4.164,3.44,
4.164,4.164,3.44,
4.148,4.196,3.32,
4.164,4.188,3.44,
4.132,4.172,3.32,
4.148,4.188,3.36,
4.164,4.172,3.44,
4.132,4.196,3.44,
4.164,4.132,3.32,
4.164,4.1,3.44,
4.132,4.196,3.32,
4.164,3.42,3.36,
4.076,4.212,3.44,
4.02,4.156,3.4,
4.156,4.204,3.44,
4.156,4.212,3.44,
2.932,4.164,3.36,
4.092,4.196,3.36,
4.164,3.42,3.44,
4.172,3.54,3.36,
4.132,3.628,3.44,
4.164,3.596,3.44,
2.916,4.34,3.32,
3.02,4.3,3.32,
3.132,4.188,3.44,
3.084,4.204,3.36,
4.284,4.156,3.44,
4.252,4.172,3.36,
4.14,4.156,3.44,
4.156,4.148,3.32,
4.1,4.196,3.44,
4.116,4.196,3.44,
4.1,4.18,3.36,
4.092,4.172,3.44,
4.164,4.196,3.36,
4.164,4.196,3.44,
4.148,4.156,3.32,
4.132,4.14,3.44,
4.164,4.164,3.32,
4.164,4.148,3.4,
4.092,4.196,3.44,
4.108,4.196,3.44,
4.092,4.156,3.32,
4.092,4.196,3.32,
4.164,3.42,3.44,
4.172,3.532,3.32,
4.116,3.628,3.44,
4.164,3.596,3.36,
2.924,4.34,3.44,
3.028,4.284,3.44,
3.132,4.188,3.32,
3.084,4.196,3.36,
4.284,4.164,3.44,
4.228,4.172,3.44,
4.132,4.148,3.36,
4.148,4.148,3.44,
4.1,4.196,3.32,
4.116,4.196,3.44,
4.076,4.172,3.32,
4.092,4.196,3.44,
4.164,4.172,3.36,
4.164,4.196,3.36,
4.124,4.14,3.44,
4.164,4.164,3.44,
4.14,4.14,0.04,
4.164,4.148,0.04,
4.092,4.196,0.12,
4.108,4.196,0.04,
4.084,4.172,0.16,
4.076,3.436,0.16,
4.164,4.204,0.04,
4.164,4.18,0.04,
4.124,4.156,0.16,
2.988,4.172,0.12,
4.148,4.148,0.04,
4.132,4.172,0.04,
4.1,4.148,0.16,
4.116,4.164,0.04,
4.092,4.148,0.16,
4.116,4.148,0.12,
4.092,4.164,0.04,
4.092,4.148,0.04,
4.116,4.196,0.16,
4.108,4.196,0.04,
4.084,4.164,0.16,
4.092,4.188,0.12,
4.164,4.172,0.04,
4.164,4.188,0.04,
4.132,4.132,0.12,
4.156,4.132,0.04,
4.132,4.164,0.16,
4.156,4.148,0.16,
4.076,4.196,0.04,
4.108,4.196,0.04,
4.068,4.132,0.16,
4.092,4.164,0.12,
4.164,4.148,0.04,
4.164,4.164,0.04,
4.076,4.124,0.16,
4.108,4.172,0.04,
4.076,4.196,0.12,
4.108,4.18,0.04,
4.044,4.196,0.16,
4.124,4.188,0.04,
4.164,4.156,0.16,
4.156,4.172,0.04,
4.132,4.188,0.16,
4.156,4.188,0.04,
4.116,4.172,0.16,
4.156,4.188,0.04,
4.124,4.132,0.16,
4.132,4.14,0.04,
4.156,4.196,0.16,
4.156,3.428,0.04,
4.068,4.204,0.16,
4.076,4.188,0.12,
4.164,4.156,0.04,
4.164,4.148,0.04,
2.932,4.204,0.16,
4.132,4.196,0.12,
4.092,3.468,0.04,
4.092,4.172,0.16,
4.172,4.148,0.04,
4.164,4.172,0.04,
2.996,4.148,0.16,
4.116,4.164,0.04,
4.092,4.148,0.16,
4.108,4.164,0.04,
4.084,4.148,0.16,
4.108,4.164,0.12,
4.084,4.148,0.04,
4.108,4.148,0.16,
4.092,4.164,0.04,
4.108,4.148,0.04,
4.076,4.164,0.16,
4.108,4.164,0.04,
4.092,4.148,0.16,
4.108,4.148,0.04,
4.076,4.204,0.16,
4.108,4.196,0.04,
4.084,4.132,0.16,
4.092,4.164,0.12,
4.164,4.148,0.04,
4.164,4.164,0.04,
4.076,4.148,0.16,
4.108,4.164,0.04,
4.092,4.148,0.16,
4.108,4.164,0.04,
4.084,4.148,0.16,
4.108,4.164,0.04,
4.092,4.148,0.16,
4.108,4.164,0.04,
4.092,4.148,0.16,
4.108,4.164,0.16,
4.084,4.148,0.04,
4.108,4.164,0.04,
4.092,4.148,0.16,
4.108,4.164,0.04,
4.092,4.148,0.16,
4.108,4.164,0.04,
4.092,4.148,0.16,
4.108,4.164,0.04,
4.092,4.148,0.16,
4.108,4.164,0.04,
4.084,4.148,0.16,
4.108,4.164,0.12,
4.084,4.148,0.04,
4.108,4.164,0.12,
4.092,4.148,0.04,
4.108,4.164,0.04,
4.084,4.148,0.16,
4.092,4.164,0.12,
4.108,4.148,0.04,
4.108,4.164,0.04,
4.076,4.148,0.12,
4.108,4.164,0.04,
4.084,4.148,0.16,
4.108,4.148,0.04,
4.076,4.164,0.16,
4.108,4.148,0.04,
4.092,4.164,0.16,
4.108,4.164,0.16,
4.076,4.148,0.04,
4.108,4.164,0.16,
4.076,4.148,0.04,
4.108,4.164,0.16,
4.092,4.148,0.04,
4.108,4.164,0.12,
4.084,4.148,0.04,
4.108,4.148,0.16,
4.084,4.164,0.04,
4.108,4.164,0.08,
4.092,4.148,0.16,
4.108,4.148,0.12,
4.092,4.164,0.04,
4.108,4.164,0.12,
4.092,4.148,0.04,
4.108,4.164,0.16,
4.092,4.148,0.04,
4.108,4.164,0.04,
4.092,4.14,0.16,
4.108,4.148,0.16,
4.084,4.164,0.04,
4.108,4.164,0.12,
4.084,4.148,0.04,
4.108,4.164,0.04,
4.076,4.148,0.16,
4.108,4.148,0.12,
4.092,4.164,0.04,
4.108,4.148,0.12,
4.076,4.164,0.04,
4.092,4.164,0.04,
4.108,4.148,0.16,
4.108,4.164,0.04,
4.084,4.148,0.16,
4.108,4.164,0.04,
4.092,4.148,0.16,
4.108,4.164,0.16,
4.092,4.148,0.04,
4.108,4.164,0.12,
4.092,4.148,0.04,
4.108,4.164,0.16,
4.092,4.148,0.04,
4.108,4.164,0.12,
4.076,4.148,0.04,
4.108,4.164,0.04,
4.084,4.148,0.16,
4.108,4.164,0.04,
4.092,4.148,0.16,
4.108,4.164,0.04,
4.092,4.132,0.16,
4.108,4.148,0.04,
4.092,4.164,0.16,
4.108,4.148,0.04,
4.084,4.164,0.16,
4.108,4.148,0.04,
4.076,4.164,0.16,
4.108,4.164,0.04,
4.084,4.196,0.16,
4.092,4.196,0.04,
4.108,4.164,0.16,
4.1,4.188,0.04,
4.164,4.132,0.16,
4.164,4.14,0.16,
4.132,4.164,0.04,
4.156,4.148,0.04,
4.076,4.164,0.16,
4.068,4.164,0.04,
4.108,4.148,0.16,
4.108,4.164,0.12,
4.084,4.148,0.04,
4.092,4.148,0.16,
4.108,4.164,0.04,
4.108,4.164,0.16,
4.076,4.148,0.04,
4.108,4.164,0.04,
4.092,4.148,0.16,
4.108,4.148,0.04,
4.076,4.172,0.16,
4.108,4.148,0.16,
4.092,4.172,0.04,
4.108,4.148,0.04,
4.084,4.196,0.16,
4.116,4.196,0.04,
4.092,4.172,0.16,
4.092,4.18,0.04,
4.172,4.196,0.16,
4.164,4.188,0.16,
4.14,4.132,0.04,
4.164,4.164,0.04,
4.148,4.148,0.16,
4.148,4.164,0.04,
4.084,4.148,0.16,
4.076,4.164,0.04,
4.116,4.148,0.16,
4.092,4.164,0.04,
4.116,4.148,0.16,
4.116,4.164,0.04,
4.084,4.148,0.16,
4.116,4.148,0.04,
4.092,4.164,0.16,
4.116,4.164,0.04,
4.092,4.148,0.16,
4.108,4.148,0.04,
4.084,4.164,0.16,
4.092,4.164,0.04,
4.108,4.148,0.16,
4.092,4.148,0.12,
4.108,4.196,0.04,
4.108,4.196,0.04,
4.084,4.172,0.16,
4.092,4.188,0.16,
4.164,4.148,0.04,
4.164,4.132,0.04,
4.132,4.164,0.16,
4.156,4.148,0.04,
4.092,4.164,0.12,
4.076,4.164,0.16,
4.108,4.148,0.04,
4.108,4.164,0.04,
4.076,4.148,0.16,
4.108,4.164,0.04,
4.092,4.148,0.12,
4.108,4.164,0.12,
4.092,4.148,0.04,
4.108,4.164,0.04,
4.084,4.148,0.16,
4.108,4.164,0.16,
4.092,4.148,0.04,
4.108,4.164,0.04,
4.092,4.148,0.12,
4.108,4.164,0.12,
4.092,4.148,0.04,
4.108,4.116,0.12,
4.076,4.196,0.04,
4.108,4.196,0.04,
4.092,4.172,0.16,
4.036,4.188,0.12,
