Power Payload/Metingen 1/Payload 1 90.csv

CH1,CH2,CH3,Start,Increment,
Volt,Volt,Volt,-2.9975,0.005
4.092,4.164,0.16,
4.108,4.148,0.04,
4.108,4.148,0.12,
4.076,4.164,0.04,
4.076,4.148,0.12,
4.108,4.164,0.04,
4.092,4.148,0.04,
4.108,4.196,0.16,
4.108,4.196,0.16,
4.068,4.172,0.04,
4.092,4.188,0.04,
4.108,4.132,0.16,
4.092,4.132,0.12,
4.164,4.164,0.04,
4.164,4.148,0.16,
4.132,4.164,0.04,
4.156,4.148,0.04,
4.092,4.164,0.12,
4.068,4.132,0.04,
4.108,4.164,0.16,
4.092,4.164,0.04,
4.108,4.148,0.16,
4.092,4.164,0.04,
4.108,4.148,0.16,
4.068,4.148,0.16,
4.108,4.164,0.04,
4.092,4.148,0.04,
4.108,4.164,0.16,
4.108,4.14,0.16,
4.068,4.164,0.04,
4.092,4.148,0.04,
4.108,4.188,0.16,
4.092,4.196,0.04,
4.108,4.18,0.16,
4.084,4.196,0.04,
4.108,4.172,0.16,
4.092,4.188,0.04,
4.14,4.132,0.12,
4.164,4.132,0.04,
4.132,4.164,0.16,
4.164,4.148,0.04,
4.132,4.164,0.16,
4.156,4.148,0.04,
4.076,4.164,0.16,
4.068,4.148,0.12,
4.108,4.164,0.04,
4.092,4.164,0.04,
4.108,4.132,0.16,
4.108,4.14,0.16,
4.076,4.164,0.04,
4.092,4.148,0.04,
4.108,4.164,0.16,
4.108,4.164,0.04,
4.084,4.14,0.16,
4.084,4.148,0.04,
4.108,4.164,0.16,
4.092,4.148,0.16,
4.108,4.196,0.04,
4.108,4.196,0.12,
4.084,4.164,0.04,
4.092,4.188,0.04,
4.108,4.172,0.16,
4.092,4.188,0.04,
4.164,4.124,0.16,
4.124,4.132,0.16,
4.164,4.164,0.04,
4.156,4.148,0.16,
4.132,4.164,0.04,
4.156,4.148,0.04,
4.068,4.164,0.16,
4.108,4.148,0.12,
4.076,4.164,0.04,
4.108,4.148,0.04,
4.076,4.164,0.16,
4.084,4.148,0.04,
4.108,4.164,0.16,
4.092,4.148,0.16,
4.108,4.164,0.04,
4.108,4.132,0.04,
4.084,4.164,0.16,
4.108,4.148,0.04,
4.084,4.164,0.16,
4.092,4.148,0.04,
4.108,4.196,0.16,
4.076,4.196,0.12,
4.108,4.172,0.04,
4.092,4.172,0.04,
4.108,4.196,0.16,
4.092,4.188,0.04,
4.164,4.132,0.16,
4.164,4.148,0.04,
4.132,4.164,0.16,
4.164,4.148,0.16,
4.124,4.164,0.04,
4.156,4.148,0.04,
4.084,4.164,0.16,
4.092,4.148,0.16,
4.108,4.172,0.04,
4.092,4.148,0.04,
4.116,4.164,0.16,
4.092,4.148,0.04,
4.116,4.164,0.16,
4.092,4.148,0.04,
4.116,4.172,0.16,
4.092,4.164,0.04,
4.116,4.148,0.12,
4.092,4.148,0.04,
4.116,4.188,0.16,
4.116,4.172,0.04,
4.084,4.196,0.12,
4.092,4.196,0.12,
4.116,4.164,0.04,
4.092,4.188,0.04,
4.14,4.164,0.16,
4.132,4.188,0.16,
4.164,4.132,0.04,
4.156,4.148,0.04,
4.132,4.164,0.16,
4.156,4.148,0.04,
4.124,4.164,0.12,
4.156,4.148,0.04,
4.076,4.164,0.16,
4.092,4.164,0.04,
4.108,4.14,0.16,
4.076,4.148,0.12,
4.108,4.164,0.04,
4.092,4.148,0.04,
4.108,4.164,0.16,
4.108,4.164,0.04,
4.084,4.14,0.16,
4.092,4.164,0.04,
4.108,4.148,0.16,
4.108,4.132,0.04,
4.084,4.196,0.12,
4.076,4.196,0.04,
4.108,4.18,0.16,
4.092,4.196,0.04,
4.108,4.164,0.16,
4.076,4.188,0.12,
4.164,4.14,0.04,
4.164,4.132,0.04,
4.14,4.164,0.16,
4.132,4.164,0.04,
4.164,4.14,0.16,
4.156,4.148,0.16,
4.092,4.164,0.04,
4.076,4.148,0.04,
4.108,4.164,0.16,
4.076,4.132,0.04,
4.108,4.164,0.16,
4.108,4.164,0.16,
4.076,4.148,0.04,
4.092,4.148,0.04,
4.108,4.164,0.16,
4.108,4.164,0.04,
4.068,4.148,0.12,
4.108,4.164,0.04,
4.076,4.148,0.12,
4.108,4.14,0.04,
4.076,4.196,0.16,
4.092,4.196,0.04,
4.108,4.172,0.16,
4.092,4.172,0.16,
4.108,4.188,0.04,
4.068,4.188,0.04,
4.164,4.14,0.16,
4.164,4.132,0.04,
4.14,4.164,0.16,
4.156,4.132,0.04,
4.132,4.164,0.16,
4.156,4.164,0.04,
4.076,4.148,0.16,
4.108,4.164,0.16,
4.076,4.148,0.04,
4.076,4.164,0.16,
4.108,4.148,0.04,
4.108,4.164,0.12,
4.084,4.148,0.04,
4.108,4.14,0.04,
4.076,4.164,0.16,
4.092,4.148,0.04,
4.108,4.164,0.16,
4.092,4.164,0.04,
4.108,4.148,0.16,
4.068,4.148,0.04,
4.108,4.196,0.16,
4.092,4.196,0.04,
4.108,4.172,0.16,
4.108,4.172,0.12,
4.084,4.196,0.04,
4.092,4.188,0.04,
4.164,4.132,0.16,
4.164,4.132,0.16,
4.132,4.164,0.04,
4.124,4.164,0.04,
4.156,4.148,0.16,
4.156,4.148,0.04,
4.084,4.164,0.16,
4.108,4.14,0.04,
4.076,4.164,0.16,
4.092,4.148,0.04,
4.108,4.164,0.16,
4.092,4.164,0.04,
4.108,4.132,0.16,
4.076,4.164,0.04,
4.108,4.148,0.16,
4.092,4.164,0.04,
4.108,4.148,0.16,
4.108,4.164,0.04,
4.068,4.132,0.16,
4.108,4.148,0.16,
4.076,4.196,0.04,
4.108,4.196,0.04,
4.076,4.164,0.16,
4.068,4.188,0.16,
4.108,4.172,0.04,
4.092,4.188,0.04,
4.164,4.132,0.16,
4.164,4.132,0.04,
4.132,4.164,0.16,
4.156,4.148,0.04,
4.132,4.164,0.16,
4.156,4.148,0.04,
4.076,4.164,0.16,
4.076,4.148,0.04,
4.108,4.164,0.16,
4.084,4.164,0.16,
4.108,4.148,0.04,
4.108,4.132,0.04,
4.076,4.164,0.16,
4.092,4.164,0.04,
4.108,4.148,0.16,
4.092,4.148,0.04,
4.108,4.164,0.16,
4.108,4.148,0.04,
4.068,4.172,0.16,
4.092,4.196,0.12,
4.108,4.18,0.04,
4.108,4.172,0.04,
4.076,4.196,0.16,
4.092,4.172,0.04,
4.14,4.188,0.16,
4.164,4.188,0.12,
4.132,4.116,0.04,
4.132,4.148,0.04,
4.156,4.164,0.12,
4.132,4.164,0.04,
4.156,4.148,0.16,
4.148,4.148,0.12,
4.044,4.164,0.04,
4.076,4.148,0.12,
4.108,4.164,0.04,
4.108,4.164,0.04,
4.076,4.132,0.16,
4.076,4.148,0.12,
4.108,4.164,0.04,
4.092,4.148,0.04,
4.108,4.164,3.44,
4.108,4.148,3.36,
4.076,4.164,3.44,
4.092,4.148,3.44,
4.108,4.196,3.32,
4.092,4.196,3.36,
4.108,4.172,3.44,
4.076,4.188,3.36,
4.108,4.164,3.44,
4.092,4.188,3.44,
4.164,4.14,3.32,
4.164,4.132,3.44,
4.132,4.164,3.32,
4.164,4.164,3.36,
4.124,4.132,3.44,
4.156,4.164,3.36,
4.068,4.148,3.44,
4.068,4.148,3.44,
4.108,4.164,3.32,
4.108,4.148,3.36,
4.076,4.164,3.44,
4.108,4.14,3.44,
4.076,4.164,3.36,
4.108,4.164,3.44,
4.084,4.148,3.32,
4.108,4.148,3.36,
4.076,4.164,3.44,
4.076,4.164,3.36,
4.108,4.148,3.44,
4.108,4.148,3.36,
4.092,4.204,3.44,
4.108,4.18,3.44,
4.076,4.196,3.32,
4.092,4.196,3.36,
4.108,4.18,3.44,
4.076,4.196,3.44,
4.172,4.14,3.36,
4.148,4.148,3.44,
4.164,4.164,3.32,
4.164,4.148,3.44,
4.132,4.164,3.36,
4.164,4.148,3.36,
4.076,4.164,3.44,
4.108,4.148,3.44,
4.076,4.164,3.36,
4.092,4.164,3.32,
4.116,4.148,3.44,
4.076,4.14,3.44,
4.116,4.172,3.32,
4.092,4.164,3.44,
4.116,4.148,3.36,
4.116,4.132,3.44,
4.084,4.164,3.36,
4.084,4.148,3.36,
4.116,4.164,3.44,
4.108,4.148,3.36,
4.076,4.196,3.44,
4.076,4.196,3.36,
4.108,4.172,3.44,
4.108,4.188,3.36,
4.076,4.164,3.44,
4.084,4.188,3.44,
4.164,4.14,3.36,
4.164,4.132,3.36,
4.14,4.164,3.44,
4.132,4.164,3.44,
4.156,4.132,3.32,
4.156,4.148,3.36,
4.076,4.164,3.44,
4.108,4.164,3.44,
4.076,4.14,3.36,
4.108,4.164,3.44,
4.076,4.148,3.36,
4.108,4.164,3.44,
4.092,4.148,3.36,
4.108,4.148,3.44,
4.076,4.164,3.36,
4.108,4.164,3.36,
4.076,4.148,3.44,
4.076,4.148,3.44,
4.108,4.164,3.32,
4.108,4.148,3.44,
4.076,4.196,3.36,
4.108,4.172,3.36,
4.092,4.196,3.44,
4.108,4.188,3.44,
4.084,4.164,3.32,
4.076,4.188,3.44,
4.164,4.132,3.32,
4.132,4.14,3.36,
4.164,4.164,3.44,
4.156,4.148,3.36,
4.124,4.164,3.44,
4.148,4.148,3.44,
4.076,4.164,3.32,
4.076,4.164,3.44,
4.108,4.14,3.36,
4.076,4.148,3.36,
4.108,4.164,3.44,
4.108,4.148,3.44,
4.084,4.164,3.32,
4.108,4.132,3.44,
4.084,4.164,3.36,
4.108,4.148,3.36,
4.076,4.164,3.44,
4.108,4.148,3.44,
4.076,4.164,3.36,
4.076,4.164,3.36,
4.108,4.148,3.44,
4.108,4.164,3.36,
4.084,4.132,3.44,
4.108,4.148,3.44,
4.084,4.164,3.36,
4.108,4.164,3.44,
4.084,4.148,3.36,
4.108,4.148,3.36,
4.076,4.164,3.44,
4.076,4.164,3.44,
4.108,4.148,3.36,
4.108,4.148,3.36,
4.076,4.164,3.44,
4.108,4.164,3.36,
4.084,4.14,3.44,
4.108,4.164,3.44,
4.084,4.148,3.36,
4.108,4.148,3.36,
4.092,4.164,3.44,
4.076,4.116,3.44,
4.108,4.172,3.36,
4.108,4.164,3.36,
4.076,4.148,3.44,
4.108,4.148,3.44,
4.076,4.164,3.36,
4.044,4.164,3.44,
4.116,4.148,3.32,
4.108,4.116,3.44,
4.076,4.164,3.32,
4.084,4.164,3.36,
4.108,4.148,3.44,
4.108,4.148,3.44,
4.076,4.164,3.32,
4.036,4.164,3.36,
4.108,4.132,3.44,
4.108,4.164,3.44,
4.084,4.148,3.36,
4.108,4.164,3.44,
4.076,4.132,3.36,
4.108,4.148,3.44,
4.068,4.164,3.36,
4.108,4.164,3.44,
4.076,4.14,3.36,
4.108,4.164,3.36,
4.076,4.14,3.44,
4.108,4.148,3.44,
4.084,4.164,3.32,
4.108,4.164,3.44,
4.076,4.132,3.32,
4.108,4.148,3.36,
4.076,4.164,3.44,
4.108,4.164,3.36,
4.076,4.148,3.44,
4.108,4.164,3.44,
4.084,4.14,3.32,
4.108,4.148,3.44,
4.084,4.164,3.36,
4.108,4.164,3.36,
4.076,4.148,3.44,
4.108,4.148,3.44,
4.076,4.164,3.32,
4.108,4.148,3.44,
4.084,4.196,3.32,
4.108,4.196,3.44,
4.084,4.132,3.36,
4.108,4.132,3.44,
4.076,4.164,3.32,
4.092,4.132,3.44,
4.164,4.196,3.36,
4.156,4.196,3.44,
4.068,4.172,3.36,
4.076,4.188,3.44,
4.108,4.132,3.36,
4.076,4.132,3.44,
4.164,4.196,3.32,
4.156,4.14,3.36,
4.132,4.196,3.44,
4.156,3.404,3.44,
4.076,4.204,3.36,
4.076,4.156,3.44,
4.164,4.212,3.36,
4.076,4.212,3.44,
4.164,4.148,3.36,
4.148,4.164,3.36,
2.924,4.132,3.44,
4.092,4.116,3.36,
4.172,4.196,3.44,
4.164,4.196,3.32,
4.084,3.444,3.44,
4.108,4.196,3.36,
4.068,4.156,3.44,
4.052,4.172,3.44,
4.164,4.148,3.36,
4.156,4.132,3.44,
2.972,4.204,3.32,
4.14,4.204,3.44,
4.1,4.132,3.32,
4.116,4.092,3.44,
4.076,4.172,3.36,
4.068,4.172,3.44,
4.164,4.148,3.32,
4.164,4.164,3.44,
4.084,4.148,3.32,
4.012,4.164,3.36,
4.116,4.148,3.44,
4.116,4.164,3.36,
4.092,4.076,3.44,
4.116,4.092,3.44,
4.092,4.148,3.32,
4.076,4.156,3.44,
4.116,4.132,3.32,
4.116,4.132,3.36,
3.988,4.156,3.44,
3.996,4.124,3.36,
4.084,4.156,3.44,
4.084,4.156,3.36,
4.052,4.132,3.44,
4.084,4.156,3.36,
4.06,4.124,3.44,
4.06,4.156,3.44,
4.084,4.132,3.36,
4.084,4.132,3.44,
4.06,4.164,3.32,
4.084,4.156,3.36,
4.06,4.132,3.44,
4.084,4.156,3.44,
4.06,4.132,3.36,
4.068,4.132,3.36,
4.092,4.156,3.44,
4.06,4.132,3.44,
4.092,4.156,3.36,
4.068,4.156,3.44,
4.092,4.132,3.36,
4.084,4.156,3.44,
4.068,4.124,3.32,
4.084,4.132,3.44,
4.068,4.156,3.32,
4.084,4.156,3.44,
4.06,4.124,3.36,
4.084,4.132,3.36,
4.06,4.156,3.44,
4.084,4.132,3.44,
4.06,4.156,3.32,
4.084,4.132,3.36,
4.06,4.156,3.44,
4.084,4.132,3.36,
4.06,4.156,3.44,
4.084,4.164,3.44,
4.06,4.132,3.32,
4.084,4.132,3.44,
4.052,4.156,3.36,
4.052,4.156,3.36,
4.092,4.132,3.44,
4.092,4.156,3.36,
4.068,4.132,3.44,
4.068,4.156,3.32,
4.092,4.132,3.44,
4.084,4.132,3.36,
4.06,4.156,3.44,
4.084,4.132,3.36,
4.06,4.156,3.44,
4.084,4.156,3.44,
4.068,4.124,3.32,
4.084,4.124,3.44,
4.06,4.156,3.32,
4.084,4.156,3.44,
4.06,4.124,3.36,
4.084,4.156,3.44,
4.052,4.124,3.36,
4.052,4.132,3.36,
4.084,4.156,3.44,
4.084,4.156,3.4,
4.06,4.124,3.44,
4.084,4.132,3.4,
4.06,4.156,3.44,
4.084,4.196,3.4,
4.06,3.428,3.44,
4.084,3.532,3.4,
4.052,3.604,3.44,
4.06,3.596,3.44,
4.084,3.636,3.4,
4.14,3.62,3.4,
2.924,3.636,3.44,
3.004,3.62,3.4,
3.108,3.652,3.44,
3.092,3.628,3.4,
3.132,3.652,3.44,
3.116,3.628,3.44,
3.14,3.652,3.36,
3.116,3.652,3.44,
3.156,3.628,3.32,
3.156,3.66,3.36,
3.124,3.628,3.44,
3.156,3.628,3.36,
3.124,4.372,3.44,
3.156,4.292,3.44,
3.124,4.212,3.32,
3.132,4.228,3.36,
3.164,4.188,3.44,
3.132,4.196,3.44,
4.324,4.14,3.36,
4.268,4.164,3.44,
4.18,4.148,3.32,
4.196,4.14,3.44,
4.148,4.204,3.32,
4.172,4.196,3.36,
4.084,4.148,3.44,
4.108,4.148,3.36,
4.076,4.196,3.44,
4.076,4.196,3.44,
4.172,4.18,3.4,
4.164,4.196,3.44,
4.076,4.14,3.4,
4.084,4.196,3.4,
4.164,3.404,3.44,
4.172,3.468,3.36,
4.148,3.58,3.44,
4.164,3.572,3.44,
4.084,3.636,3.32,
4.172,3.596,3.36,
2.9,4.204,3.44,
2.964,4.356,3.44,
3.084,4.244,3.36,
3.044,4.252,3.44,
3.14,4.204,3.32,
3.084,4.212,3.36,
4.1,4.148,3.44,
4.308,4.164,3.44,
4.204,4.148,3.36,
4.22,4.148,3.44,
4.156,4.196,3.32,
4.172,4.196,3.44,
4.092,4.14,3.36,
4.108,4.164,3.36,
4.076,4.14,3.44,
4.092,4.148,3.36,
4.172,4.172,3.44,
4.164,4.148,3.32,
4.076,4.212,3.44,
4.076,4.196,3.36,
4.116,4.18,3.44,
4.092,4.196,3.36,
4.116,4.18,3.44,
4.092,4.172,3.44,
4.172,4.196,3.32,
4.164,4.18,3.44,
4.148,4.196,3.32,
4.164,4.196,3.36,
4.148,4.132,3.44,
4.164,4.1,3.44,
4.132,4.188,3.36,
4.164,3.404,3.44,
4.148,4.204,3.36,
4.164,4.156,3.36,
4.084,4.22,3.44,
4.036,4.196,3.36,
4.156,4.18,3.44,
4.156,4.188,3.36,
2.908,4.132,3.44,
4.1,4.148,3.4,
4.188,4.164,3.44,
4.164,4.148,3.4,
4.14,4.196,3.44,
4.156,4.196,3.44,
4.076,3.404,3.36,
4.076,3.484,3.44,
4.108,3.588,3.32,
4.092,3.588,3.36,
4.164,3.644,3.44,
4.164,3.612,3.36,
2.9,4.34,3.44,
2.972,4.228,3.44,
3.108,4.172,3.32,
3.084,4.172,3.36,
3.164,4.156,3.44,
3.116,4.172,3.36,
4.284,4.148,3.44,
4.172,4.148,3.44,
4.116,4.196,0.04,
4.124,4.164,0.04,
4.092,4.196,0.16,
4.116,4.196,0.04,
4.092,4.172,0.16,
4.092,4.188,0.04,
4.164,4.132,0.16,
4.132,4.164,0.12,
4.164,4.14,0.04,
4.156,4.148,0.04,
4.132,4.196,0.16,
4.156,4.188,0.04,
4.076,3.42,0.16,
4.076,3.524,0.16,
4.108,4.276,0.04,
4.084,4.212,0.04,
4.164,4.164,0.12,
4.156,4.172,0.04,
2.916,4.148,0.12,
3.012,4.148,0.04,
4.22,4.172,0.16,
4.156,4.164,0.04,
4.1,4.148,0.16,
4.116,4.148,0.04,
4.092,4.188,0.16,
4.116,4.196,0.04,
4.084,4.172,0.16,
4.108,4.196,0.04,
4.076,4.172,0.16,
4.084,4.188,0.04,
4.14,4.172,0.16,
4.132,4.188,0.04,
4.164,4.132,0.16,
4.164,4.132,0.16,
4.132,4.196,0.04,
4.132,4.196,0.12,
4.156,4.148,0.04,
4.148,4.132,0.04,
4.076,4.164,0.16,
4.076,4.148,0.12,
4.164,4.164,0.04,
4.164,4.132,0.04,
4.092,4.196,0.16,
4.068,4.18,0.04,
4.108,4.196,0.16,
4.108,4.172,0.04,
4.084,4.196,0.12,
4.084,4.188,0.04,
4.164,4.164,0.16,
4.164,4.164,0.04,
4.14,4.188,0.16,
4.164,4.172,0.12,
4.124,4.188,0.04,
4.132,4.188,0.16,
4.156,4.132,0.04,
4.156,4.196,0.04,
4.132,3.42,0.16,
4.156,3.46,0.04,
4.124,4.196,0.16,
4.156,4.148,0.04,
4.076,4.204,0.16,
4.164,4.196,0.04,
2.924,4.172,0.12,
2.972,4.196,0.12,
4.14,3.452,0.04,
4.084,4.172,0.16,
4.172,4.148,0.04,
4.164,4.164,0.12,
4.116,4.148,0.04,
4.148,4.164,0.16,
2.964,4.148,0.04,
4.116,4.164,0.04,
4.092,4.148,0.16,
4.092,4.164,0.04,
4.116,4.148,0.16,
4.108,4.148,0.04,
4.076,4.196,0.16,
4.108,4.196,0.16,
4.076,4.172,0.04,
4.108,4.196,0.04,
4.084,4.164,0.16,
4.076,4.188,0.04,
4.164,4.132,0.16,
4.164,4.132,0.16,
4.14,4.164,0.04,
4.156,4.164,0.12,
4.132,4.132,0.04,
4.156,4.164,0.16,
4.076,4.148,0.04,
4.108,4.164,0.04,
4.076,4.148,0.16,
4.108,4.164,0.04,
4.076,4.14,0.16,
4.108,4.148,0.04,
4.084,4.164,0.16,
4.108,4.148,0.16,
4.076,4.164,0.04,
4.108,4.164,0.04,
4.068,4.148,0.16,
4.108,4.164,0.16,
4.076,4.148,0.04,
4.108,4.148,0.04,
4.076,4.196,0.16,
4.108,4.196,0.16,
4.076,4.172,0.04,
4.108,4.188,0.04,
4.084,4.172,0.16,
4.092,4.188,0.04,
4.164,4.132,0.16,
4.164,4.164,0.12,
4.132,4.14,0.04,
4.156,4.148,0.12,
4.124,4.164,0.04,
4.156,4.164,0.16,
4.076,4.148,0.04,
4.108,4.148,0.04,
4.076,4.164,0.16,
4.108,4.148,0.04,
4.076,4.164,0.16,
4.108,4.148,0.16,
4.076,4.164,0.04,
4.108,4.164,0.04,
4.076,4.148,0.16,
4.108,4.164,0.04,
4.084,4.148,0.12,
4.108,4.164,0.12,
4.084,4.132,0.04,
4.108,4.148,0.04,
4.076,4.196,0.16,
4.108,4.196,0.04,
4.076,4.172,0.16,
4.076,4.188,0.04,
4.108,4.172,0.16,
4.092,4.188,0.04,
4.164,4.132,0.12,
4.164,4.132,0.04,
4.132,4.164,0.12,
4.156,4.148,0.16,
4.132,4.164,0.04,
4.156,4.148,0.04,
4.076,4.164,0.16,
4.076,4.148,0.04,
4.108,4.164,0.16,
4.108,4.148,0.04,
4.084,4.164,0.16,
4.092,4.148,0.12,
4.108,4.164,0.04,
4.108,4.164,0.16,
4.084,4.148,0.04,
4.108,4.148,0.16,
4.084,4.164,0.04,
4.108,4.148,0.04,
4.076,4.18,0.16,
4.108,4.18,0.04,
4.092,4.196,0.16,
4.108,4.196,0.12,
4.084,4.164,0.04,
4.084,4.196,0.12,
4.14,4.18,0.04,
4.132,4.188,0.04,
4.164,4.132,0.16,
4.132,4.148,0.04,
4.164,4.164,0.16,
4.164,4.164,0.16,
4.14,4.148,0.04,
4.164,4.148,0.04,
4.076,4.172,0.16,
4.076,4.164,0.12,
4.116,4.148,0.04,
4.092,4.164,0.16,
4.116,4.148,0.04,
4.076,4.164,0.04,
4.116,4.14,0.16,
4.092,4.164,0.04,
4.116,4.148,0.16,
4.092,4.164,0.04,
4.116,4.14,0.16,
4.116,4.148,0.04,
4.068,4.196,0.16,
4.092,4.196,0.04,
4.116,4.172,0.12,
4.076,4.188,0.12,
4.116,4.172,0.04,
4.084,4.188,0.04,
4.164,4.148,0.16,
4.164,4.132,0.12,
4.14,4.164,0.04,
4.156,4.148,0.04,
4.124,4.164,0.16,
4.156,4.164,0.16,
4.092,4.148,0.04,
4.068,4.164,0.12,
4.108,4.148,0.04,
4.108,4.148,0.12,
4.084,4.164,0.04,
4.108,4.164,0.04,
4.076,4.132,0.16,
4.108,4.164,0.04,
4.092,4.148,0.16,
4.092,4.164,0.04,
4.108,4.132,0.16,
4.108,4.148,0.04,
4.076,4.164,0.16,
4.108,4.148,0.12,
4.076,4.196,0.04,
4.108,4.196,0.04,
4.06,4.172,0.16,
4.092,4.196,0.12,
4.108,4.164,0.04,
4.076,4.188,0.04,
4.164,4.132,0.16,
4.164,4.132,0.16,
4.124,4.164,0.04,
4.156,4.164,0.04,
4.132,4.148,0.16,
4.156,4.164,0.16,
4.076,4.132,0.04,
4.108,4.164,0.04,
4.068,4.148,0.16,
4.092,4.164,0.04,
4.108,4.148,0.16,
4.076,4.164,0.16,
4.108,4.148,0.04,
4.108,4.148,0.04,
4.076,4.164,0.16,
4.108,4.148,0.04,
4.076,4.164,0.16,
4.092,4.148,0.04,
4.108,4.164,0.16,
4.108,4.164,0.16,
4.084,4.148,0.04,
4.076,4.148,0.04,
4.108,4.164,0.16,
4.108,4.148,0.16,
4.084,4.164,0.04,
4.092,4.164,0.16,
4.108,4.132,0.04,
4.108,4.148,0.16,
4.084,4.164,0.04,
4.092,4.148,0.16,
4.108,4.164,0.04,
4.076,4.164,0.04,
4.108,4.148,0.16,
4.092,4.164,0.04,
4.108,4.148,0.16,
4.108,4.148,0.16,
4.076,4.164,0.04,
4.092,4.164,0.04,
4.108,4.148,0.16,
4.108,4.164,0.04,
4.092,4.148,0.16,
4.092,4.148,0.12,
4.108,4.164,0.04,
4.108,4.148,0.04,
4.092,4.172,0.12,
4.108,4.148,0.04,
4.076,4.164,0.16,
4.076,4.148,0.16,
4.108,4.164,0.04,
4.108,4.148,0.16,
4.076,4.164,0.04,
4.108,4.164,0.04,
4.084,4.148,0.16,
4.108,4.164,0.04,
4.092,4.148,0.16,
4.108,4.164,0.16,
4.076,4.14,0.04,
4.108,4.164,0.12,
4.092,4.148,0.04,
4.108,4.148,0.04,
4.084,4.164,0.16,
4.084,4.164,0.16,
4.108,4.148,0.04,
4.108,4.148,0.04,
4.092,4.164,0.16,
4.092,4.164,0.04,
4.108,4.132,0.16,
4.108,4.164,0.04,
4.084,4.148,0.16,
4.092,4.148,0.04,
4.108,4.164,0.16,
4.068,4.148,0.04,
4.108,4.164,0.16,
4.108,4.164,0.16,
4.092,4.148,0.04,
4.108,4.148,0.16,
4.084,4.164,0.04,
4.108,4.148,0.04,
4.076,4.164,0.16,
4.108,4.148,0.12,
4.084,4.164,0.04,
4.108,4.164,0.04,
4.084,4.148,0.16,
4.092,4.148,0.16,
4.108,4.164,0.04,
4.108,4.164,0.04,
4.076,4.132,0.16,
4.108,4.164,0.12,
4.076,4.148,0.04,
4.108,4.164,0.16,
4.092,4.14,0.04,
4.076,4.148,0.04,
4.108,4.164,0.16,
4.092,4.164,0.04,
4.108,4.14,0.16,
4.108,4.148,0.16,
4.084,4.164,0.04,
4.108,4.164,0.12,
4.076,4.116,0.04,
4.108,4.148,0.12,
4.092,4.164,0.04,
4.108,4.148,0.04,
4.084,4.196,0.16,
4.108,4.164,0.04,
4.036,4.148,0.16,
4.108,4.164,0.12,
4.084,4.14,0.04,
4.076,4.164,0.16,
4.164,4.132,0.04,
4.108,4.148,0.04,
4.076,4.164,0.16,
4.108,4.148,0.04,
4.076,4.164,0.12,
4.108,4.164,0.04,
4.084,4.148,0.16,
4.108,4.164,0.04,
4.076,4.14,0.16,
4.092,4.164,0.04,
4.108,4.148,0.16,
4.108,4.148,0.04,
4.084,4.164,0.16,
4.108,4.148,0.04,
4.076,4.196,0.16,
4.108,4.196,0.04,
4.092,4.18,0.16,
4.108,4.172,0.04,
4.076,4.196,0.16,
4.084,4.188,0.16,
4.164,4.132,0.04,
4.164,4.132,0.04,
4.132,4.164,0.16,
4.156,4.148,0.04,
4.124,4.164,0.16,
4.156,4.164,0.04,
4.076,4.148,0.16,
4.076,4.164,0.04,
4.108,4.132,0.16,
4.108,4.148,0.16,
4.084,4.164,0.04,
4.108,4.148,0.04,
4.084,4.164,0.16,
4.084,4.164,0.04,
4.108,4.148,0.12,
4.108,4.164,0.12,
4.084,4.148,0.04,
4.092,4.148,0.04,
4.108,4.172,0.16,
4.108,4.148,0.04,
4.084,4.204,0.16,
4.108,4.196,0.04,
4.076,4.172,0.16,
4.084,4.196,0.04,
4.116,4.172,0.16,
4.092,4.196,0.04,
4.172,4.132,0.16,
4.148,4.164,0.04,
4.164,4.132,0.12,
4.164,4.148,0.16,
4.14,4.164,0.04,
4.164,4.164,0.04,
4.076,4.148,0.16,
4.108,4.14,0.04,
4.084,4.172,0.16,
4.092,4.148,0.04,
4.116,4.172,0.16,
4.092,4.164,0.04,
4.116,4.14,0.16,
4.116,4.148,0.04,
4.084,4.164,0.16,
4.092,4.164,0.12,
4.116,4.148,0.04,
4.116,4.164,0.16,
4.084,4.148,0.04,
4.092,4.148,0.04,
4.108,4.196,0.12,
4.108,4.196,0.04,
4.084,4.172,0.16,
4.108,4.188,0.04,
4.092,4.172,0.12,
4.092,4.188,0.12,
4.164,4.132,0.04,
4.132,4.164,0.04,
4.164,4.14,0.16,
4.156,4.164,0.04,
4.132,4.148,0.16,
4.156,4.164,0.16,
4.076,4.14,0.04,
4.108,4.164,0.16,
4.084,4.148,0.04,
4.108,4.164,0.04,
4.084,4.148,0.16,
4.084,4.164,0.16,
4.108,4.132,0.04,
4.108,4.164,0.12,
4.092,4.148,0.04,
4.108,4.148,0.04,
4.076,4.164,0.16,
4.108,4.148,0.04,
4.076,4.188,0.16,
4.108,4.196,0.12,
4.092,4.18,0.04,
4.108,4.196,0.04,
4.068,4.172,0.16,
4.092,4.188,0.16,
4.148,4.172,0.04,
4.164,4.188,0.16,
4.132,4.132,0.04,
4.164,4.164,0.12,
4.124,4.132,0.04,
4.156,4.164,0.04,
4.132,4.148,0.16,
4.156,4.164,0.04,
4.068,4.14,0.16,
4.108,4.164,0.12,
4.084,4.148,0.04,
4.108,4.164,0.04,
4.076,4.132,0.16,
4.108,4.148,0.16,
4.076,4.164,0.04,
4.108,4.164,0.12,
4.076,4.148,0.04,
4.108,4.148,0.04,
4.068,4.164,0.16,
4.108,4.148,0.04,
4.092,4.196,0.12,
4.092,4.196,0.16,
4.108,4.18,0.04,
4.108,4.188,0.04,
4.076,4.172,0.16,
4.092,4.188,0.04,
4.164,4.148,0.16,
4.164,4.14,0.04,
4.132,4.164,0.16,
4.164,4.148,0.16,
4.132,4.164,0.04,
4.156,4.14,0.04,
4.076,4.164,0.12,
4.068,4.164,0.12,
4.108,4.148,0.04,
4.108,4.148,0.04,
4.092,4.164,0.16,
4.084,4.148,0.04,
4.108,4.164,0.16,
4.092,4.164,0.16,
4.108,4.148,0.04,
4.108,4.148,0.16,
4.084,4.164,0.04,
4.108,4.164,0.04,
4.076,4.148,0.16,
4.108,4.148,0.04,
4.076,4.196,0.16,
4.076,4.196,0.04,
4.108,4.18,0.16,
4.092,4.196,0.04,
4.108,4.172,0.16,
4.092,4.196,0.04,
4.164,4.132,0.16,
4.164,4.164,0.04,
4.132,4.14,0.16,
4.156,4.164,0.04,
4.132,4.148,0.16,
4.156,4.164,0.04,
