Power Payload/Metingen 1/Payload 1 70.csv

CH1,CH2,CH3,Start,Increment,
Volt,Volt,Volt,-2.9975,0.005
4.092,4.148,0.04,
4.108,4.164,0.16,
4.108,4.164,0.04,
4.084,4.14,0.16,
4.084,4.148,0.04,
4.108,4.164,0.16,
4.108,4.164,0.04,
4.076,4.148,0.16,
4.108,4.164,0.04,
4.076,4.132,0.16,
4.108,4.148,0.16,
4.092,4.164,0.04,
4.108,4.148,0.04,
4.076,4.164,0.16,
4.084,4.148,0.16,
4.108,4.164,0.04,
4.108,4.164,0.16,
4.092,4.14,0.04,
4.108,4.164,0.04,
4.076,4.132,0.16,
4.108,4.164,0.12,
4.084,4.148,0.04,
4.108,4.164,0.16,
4.076,4.148,0.04,
4.076,4.164,0.04,
4.108,4.148,0.16,
4.116,4.164,0.12,
4.092,4.148,0.04,
4.108,4.148,0.04,
4.076,4.164,0.16,
4.108,4.148,0.04,
4.076,4.164,0.16,
4.108,4.164,0.04,
4.076,4.148,0.16,
4.076,4.148,0.04,
4.108,4.164,0.16,
4.108,4.164,0.16,
4.084,4.148,0.04,
4.108,4.148,0.04,
4.076,4.164,0.16,
4.108,4.164,0.16,
4.076,4.14,0.04,
4.108,4.148,0.04,
4.076,4.164,0.16,
4.108,4.148,0.04,
4.084,4.164,0.16,
4.108,4.148,0.04,
4.084,4.164,0.16,
4.108,4.14,0.04,
4.076,4.164,0.16,
4.092,4.164,0.12,
4.108,4.14,0.04,
4.092,4.164,0.12,
4.108,4.14,0.04,
4.068,4.148,0.12,
4.108,4.164,0.04,
4.108,4.148,0.04,
4.076,4.164,0.16,
4.108,4.148,0.16,
4.068,4.164,0.04,
4.092,4.148,0.16,
4.108,4.164,0.04,
4.108,4.164,0.04,
4.076,4.14,0.12,
4.076,4.164,0.04,
4.108,4.148,0.16,
4.108,4.164,0.04,
4.084,4.14,0.16,
4.108,4.148,0.04,
4.076,4.164,0.16,
4.108,4.164,0.04,
4.076,4.148,0.12,
4.108,4.164,0.04,
4.076,4.132,0.16,
4.108,4.148,0.04,
4.084,4.164,0.16,
4.092,4.148,0.04,
4.108,4.164,0.12,
4.108,4.148,0.04,
4.076,4.164,0.16,
4.092,4.148,0.04,
4.108,4.164,0.16,
4.108,4.164,0.16,
4.076,4.132,0.04,
4.076,4.164,0.04,
4.108,4.148,0.16,
4.108,4.164,0.04,
4.076,4.148,0.16,
4.108,4.148,0.04,
4.068,4.164,0.16,
4.108,4.172,0.04,
4.092,4.148,0.16,
4.084,4.148,0.04,
4.116,4.164,0.16,
4.116,4.164,0.16,
4.076,4.148,0.04,
4.116,4.148,0.04,
4.092,4.172,0.16,
4.084,4.164,0.04,
4.116,4.14,0.16,
4.092,4.164,0.04,
4.116,4.148,0.16,
4.116,4.164,0.12,
4.092,4.132,0.04,
4.076,4.164,0.04,
4.116,4.148,0.12,
4.116,4.164,0.04,
4.092,4.148,0.16,
4.076,4.132,0.04,
4.116,4.164,0.16,
4.108,4.148,0.04,
4.084,4.164,0.16,
4.116,4.164,0.16,
4.092,4.132,0.04,
4.068,4.164,0.04,
4.108,4.14,0.16,
4.108,4.164,0.04,
4.084,4.148,0.16,
4.108,4.14,0.12,
4.068,4.164,0.04,
4.108,4.164,0.16,
4.076,4.132,0.04,
4.108,4.148,0.12,
4.084,4.164,0.04,
4.076,4.148,0.12,
4.108,4.164,0.04,
4.092,4.148,0.12,
4.108,4.164,0.04,
4.108,4.164,0.04,
4.076,4.14,0.16,
4.108,4.148,0.04,
4.076,4.164,0.16,
4.092,4.164,0.04,
4.108,4.132,0.16,
4.068,4.164,0.04,
4.108,4.148,0.16,
4.108,4.164,0.04,
4.076,4.148,0.16,
4.108,4.164,0.04,
4.068,4.132,0.16,
4.108,4.148,0.04,
4.084,4.164,0.16,
4.108,4.148,0.16,
4.084,4.164,0.04,
4.076,4.148,0.16,
4.108,4.164,0.04,
4.092,4.164,0.04,
4.108,4.14,0.16,
4.108,4.164,0.04,
4.076,4.14,0.16,
4.076,4.148,0.12,
4.108,4.164,0.04,
4.108,4.164,0.12,
4.076,4.14,0.04,
4.084,4.148,0.04,
4.108,4.164,0.12,
4.092,4.148,0.16,
4.108,4.164,0.04,
4.108,4.148,0.12,
4.084,4.164,0.04,
4.108,4.148,0.04,
4.084,4.164,0.16,
4.092,4.164,0.16,
4.108,4.132,0.04,
4.084,4.164,0.04,
4.108,4.148,0.16,
4.108,4.164,0.12,
4.076,4.148,0.04,
4.108,4.132,0.16,
4.068,4.164,0.04,
4.092,4.148,0.04,
4.108,4.164,0.16,
4.092,4.148,0.12,
4.108,4.164,0.04,
4.084,4.148,0.04,
4.108,4.164,0.16,
4.108,4.148,0.04,
4.076,4.164,0.16,
4.092,4.164,0.04,
4.108,4.132,0.16,
4.108,4.164,0.04,
4.084,4.148,0.16,
4.108,4.164,0.04,
4.084,4.132,0.16,
4.108,4.148,0.04,
4.076,4.164,0.12,
4.108,4.148,0.16,
4.084,4.164,0.04,
4.108,4.148,0.04,
4.068,4.164,0.16,
4.108,4.164,0.04,
4.084,4.132,0.16,
4.108,4.132,0.04,
4.076,4.164,0.16,
4.076,4.148,0.12,
4.108,4.164,0.04,
4.108,4.164,0.04,
4.084,4.148,0.16,
4.108,4.14,0.16,
4.076,4.164,0.04,
4.108,4.164,0.04,
4.076,4.148,0.16,
4.092,4.164,0.04,
4.108,4.132,0.16,
4.108,4.148,0.04,
4.076,4.164,0.16,
4.092,4.164,0.04,
4.108,4.14,0.16,
4.108,4.164,0.12,
4.076,4.14,0.04,
4.092,4.164,0.04,
4.108,4.14,0.16,
4.108,4.148,0.12,
4.076,4.164,0.04,
4.068,4.148,0.16,
4.108,4.164,0.04,
4.108,4.164,0.16,
4.084,4.14,0.04,
4.108,4.164,0.04,
4.076,4.148,0.16,
4.108,4.148,0.04,
4.084,4.164,0.16,
4.108,4.164,0.12,
4.076,4.132,0.04,
4.108,4.148,0.12,
4.076,4.164,0.04,
4.108,4.164,0.04,
4.084,4.148,0.16,
4.108,4.148,0.16,
4.076,4.164,0.04,
4.076,4.148,0.16,
4.108,4.164,0.04,
4.108,4.164,0.04,
4.076,4.148,0.16,
4.108,4.164,0.04,
4.084,4.148,0.16,
4.108,4.148,0.04,
4.076,4.164,0.16,
4.108,4.14,0.04,
4.076,4.164,0.16,
4.108,4.148,0.16,
4.092,4.164,0.04,
4.108,4.164,0.12,
4.076,4.132,0.04,
4.068,4.164,0.16,
4.108,4.148,0.04,
4.108,4.164,0.04,
4.084,4.14,0.16,
4.108,4.132,0.04,
4.084,4.164,0.16,
4.108,4.164,0.04,
4.084,4.148,0.16,
4.108,4.148,0.04,
4.076,4.164,0.16,
4.068,4.164,0.04,
4.108,4.148,0.16,
4.108,4.164,0.16,
4.092,4.148,0.04,
4.108,4.164,0.04,
4.076,4.132,0.16,
4.108,4.164,0.04,
4.076,4.148,0.16,
4.084,4.164,0.04,
4.108,4.132,0.12,
4.068,4.164,0.04,
4.108,4.14,0.16,
4.108,4.164,0.12,
4.084,4.148,0.04,
4.108,4.148,0.12,
4.084,4.164,0.04,
4.108,4.164,0.16,
4.076,4.148,0.04,
4.108,4.132,0.04,
4.084,4.164,0.12,
4.076,4.164,0.04,
4.108,4.132,0.16,
4.108,4.164,0.04,
4.084,4.148,0.12,
4.108,4.164,0.12,
4.076,4.132,0.04,
4.108,4.164,0.16,
4.068,4.14,0.04,
4.108,4.164,0.04,
4.084,4.14,0.16,
4.108,4.164,0.04,
4.076,4.148,0.16,
4.108,4.148,0.12,
4.076,4.172,0.04,
4.108,4.148,0.12,
4.084,4.172,0.04,
4.092,4.148,0.04,
4.108,4.164,0.16,
4.076,4.164,0.04,
4.116,4.148,0.16,
4.076,4.164,0.12,
4.116,4.148,0.04,
4.116,4.148,0.16,
4.084,4.164,0.04,
4.108,4.164,0.04,
4.092,4.14,0.16,
4.092,4.148,0.04,
4.116,4.164,0.16,
4.116,4.164,0.16,
4.092,4.148,0.04,
4.116,4.164,0.04,
4.068,4.148,0.16,
4.092,4.148,0.04,
4.116,4.164,0.16,
4.108,4.164,0.04,
4.076,4.116,0.16,
4.084,4.164,0.16,
4.116,4.14,0.04,
4.116,4.164,0.16,
4.068,4.14,0.04,
4.108,4.164,0.04,
4.036,4.148,0.16,
4.108,4.148,0.04,
4.084,4.164,0.16,
4.108,4.148,0.04,
4.076,4.164,0.16,
4.108,4.164,0.04,
4.092,4.148,0.16,
4.108,4.164,0.04,
4.076,4.132,0.16,
4.076,4.164,0.16,
4.108,4.148,0.04,
4.108,4.164,0.04,
4.084,4.148,0.16,
4.108,4.148,0.04,
4.068,4.164,0.16,
4.108,4.164,0.16,
4.084,4.148,0.04,
4.108,4.148,0.04,
4.076,4.164,0.16,
4.108,4.148,0.04,
4.076,4.164,0.16,
4.108,4.164,0.04,
4.084,4.14,0.12,
4.108,4.164,0.16,
4.076,4.132,0.04,
4.076,4.164,0.04,
4.108,4.148,0.16,
4.108,4.148,0.04,
4.084,4.164,0.16,
4.108,4.148,0.12,
4.068,4.164,0.04,
4.108,4.164,0.16,
4.084,4.148,0.04,
4.108,4.148,0.04,
4.076,4.164,0.16,
4.108,4.148,0.04,
4.084,4.164,0.16,
4.108,4.164,0.04,
4.076,4.132,0.16,
4.076,4.148,0.04,
4.108,4.164,0.16,
4.108,4.148,0.04,
4.076,4.164,0.16,
4.108,4.164,0.04,
4.076,4.14,0.16,
4.108,4.164,0.16,
4.076,4.132,0.04,
4.108,4.164,0.04,
4.076,4.14,0.16,
4.084,4.148,0.04,
4.108,4.164,0.12,
4.108,4.148,0.16,
4.084,4.164,0.04,
4.108,4.164,0.04,
4.076,4.132,0.16,
4.108,4.148,0.04,
4.076,4.164,0.16,
4.108,4.164,0.04,
4.084,4.148,0.16,
4.108,4.148,0.04,
4.076,4.164,0.16,
4.108,4.164,0.16,
4.076,4.14,0.04,
4.108,4.164,0.04,
4.084,4.14,0.16,
4.108,4.164,0.16,
4.084,4.148,0.04,
4.108,4.164,0.04,
4.084,4.132,0.16,
4.108,4.164,0.04,
4.076,4.148,0.16,
4.092,4.164,0.04,
4.108,4.14,0.16,
4.108,4.164,0.12,
4.076,4.148,0.04,
4.092,4.148,0.04,
4.108,4.164,0.16,
4.108,4.164,0.04,
4.076,4.14,0.16,
4.108,4.164,0.16,
4.084,4.148,0.04,
4.108,4.148,0.12,
4.076,4.164,0.04,
4.108,4.164,0.04,
4.084,4.132,0.16,
4.108,4.164,0.04,
4.092,4.148,0.16,
4.092,4.164,0.04,
4.108,4.132,0.16,
4.076,4.148,0.04,
4.108,4.164,0.16,
4.108,4.164,0.04,
4.084,4.148,0.16,
4.108,4.148,0.04,
4.076,4.164,0.16,
4.108,4.164,0.04,
4.076,4.148,0.16,
4.108,4.164,0.04,
4.076,4.132,0.16,
4.076,4.148,0.12,
4.108,4.164,0.04,
4.108,4.148,0.04,
4.092,4.164,0.12,
4.108,4.132,0.04,
4.076,4.164,0.16,
4.108,4.148,0.04,
4.076,4.164,0.16,
4.108,4.164,0.04,
4.076,4.132,0.16,
4.108,4.148,0.04,
4.076,4.164,0.16,
4.108,4.164,0.12,
4.092,4.148,0.04,
4.108,4.148,0.16,
4.084,4.164,0.04,
4.108,4.164,0.04,
4.076,4.148,0.16,
4.108,4.164,0.04,
4.084,4.14,0.16,
4.076,4.164,0.04,
4.108,4.14,0.16,
4.108,4.148,0.04,
4.076,4.164,0.16,
4.108,4.148,0.12,
4.084,4.164,0.04,
4.108,4.148,0.04,
4.084,4.164,0.16,
4.108,4.164,0.04,
4.092,4.132,3.44,
4.108,4.148,3.36,
4.084,4.164,3.44,
4.108,4.164,3.36,
4.084,4.132,3.44,
4.108,4.164,3.44,
4.076,4.108,3.32,
4.108,4.164,3.36,
4.076,4.132,3.44,
4.108,4.164,3.44,
4.076,4.14,3.32,
4.108,4.148,3.36,
4.036,4.164,3.44,
4.108,4.148,3.44,
4.068,4.164,3.36,
4.108,4.164,3.36,
4.068,4.14,3.44,
4.108,4.148,3.36,
4.084,4.164,3.44,
4.108,4.164,3.44,
4.076,4.132,3.36,
4.108,4.164,3.44,
4.068,4.148,3.36,
4.108,4.148,3.36,
4.076,4.164,3.44,
4.108,4.164,3.36,
4.076,4.14,3.44,
4.108,4.164,3.44,
4.076,4.148,3.36,
4.108,4.164,3.36,
4.076,4.132,3.44,
4.108,4.204,3.36,
4.084,3.428,3.44,
4.108,3.42,3.44,
4.092,4.22,3.36,
4.108,4.196,3.36,
4.068,4.156,3.44,
4.164,4.172,3.44,
2.948,4.148,3.36,
2.916,4.164,3.44,
4.188,4.14,3.36,
4.14,4.164,3.36,
4.1,4.148,3.44,
4.116,4.164,3.36,
4.092,4.148,3.44,
4.108,4.164,3.44,
4.076,4.148,3.36,
4.108,4.164,3.44,
4.092,4.148,3.32,
4.076,4.148,3.36,
4.116,4.164,3.44,
4.092,4.164,3.36,
4.116,4.148,3.44,
4.116,4.164,3.44,
4.092,4.124,3.36,
4.116,4.1,3.36,
4.084,4.172,3.44,
4.092,4.172,3.44,
4.116,4.148,3.36,
4.108,4.172,3.44,
4.052,4.076,3.36,
4.012,4.132,3.36,
4.132,4.22,3.44,
4.116,4.22,3.44,
4.1,4.18,3.32,
4.116,4.196,3.44,
4.004,4.172,3.32,
4.076,4.196,3.44,
4.196,4.18,3.32,
4.188,4.196,3.44,
4.156,4.18,3.32,
4.172,4.18,3.36,
4.132,4.196,3.44,
4.156,4.196,3.44,
4.172,4.18,3.32,
4.172,4.18,3.36,
4.148,4.196,3.44,
4.156,4.18,3.36,
4.172,4.196,3.44,
4.172,4.18,3.32,
4.148,4.196,3.44,
4.148,4.196,3.44,
4.172,4.18,3.32,
4.156,4.196,3.44,
4.172,4.18,3.36,
4.148,4.18,3.36,
4.172,4.196,3.44,
4.156,4.18,3.44,
4.172,4.196,3.36,
4.172,4.196,3.36,
4.148,4.18,3.44,
4.148,4.196,3.44,
4.172,4.18,3.36,
4.156,4.196,3.36,
4.172,4.18,3.44,
4.172,4.18,3.44,
4.148,4.196,3.32,
4.156,4.18,3.36,
4.172,4.196,3.44,
4.172,4.196,3.44,
4.148,4.18,3.36,
4.156,4.196,3.44,
4.172,4.18,3.32,
4.156,4.196,3.44,
4.172,4.172,3.32,
4.148,4.172,3.36,
4.172,4.196,3.44,
4.156,4.18,3.44,
4.172,4.196,3.36,
4.172,4.18,3.44,
4.124,4.196,3.32,
4.132,4.196,3.36,
4.172,4.18,3.44,
4.156,4.196,3.36,
4.172,4.18,3.44,
4.172,4.18,3.44,
4.148,4.196,3.36,
4.156,4.196,3.36,
4.172,4.18,3.44,
4.172,4.18,3.44,
4.148,4.196,3.32,
4.148,4.196,3.44,
4.172,4.18,3.32,
4.172,4.196,3.44,
4.156,4.18,3.32,
4.172,4.196,3.36,
4.148,4.18,3.44,
4.172,4.196,3.36,
4.156,4.156,3.44,
4.172,4.196,3.36,
4.148,4.18,3.44,
4.148,4.196,3.44,
4.172,4.18,3.36,
4.172,4.18,3.44,
4.124,4.196,3.32,
4.172,4.196,3.36,
4.148,4.156,3.44,
4.156,4.196,3.36,
4.172,4.18,3.44,
4.156,4.196,3.36,
4.172,4.172,3.44,
4.172,4.196,3.44,
4.116,4.172,3.36,
4.164,4.18,3.32,
4.148,4.196,3.44,
4.172,4.18,3.44,
4.148,4.196,3.36,
4.172,4.196,3.36,
4.14,4.18,3.44,
4.172,4.196,3.44,
4.148,4.18,3.32,
4.148,4.196,3.36,
4.172,4.18,3.44,
4.172,4.196,3.36,
4.148,4.18,3.44,
4.172,4.196,3.44,
4.148,4.18,3.32,
4.156,4.18,3.36,
4.172,4.196,3.44,
4.172,4.18,3.36,
4.148,4.196,3.44,
4.148,4.18,3.36,
4.172,4.196,3.44,
4.172,4.196,3.44,
4.148,4.18,3.32,
4.172,4.18,3.44,
4.148,4.196,3.32,
4.148,4.196,3.36,
4.172,4.18,3.44,
4.172,4.196,3.44,
4.148,4.14,3.32,
4.148,4.164,3.36,
4.172,4.116,3.44,
4.156,4.164,3.44,
4.172,4.124,3.36,
4.172,4.108,3.44,
4.092,4.172,3.32,
4.116,4.148,3.32,
4.044,4.172,3.44,
4.116,4.164,3.36,
4.06,4.148,3.44,
4.036,4.164,3.36,
4.132,4.148,3.44,
4.1,4.164,3.44,
4.116,4.148,3.36,
4.108,4.164,3.36,
4.092,4.148,3.44,
4.116,4.124,3.36,
4.092,4.212,3.44,
4.108,4.204,3.44,
4.092,4.116,3.32,
4.092,4.164,3.44,
4.116,4.092,3.32,
4.06,4.124,3.36,
4.172,4.148,3.44,
4.172,4.124,3.44,
4.052,4.156,3.36,
4.108,4.132,3.44,
4.02,4.156,3.32,
4.076,4.132,3.44,
4.052,4.156,3.32,
4.084,4.132,3.36,
4.044,4.156,3.44,
4.084,4.156,3.36,
4.06,4.132,3.44,
4.084,4.132,3.44,
4.052,4.156,3.36,
4.084,4.156,3.44,
4.068,4.132,3.36,
4.084,4.132,3.44,
4.068,4.156,3.32,
4.068,4.132,3.36,
4.084,4.156,3.44,
4.068,4.132,3.44,
4.084,4.156,3.36,
4.084,4.132,3.44,
4.06,4.156,3.36,
4.068,4.156,3.36,
4.084,4.132,3.44,
4.084,4.156,3.44,
4.06,4.132,3.36,
4.084,4.156,3.36,
4.06,4.124,3.44,
4.084,4.156,3.44,
4.068,4.132,3.32,
4.084,4.132,3.32,
4.052,4.156,3.44,
4.084,4.132,3.36,
4.044,4.156,3.44,
4.084,4.156,3.36,
4.068,4.132,3.44,
4.068,4.132,3.44,
4.084,4.156,3.36,
4.084,4.132,3.36,
4.068,4.156,3.44,
4.084,4.132,3.44,
4.068,4.156,3.32,
4.068,4.156,3.44,
4.084,4.132,3.36,
4.084,4.132,3.44,
4.068,4.156,3.32,
4.068,4.132,3.36,
4.084,4.156,3.44,
4.084,4.156,3.44,
4.068,4.132,3.36,
4.084,4.156,3.32,
4.06,4.132,3.44,
4.084,4.156,3.4,
4.06,4.132,3.44,
4.068,4.156,3.44,
4.092,4.132,3.36,
4.068,4.196,3.44,
4.1,3.428,3.36,
4.1,3.54,3.36,
4.068,3.612,3.44,
4.084,3.604,3.4,
4.068,4.348,3.48,
4.148,4.276,3.44,
2.924,4.172,3.36,
3.044,4.244,3.44,
3.108,3.428,3.32,
3.1,3.54,3.32,
4.3,3.612,3.44,
4.22,3.572,3.36,
4.108,4.34,3.44,
4.204,4.308,3.44,
2.924,4.204,3.32,
3.012,4.204,3.36,
3.108,4.172,3.44,
3.052,4.156,3.36,
4.292,4.188,3.44,
4.26,4.116,3.4,
4.148,4.196,3.44,
4.156,3.42,3.4,
4.108,4.22,3.44,
4.1,4.22,3.44,
4.124,3.42,3.36,
4.036,3.516,3.44,
4.164,3.604,3.36,
2.916,3.588,3.44,
4.188,3.636,3.36,
4.188,4.092,3.44,
2.924,4.34,3.36,
3.02,4.22,3.36,
3.116,4.172,3.44,
3.068,3.428,3.36,
3.164,4.244,3.44,
3.932,4.212,3.44,
4.3,4.156,3.32,
4.092,4.172,3.36,
4.18,4.148,3.44,
2.932,4.204,3.44,
4.188,3.42,3.32,
4.156,4.212,3.36,
4.108,4.148,3.44,
4.116,4.212,3.44,
4.084,3.436,3.36,
4.172,4.156,3.44,
2.924,4.188,3.36,
4.068,4.172,3.36,
4.172,4.148,3.44,
4.172,4.204,3.36,
2.948,3.428,3.44,
4.092,3.476,3.36,
4.132,4.204,3.44,
4.092,4.212,3.44,
4.116,3.436,3.36,
4.172,4.228,3.36,
2.94,3.484,3.44,
2.98,4.212,3.44,
4.148,4.156,3.32,
4.172,4.148,3.44,
2.94,4.172,3.36,
4.196,4.148,3.44,
3.012,4.172,3.32,
4.164,4.148,3.32,
4.108,4.172,3.44,
4.116,4.164,3.44,
4.092,4.148,3.36,
4.116,4.164,3.36,
4.092,4.148,3.44,
4.092,4.148,3.32,
4.116,4.164,3.44,
4.092,4.164,3.36,
4.116,4.148,3.44,
4.116,4.164,3.36,
4.076,4.132,3.44,
4.084,4.148,3.44,
4.108,4.164,3.36,
4.108,4.148,3.44,
4.076,4.164,3.36,
4.108,4.132,3.36,
4.084,4.164,3.44,
4.108,4.164,3.44,
4.084,4.148,3.32,
4.108,4.164,3.44,
4.084,4.148,3.36,
4.076,4.164,3.44,
4.116,4.148,3.36,
4.116,4.164,3.36,
4.092,4.148,3.44,
4.092,4.148,3.44,
4.116,4.164,3.32,
4.092,4.164,3.36,
4.116,4.148,3.44,
4.116,4.148,3.36,
4.076,4.164,3.44,
4.116,4.164,3.44,
4.1,4.148,3.32,
4.084,4.148,3.44,
4.116,4.164,3.36,
4.076,4.164,3.36,
4.108,4.14,3.44,
4.076,4.164,3.36,
4.108,4.148,3.44,
4.108,4.148,3.36,
4.084,4.164,3.44,
4.108,4.164,3.36,
4.084,4.148,3.44,
4.108,4.148,3.44,
4.084,4.172,3.36,
4.108,4.164,3.44,
4.076,4.148,3.36,
4.116,4.164,3.44,
4.092,4.148,3.32,
4.084,4.164,3.44,
4.116,4.132,3.32,
4.092,4.164,3.36,
4.116,4.148,3.44,
4.092,4.148,3.44,
4.116,4.164,3.36,
4.116,4.164,3.36,
4.052,4.148,3.44,
4.116,4.164,3.36,
4.092,4.148,3.44,
4.116,4.148,3.36,
4.092,4.164,3.44,
4.076,4.164,3.36,
4.116,4.14,3.44,
4.116,4.164,3.36,
4.092,4.148,3.44,
4.076,4.164,3.44,
4.116,4.148,3.32,
4.108,4.164,3.44,
4.06,4.14,0.04,
4.108,4.148,0.04,
4.084,4.164,0.16,
4.076,4.164,0.16,
4.108,4.132,0.04,
4.108,4.164,0.04,
4.068,4.148,0.16,
4.076,4.148,0.04,
4.108,4.164,0.16,
4.108,4.148,0.04,
4.068,4.164,0.16,
4.108,4.148,0.16,
4.076,4.164,0.04,
4.108,4.148,0.04,
4.076,4.164,0.16,
4.108,4.164,0.04,
4.076,4.148,0.16,
4.108,4.164,0.16,
4.076,4.148,0.04,
4.108,4.164,0.16,
4.092,4.132,0.04,
4.092,4.14,0.04,
4.108,4.164,0.16,
4.108,4.148,0.04,
4.076,4.164,0.16,
4.108,4.148,0.04,
4.06,4.164,0.16,
4.084,4.148,0.12,
4.108,4.164,0.04,
4.084,4.164,0.12,
4.108,4.148,0.04,
4.108,4.148,0.04,
4.084,4.164,0.16,
4.108,4.164,0.04,
4.084,4.148,0.12,
4.108,4.164,0.16,
4.092,4.148,0.04,
4.076,4.164,0.16,
4.108,4.148,0.04,
4.108,4.148,0.04,
4.084,4.164,0.12,
4.108,4.148,0.04,
4.084,4.164,0.16,
4.108,4.148,0.04,
4.092,4.164,0.16,
4.108,4.164,0.16,
4.076,4.148,0.04,
4.108,4.164,0.04,
4.084,4.148,0.16,
4.108,4.164,0.04,
4.092,4.148,0.16,
4.108,4.164,0.12,
4.076,4.14,0.04,
4.108,4.148,0.04,
4.076,4.164,0.16,
4.108,4.164,0.12,
4.084,4.14,0.04,
4.108,4.164,0.04,
4.068,4.148,0.16,
4.108,4.148,0.04,
4.092,4.164,0.16,
4.108,4.164,0.04,
4.068,4.148,0.16,
4.108,4.164,0.16,
4.076,4.148,0.04,
4.092,4.164,0.16,
4.108,4.148,0.04,
4.108,4.164,0.04,
4.084,4.14,0.12,
4.108,4.164,0.12,
4.092,4.148,0.04,
4.108,4.148,0.12,
4.084,4.164,0.04,
4.108,4.164,0.04,
4.068,4.148,0.16,
4.108,4.164,0.04,
4.092,4.148,0.16,
4.084,4.148,0.12,
4.108,4.164,0.04,
4.108,4.164,0.16,
4.092,4.148,0.04,
4.108,4.148,0.04,
4.076,4.164,0.12,
4.108,4.164,0.04,
4.076,4.14,0.16,
4.108,4.164,0.16,
4.092,4.148,0.04,
4.076,4.148,0.12,
4.108,4.164,0.04,
4.108,4.148,0.12,
4.084,4.164,0.04,
4.108,4.14,0.04,
4.076,4.164,0.16,
4.108,4.164,0.04,
4.068,4.148,0.16,
4.108,4.164,0.04,
4.092,4.148,0.16,
4.084,4.148,0.04,
4.108,4.164,0.16,
4.108,4.164,0.04,
4.092,4.132,0.16,
4.108,4.164,0.04,
4.084,4.14,0.16,
4.108,4.148,0.04,
4.084,4.164,0.16,
4.108,4.164,0.04,
4.076,4.148,0.16,
4.108,4.164,0.04,
4.084,4.148,0.16,
4.108,4.164,0.04,
4.076,4.148,0.16,
4.108,4.164,0.16,
4.084,4.148,0.04,
4.108,4.164,0.04,
4.084,4.132,0.16,
4.108,4.164,0.12,
4.084,4.14,0.04,
4.108,4.164,0.04,
4.084,4.148,0.16,
4.108,4.148,0.16,
4.084,4.164,0.04,
4.108,4.164,0.04,
4.068,4.148,0.16,
4.108,4.164,0.16,
4.084,4.148,0.04,
4.108,4.164,0.04,
4.076,4.148,0.16,
4.108,4.164,0.12,
4.076,4.148,0.04,
4.108,4.164,0.04,
4.084,4.132,0.12,
4.108,4.164,0.04,
4.084,4.14,0.16,
4.108,4.164,0.04,
4.076,4.148,0.16,
4.108,4.164,0.04,
4.076,4.132,0.16,
4.084,4.164,0.04,
4.108,4.148,0.16,
4.108,4.164,0.04,
4.092,4.148,0.16,
4.108,4.148,0.04,
4.068,4.164,0.16,
4.108,4.164,0.04,
4.084,4.148,0.16,
4.108,4.164,0.04,
4.084,4.148,0.16,
4.092,4.164,0.04,
4.108,4.148,0.16,
4.108,4.164,0.16,
4.092,4.148,0.04,
4.108,4.148,0.04,
4.076,4.164,0.16,
4.108,4.164,0.04,
4.084,4.148,0.16,
4.108,4.164,0.04,
4.092,4.148,0.16,
4.076,4.148,0.16,
4.108,4.164,0.04,
4.108,4.164,0.04,
4.092,4.148,0.16,
4.108,4.148,0.12,
4.084,4.164,0.04,
4.092,4.164,0.04,
4.108,4.14,0.12,
4.108,4.148,0.04,
4.076,4.164,0.16,
4.108,4.164,0.16,
4.084,4.14,0.04,
4.108,4.164,0.12,
4.084,4.148,0.04,
4.108,4.148,0.04,
4.092,4.164,0.16,
4.108,4.148,0.04,
4.076,4.172,0.16,
4.108,4.172,0.12,
4.092,4.148,0.04,
4.084,4.148,0.12,
4.108,4.172,0.04,
4.092,4.164,0.04,
4.116,4.148,0.16,
4.116,4.148,0.16,
4.076,4.164,0.04,
4.076,4.148,0.16,
4.116,4.164,0.04,
4.116,4.148,0.04,
4.084,4.172,0.16,
4.092,4.148,0.04,
4.116,4.164,0.16,
4.116,4.164,0.04,
4.084,4.148,0.16,
4.092,4.148,0.04,
4.116,4.172,0.16,
4.092,4.164,0.04,
4.116,4.148,0.16,
4.116,4.164,0.12,
4.092,4.148,0.04,
4.092,4.164,0.12,
4.116,4.148,0.04,
4.108,4.148,0.12,
4.076,4.164,0.04,
4.108,4.164,0.16,
4.084,4.148,0.04,
4.108,4.148,0.04,
4.092,4.164,0.16,
4.108,4.164,0.04,
4.084,4.132,0.16,
4.108,4.164,0.12,
4.076,4.132,0.04,
4.108,4.148,0.16,
4.092,4.164,0.04,
4.108,4.148,0.04,
4.076,4.164,0.16,
4.108,4.164,0.04,
4.084,4.148,0.16,
4.108,4.164,0.04,
4.084,4.14,0.12,
4.084,4.164,0.12,
4.108,4.148,0.04,
4.108,4.164,0.04,
4.092,4.14,0.16,
4.108,4.164,0.16,
4.068,4.148,0.04,
4.108,4.164,0.04,
4.076,4.148,0.16,
4.108,4.148,0.04,
4.084,4.164,0.16,
4.108,4.148,0.04,
4.076,4.164,0.16,
4.108,4.164,0.16,
4.092,4.148,0.04,
4.108,4.148,0.16,
4.076,4.164,0.04,
4.108,4.148,0.04,
4.076,4.164,0.16,
4.108,4.164,0.16,
4.076,4.148,0.04,
4.076,4.164,0.04,
4.108,4.148,0.16,
4.108,4.164,0.04,
4.092,4.148,0.16,
4.108,4.148,0.04,
4.076,4.164,0.16,
4.108,4.164,0.12,
4.084,4.148,0.04,
4.108,4.164,0.04,
4.076,4.148,0.16,
4.108,4.148,0.04,
4.076,4.164,0.16,
4.108,4.164,0.04,
4.076,4.148,0.16,
4.108,4.164,0.04,
4.084,4.132,0.16,
4.108,4.164,0.04,
4.084,4.148,0.16,
4.108,4.164,0.16,
4.084,4.148,0.04,
4.076,4.164,0.04,
4.108,4.148,0.16,
4.092,4.148,0.04,
4.108,4.164,0.16,
4.108,4.164,0.04,
4.076,4.148,0.16,
4.108,4.148,0.16,
4.076,4.164,0.04,
4.108,4.164,0.04,
4.084,4.148,0.16,
4.108,4.164,0.12,
4.092,4.148,0.04,
4.108,4.164,0.04,
4.084,4.148,0.16,
4.108,4.164,0.04,
4.092,4.148,0.12,
4.108,4.164,0.04,
4.076,4.148,0.16,
4.092,4.164,0.04,
4.108,4.148,0.16,
4.108,4.164,0.16,
4.084,4.148,0.04,
4.108,4.148,0.04,
4.076,4.164,0.16,
4.108,4.164,0.16,
4.076,4.148,0.04,
4.108,4.148,0.16,
4.092,4.172,0.04,
4.108,4.148,0.04,
4.084,4.164,0.16,
4.076,4.164,0.12,
4.108,4.14,0.04,
4.108,4.164,0.16,
