Power Payload/Metingen 1/Payload 1 30.csv

CH1,CH2,CH3,Start,Increment,
Volt,Volt,Volt,-2.9975,0.005
4.148,4.148,0.04,
4.108,4.172,0.16,
4.132,4.164,0.04,
4.1,4.148,0.16,
4.116,4.164,0.04,
4.092,4.148,0.16,
4.092,4.148,0.04,
4.116,4.196,0.16,
4.092,4.18,0.04,
4.116,4.196,0.16,
4.092,4.188,0.12,
4.116,4.164,0.04,
4.092,4.188,0.12,
4.164,4.132,0.04,
4.164,4.156,0.16,
4.132,4.124,0.08,
4.124,4.196,0.12,
4.156,3.468,0.16,
4.156,3.436,0.04,
4.076,3.604,0.16,
4.108,3.588,0.04,
4.068,4.284,0.16,
4.164,4.332,0.04,
3.012,4.212,0.16,
2.956,4.22,0.04,
3.132,4.172,0.16,
3.108,4.172,0.04,
4.22,4.156,0.16,
4.284,4.172,0.04,
4.156,4.148,0.16,
4.164,4.164,0.04,
4.116,4.148,0.16,
4.1,4.148,0.04,
4.132,4.196,0.16,
4.116,4.196,0.04,
4.092,4.164,0.16,
4.092,4.188,0.16,
4.116,4.172,0.04,
4.092,4.188,0.04,
4.164,4.132,0.16,
4.164,4.132,0.04,
4.132,4.164,0.16,
4.156,4.164,0.16,
4.132,4.132,0.04,
4.156,4.148,0.04,
4.068,4.196,0.16,
4.076,4.132,0.12,
4.108,4.196,0.04,
4.108,4.196,0.04,
4.076,3.444,0.16,
4.084,4.172,0.04,
4.164,4.156,0.16,
4.076,4.148,0.04,
4.164,4.172,0.16,
4.164,4.164,0.12,
2.972,4.148,0.04,
4.124,4.14,0.04,
4.092,4.172,0.16,
4.092,4.156,0.04,
4.116,4.204,0.16,
4.108,4.196,0.04,
4.076,4.164,0.16,
4.092,4.196,0.16,
4.116,4.172,0.04,
4.092,4.188,0.04,
4.172,4.132,0.12,
4.164,4.148,0.04,
4.124,4.164,0.16,
4.164,4.164,0.04,
4.132,4.14,0.16,
4.164,4.132,0.04,
4.068,4.164,0.16,
4.108,4.164,0.04,
4.076,4.14,0.16,
4.116,4.164,0.04,
4.076,4.14,0.16,
4.084,4.164,0.16,
4.108,4.148,0.04,
4.108,4.164,0.12,
4.084,4.148,0.04,
4.108,4.164,0.16,
4.076,4.14,0.04,
4.108,4.148,0.04,
4.084,4.172,0.16,
4.108,4.148,0.04,
4.076,4.212,0.16,
4.076,4.196,0.04,
4.108,4.18,0.16,
4.092,4.196,0.16,
4.116,4.164,0.04,
4.1,4.188,0.04,
4.172,4.132,0.16,
4.164,4.164,0.04,
4.14,4.148,0.16,
4.164,4.164,0.12,
4.14,4.132,0.04,
4.156,4.164,0.04,
4.084,4.132,0.16,
4.108,4.164,0.04,
4.092,4.148,0.16,
4.108,4.148,0.04,
4.076,4.164,0.16,
4.108,4.164,0.04,
4.076,4.148,0.12,
4.108,4.148,0.04,
4.076,4.164,0.16,
4.108,4.148,0.12,
4.076,4.164,0.04,
4.108,4.148,0.04,
4.092,4.172,0.12,
4.108,4.172,0.04,
4.084,4.212,0.16,
4.084,4.18,0.04,
4.116,4.196,0.16,
4.116,4.196,0.12,
4.092,4.156,0.04,
4.124,4.164,0.04,
4.172,4.14,0.16,
4.164,4.164,0.04,
4.14,4.14,0.12,
4.164,4.148,0.04,
4.108,4.164,0.16,
4.108,4.164,0.04,
4.076,4.148,0.16,
4.108,4.164,0.04,
4.076,4.148,0.16,
4.092,4.164,0.04,
4.108,4.148,0.16,
4.092,4.164,0.12,
4.116,4.148,0.04,
4.116,4.164,0.04,
4.084,4.148,0.16,
4.084,4.164,0.04,
4.116,4.148,0.16,
4.108,4.148,0.12,
4.076,4.196,0.04,
4.108,4.196,0.04,
4.076,4.18,0.16,
4.092,4.188,0.16,
4.116,4.164,0.04,
4.092,4.188,0.12,
4.164,4.14,0.04,
4.164,4.124,0.16,
4.132,4.164,0.04,
4.156,4.164,0.04,
4.116,4.14,0.16,
4.156,4.164,0.04,
4.076,4.148,0.16,
4.068,4.164,0.04,
4.108,4.148,0.16,
4.108,4.148,0.04,
4.076,4.164,0.16,
4.108,4.148,0.04,
4.084,4.164,0.16,
4.108,4.164,0.04,
4.084,4.132,0.16,
4.108,4.164,0.12,
4.084,4.148,0.04,
4.108,4.148,0.16,
4.084,4.164,0.04,
4.108,4.148,0.16,
4.076,4.196,0.04,
4.108,4.196,0.04,
4.084,4.18,0.16,
4.108,4.172,0.04,
4.076,4.196,0.16,
4.084,4.196,0.16,
4.164,4.132,0.04,
4.164,4.132,0.04,
4.132,4.164,0.16,
4.132,4.164,0.16,
4.156,4.132,0.04,
4.156,4.164,0.16,
4.076,4.148,0.04,
4.076,4.164,0.04,
4.108,4.14,0.16,
4.084,4.164,0.16,
4.108,4.148,0.04,
4.108,4.164,0.04,
4.092,4.148,0.16,
4.108,4.164,0.04,
4.084,4.148,0.16,
4.108,4.164,0.12,
4.076,4.148,0.04,
4.108,4.164,0.04,
4.092,4.132,0.12,
4.108,4.164,0.04,
4.076,4.148,0.16,
4.108,4.148,0.04,
4.092,4.164,0.16,
4.108,4.148,0.04,
4.084,4.164,0.12,
4.108,4.164,0.04,
4.076,4.148,0.16,
4.108,4.164,0.04,
4.092,4.14,0.16,
4.076,4.164,0.04,
4.116,4.148,0.16,
4.108,4.148,0.04,
4.084,4.164,3.44,
4.108,4.164,3.36,
4.076,4.1,3.44,
4.108,4.164,3.44,
4.076,4.148,3.36,
4.092,4.164,3.36,
4.108,4.132,3.44,
4.108,4.148,3.44,
4.02,4.164,3.32,
4.092,4.148,3.44,
4.116,4.164,3.36,
4.108,4.164,3.36,
4.076,4.132,3.44,
4.108,4.164,3.36,
4.076,4.148,3.44,
4.092,4.164,3.44,
4.108,4.14,3.32,
4.108,4.164,3.32,
4.068,4.148,3.44,
4.108,4.164,3.44,
4.076,4.132,3.36,
4.108,4.148,3.44,
4.076,4.164,3.32,
4.108,4.164,3.36,
4.076,4.148,3.44,
4.108,4.164,3.44,
4.084,4.148,3.36,
4.108,4.148,3.36,
4.076,4.164,3.44,
4.108,4.164,3.44,
4.092,4.14,3.32,
4.108,4.164,3.36,
4.076,4.148,3.44,
4.108,4.164,3.44,
4.092,4.148,3.36,
4.108,4.164,3.44,
4.076,4.148,3.36,
4.108,4.164,3.44,
4.076,4.148,3.36,
4.108,4.164,3.44,
4.092,4.148,3.36,
4.108,4.148,3.44,
4.092,4.164,3.32,
4.108,4.164,3.44,
4.084,4.148,3.32,
4.108,4.164,3.36,
4.076,4.14,3.44,
4.108,4.164,3.36,
4.084,4.148,3.44,
4.108,4.164,3.44,
4.084,4.148,3.32,
4.108,4.148,3.32,
4.076,4.164,3.44,
4.108,4.148,3.36,
4.084,4.164,3.44,
4.108,4.164,3.36,
4.076,4.148,3.44,
4.108,4.148,3.36,
4.084,4.164,3.44,
4.108,4.148,3.36,
4.076,4.164,3.44,
4.108,4.164,3.36,
4.076,4.148,3.44,
4.108,4.164,3.44,
4.076,4.148,3.32,
4.108,4.164,3.36,
4.084,4.148,3.44,
4.108,4.164,3.36,
4.076,4.132,3.44,
4.108,4.148,3.44,
4.092,4.196,3.36,
4.108,4.132,3.44,
4.076,4.164,3.32,
4.108,4.164,3.36,
4.076,4.148,3.44,
4.092,4.164,3.44,
4.164,4.148,3.32,
4.076,4.148,3.36,
4.108,4.164,3.44,
4.108,4.164,3.36,
4.076,4.148,3.44,
4.108,4.164,3.36,
4.084,4.132,3.44,
4.108,4.164,3.44,
4.076,4.148,3.32,
4.092,4.148,3.44,
4.108,4.164,3.36,
4.108,4.164,3.36,
4.084,4.148,3.44,
4.108,4.148,3.44,
4.076,4.196,3.32,
4.108,4.196,3.44,
4.084,4.172,3.32,
4.108,4.188,3.36,
4.084,4.164,3.44,
4.092,4.188,3.44,
4.164,4.132,3.32,
4.132,4.132,3.36,
4.164,4.164,3.44,
4.156,4.164,3.36,
4.132,4.14,3.44,
4.156,4.164,3.36,
4.084,4.132,3.44,
4.068,4.148,3.44,
4.108,4.164,3.32,
4.108,4.164,3.36,
4.076,4.148,3.44,
4.084,4.148,3.36,
4.108,4.172,3.44,
4.108,4.148,3.36,
4.076,4.172,3.44,
4.108,4.148,3.44,
4.084,4.172,3.36,
4.076,4.164,3.36,
4.116,4.148,3.44,
4.116,4.148,3.44,
4.092,4.196,3.36,
4.092,4.18,3.44,
4.116,4.196,3.32,
4.092,4.196,3.44,
4.116,4.164,3.36,
4.092,4.196,3.36,
4.164,4.132,3.44,
4.164,4.164,3.36,
4.132,4.124,3.44,
4.164,4.124,3.44,
4.132,4.172,3.32,
4.156,4.172,3.44,
4.076,4.148,3.36,
4.108,4.164,3.44,
4.06,4.148,3.32,
4.044,4.164,3.44,
4.116,4.116,3.32,
4.116,4.124,3.36,
4.084,4.164,3.44,
4.108,4.148,3.36,
4.092,4.164,3.44,
4.108,4.164,3.44,
4.044,4.148,3.32,
4.06,4.164,3.44,
4.108,4.132,3.36,
4.108,4.148,3.44,
4.076,4.196,3.36,
4.108,4.196,3.36,
4.084,4.172,3.44,
4.108,4.188,3.44,
4.06,4.172,3.32,
4.084,4.188,3.44,
4.164,4.132,3.36,
4.132,4.132,3.44,
4.156,4.164,3.36,
4.156,4.148,3.44,
4.132,4.164,3.36,
4.156,4.148,3.36,
4.076,4.164,3.44,
4.076,4.164,3.44,
4.108,4.132,3.32,
4.076,4.164,3.44,
4.108,4.14,3.32,
4.108,4.164,3.44,
4.084,4.148,3.36,
4.108,4.148,3.36,
4.076,4.164,3.44,
4.108,4.164,3.36,
4.076,4.1,3.44,
4.116,4.164,3.32,
4.084,4.14,3.44,
4.108,4.196,3.36,
4.084,4.156,3.44,
4.108,4.188,3.44,
4.02,4.172,3.36,
4.108,4.188,3.44,
4.076,4.148,3.32,
4.164,4.14,3.44,
4.116,4.164,3.32,
4.164,4.164,3.44,
4.132,4.14,3.36,
4.156,4.148,3.44,
4.1,4.164,3.32,
4.108,4.164,3.44,
4.076,4.148,3.32,
4.076,4.148,3.44,
4.108,4.164,3.36,
4.108,4.148,3.36,
4.076,4.164,3.44,
4.108,4.164,3.44,
4.092,4.148,3.32,
4.108,4.164,3.44,
4.076,4.148,3.36,
4.108,4.164,3.36,
4.076,4.148,3.44,
4.108,4.148,3.36,
4.092,4.196,3.44,
4.108,4.196,3.44,
4.076,4.18,3.32,
4.108,4.188,3.36,
4.092,4.172,3.44,
4.076,4.188,3.44,
4.164,4.132,3.36,
4.164,4.132,3.32,
4.132,4.164,3.44,
4.156,4.164,3.44,
4.132,4.132,3.32,
4.156,4.148,3.36,
4.076,4.164,3.44,
4.076,4.148,3.44,
4.108,4.164,3.32,
4.084,4.164,3.44,
4.108,4.124,3.32,
4.084,4.148,3.36,
4.108,4.164,3.44,
4.108,4.164,3.44,
4.076,4.14,3.36,
4.108,4.148,3.44,
4.044,4.164,3.32,
4.108,4.164,3.36,
4.092,4.14,3.44,
4.108,4.148,3.44,
4.076,4.196,3.32,
4.084,4.196,3.44,
4.108,4.164,3.32,
4.108,4.188,3.44,
4.076,4.172,3.32,
4.084,4.188,3.36,
4.164,4.132,3.44,
4.164,4.132,3.44,
4.132,4.164,3.4,
4.156,4.196,3.4,
4.132,3.444,3.48,
4.156,3.508,3.4,
4.076,3.612,3.44,
4.108,3.604,3.44,
4.076,3.66,3.4,
4.164,3.636,3.44,
2.956,3.668,3.4,
3.02,3.668,3.4,
3.132,3.652,3.44,
3.124,3.66,3.4,
3.18,3.684,3.44,
3.156,3.684,3.44,
3.196,3.652,3.4,
3.172,3.684,3.44,
3.212,3.66,3.36,
3.212,3.684,3.36,
3.188,3.66,3.44,
3.212,3.66,3.36,
3.18,4.364,3.44,
3.196,4.308,3.44,
3.212,4.204,3.36,
3.22,4.212,3.36,
3.188,4.156,3.44,
3.188,4.156,3.36,
4.316,4.204,3.44,
4.26,4.204,3.44,
4.148,4.148,3.36,
4.156,4.164,3.36,
4.092,4.132,3.44,
4.092,4.148,3.44,
4.172,4.196,3.36,
4.172,4.196,3.36,
4.1,4.148,3.44,
4.068,4.124,3.4,
4.108,4.196,3.44,
4.076,4.188,3.4,
4.148,3.444,3.44,
4.164,3.556,3.44,
4.084,3.644,3.32,
4.044,3.612,3.44,
4.164,3.668,3.32,
4.148,3.628,3.36,
2.972,4.356,3.44,
3.052,4.252,3.36,
3.172,4.18,3.44,
3.108,4.164,3.4,
3.204,4.212,3.44,
3.124,4.204,3.4,
4.3,3.484,3.44,
4.196,3.46,3.44,
4.124,3.644,3.36,
4.1,3.612,3.44,
4.172,3.684,3.36,
4.172,3.644,3.32,
3.044,4.34,3.44,
3.004,4.252,3.36,
3.204,4.18,3.44,
3.148,4.188,3.36,
3.252,4.156,3.44,
3.18,4.172,3.44,
4.284,4.14,3.32,
4.196,4.132,3.44,
4.116,4.196,3.36,
4.132,4.196,3.36,
4.1,4.148,3.44,
4.116,3.476,3.44,
4.076,4.204,3.32,
4.068,4.164,3.36,
4.164,4.212,3.44,
4.164,4.212,3.44,
4.076,4.172,3.32,
4.164,4.196,3.36,
3.012,4.156,3.44,
4.1,4.164,3.36,
4.172,4.132,3.44,
4.172,4.132,3.36,
4.132,4.164,3.44,
4.156,4.164,3.36,
4.116,4.148,3.44,
4.108,4.164,3.44,
4.068,4.14,3.32,
4.068,4.164,3.44,
4.108,4.148,3.36,
4.108,4.164,3.44,
4.076,4.148,3.36,
4.076,4.164,3.44,
4.116,4.148,3.36,
4.116,4.148,3.32,
4.092,4.172,3.44,
4.116,4.148,3.36,
4.092,4.172,3.44,
4.084,4.148,3.44,
4.116,4.196,3.32,
4.116,4.196,3.44,
4.084,4.172,3.32,
4.116,4.188,3.44,
4.084,4.172,3.32,
4.092,4.188,3.36,
4.164,4.132,3.44,
4.164,4.132,3.36,
4.132,4.156,3.44,
4.156,4.148,3.36,
4.124,4.164,3.44,
4.156,4.148,3.36,
4.076,4.164,3.44,
4.108,4.148,3.36,
4.068,4.172,3.44,
4.084,4.164,3.44,
4.108,4.148,3.36,
4.108,4.148,3.44,
4.084,4.172,3.36,
4.084,4.148,3.36,
4.116,4.172,3.44,
4.116,4.148,3.44,
4.092,4.172,3.36,
4.116,4.132,3.36,
4.084,4.172,3.44,
4.116,4.148,3.36,
4.084,4.196,3.44,
4.092,4.196,3.36,
4.116,4.172,3.44,
4.084,4.188,3.32,
4.116,4.164,3.44,
4.092,4.188,3.36,
4.164,4.132,3.44,
4.164,4.124,3.36,
4.124,4.164,3.44,
4.132,4.164,3.36,
4.156,4.132,3.44,
4.156,4.164,3.32,
4.076,4.132,3.44,
4.068,4.164,3.36,
4.108,4.148,3.44,
4.108,4.148,3.36,
4.076,4.164,3.44,
4.108,4.164,3.44,
4.076,4.14,3.32,
4.108,4.164,3.36,
4.076,4.148,3.44,
4.108,4.164,3.36,
4.076,4.132,3.44,
4.108,4.164,3.36,
4.076,4.132,3.44,
4.108,4.148,3.36,
4.076,4.212,3.44,
4.108,4.196,3.36,
4.084,4.18,3.44,
4.108,4.196,3.44,
4.076,4.172,3.32,
4.092,4.188,3.44,
4.172,4.132,0.08,
4.164,4.164,0.04,
4.14,4.148,0.12,
4.164,4.148,0.04,
4.14,4.164,0.16,
4.164,4.164,0.12,
4.076,4.14,0.04,
4.108,4.164,0.04,
4.076,4.14,0.16,
4.092,4.164,0.04,
4.116,4.14,0.16,
4.084,4.148,0.04,
4.116,4.164,0.16,
4.108,4.164,0.04,
4.084,4.148,0.16,
4.108,4.164,0.12,
4.076,4.14,0.04,
4.108,4.164,0.04,
4.092,4.148,0.16,
4.108,4.148,0.04,
4.084,4.204,0.12,
4.108,4.18,0.04,
4.068,4.196,0.16,
4.084,4.196,0.04,
4.116,4.172,0.12,
4.1,4.188,0.16,
4.172,4.14,0.04,
4.164,4.164,0.04,
4.14,4.132,0.16,
4.164,4.132,0.04,
4.132,4.172,0.16,
4.156,4.164,0.04,
4.084,4.132,0.16,
4.108,4.14,0.04,
4.076,4.164,0.16,
4.116,4.164,0.04,
4.068,4.14,0.16,
4.108,4.164,0.16,
4.084,4.14,0.04,
4.108,4.164,0.16,
4.084,4.14,0.04,
4.108,4.164,0.04,
4.068,4.148,0.16,
4.108,4.164,0.04,
4.076,4.148,0.12,
4.108,4.18,0.04,
4.068,4.204,0.16,
4.108,4.196,0.04,
4.084,4.172,0.16,
4.116,4.196,0.16,
4.076,4.156,0.04,
4.132,4.164,0.04,
4.172,4.132,0.16,
4.164,4.148,0.04,
4.132,4.164,0.16,
4.164,4.164,0.04,
4.116,4.148,0.16,
4.116,4.164,0.16,
4.076,4.148,0.04,
4.092,4.164,0.04,
4.116,4.148,0.12,
4.092,4.164,0.16,
4.116,4.148,0.04,
4.092,4.164,0.16,
4.116,4.148,0.04,
4.092,4.164,0.16,
4.116,4.148,0.04,
4.116,4.164,0.04,
4.092,4.148,0.12,
4.108,4.124,0.16,
4.092,4.196,0.04,
4.108,4.196,0.04,
4.076,4.18,0.16,
4.108,4.172,0.04,
4.076,4.196,0.16,
4.06,4.188,0.16,
4.164,4.132,0.04,
4.164,4.132,0.04,
4.132,4.164,0.16,
4.156,4.164,0.04,
4.132,4.14,0.16,
4.156,4.164,0.12,
4.084,4.148,0.04,
4.108,4.164,0.04,
4.068,4.14,0.16,
4.108,4.164,0.16,
4.076,4.14,0.04,
4.108,4.148,0.04,
4.092,4.164,0.16,
4.108,4.164,0.04,
4.084,4.148,0.16,
4.108,4.164,0.12,
4.068,4.148,0.04,
4.108,4.148,0.16,
4.084,4.164,0.04,
4.108,4.148,0.04,
4.076,4.196,0.16,
4.108,4.196,0.12,
4.092,4.172,0.04,
4.092,4.172,0.12,
4.108,4.196,0.04,
4.084,4.188,0.04,
4.164,4.132,0.16,
4.164,4.132,0.04,
4.132,4.164,0.16,
4.132,4.148,0.04,
4.156,4.164,0.16,
4.156,4.164,0.04,
4.076,4.14,0.16,
4.068,4.164,0.04,
4.108,4.148,0.16,
4.108,4.148,0.04,
4.076,4.164,0.12,
4.108,4.148,0.16,
4.084,4.164,0.04,
4.108,4.164,0.16,
4.084,4.148,0.04,
4.108,4.164,0.04,
4.084,4.148,0.16,
4.108,4.164,0.04,
4.076,4.148,0.16,
4.108,4.148,0.16,
4.076,4.164,0.04,
4.108,4.164,0.12,
4.092,4.148,0.04,
4.108,4.164,0.12,
4.084,4.148,0.04,
4.108,4.164,0.16,
4.076,4.132,0.04,
4.108,4.148,0.04,
4.076,4.164,0.16,
4.108,4.148,0.04,
4.076,4.164,0.16,
4.108,4.164,0.04,
4.068,4.148,0.16,
4.108,4.164,0.04,
4.084,4.148,0.16,
4.092,4.164,0.04,
4.108,4.148,0.16,
4.108,4.164,0.12,
4.076,4.148,0.04,
4.108,4.164,0.12,
4.076,4.148,0.04,
4.108,4.164,0.04,
4.076,4.148,0.16,
4.108,4.164,0.04,
4.076,4.148,0.16,
4.108,4.164,0.16,
4.084,4.148,0.04,
4.092,4.164,0.16,
4.108,4.148,0.04,
4.108,4.164,0.04,
4.092,4.148,0.16,
4.108,4.148,0.04,
4.084,4.164,0.16,
4.108,4.164,0.16,
4.084,4.148,0.04,
4.108,4.164,0.04,
4.092,4.148,0.16,
4.108,4.164,0.04,
4.084,4.148,0.16,
4.108,4.164,0.16,
4.084,4.148,0.04,
4.108,4.148,0.16,
4.076,4.164,0.04,
4.108,4.164,0.04,
4.076,4.148,0.16,
4.108,4.164,0.04,
4.076,4.148,0.16,
4.092,4.164,0.04,
4.108,4.148,0.16,
4.108,4.164,0.04,
4.076,4.148,0.16,
4.108,4.148,0.04,
4.076,4.164,0.16,
4.108,4.164,0.16,
4.076,4.148,0.04,
4.108,4.164,0.04,
4.076,4.148,0.16,
4.108,4.164,0.04,
4.076,4.148,0.16,
4.108,4.148,0.16,
4.084,4.164,0.04,
4.108,4.164,0.04,
4.076,4.14,0.16,
4.108,4.164,0.04,
4.076,4.148,0.16,
4.108,4.164,0.04,
4.092,4.148,0.16,
4.108,4.164,0.04,
4.076,4.148,0.12,
4.108,4.164,0.16,
4.092,4.148,0.04,
4.108,4.148,0.04,
4.084,4.164,0.16,
4.108,4.148,0.04,
4.076,4.164,0.16,
4.092,4.164,0.04,
4.108,4.148,0.16,
4.108,4.164,0.04,
4.084,4.148,0.16,
4.108,4.148,0.04,
4.076,4.164,0.16,
4.108,4.14,0.04,
4.076,4.196,0.16,
4.108,4.164,0.04,
4.076,4.132,0.16,
4.108,4.164,0.16,
4.076,4.14,0.04,
4.084,4.164,0.04,
4.164,4.148,0.16,
4.108,4.164,0.04,
4.076,4.148,0.16,
4.108,4.148,0.04,
4.084,4.164,0.16,
4.108,4.164,0.16,
4.092,4.148,0.04,
4.108,4.164,0.04,
4.084,4.148,0.16,
4.108,4.164,0.12,
4.076,4.148,0.04,
4.108,4.164,0.04,
4.076,4.148,0.12,
4.108,4.148,0.04,
4.084,4.196,0.16,
4.108,4.196,0.04,
4.084,4.172,0.12,
4.108,4.188,0.04,
4.092,4.164,0.16,
4.076,4.188,0.04,
4.164,4.132,0.16,
4.164,4.14,0.16,
4.14,4.164,0.04,
4.156,4.164,0.12,
4.124,4.132,0.04,
4.156,4.164,0.04,
4.076,4.148,0.16,
4.076,4.164,0.12,
4.108,4.132,0.04,
4.108,4.164,0.04,
4.076,4.148,0.12,
4.108,4.164,0.04,
4.076,4.148,0.16,
4.108,4.148,0.04,
4.076,4.172,0.16,
4.108,4.148,0.04,
4.092,4.172,0.16,
4.108,4.172,0.04,
4.084,4.148,0.16,
4.092,4.148,0.12,
4.116,4.212,0.04,
4.116,4.196,0.04,
4.084,4.172,0.16,
4.116,4.18,0.04,
4.092,4.196,0.12,
4.092,4.188,0.04,
4.172,4.14,0.16,
4.164,4.132,0.12,
4.14,4.164,0.04,
4.14,4.164,0.04,
4.164,4.132,0.16,
4.164,4.164,0.16,
4.076,4.148,0.04,
4.108,4.148,0.12,
4.084,4.164,0.04,
4.116,4.148,0.04,
4.068,4.164,0.12,
4.116,4.148,0.04,
4.076,4.164,0.16,
4.116,4.164,0.04,
4.084,4.148,0.16,
4.108,4.164,0.12,
4.076,4.148,0.04,
4.108,4.164,0.04,
4.076,4.148,0.16,
4.108,4.148,0.04,
4.076,4.196,0.16,
4.092,4.196,0.12,
4.108,4.172,0.04,
4.108,4.188,0.16,
4.092,4.172,0.04,
4.092,4.188,0.16,
4.164,4.132,0.04,
4.156,4.132,0.04,
4.132,4.164,0.16,
4.156,4.164,0.04,
4.132,4.14,0.16,
4.156,4.164,0.04,
4.076,4.148,0.16,
4.076,4.164,0.04,
4.108,4.148,0.16,
4.108,4.164,0.04,
4.076,4.148,0.16,
4.108,4.164,0.04,
4.076,4.14,0.16,
4.108,4.148,0.04,
4.076,4.164,0.16,
4.108,4.164,0.16,
4.076,4.148,0.04,
4.108,4.164,0.16,
4.084,4.148,0.04,
4.108,4.18,0.04,
4.084,4.196,0.16,
4.108,4.188,0.04,
4.076,4.172,0.16,
4.108,4.188,0.04,
4.084,4.156,0.16,
4.14,4.132,0.04,
4.164,4.164,0.16,
4.14,4.164,0.04,
4.164,4.132,0.16,
4.156,4.164,0.04,
4.116,4.148,0.16,
4.108,4.132,0.04,
4.076,4.164,0.16,
4.108,4.164,0.04,
4.076,4.148,0.16,
4.108,4.164,0.04,
4.092,4.148,0.16,
4.108,4.164,0.04,
4.076,4.148,0.16,
4.108,4.164,0.04,
4.076,4.148,0.16,
4.108,4.148,0.04,
4.076,4.164,0.16,
4.108,4.148,0.04,
4.076,4.204,0.16,
4.108,4.196,0.04,
4.084,4.156,0.16,
4.076,4.156,0.04,
4.108,4.196,0.16,
4.076,4.196,0.16,
4.164,4.14,0.04,
4.164,4.132,0.12,
4.092,4.164,0.04,
4.164,4.164,0.16,
4.1,4.132,0.04,
4.156,4.164,0.04,
4.076,4.132,0.16,
4.068,4.164,0.04,
4.108,4.132,0.16,
4.108,4.148,0.16,
4.076,4.164,0.04,
4.108,4.148,0.16,
4.076,4.164,0.04,
4.108,4.148,0.16,
4.084,4.164,0.04,
4.108,4.164,0.12,
4.076,4.132,0.04,
4.108,4.164,0.04,
4.076,4.148,0.16,
4.108,4.148,0.12,
4.092,4.196,0.04,
4.108,4.196,0.04,
4.084,4.18,0.16,
4.108,4.188,0.12,
4.084,4.172,0.04,
4.092,4.188,0.04,
4.164,4.132,0.12,
4.164,4.132,0.16,
4.132,4.164,0.04,
4.164,4.148,0.04,
4.132,4.164,0.16,
4.156,4.148,0.04,
4.076,4.164,0.16,
4.076,4.164,0.04,
4.108,4.14,0.16,
4.108,4.164,0.12,
4.084,4.148,0.04,
4.108,4.132,0.04,
4.076,4.164,0.16,
4.108,4.164,0.04,
4.068,4.148,0.16,
4.108,4.164,0.04,
4.084,4.148,0.12,
4.108,4.164,0.04,
4.068,4.148,0.16,
4.108,4.148,0.12,
4.084,4.196,0.04,
4.108,4.188,0.04,
4.084,4.172,0.16,
4.092,4.172,0.12,
4.108,4.188,0.04,
4.092,4.188,0.04,
4.164,4.132,0.16,
4.164,4.132,0.16,
4.132,4.164,0.04,
4.156,4.164,0.04,
4.132,4.148,0.16,
4.156,4.164,0.16,
4.076,4.148,0.04,
4.108,4.148,0.04,
4.076,4.164,0.16,
4.108,4.164,0.16,
4.076,4.132,0.04,
4.108,4.164,0.04,
4.076,4.148,0.16,
4.108,4.164,0.16,
4.092,4.148,0.04,
4.108,4.148,0.04,
4.076,4.164,0.16,
4.108,4.164,0.12,
4.092,4.148,0.04,
4.108,4.148,0.04,
4.076,4.196,0.12,
4.108,4.196,0.04,
4.084,4.172,0.16,
4.108,4.172,0.16,
4.092,4.188,0.04,
4.084,4.188,0.12,
4.164,4.132,0.04,
4.124,4.164,0.12,
4.156,4.132,0.04,
4.132,4.14,0.04,
4.156,4.164,0.16,
4.148,4.164,0.04,
4.068,4.148,0.12,
4.108,4.164,0.12,
4.076,4.148,0.04,
4.076,4.164,0.16,
4.108,4.148,0.04,
4.108,4.164,0.16,
4.076,4.148,0.04,
4.108,4.148,0.04,
4.076,4.164,0.16,
4.108,4.164,0.04,
4.076,4.14,0.12,
4.108,4.148,0.16,
4.076,4.164,0.04,
4.084,4.196,0.16,
4.108,4.172,0.04,
4.108,4.172,0.12,
4.084,4.196,0.04,
4.092,4.164,0.04,
4.108,4.196,0.16,
4.164,4.132,0.04,
4.132,4.164,0.12,
4.164,4.164,0.12,
4.132,4.132,0.04,
4.156,4.164,0.04,
4.116,4.148,0.16,
4.076,4.164,0.04,
4.108,4.148,0.16,
4.076,4.148,0.04,
4.108,4.172,0.12,
4.108,4.172,0.04,
4.076,4.148,0.16,
4.108,4.148,0.04,
4.084,4.172,0.16,
4.092,4.164,0.04,
4.116,4.148,0.16,
4.116,4.148,0.04,
4.092,4.172,0.16,
4.116,4.148,0.04,
4.092,4.196,0.16,
4.116,4.196,0.04,
4.092,4.18,0.16,
4.116,4.196,0.04,
4.092,4.172,0.16,
4.092,4.196,0.12,
4.172,4.132,0.04,
4.164,4.132,0.04,
4.132,4.164,0.16,
4.164,4.148,0.16,
4.132,4.164,0.04,
4.164,4.164,0.12,
4.076,4.14,0.04,
4.108,4.164,0.16,
4.076,4.148,0.04,
4.108,4.148,0.12,
4.076,4.164,0.04,
4.084,4.164,0.04,
4.108,4.148,0.16,
4.108,4.148,0.04,
4.084,4.164,0.16,
4.108,4.164,0.16,
4.092,4.14,0.04,
4.108,4.164,0.04,
4.092,4.14,0.12,
4.076,4.148,0.12,
4.108,4.196,0.04,
4.108,4.196,0.16,
4.076,4.18,0.04,
4.108,4.172,0.04,
4.084,4.196,0.16,
4.084,4.188,0.16,
4.164,4.124,0.04,
4.164,4.132,0.04,
4.132,4.164,0.16,
4.156,4.164,0.12,
4.132,4.148,0.04,
4.156,4.164,0.04,
4.052,4.148,0.16,
4.068,4.148,0.12,
4.108,4.164,0.04,
4.108,4.164,0.04,
4.076,4.148,0.16,
4.108,4.164,0.04,
4.076,4.132,0.12,
4.108,4.164,0.12,
4.084,4.148,0.04,
4.108,4.164,0.04,
4.076,4.148,0.16,
4.108,4.148,0.04,
4.076,4.164,0.16,
4.108,4.148,0.04,
4.092,4.196,0.12,
4.108,4.196,0.04,
4.092,4.164,0.16,
4.076,4.188,0.16,
4.108,4.164,0.04,
4.092,4.188,0.12,
4.164,4.132,0.04,
4.164,4.132,0.12,
4.132,4.164,0.04,
4.156,4.164,0.12,
4.132,4.132,0.04,
4.156,4.164,0.04,
4.076,4.132,0.16,
4.076,4.164,0.04,
4.108,4.148,0.16,
4.108,4.148,0.12,
4.084,4.164,0.04,
4.108,4.148,0.04,
4.076,4.164,0.16,
4.108,4.164,0.04,
4.092,4.132,0.16,
4.108,4.164,0.16,
4.084,4.148,0.04,
4.084,4.164,0.04,
4.108,4.14,0.16,
4.108,4.148,0.04,
4.068,4.196,0.16,
4.108,4.196,0.04,
4.076,4.164,0.16,
4.108,4.188,0.04,
4.084,4.164,0.16,
4.092,4.188,0.12,
