Power Payload/Metingen 1/Payload 1 120.csv

CH1,CH2,CH3,Start,Increment,
Volt,Volt,Volt,-2.9975,0.005
4.108,4.148,0.04,
4.084,4.172,0.16,
4.108,4.148,0.04,
4.084,4.172,0.16,
4.108,4.164,0.12,
4.084,4.148,0.04,
4.084,4.148,0.04,
4.116,4.172,0.16,
4.116,4.164,0.04,
4.092,4.148,0.16,
4.092,4.148,0.12,
4.116,4.204,0.04,
4.116,4.196,0.04,
4.092,4.18,0.16,
4.116,4.172,0.04,
4.084,4.196,0.16,
4.092,4.196,0.04,
4.172,4.132,0.16,
4.164,4.148,0.04,
4.148,4.164,0.16,
4.132,4.164,0.04,
4.164,4.148,0.16,
4.164,4.148,0.08,
4.076,4.164,0.16,
4.084,4.164,0.04,
4.116,4.148,0.12,
4.116,4.164,0.04,
4.084,4.148,0.16,
4.108,4.164,0.04,
4.076,4.148,0.16,
4.076,4.148,0.12,
4.116,4.164,0.04,
4.108,4.164,0.16,
4.092,4.148,0.04,
4.108,4.164,0.12,
4.084,4.148,0.04,
4.108,4.148,0.16,
4.092,4.196,0.04,
4.092,4.196,0.04,
4.116,4.172,0.16,
4.108,4.164,0.16,
4.076,4.196,0.04,
4.084,4.188,0.04,
4.164,4.14,0.16,
4.164,4.14,0.16,
4.132,4.164,0.04,
4.132,4.164,0.12,
4.156,4.148,0.04,
4.156,4.148,0.04,
4.076,4.164,0.16,
4.076,4.164,0.04,
4.108,4.148,0.16,
4.092,4.164,0.04,
4.108,4.148,0.12,
4.108,4.132,0.16,
4.084,4.164,0.04,
4.076,4.148,0.04,
4.108,4.164,0.16,
4.108,4.148,0.04,
4.092,4.164,0.16,
4.108,4.148,0.12,
4.076,4.188,0.04,
4.108,4.196,0.04,
4.084,4.18,0.12,
4.108,4.172,0.04,
4.092,4.196,0.16,
4.092,4.188,0.12,
4.156,4.164,0.04,
4.148,4.172,0.04,
4.164,4.132,0.12,
4.132,4.14,0.04,
4.156,4.164,0.16,
4.132,4.164,0.04,
4.156,4.132,0.16,
4.14,4.148,0.04,
4.076,4.164,0.16,
4.084,4.164,0.04,
4.108,4.148,0.16,
4.108,4.148,0.12,
4.068,4.164,0.04,
4.084,4.148,0.04,
4.108,4.164,0.12,
4.108,4.148,0.04,
4.092,4.164,0.16,
4.108,4.164,0.04,
4.076,4.148,0.12,
4.108,4.148,0.04,
4.076,4.196,0.16,
4.108,4.196,0.04,
4.092,4.172,0.12,
4.108,4.188,0.16,
4.076,4.164,0.04,
4.092,4.188,0.04,
4.164,4.132,0.16,
4.164,4.132,0.04,
4.132,4.164,0.16,
4.156,4.164,0.16,
4.132,4.14,0.04,
4.156,4.148,0.04,
4.068,4.164,0.16,
4.076,4.164,0.12,
4.108,4.148,0.04,
4.108,4.148,0.16,
4.076,4.164,0.04,
4.108,4.148,0.16,
4.076,4.164,0.04,
4.084,4.164,0.04,
4.108,4.148,0.12,
4.092,4.164,0.04,
4.108,4.148,0.16,
4.108,4.164,0.12,
4.076,4.148,0.04,
4.108,4.148,0.04,
4.092,4.196,0.16,
4.108,4.18,0.04,
4.076,4.196,0.16,
4.108,4.188,0.16,
4.092,4.164,0.04,
4.092,4.188,0.16,
4.164,4.132,0.04,
4.132,4.132,0.04,
4.164,4.164,0.16,
4.132,4.164,0.04,
4.156,4.148,0.12,
4.156,4.164,0.04,
4.076,4.14,0.16,
4.076,4.164,0.04,
4.108,4.148,0.16,
4.092,4.164,0.04,
4.108,4.14,0.16,
4.084,4.148,0.12,
4.108,4.164,0.04,
4.092,4.164,0.04,
4.108,4.148,0.16,
4.108,4.132,0.04,
4.076,4.164,0.12,
4.076,4.148,0.04,
4.116,4.164,0.16,
4.092,4.148,0.04,
4.108,4.196,0.16,
4.084,4.196,0.04,
4.108,4.18,0.12,
4.108,4.188,0.04,
4.084,4.172,0.16,
4.092,4.188,0.12,
4.164,4.132,0.04,
4.164,4.14,0.04,
4.132,4.164,0.16,
4.156,4.164,0.04,
4.132,4.14,0.16,
4.156,4.164,0.04,
4.068,4.148,0.16,
4.076,4.148,0.16,
4.108,4.164,0.04,
4.108,4.148,0.04,
4.084,4.164,0.16,
4.108,4.164,0.04,
4.076,4.148,0.16,
4.108,4.148,0.04,
4.084,4.164,0.16,
4.108,4.148,0.04,
4.076,4.164,0.12,
4.108,4.164,0.12,
4.084,4.148,0.04,
4.108,4.148,0.16,
4.076,4.196,0.04,
4.108,4.196,0.16,
4.076,4.172,0.04,
4.108,4.188,0.04,
4.076,4.172,0.16,
4.076,4.188,0.04,
4.164,4.132,0.16,
4.164,4.148,0.04,
4.132,4.164,0.16,
4.132,4.14,0.04,
4.156,4.164,0.16,
4.156,4.148,0.04,
4.076,4.164,0.16,
4.108,4.164,0.04,
4.076,4.14,0.16,
4.076,4.164,0.04,
4.108,4.132,0.16,
4.108,4.164,0.16,
4.076,4.148,0.04,
4.108,4.164,0.04,
4.084,4.132,0.16,
4.108,4.164,0.04,
4.084,4.148,0.16,
4.108,4.148,0.04,
4.092,4.188,0.16,
4.108,4.196,0.12,
4.068,4.18,0.04,
4.108,4.196,0.04,
4.084,4.172,0.16,
4.076,4.164,0.04,
4.156,4.196,0.16,
4.164,4.18,0.12,
4.14,4.132,0.04,
4.164,4.164,0.04,
4.132,4.14,0.16,
4.156,4.148,0.16,
4.124,4.172,0.04,
4.14,4.148,0.12,
4.076,4.172,0.04,
4.108,4.148,0.12,
4.076,4.172,0.04,
4.076,4.148,0.04,
4.116,4.172,0.16,
4.116,4.164,0.04,
4.092,4.148,0.16,
4.084,4.148,0.04,
4.116,4.172,0.16,
4.092,4.148,0.12,
4.116,4.164,0.04,
4.116,4.148,0.04,
4.084,4.204,0.16,
4.116,4.196,0.04,
4.084,4.172,0.16,
4.092,4.196,0.16,
4.116,4.172,0.04,
4.076,4.188,0.04,
4.172,4.14,0.16,
4.164,4.132,0.04,
4.132,4.164,0.16,
4.164,4.14,0.04,
4.132,4.164,0.16,
4.164,4.148,0.04,
4.076,4.164,0.16,
4.076,4.148,0.16,
4.108,4.164,0.04,
4.108,4.148,0.04,
4.076,4.164,0.16,
4.108,4.148,0.04,
4.084,4.164,0.16,
4.108,4.148,0.16,
4.076,4.164,0.04,
4.108,4.148,0.04,
4.084,4.164,0.12,
4.092,4.164,0.12,
4.108,4.148,0.04,
4.108,4.14,0.04,
4.076,4.196,0.16,
4.092,4.18,0.04,
4.108,4.196,0.16,
4.108,4.188,0.04,
4.084,4.172,0.16,
4.076,4.188,0.04,
4.164,4.132,0.16,
4.148,4.132,0.04,
4.164,4.164,0.16,
4.156,4.164,0.16,
4.124,4.132,0.04,
4.156,4.164,0.04,
4.076,4.148,0.16,
4.076,4.132,0.04,
4.108,4.164,0.16,
4.108,4.164,0.04,
4.076,4.14,0.16,
4.092,4.148,0.12,
4.108,4.164,0.04,
4.108,4.164,0.04,
4.076,4.148,0.16,
4.108,4.164,0.04,
4.084,4.148,0.16,
4.092,4.164,0.04,
4.108,4.132,0.16,
4.108,4.148,0.04,
4.084,4.196,0.12,
4.092,4.196,0.04,
4.108,4.164,0.16,
4.108,4.164,0.04,
4.076,4.196,0.16,
4.092,4.188,0.12,
4.164,4.132,0.04,
4.164,4.14,0.04,
4.132,4.164,0.16,
4.156,4.148,0.16,
4.132,4.164,0.04,
4.156,4.164,0.04,
4.076,4.148,0.16,
4.076,4.164,0.16,
4.108,4.116,0.04,
4.108,4.164,0.04,
4.084,4.148,0.16,
4.108,4.148,0.04,
4.076,4.164,0.16,
4.108,4.164,0.16,
4.036,4.148,0.04,
4.092,4.164,0.16,
4.108,4.14,0.04,
4.084,4.148,0.04,
4.108,4.164,0.16,
4.108,4.148,0.04,
4.084,4.164,0.12,
4.108,4.148,0.12,
4.076,4.164,0.04,
4.092,4.148,0.04,
4.108,4.196,0.16,
4.108,4.196,0.04,
4.084,4.132,0.16,
4.084,4.164,0.04,
4.108,4.132,0.16,
4.092,4.148,0.04,
4.164,4.164,0.16,
4.164,4.164,0.04,
4.076,4.132,0.16,
4.108,4.164,0.04,
4.068,4.148,0.16,
4.108,4.164,0.04,
4.076,4.148,0.16,
4.076,4.164,0.04,
4.108,4.148,0.16,
4.108,4.164,0.12,
4.092,4.148,0.04,
4.108,4.164,0.04,
4.084,4.132,0.16,
4.108,4.148,0.12,
4.092,4.164,0.04,
4.108,4.148,0.16,
4.076,4.164,0.04,
4.076,4.164,0.16,
4.108,4.14,0.04,
4.108,4.148,0.04,
4.084,4.164,0.16,
4.092,4.148,0.04,
4.108,4.164,0.16,
4.108,4.148,0.04,
4.084,4.164,0.16,
4.092,4.148,0.04,
4.108,4.164,0.16,
4.108,4.148,0.16,
4.084,4.164,0.04,
4.092,4.148,0.12,
4.108,4.164,0.04,
4.108,4.148,0.16,
4.076,4.164,0.04,
4.092,4.148,0.04,
4.108,4.164,0.16,
4.108,4.132,0.04,
4.076,4.172,0.16,
4.076,4.148,0.04,
4.108,4.172,0.16,
4.108,4.148,0.04,
4.076,4.164,0.16,
4.068,4.148,0.04,
4.116,4.164,0.16,
4.092,4.148,0.04,
4.108,4.164,0.16,
4.092,4.164,0.16,
4.108,4.14,0.04,
4.076,4.164,0.16,
4.108,4.148,0.04,
4.108,4.164,0.04,
4.076,4.148,0.16,
4.108,4.148,0.04,
4.076,4.164,0.16,
4.108,4.148,0.04,
4.084,4.164,3.44,
4.092,4.164,3.44,
4.108,4.14,3.32,
4.076,4.164,3.36,
4.108,4.1,3.44,
4.108,4.124,3.36,
4.084,4.172,3.44,
4.108,4.148,3.44,
4.084,4.164,3.32,
4.108,4.148,3.44,
4.036,4.164,3.32,
4.068,4.148,3.44,
4.116,4.164,3.36,
4.108,4.164,3.44,
4.076,4.14,3.32,
4.108,4.164,3.44,
4.076,4.124,3.32,
4.108,4.14,3.36,
4.076,4.164,3.44,
4.108,4.164,3.32,
4.076,4.132,3.44,
4.108,4.148,3.44,
4.06,4.164,3.32,
4.076,4.148,3.36,
4.108,4.164,3.44,
4.108,4.148,3.36,
4.076,4.164,3.44,
4.108,4.164,3.36,
4.084,4.14,3.44,
4.108,4.148,3.44,
4.084,4.164,3.32,
4.092,4.164,3.44,
4.108,4.14,3.36,
4.076,4.164,3.36,
4.108,4.148,3.44,
4.084,4.148,3.36,
4.108,4.164,3.44,
4.108,4.148,3.44,
4.084,4.196,3.36,
4.108,4.196,3.36,
4.084,4.172,3.44,
4.092,4.188,3.44,
4.108,4.164,3.32,
4.076,4.188,3.36,
4.164,4.132,3.44,
4.164,4.148,3.36,
4.132,4.164,3.44,
4.156,4.148,3.36,
4.132,4.164,3.44,
4.156,4.148,3.32,
4.076,4.164,3.44,
4.092,4.164,3.32,
4.108,4.148,3.44,
4.084,4.148,3.44,
4.116,4.172,3.36,
4.092,4.148,3.44,
4.116,4.164,3.32,
4.116,4.164,3.44,
4.084,4.148,3.36,
4.092,4.164,3.36,
4.116,4.148,3.44,
4.116,4.148,3.44,
4.076,4.172,3.32,
4.076,4.148,3.44,
4.116,4.196,3.36,
4.116,4.196,3.36,
4.084,4.172,3.44,
4.116,4.188,3.36,
4.076,4.172,3.44,
4.092,4.188,3.44,
4.164,4.132,3.32,
4.132,4.164,3.36,
4.164,4.132,3.44,
4.132,4.148,3.36,
4.156,4.164,3.44,
4.156,4.148,3.36,
4.076,4.164,3.44,
4.076,4.164,3.44,
4.108,4.14,3.32,
4.076,4.148,3.36,
4.108,4.164,3.44,
4.108,4.148,3.36,
4.076,4.164,3.44,
4.076,4.148,3.32,
4.108,4.164,3.44,
4.108,4.148,3.44,
4.076,4.164,3.32,
4.108,4.148,3.36,
4.084,4.188,3.44,
4.108,4.18,3.36,
4.084,4.196,3.44,
4.108,4.172,3.36,
4.076,4.196,3.44,
4.076,4.188,3.36,
4.148,4.172,3.44,
4.164,4.172,3.44,
4.132,4.14,3.32,
4.156,4.132,3.36,
4.132,4.164,3.44,
4.124,4.164,3.36,
4.156,4.14,3.44,
4.132,4.148,3.36,
4.076,4.164,3.44,
4.108,4.148,3.44,
4.068,4.164,3.36,
4.108,4.148,3.44,
4.076,4.164,3.32,
4.092,4.132,3.36,
4.108,4.164,3.44,
4.108,4.148,3.44,
4.076,4.164,3.32,
4.108,4.164,3.44,
4.084,4.148,3.32,
4.076,4.148,3.36,
4.108,4.196,3.44,
4.092,4.18,3.36,
4.108,4.196,3.44,
4.108,4.172,3.36,
4.084,4.188,3.44,
4.084,4.188,3.36,
4.164,4.132,3.44,
4.164,4.132,3.44,
4.132,4.164,3.36,
4.156,4.148,3.44,
4.124,4.164,3.36,
4.156,4.148,3.32,
4.076,4.172,3.44,
4.076,4.116,3.44,
4.108,4.172,3.36,
4.108,4.172,3.44,
4.084,4.148,3.32,
4.108,4.148,3.36,
4.084,4.164,3.44,
4.044,4.164,3.32,
4.116,4.132,3.44,
4.092,4.164,3.36,
4.116,4.116,3.44,
4.108,4.164,3.44,
4.076,4.132,3.32,
4.108,4.14,3.44,
4.084,4.196,3.32,
4.108,4.196,3.44,
4.044,4.172,3.36,
4.076,4.172,3.44,
4.108,4.188,3.32,
4.076,4.188,3.36,
4.164,4.14,3.44,
4.164,4.132,3.44,
4.124,4.164,3.32,
4.156,4.148,3.44,
4.124,4.164,3.36,
4.156,4.148,3.44,
4.076,4.164,3.32,
4.068,4.148,3.36,
4.108,4.164,3.44,
4.092,4.148,3.36,
4.108,4.164,3.44,
4.108,4.148,3.44,
4.076,4.164,3.32,
4.092,4.164,3.44,
4.108,4.132,3.32,
4.092,4.14,3.44,
4.108,4.204,3.36,
4.076,4.196,3.44,
4.108,4.132,3.32,
4.108,4.14,3.36,
4.068,4.196,3.44,
4.068,4.196,3.36,
4.164,3.42,3.44,
4.164,4.172,3.36,
4.076,4.22,3.44,
4.076,4.196,3.36,
4.164,4.132,3.44,
4.156,4.148,3.36,
2.916,4.164,3.44,
4.116,3.452,3.44,
4.188,4.212,3.32,
4.164,4.196,3.36,
4.068,4.156,3.44,
4.108,4.172,3.44,
4.076,4.14,3.36,
4.164,4.172,3.36,
2.98,4.132,3.44,
4.14,4.164,3.44,
4.092,4.148,3.32,
4.116,4.164,3.44,
4.076,4.148,3.32,
4.116,4.148,3.36,
4.076,4.164,3.44,
4.108,4.164,3.44,
4.076,4.148,3.36,
4.108,4.148,3.44,
4.084,4.196,3.32,
4.084,4.196,3.36,
4.108,4.172,3.44,
4.092,4.172,3.36,
4.108,4.188,3.44,
4.076,4.188,3.44,
4.164,4.132,3.32,
4.164,4.148,3.32,
4.132,4.164,3.44,
4.156,4.148,3.36,
4.132,4.164,3.44,
4.156,4.148,3.36,
4.076,4.164,3.44,
4.076,4.148,3.44,
4.108,4.164,3.32,
4.108,4.148,3.36,
4.076,4.164,3.44,
4.108,4.148,3.44,
4.076,4.164,3.32,
4.092,4.148,3.36,
4.108,4.164,3.44,
4.108,4.148,3.44,
4.076,4.164,3.36,
4.092,4.148,3.36,
4.108,4.196,3.44,
4.092,4.18,3.36,
4.108,4.196,3.44,
4.092,4.188,3.32,
4.108,4.172,3.44,
4.084,4.188,3.44,
4.164,4.172,3.36,
4.164,4.172,3.36,
4.132,4.132,3.44,
4.156,4.148,3.36,
4.124,4.164,3.44,
4.156,4.164,3.44,
4.132,4.14,3.36,
4.132,4.148,3.36,
4.076,4.164,3.44,
4.108,4.148,3.36,
4.076,4.164,3.44,
4.108,4.164,3.32,
4.076,4.148,3.44,
4.092,4.148,3.44,
4.108,4.164,3.36,
4.108,4.148,3.44,
4.084,4.164,3.32,
4.092,4.164,3.44,
4.108,4.148,3.32,
4.108,4.148,3.36,
4.076,4.196,3.44,
4.108,4.18,3.44,
4.076,4.196,3.36,
4.092,4.18,3.44,
4.108,4.196,3.32,
4.076,4.196,3.44,
4.164,4.132,3.32,
4.148,4.132,3.36,
4.164,4.164,3.44,
4.164,4.148,3.36,
4.148,4.164,3.44,
4.164,4.148,3.44,
4.068,4.164,3.32,
4.084,4.164,3.36,
4.108,4.148,3.44,
4.108,4.14,3.44,
4.084,4.164,3.32,
4.092,4.164,3.36,
4.116,4.14,3.44,
4.092,4.148,3.44,
4.116,4.164,3.32,
4.076,4.148,3.36,
4.108,4.164,3.44,
4.108,4.164,3.36,
4.068,4.148,3.44,
4.108,4.148,3.44,
4.076,4.196,3.32,
4.108,4.196,3.36,
4.084,4.18,3.44,
4.092,4.196,3.44,
4.108,4.172,3.32,
4.076,4.196,3.44,
4.164,4.132,3.32,
4.164,4.148,3.44,
4.148,4.164,3.32,
4.164,4.164,3.44,
4.14,4.132,3.36,
4.164,4.164,3.44,
4.076,4.148,3.32,
4.092,4.164,3.44,
4.116,4.132,3.32,
4.068,4.148,3.36,
4.116,4.164,3.44,
4.116,4.148,3.44,
4.076,4.164,3.36,
4.116,4.148,3.44,
4.076,4.164,3.32,
4.092,4.148,3.44,
4.108,4.164,3.36,
4.092,4.148,3.44,
4.108,4.164,3.36,
4.092,4.148,3.36,
4.108,4.196,3.44,
4.108,4.196,3.44,
4.084,4.172,3.32,
4.092,4.188,3.36,
4.108,4.172,3.44,
4.092,4.188,3.36,
4.164,4.132,3.44,
4.164,4.14,3.44,
4.14,4.164,3.32,
4.156,4.148,3.36,
4.124,4.164,3.44,
4.156,4.148,3.44,
4.076,4.164,3.36,
4.108,4.148,3.44,
4.076,4.164,3.32,
4.092,4.148,3.44,
4.108,4.172,3.32,
4.092,4.148,3.36,
4.116,4.172,3.44,
4.092,4.148,3.44,
4.116,4.172,3.32,
4.116,4.164,3.44,
4.092,4.132,3.32,
4.092,4.148,3.36,
4.116,4.164,3.44,
4.092,4.148,3.36,
4.116,4.196,3.44,
4.116,4.196,3.44,
4.06,4.172,3.32,
4.084,4.172,3.32,
4.116,4.188,3.44,
4.092,4.188,3.36,
4.164,4.124,3.44,
4.164,4.092,3.44,
4.132,4.172,3.36,
4.132,4.172,3.36,
4.156,4.148,3.44,
4.156,4.148,3.44,
4.06,4.172,3.36,
4.012,4.172,3.36,
4.116,4.148,3.44,
4.116,4.172,3.44,
4.092,4.148,3.32,
4.092,4.148,3.36,
4.116,4.172,3.44,
4.116,4.1,3.44,
4.092,4.196,3.36,
4.116,4.188,3.44,
4.092,4.148,3.32,
4.116,4.172,3.44,
4.092,4.124,3.32,
4.036,4.124,3.36,
4.156,4.172,3.44,
4.156,4.172,3.44,
4.092,4.14,3.36,
4.116,4.172,3.36,
4.044,4.14,3.44,
4.116,4.164,3.36,
4.052,4.132,3.44,
4.116,4.172,3.44,
4.076,4.124,3.36,
4.116,4.116,3.36,
4.076,4.172,3.44,
4.116,4.172,3.36,
4.068,4.132,3.44,
4.116,4.172,3.44,
4.068,4.124,3.36,
4.116,4.132,3.36,
4.044,4.196,3.44,
4.132,4.156,3.36,
4.06,4.172,3.44,
4.132,4.156,3.44,
4.044,4.172,3.36,
4.076,4.172,3.36,
4.156,4.132,3.44,
4.1,4.156,3.44,
4.124,4.172,3.32,
4.116,4.172,3.44,
4.1,4.148,3.32,
4.116,4.172,3.36,
4.076,4.148,3.44,
4.1,4.172,3.36,
4.132,4.148,3.44,
4.116,4.148,3.44,
4.1,4.172,3.32,
4.116,4.148,3.36,
4.1,4.172,3.44,
4.116,4.164,3.44,
4.076,4.14,3.32,
4.116,4.172,3.36,
4.092,4.132,3.44,
4.092,4.172,3.36,
4.116,4.148,3.44,
4.116,4.148,3.32,
4.076,4.172,3.44,
4.116,4.148,0.16,
4.076,4.172,0.04,
4.1,4.172,0.04,
4.116,4.132,0.12,
4.092,4.172,0.16,
4.116,4.148,0.04,
4.092,4.172,0.16,
4.116,4.148,0.04,
4.116,4.156,0.04,
4.068,4.172,0.16,
4.116,4.172,0.04,
4.092,4.14,0.12,
4.1,4.148,0.04,
4.116,4.172,0.16,
4.092,4.148,0.04,
4.116,4.172,0.16,
4.116,4.156,0.16,
4.084,4.172,0.04,
4.1,4.172,0.04,
4.116,4.14,0.16,
4.116,4.148,0.04,
4.084,4.172,0.16,
4.1,4.148,0.04,
4.116,4.172,0.16,
4.116,4.172,0.04,
4.068,4.148,0.16,
4.116,4.172,0.04,
4.092,4.14,0.16,
4.1,4.148,0.12,
4.116,4.172,0.04,
4.116,4.148,0.04,
4.1,4.172,0.16,
4.116,4.172,0.04,
4.068,4.148,0.16,
4.116,4.172,0.16,
4.092,4.116,0.04,
4.116,4.132,0.16,
4.1,4.172,0.04,
4.1,4.148,0.12,
4.116,4.172,0.04,
4.116,4.148,0.16,
4.044,4.172,0.04,
4.076,4.172,0.04,
4.116,4.148,0.16,
4.092,4.148,0.04,
4.116,4.172,0.16,
4.092,4.148,0.04,
4.116,4.172,0.16,
4.116,4.148,0.04,
4.092,4.172,0.16,
4.1,4.148,0.12,
4.116,4.172,0.04,
4.116,4.164,0.04,
4.092,4.148,0.16,
4.092,4.172,0.04,
4.116,4.148,0.16,
4.1,4.148,0.04,
4.116,4.172,0.16,
4.1,4.148,0.04,
4.116,4.164,0.16,
4.1,4.148,0.04,
4.116,4.172,0.16,
4.1,4.148,0.16,
4.116,4.172,0.04,
4.092,4.148,0.16,
4.116,4.172,0.04,
4.1,4.172,0.12,
4.116,4.148,0.04,
4.116,4.148,0.04,
4.092,4.172,0.16,
4.116,4.172,0.12,
4.092,4.148,0.04,
4.116,4.172,0.04,
4.092,4.148,0.16,
4.092,4.172,0.04,
4.116,4.148,0.16,
4.1,4.148,0.04,
4.116,4.172,0.16,
4.116,4.148,0.04,
4.092,4.172,0.16,
4.1,4.148,0.04,
4.116,4.172,0.16,
4.116,4.148,0.04,
4.092,4.172,0.16,
4.092,4.172,0.12,
4.116,4.148,0.04,
4.076,4.148,0.04,
4.116,4.172,0.16,
4.116,4.148,0.16,
4.092,4.172,0.04,
4.1,4.148,0.12,
4.116,4.172,0.04,
4.116,4.148,0.12,
4.092,4.172,0.04,
4.092,4.172,0.04,
4.116,4.148,0.16,
4.116,4.148,0.16,
4.092,4.172,0.04,
4.116,4.164,0.12,
4.092,4.148,0.04,
4.116,4.148,0.04,
4.1,4.172,0.16,
4.116,4.148,0.16,
4.092,4.172,0.04,
4.116,4.148,0.16,
4.092,4.172,0.04,
4.1,4.164,0.16,
4.116,4.124,0.04,
4.116,4.148,0.04,
4.092,4.196,0.16,
4.116,4.196,0.12,
4.092,4.18,0.04,
4.116,4.196,0.04,
4.06,4.172,0.16,
4.092,4.196,0.04,
4.172,4.172,0.16,
4.164,4.196,0.04,
4.148,4.14,0.16,
4.164,4.148,0.12,
4.14,4.196,0.04,
4.164,4.148,0.04,
4.132,4.196,0.12,
4.164,4.196,0.04,
4.084,4.132,0.16,
4.164,4.196,0.04,
4.092,4.148,0.12,
4.164,4.196,0.04,
4.084,4.148,0.16,
4.164,4.196,0.04,
4.076,4.148,0.16,
4.172,4.148,0.16,
4.092,4.196,0.04,
4.164,4.148,0.04,
4.092,4.196,0.16,
4.164,4.196,0.04,
4.092,4.132,0.12,
4.164,4.148,0.16,
4.092,4.196,0.04,
4.164,4.196,0.04,
4.092,4.148,0.16,
4.164,4.196,0.12,
4.084,4.148,0.04,
4.164,4.196,0.16,
4.092,4.148,0.04,
4.164,4.148,0.04,
4.092,4.196,0.16,
4.164,4.196,0.04,
4.092,4.148,0.16,
4.164,4.196,0.12,
4.092,4.148,0.04,
4.172,4.148,0.04,
4.092,4.196,0.16,
4.172,4.196,0.04,
4.092,4.148,0.16,
4.092,4.148,0.04,
4.164,4.196,0.16,
4.164,4.196,0.04,
4.092,4.148,0.16,
4.172,4.148,0.12,
4.084,4.196,0.04,
4.172,4.196,0.04,
4.092,4.148,0.16,
4.172,4.196,0.04,
4.092,4.132,0.16,
4.092,4.196,0.04,
4.172,4.14,0.16,
4.164,4.148,0.12,
4.092,4.196,0.04,
4.164,4.204,0.04,
4.092,4.148,0.16,
4.164,4.196,0.12,
4.076,4.148,0.04,
4.172,4.148,0.04,
4.092,4.204,0.16,
4.1,4.148,0.12,
4.172,4.212,0.04,
4.172,4.196,0.16,
4.092,4.148,0.04,
4.172,4.196,0.04,
4.092,4.148,0.16,
4.172,4.148,0.04,
4.092,4.196,0.16,
4.172,4.196,0.16,
4.092,4.148,0.04,
4.092,4.148,0.12,
4.172,4.196,0.04,
4.172,4.204,0.04,
4.092,4.148,0.12,
4.172,4.14,0.16,
4.092,4.196,0.04,
4.1,4.196,0.04,
4.172,4.148,0.12,
4.172,4.196,0.04,
4.092,4.14,0.16,
4.084,4.196,0.12,
4.164,4.148,0.04,
4.164,4.196,0.12,
4.092,4.148,0.04,
4.172,4.196,0.16,
4.076,4.148,0.04,
4.172,4.196,0.04,
4.092,4.148,0.12,
4.164,4.196,0.04,
4.092,4.148,0.16,
4.092,4.196,0.16,
4.164,4.148,0.04,
4.172,4.196,0.04,
4.092,4.148,0.16,
4.164,4.196,0.04,
4.084,4.148,0.16,
4.164,4.196,0.04,
4.092,4.148,0.16,
4.172,4.188,0.04,
4.092,4.012,0.16,
4.164,4.132,0.16,
4.092,4.156,0.04,
4.172,4.132,0.16,
4.092,4.156,0.04,
4.148,4.132,0.16,
3.884,4.156,0.04,
4.084,4.132,0.12,
4.06,4.156,0.04,
4.084,4.156,0.12,
4.068,4.132,0.04,
4.084,4.156,0.04,
4.06,4.132,0.16,
4.068,4.156,0.04,
4.092,4.132,0.12,
4.084,4.132,0.04,
4.06,4.156,0.16,
4.084,4.156,0.04,
4.06,4.132,0.16,
4.084,4.132,0.12,
4.068,4.156,0.04,
4.084,4.156,0.04,
4.06,4.132,0.16,
4.084,4.132,0.04,
4.068,4.156,0.16,
4.084,4.132,0.04,
4.068,4.156,0.16,
4.084,4.156,0.04,
4.068,4.132,0.16,
4.068,4.156,0.04,
4.092,4.124,0.16,
4.084,4.156,0.04,
4.068,4.132,0.16,
4.084,4.132,0.16,
4.068,4.156,0.04,
4.084,4.156,0.04,
4.06,4.132,0.16,
4.084,4.132,0.04,
4.068,4.156,0.16,
4.068,4.156,0.16,
4.092,4.132,0.04,
4.068,4.132,0.04,
4.084,4.156,0.16,
4.068,4.156,0.04,
4.084,4.132,0.16,
4.084,4.132,0.04,
4.068,4.156,0.16,
4.084,4.156,0.12,
4.068,4.076,0.04,
4.084,4.116,0.04,
4.068,4.164,0.16,
4.084,4.156,0.12,
4.068,4.132,0.04,
4.084,4.132,0.16,
3.98,4.156,0.04,
4.044,4.132,0.12,
4.1,4.156,0.16,
4.092,4.132,0.12,
4.068,4.156,0.16,
4.092,4.196,0.12,
4.068,3.404,0.16,
4.084,3.484,0.12,
4.068,3.572,0.16,
4.068,3.564,0.12,
4.092,3.604,0.16,
4.14,3.588,0.12,
2.908,3.628,0.16,
2.964,3.604,0.12,
3.052,3.628,0.16,
3.044,3.604,0.12,
3.084,3.628,0.16,
3.068,3.628,0.16,
3.108,3.604,0.04,
3.108,3.628,0.16,
3.084,3.604,0.04,
3.092,3.612,0.12,
3.116,3.628,0.04,
3.124,3.612,0.04,
3.068,4.372,0.16,
3.124,4.3,0.04,
3.092,4.196,0.16,
3.092,4.212,0.04,
3.124,4.156,0.16,
3.1,4.156,0.04,
4.324,4.204,0.16,
4.244,4.196,0.04,
4.14,4.132,0.16,
4.148,4.132,0.16,
4.1,4.18,0.04,
4.1,4.18,0.12,
4.172,4.196,0.16,
4.172,4.196,0.12,
4.084,4.132,0.16,
4.076,4.124,0.12,
4.14,4.196,0.16,
4.164,4.172,0.04,
4.132,3.38,0.16,
4.164,3.54,0.04,
4.076,3.604,0.16,
4.06,3.588,0.04,
4.164,3.636,0.16,
4.132,3.612,0.16,
2.868,4.356,0.04,
3.028,4.244,0.04,
3.1,4.18,0.16,
3.124,4.164,0.04,
3.06,4.22,0.16,
3.1,4.212,0.16,
4.3,4.18,0.04,
4.188,4.196,0.04,
4.124,4.172,0.16,
4.108,4.196,0.04,
4.188,4.172,0.16,
4.172,4.188,0.04,
4.148,4.164,0.16,
4.164,4.188,0.04,
4.132,4.172,0.16,
4.164,4.172,0.04,
4.124,4.188,0.16,
4.14,4.172,0.04,
4.164,4.196,0.16,
4.132,4.196,0.04,
4.164,4.164,0.16,
4.156,4.188,0.04,
4.14,4.148,0.16,
4.164,4.132,0.12,
4.14,4.164,0.04,
4.164,4.148,0.04,
4.132,4.164,0.16,
4.164,4.164,0.04,
4.092,4.148,0.12,
4.076,4.132,0.12,
4.108,4.196,0.04,
4.092,4.196,0.04,
4.108,4.172,0.12,
4.108,4.188,0.04,
4.084,4.164,0.16,
4.076,4.188,0.12,
4.172,4.164,0.04,
4.164,4.188,0.04,
4.148,4.164,0.12,
4.14,4.196,0.16,
4.164,4.132,0.04,
4.156,4.164,0.04,
4.14,4.092,0.16,
4.132,3.404,0.16,
4.164,4.212,0.04,
4.156,4.172,0.04,
4.076,4.22,0.16,
4.108,4.196,0.04,
4.012,4.18,0.16,
4.156,4.196,0.12,
2.916,4.172,0.04,
4.108,4.196,0.04,
4.18,4.164,0.16,
4.164,4.196,0.04,
4.132,4.164,0.16,
4.164,4.196,0.04,
