Power Payload/Metingen 1/Payload 1 40.csv

CH1,CH2,CH3,Start,Increment,
Volt,Volt,Volt,-2.9975,0.005
4.108,4.18,0.04,
4.076,4.196,0.16,
4.108,4.188,0.04,
4.076,4.172,0.16,
4.108,4.188,0.16,
4.076,4.148,0.04,
4.14,4.156,0.04,
4.164,4.132,0.16,
4.164,4.164,0.04,
4.124,4.132,0.16,
4.156,4.164,0.04,
4.1,4.148,0.16,
4.108,4.164,0.04,
4.068,4.132,0.16,
4.108,4.164,0.12,
4.076,4.132,0.04,
4.108,4.164,0.12,
4.084,4.132,0.04,
4.108,4.164,0.16,
4.076,4.148,0.04,
4.076,4.148,0.04,
4.108,4.164,0.16,
4.108,4.164,0.04,
4.068,4.14,0.16,
4.108,4.148,0.04,
4.076,4.196,0.16,
4.108,4.196,0.04,
4.084,4.172,0.16,
4.108,4.188,0.04,
4.068,4.164,0.12,
4.084,4.188,0.16,
4.164,4.132,0.04,
4.164,4.132,0.16,
4.124,4.164,0.04,
4.132,4.132,0.04,
4.156,4.164,0.16,
4.156,4.164,0.04,
4.076,4.132,0.12,
4.068,4.164,0.16,
4.108,4.148,0.04,
4.076,4.148,0.04,
4.108,4.164,0.16,
4.108,4.164,0.12,
4.068,4.132,0.04,
4.108,4.148,0.04,
4.076,4.164,0.16,
4.108,4.164,0.12,
4.084,4.132,0.04,
4.108,4.148,0.04,
4.068,4.164,0.16,
4.076,4.148,0.04,
4.108,4.196,0.16,
4.108,4.196,0.04,
4.068,4.172,0.16,
4.108,4.172,0.12,
4.076,4.188,0.04,
4.084,4.196,0.12,
4.164,4.124,0.04,
4.164,4.164,0.04,
4.124,4.1,0.16,
4.132,4.172,0.04,
4.156,4.148,0.16,
4.156,4.148,0.04,
4.06,4.172,0.16,
4.108,4.164,0.04,
4.012,4.148,0.16,
4.116,4.148,0.04,
4.092,4.164,0.12,
4.116,4.164,0.04,
4.084,4.148,0.16,
4.092,4.164,0.16,
4.108,4.148,0.04,
4.116,4.1,0.04,
4.092,4.196,0.16,
4.116,4.164,0.16,
4.092,4.14,0.04,
4.116,4.164,0.16,
4.076,4.14,0.04,
4.028,4.116,0.04,
4.148,4.196,0.16,
4.116,4.172,0.04,
4.068,4.156,0.16,
4.116,4.172,0.04,
4.068,4.116,0.16,
4.044,4.148,0.04,
4.164,4.172,0.16,
4.116,4.164,0.04,
4.1,4.148,0.16,
4.116,4.164,0.16,
4.044,4.148,0.04,
4.092,4.132,0.04,
4.116,4.172,0.16,
4.116,4.148,0.16,
4.092,4.204,0.04,
4.116,4.196,0.04,
4.092,4.18,0.16,
4.116,4.196,0.04,
4.068,4.172,0.16,
4.076,4.196,0.04,
4.172,4.164,0.16,
4.164,4.14,0.04,
4.14,4.196,0.16,
4.164,4.196,0.04,
4.132,4.132,0.12,
4.164,4.196,0.04,
4.132,4.148,0.16,
4.156,4.196,0.04,
4.076,4.148,0.16,
4.164,4.196,0.04,
4.092,4.148,0.16,
4.164,4.196,0.16,
4.092,4.148,0.04,
4.164,4.196,0.16,
4.092,4.148,0.04,
4.164,4.196,0.12,
4.092,4.148,0.04,
4.164,4.02,0.12,
4.092,4.22,0.04,
4.164,4.22,0.04,
4.076,4.18,0.16,
4.164,4.204,0.16,
4.092,4.18,0.04,
3.9,4.196,0.04,
4.196,4.18,0.16,
4.196,4.196,0.16,
4.156,4.18,0.04,
4.172,4.18,0.04,
4.156,4.196,0.16,
4.172,4.196,0.04,
4.156,4.18,0.16,
4.148,4.18,0.04,
4.172,4.196,0.16,
4.156,4.196,0.04,
4.172,4.18,0.16,
4.156,4.196,0.04,
4.172,4.18,0.16,
4.156,4.196,0.04,
4.172,4.148,0.16,
4.172,4.18,0.04,
4.148,4.196,0.16,
4.148,4.18,0.04,
4.172,4.196,0.16,
4.172,4.18,0.04,
4.1,4.196,3.44,
4.172,4.18,3.44,
4.148,4.196,3.32,
4.172,4.196,3.44,
4.156,4.18,3.36,
4.156,4.18,3.36,
4.172,4.196,3.44,
4.148,4.196,3.44,
4.172,4.172,3.36,
4.172,4.18,3.36,
4.14,4.196,3.44,
4.172,4.196,3.44,
4.148,4.18,3.32,
4.172,4.196,3.32,
4.132,4.18,3.44,
4.172,4.18,3.44,
4.148,4.196,3.36,
4.148,4.196,3.44,
4.172,4.18,3.32,
4.172,4.196,3.36,
4.14,4.18,3.44,
4.148,4.18,3.36,
4.172,4.196,3.44,
4.172,4.196,3.32,
4.156,4.18,3.44,
4.148,4.196,3.44,
4.172,4.172,3.32,
4.148,4.196,3.36,
4.172,4.18,3.44,
4.156,4.196,3.44,
4.172,4.18,3.36,
4.172,4.196,3.44,
4.132,4.18,3.32,
4.172,4.18,3.36,
4.156,4.196,3.44,
4.172,4.196,3.36,
4.148,4.18,3.44,
4.148,4.196,3.36,
4.172,4.18,3.44,
4.172,4.196,3.44,
4.148,4.18,3.32,
4.172,4.196,3.36,
4.156,4.18,3.44,
4.156,4.196,3.36,
4.172,4.18,3.44,
4.172,4.18,3.44,
4.148,4.196,3.32,
4.172,4.196,3.32,
4.156,4.172,3.44,
4.172,4.196,3.36,
4.156,4.18,3.44,
4.156,4.196,3.36,
4.172,4.18,3.44,
4.172,4.196,3.32,
4.14,4.18,3.44,
4.156,4.18,3.36,
4.172,4.196,3.44,
4.172,4.172,3.36,
4.148,4.196,3.44,
4.156,4.18,3.44,
4.172,4.196,3.32,
4.148,4.18,3.44,
4.172,4.196,3.36,
4.124,4.196,3.36,
4.172,4.18,3.44,
4.172,4.18,3.44,
4.148,4.196,3.36,
4.148,4.196,3.36,
4.172,4.18,3.44,
4.156,4.18,3.36,
4.172,4.196,3.44,
4.148,4.18,3.36,
4.172,4.196,3.44,
4.172,4.196,3.32,
4.156,4.18,3.44,
4.172,4.196,3.44,
4.156,4.18,3.32,
4.148,4.196,3.44,
4.172,4.18,3.32,
4.172,4.18,3.44,
4.156,4.196,3.32,
4.148,4.18,3.36,
4.172,4.196,3.44,
4.156,4.18,3.36,
4.172,4.196,3.44,
4.172,4.18,3.44,
4.148,4.196,3.36,
4.172,4.196,3.44,
4.148,4.18,3.32,
4.172,4.196,3.32,
4.156,4.18,3.44,
4.148,4.196,3.36,
4.172,4.18,3.44,
4.156,4.18,3.44,
4.172,4.196,3.32,
4.172,4.18,3.36,
4.148,4.196,3.44,
4.148,4.18,3.36,
4.172,4.196,3.44,
4.156,4.196,3.36,
4.172,4.18,3.44,
4.172,4.196,3.44,
4.148,4.18,3.32,
4.156,4.18,3.44,
4.172,4.196,3.36,
4.172,4.196,3.36,
4.148,4.18,3.44,
4.148,4.18,3.44,
4.172,4.196,3.32,
4.156,4.18,3.44,
4.172,4.196,3.32,
4.172,4.196,3.44,
4.148,4.18,3.36,
4.156,4.18,3.36,
4.172,4.196,3.44,
4.172,4.18,3.44,
4.148,4.196,3.32,
4.172,4.196,3.36,
4.148,4.156,3.44,
4.172,4.18,3.44,
4.156,4.196,3.36,
4.148,4.196,3.44,
4.172,4.18,3.32,
4.172,4.196,3.36,
4.1,4.18,3.44,
4.172,4.196,3.36,
4.148,4.172,3.44,
4.148,4.196,3.44,
4.172,4.156,3.32,
4.156,4.196,3.32,
4.172,4.18,3.44,
4.172,4.196,3.44,
4.14,4.18,3.36,
4.124,4.196,3.36,
4.172,4.18,3.44,
4.172,4.196,3.36,
4.148,4.156,3.44,
4.172,4.196,3.44,
4.132,4.18,3.36,
4.156,4.18,3.36,
4.172,4.196,3.44,
4.164,4.196,3.44,
4.124,4.172,3.32,
4.172,4.18,3.36,
4.156,4.196,3.44,
4.172,4.196,3.36,
4.148,4.18,3.44,
4.164,4.196,3.36,
4.132,4.18,3.44,
4.156,4.18,3.44,
4.172,4.196,3.32,
4.164,4.196,3.44,
4.148,4.18,3.36,
4.148,4.196,3.44,
4.172,4.18,3.36,
4.172,4.18,3.44,
4.148,4.196,3.36,
4.148,4.18,3.36,
4.172,4.196,3.44,
4.156,4.196,3.36,
4.172,4.172,3.44,
4.172,4.196,3.36,
4.148,4.18,3.44,
4.156,4.18,3.44,
4.172,4.196,3.32,
4.172,4.196,3.36,
4.14,4.172,3.44,
4.172,4.164,3.44,
4.148,4.108,3.36,
4.156,4.164,3.44,
4.172,4.132,3.32,
4.172,4.124,3.36,
4.124,4.164,3.44,
4.116,4.116,3.36,
4.036,4.196,3.44,
4.068,4.148,3.44,
4.116,4.164,3.32,
4.044,4.164,3.36,
4.116,4.148,3.44,
4.044,4.164,3.44,
4.164,4.148,3.36,
4.116,4.164,3.44,
4.092,4.148,3.32,
4.092,4.164,3.44,
4.116,4.148,3.32,
4.092,4.164,3.36,
4.116,4.148,3.44,
4.092,4.148,3.36,
4.116,4.172,3.44,
4.116,4.164,3.44,
4.092,4.148,3.32,
4.108,4.164,3.44,
4.092,4.148,3.36,
4.092,4.164,3.44,
4.116,4.148,3.36,
4.092,4.124,3.36,
4.116,4.212,3.44,
4.092,4.164,3.44,
4.116,4.14,3.32,
4.116,4.092,3.36,
4.092,4.148,3.44,
4.052,4.124,3.36,
4.172,4.156,3.44,
4.116,4.156,3.44,
4.068,4.132,3.32,
4.084,4.156,3.36,
4.012,4.132,3.44,
4.084,4.156,3.44,
4.06,4.132,3.36,
4.084,4.132,3.44,
4.068,4.156,3.32,
4.084,4.132,3.44,
4.068,4.156,3.32,
4.084,4.156,3.44,
4.068,4.132,3.32,
4.084,4.156,3.44,
4.068,4.132,3.32,
4.084,4.156,3.44,
4.068,4.132,3.32,
4.084,4.156,3.44,
4.068,4.132,3.32,
4.084,4.156,3.36,
4.06,4.132,3.44,
4.084,4.156,3.44,
4.068,4.132,3.32,
4.084,4.156,3.44,
4.068,4.124,3.36,
4.084,4.132,3.44,
4.068,4.156,3.36,
4.084,4.156,3.44,
4.068,4.132,3.36,
4.084,4.132,3.36,
4.052,4.164,3.44,
4.068,4.156,3.44,
4.084,4.132,3.32,
4.084,4.156,3.36,
4.068,4.132,3.44,
4.06,4.132,3.36,
4.1,4.164,3.44,
4.1,4.156,3.36,
4.068,4.132,3.44,
4.1,4.132,3.44,
4.068,4.164,3.36,
4.076,4.164,3.44,
4.1,4.132,3.32,
4.076,4.124,3.36,
4.092,4.156,3.44,
4.068,4.156,3.44,
4.1,4.132,3.32,
4.1,4.156,3.44,
4.068,4.132,3.32,
4.084,4.156,3.36,
4.06,4.132,3.44,
4.084,4.156,3.36,
4.068,4.132,3.44,
4.084,4.156,3.36,
4.06,4.132,3.44,
4.084,4.148,3.44,
4.06,4.164,3.32,
4.084,4.156,3.44,
4.068,4.14,3.36,
4.06,4.132,3.36,
4.092,4.164,3.44,
4.076,4.156,3.44,
4.1,4.132,3.32,
4.1,4.156,3.36,
4.076,4.132,3.44,
4.068,4.156,3.36,
4.1,4.132,3.44,
4.076,4.156,3.4,
4.1,4.124,3.44,
4.1,4.156,3.4,
4.068,4.132,3.44,
4.076,4.196,3.4,
4.1,3.404,3.44,
4.092,3.5,3.4,
4.068,3.58,3.48,
4.084,3.564,3.4,
4.068,3.604,3.44,
4.148,3.596,3.44,
2.892,3.612,3.4,
2.98,3.628,3.4,
3.068,3.596,3.44,
3.052,3.628,3.44,
3.084,3.604,3.4,
3.076,3.628,3.44,
3.1,3.596,3.36,
3.108,3.628,3.36,
3.084,3.604,3.44,
3.108,3.628,3.36,
3.084,3.604,3.44,
3.084,3.604,3.36,
3.124,4.372,3.44,
3.1,4.3,3.36,
3.124,4.22,3.44,
3.124,4.228,3.44,
3.084,4.188,3.36,
3.092,4.204,3.44,
4.332,4.148,3.32,
4.268,4.148,3.32,
4.188,4.164,3.44,
4.212,4.148,3.36,
4.156,4.204,3.44,
4.172,4.196,3.36,
4.092,4.148,3.44,
4.092,4.132,3.44,
4.116,4.196,3.32,
4.092,4.196,3.4,
4.172,4.18,3.48,
4.164,4.188,3.4,
4.092,4.14,3.48,
4.076,4.196,3.4,
4.172,3.38,3.44,
4.164,3.444,3.44,
4.148,3.556,3.36,
4.164,3.548,3.36,
4.076,3.612,3.44,
4.164,3.588,3.44,
2.868,3.636,3.32,
2.908,3.636,3.44,
3.052,4.356,3.32,
3.028,4.268,3.36,
3.108,4.204,3.44,
3.132,4.22,3.32,
3.052,4.156,3.44,
3.124,4.164,3.44,
4.3,4.148,3.32,
4.244,4.164,3.44,
4.172,4.148,3.32,
4.188,4.164,3.36,
4.1,4.148,3.44,
4.116,4.172,3.44,
4.092,4.148,3.32,
4.116,4.164,3.32,
4.1,4.148,3.44,
4.116,4.164,3.36,
4.092,4.148,3.44,
4.116,4.164,3.36,
4.092,4.148,3.44,
4.108,4.164,3.44,
4.092,4.148,3.32,
4.108,4.164,3.36,
4.076,4.148,3.44,
4.108,4.148,3.36,
4.092,4.196,3.44,
4.108,4.212,3.44,
4.084,4.18,3.32,
4.116,4.196,3.44,
4.084,4.148,3.36,
4.092,4.164,3.36,
4.164,4.148,3.44,
4.172,4.164,3.36,
4.132,4.148,3.44,
4.164,4.164,3.32,
4.092,4.148,3.44,
4.092,4.148,3.36,
4.116,4.212,3.44,
4.116,4.164,3.36,
4.092,4.196,3.44,
4.116,4.18,3.36,
4.1,4.196,3.44,
4.092,4.196,3.44,
4.172,4.172,3.32,
4.116,4.196,3.44,
4.164,4.172,3.36,
4.164,4.188,3.36,
4.14,4.148,3.44,
4.164,4.132,3.44,
4.132,4.196,3.32,
4.164,4.196,3.44,
4.132,4.148,3.36,
4.156,4.132,3.36,
4.092,4.196,3.44,
4.076,4.1,3.36,
4.164,4.188,3.44,
4.164,4.196,3.36,
4.092,3.412,3.44,
4.076,4.196,3.36,
4.164,4.156,3.44,
4.012,4.172,3.44,
4.14,4.148,0.04,
4.156,4.148,0.04,
2.916,4.164,0.16,
4.14,4.164,0.12,
4.1,4.148,0.04,
4.116,4.148,0.04,
4.076,4.164,0.16,
4.108,4.164,0.12,
4.076,4.148,0.04,
4.108,4.164,0.04,
4.092,4.148,0.16,
4.108,4.164,0.04,
4.084,4.148,0.16,
4.108,4.164,0.16,
4.092,4.148,0.04,
4.108,4.164,0.04,
4.092,4.148,0.12,
4.108,4.148,0.12,
4.076,4.164,0.04,
4.108,4.164,0.16,
4.092,4.148,0.04,
4.108,4.164,0.12,
4.076,4.148,0.04,
4.092,4.164,0.12,
4.108,4.148,0.04,
4.108,4.164,0.04,
4.084,4.148,0.16,
4.108,4.164,0.16,
4.076,4.148,0.04,
4.108,4.164,0.04,
4.092,4.14,0.16,
4.108,4.164,0.04,
4.084,4.148,0.12,
4.108,4.164,0.04,
4.076,4.14,0.16,
4.108,4.164,0.04,
4.076,4.148,0.16,
4.108,4.164,0.04,
4.092,4.148,0.16,
4.108,4.164,0.04,
4.076,4.148,0.16,
4.108,4.164,0.04,
4.076,4.148,0.16,
4.108,4.164,0.04,
4.092,4.148,0.16,
4.108,4.164,0.12,
4.084,4.148,0.04,
4.108,4.164,0.12,
4.084,4.148,0.16,
4.108,4.148,0.12,
4.084,4.196,0.16,
4.108,4.196,0.16,
4.084,3.836,0.04,
4.108,3.42,0.12,
4.092,3.596,0.04,
4.092,3.572,0.04,
4.164,3.644,0.16,
4.164,3.62,0.04,
3.556,4.34,0.16,
2.916,4.252,0.04,
3.108,4.18,0.16,
3.068,4.196,0.16,
3.172,4.156,0.04,
3.14,4.148,0.04,
4.284,4.212,0.12,
4.204,4.196,0.04,
4.124,4.132,0.16,
4.14,4.148,0.04,
4.1,4.196,0.16,
4.092,4.196,0.04,
4.172,4.172,0.16,
4.164,4.188,0.16,
4.076,4.132,0.04,
4.084,4.196,0.04,
4.164,3.436,0.16,
4.164,4.196,0.04,
4.132,4.156,0.16,
4.156,4.172,0.04,
4.076,4.148,0.16,
4.164,4.148,0.16,
2.956,4.212,0.04,
4.148,4.196,0.16,
4.1,4.132,0.04,
4.116,4.148,0.04,
4.092,4.164,0.12,
4.092,4.164,0.04,
4.164,4.148,0.16,
4.164,4.124,0.04,
4.076,4.196,0.16,
4.084,4.196,0.04,
4.108,4.172,0.16,
4.108,4.188,0.12,
4.076,4.164,0.04,
4.06,4.188,0.16,
4.164,4.172,0.04,
4.164,4.164,0.04,
4.132,4.188,0.16,
4.156,4.188,0.12,
4.132,4.148,0.04,
4.132,4.132,0.04,
4.156,4.164,0.16,
4.156,4.196,0.04,
4.132,3.428,0.16,
4.156,4.196,0.04,
4.092,4.156,0.16,
4.108,4.148,0.16,
4.068,4.204,0.04,
4.164,4.196,0.12,
2.956,3.436,0.04,
4.14,3.484,0.04,
4.1,4.228,0.16,
4.076,4.188,0.04,
4.172,4.156,0.16,
4.164,4.172,0.16,
2.948,4.148,0.04,
2.988,4.164,0.04,
4.172,4.148,0.16,
4.132,4.156,0.04,
4.1,4.196,0.16,
4.116,4.196,0.16,
4.084,4.172,0.04,
4.108,4.188,0.04,
4.076,4.164,0.16,
4.1,4.188,0.12,
4.164,4.132,0.04,
4.164,4.164,0.04,
4.124,4.14,0.16,
4.156,4.164,0.04,
4.124,4.148,0.16,
4.156,4.164,0.04,
4.076,4.132,0.12,
4.108,4.164,0.04,
4.076,4.148,0.16,
4.108,4.164,0.04,
4.092,4.14,0.16,
4.108,4.148,0.04,
4.076,4.164,0.16,
4.108,4.148,0.04,
4.076,4.164,0.16,
4.108,4.164,0.04,
4.076,4.148,0.16,
4.108,4.148,0.04,
4.084,4.196,0.16,
4.108,4.196,0.12,
4.092,4.18,0.04,
4.108,4.196,0.04,
4.084,4.172,0.16,
4.084,4.188,0.04,
4.156,4.148,0.16,
4.164,4.132,0.04,
4.132,4.164,0.16,
4.156,4.164,0.04,
4.124,4.132,0.16,
4.156,4.164,0.04,
4.092,4.148,0.16,
4.076,4.164,0.16,
4.108,4.148,0.04,
4.108,4.164,0.04,
4.084,4.148,0.16,
4.108,4.164,0.12,
4.084,4.148,0.04,
4.108,4.164,0.04,
4.076,4.148,0.16,
4.108,4.148,0.16,
4.092,4.172,0.04,
4.108,4.164,0.04,
4.084,4.148,0.12,
4.108,4.148,0.12,
4.084,4.196,0.04,
4.076,4.204,0.04,
4.116,4.172,0.16,
4.116,4.172,0.04,
4.084,4.196,0.16,
4.092,4.196,0.04,
4.164,4.14,0.12,
4.164,4.164,0.04,
4.14,4.132,0.16,
4.164,4.148,0.04,
4.132,4.164,0.16,
4.164,4.164,0.16,
4.084,4.148,0.04,
4.108,4.164,0.12,
4.084,4.148,0.04,
4.092,4.164,0.16,
4.108,4.148,0.04,
4.092,4.164,0.04,
4.116,4.132,0.16,
4.092,4.164,0.04,
4.116,4.148,0.16,
4.116,4.164,0.04,
4.092,4.148,0.16,
4.108,4.164,0.04,
4.084,4.148,0.12,
4.108,4.148,0.12,
4.092,4.196,0.04,
4.108,4.196,0.04,
4.084,4.172,0.16,
4.108,4.188,0.16,
4.076,4.172,0.04,
4.092,4.188,0.16,
4.164,4.132,0.04,
4.164,4.132,0.16,
4.14,4.164,0.04,
4.156,4.164,0.04,
4.132,4.148,0.16,
4.156,4.148,0.04,
4.076,4.164,0.12,
4.076,4.164,0.04,
4.108,4.148,0.16,
4.108,4.164,0.04,
4.092,4.148,0.12,
4.108,4.148,0.04,
4.084,4.164,0.16,
4.108,4.164,0.04,
4.092,4.148,0.12,
4.108,4.164,0.04,
4.084,4.14,0.16,
4.092,4.164,0.16,
4.108,4.148,0.04,
4.108,4.148,0.04,
4.092,4.196,0.16,
4.108,4.196,0.04,
4.084,4.172,0.16,
4.108,4.188,0.04,
4.092,4.164,0.16,
4.092,4.188,0.04,
4.164,4.132,0.16,
4.164,4.148,0.12,
4.132,4.164,0.04,
4.156,4.164,0.16,
4.132,4.14,0.04,
4.156,4.164,0.04,
4.076,4.148,0.16,
4.108,4.164,0.04,
4.076,4.14,0.16,
4.108,4.164,0.04,
4.076,4.132,0.16,
4.108,4.164,0.04,
4.076,4.116,0.16,
4.108,4.164,0.04,
4.084,4.148,0.16,
4.108,4.164,0.04,
4.068,4.14,0.16,
4.108,4.148,0.04,
4.036,4.164,0.16,
4.108,4.156,0.04,
4.084,4.196,0.16,
4.108,4.188,0.04,
4.076,4.172,0.16,
4.108,4.188,0.04,
4.092,4.172,0.16,
4.1,4.188,0.04,
4.164,4.132,0.16,
4.164,4.148,0.04,
4.132,4.164,0.16,
4.156,4.164,0.16,
4.132,4.148,0.04,
4.156,4.148,0.16,
4.076,4.164,0.04,
4.108,4.148,0.04,
4.092,4.164,0.16,
4.108,4.164,0.04,
4.092,4.148,0.16,
4.108,4.164,0.16,
4.084,4.148,0.04,
4.108,4.164,0.16,
4.076,4.148,0.04,
4.108,4.164,0.04,
4.084,4.148,0.16,
4.092,4.148,0.04,
4.108,4.196,0.16,
4.108,4.196,0.12,
4.084,4.164,0.04,
4.108,4.196,0.12,
4.092,4.164,0.04,
4.092,4.188,0.04,
4.156,4.148,0.16,
4.148,4.116,0.16,
4.164,4.164,0.04,
4.164,4.148,0.16,
4.124,4.164,0.04,
4.156,4.164,0.12,
4.092,4.14,0.04,
4.052,4.164,0.16,
4.108,4.148,0.04,
4.108,4.164,0.12,
4.076,4.148,0.04,
4.108,4.164,0.04,
4.076,4.148,0.16,
4.108,4.148,0.04,
4.092,4.164,0.16,
4.108,4.164,0.04,
4.076,4.148,0.16,
4.108,4.164,0.04,
4.092,4.148,0.16,
4.108,4.148,0.04,
4.092,4.196,0.16,
4.108,4.196,0.04,
4.084,4.18,0.12,
4.108,4.188,0.16,
4.092,4.164,0.04,
4.092,4.188,0.04,
4.164,4.132,0.16,
4.164,4.14,0.12,
4.148,4.164,0.04,
4.156,4.164,0.04,
4.132,4.14,0.16,
4.156,4.164,0.16,
4.076,4.148,0.04,
4.108,4.164,0.04,
4.076,4.148,0.12,
4.108,4.148,0.04,
4.076,4.164,0.16,
4.108,4.164,0.04,
4.092,4.132,0.16,
4.108,4.164,0.04,
4.092,4.148,0.16,
4.092,4.164,0.16,
4.108,4.148,0.04,
4.108,4.148,0.04,
4.076,4.164,0.16,
4.108,4.148,0.04,
4.084,4.196,0.16,
4.108,4.196,0.04,
4.092,4.172,0.16,
4.108,4.188,0.04,
4.092,4.164,0.16,
4.084,4.188,0.16,
4.164,4.132,0.04,
4.164,4.164,0.04,
4.14,4.132,0.12,
4.156,4.164,0.16,
4.132,4.14,0.04,
4.156,4.164,0.16,
4.076,4.148,0.04,
4.108,4.148,0.04,
4.076,4.164,0.16,
4.076,4.164,0.04,
4.108,4.148,0.16,
4.108,4.164,0.04,
4.092,4.148,0.16,
4.108,4.164,0.04,
4.084,4.148,0.16,
4.108,4.164,0.04,
4.092,4.148,0.16,
4.108,4.164,0.04,
4.092,4.148,0.16,
4.108,4.148,0.16,
4.076,4.196,0.04,
4.108,4.196,0.04,
4.092,4.172,0.16,
4.108,4.188,0.12,
4.076,4.164,0.04,
4.092,4.188,0.04,
4.164,4.132,0.16,
4.164,4.132,0.04,
4.132,4.164,0.12,
4.124,4.148,0.04,
4.156,4.164,0.16,
4.156,4.164,0.16,
4.068,4.148,0.04,
4.108,4.164,0.04,
4.076,4.148,0.12,
4.108,4.164,0.04,
4.092,4.148,0.12,
4.108,4.172,0.04,
4.092,4.148,0.16,
4.108,4.148,0.04,
4.076,4.172,0.16,
4.076,4.164,0.12,
4.116,4.148,0.04,
4.116,4.164,0.16,
4.084,4.148,0.04,
4.116,4.156,0.04,
4.092,4.196,0.16,
4.116,4.196,0.04,
4.092,4.172,0.16,
4.116,4.196,0.16,
4.092,4.172,0.04,
4.1,4.188,0.04,
4.172,4.132,0.16,
4.164,4.164,0.04,
4.14,4.14,0.16,
4.148,4.164,0.04,
4.164,4.148,0.16,
4.156,4.164,0.04,
4.076,4.132,0.16,
4.108,4.164,0.04,
4.084,4.148,0.16,
4.116,4.164,0.04,
4.084,4.148,0.16,
4.108,4.164,0.04,
4.068,4.148,0.16,
4.108,4.164,0.04,
4.092,4.132,0.16,
4.108,4.148,0.12,
4.092,4.164,0.04,
4.108,4.148,0.04,
4.076,4.196,0.16,
4.108,4.196,0.16,
4.076,4.172,0.04,
4.108,4.188,0.04,
4.076,4.172,0.16,
4.084,4.188,0.04,
4.164,4.148,0.16,
4.164,4.132,0.04,
4.132,4.156,0.16,
4.156,4.164,0.04,
4.132,4.148,0.16,
4.156,4.148,0.04,
4.092,4.164,0.16,
4.076,4.164,0.04,
4.1,4.14,0.16,
4.108,4.164,0.12,
4.092,4.148,0.04,
4.108,4.164,0.16,
4.084,4.14,0.04,
4.108,4.164,0.04,
4.076,4.148,0.16,
4.108,4.164,0.04,
4.092,4.148,0.16,
4.108,4.148,0.04,
4.076,4.164,0.16,
4.108,4.148,0.04,
4.092,4.196,0.16,
4.108,4.18,0.04,
4.092,4.196,0.16,
4.108,4.196,0.04,
4.084,4.172,0.16,
4.092,4.188,0.16,
4.164,4.132,0.04,
4.164,4.132,0.04,
4.132,4.164,0.16,
4.156,4.164,0.04,
4.132,4.14,0.16,
4.156,4.164,0.12,
4.076,4.14,0.04,
4.068,4.148,0.16,
4.108,4.164,0.04,
4.108,4.164,0.16,
4.084,4.148,0.04,
4.108,4.148,0.04,
4.076,4.164,0.16,
4.108,4.164,0.04,
4.092,4.148,0.12,
4.108,4.164,0.04,
4.084,4.148,0.16,
4.108,4.164,0.04,
4.084,4.148,0.16,
4.108,4.148,0.04,
4.084,4.196,0.16,
4.108,4.196,0.04,
4.076,4.164,0.12,
4.108,4.196,0.04,
4.092,4.172,0.12,
4.092,4.188,0.04,
4.164,4.132,0.16,
4.164,4.14,0.12,
4.132,4.164,0.04,
4.132,4.148,0.12,
4.156,4.164,0.04,
4.156,4.164,0.04,
4.068,4.14,0.16,
4.108,4.164,0.04,
4.076,4.148,0.16,
4.108,4.164,0.04,
4.084,4.148,0.16,
4.108,4.164,0.04,
4.076,4.148,0.16,
4.108,4.164,0.04,
4.092,4.148,0.16,
4.108,4.164,0.04,
4.084,4.148,0.16,
4.108,4.164,0.04,
4.092,4.14,0.12,
4.108,4.164,0.04,
4.092,4.14,0.16,
4.108,4.148,0.16,
4.076,4.164,0.04,
4.108,4.148,0.04,
4.076,4.196,0.16,
4.108,4.196,0.16,
4.084,4.14,0.04,
4.092,4.148,0.04,
4.108,4.164,0.16,
4.092,4.148,0.04,
4.164,4.164,0.16,
4.164,4.164,0.04,
4.068,4.148,0.16,
4.108,4.148,0.04,
4.076,4.164,0.16,
4.108,4.164,0.04,
4.084,4.132,0.16,
4.108,4.164,0.04,
4.092,4.14,0.16,
4.108,4.164,0.04,
4.092,4.148,0.16,
4.108,4.164,0.04,
4.084,4.148,0.16,
4.108,4.164,0.04,
4.084,4.148,0.16,
4.108,4.164,0.04,
4.084,4.14,0.16,
4.108,4.164,0.16,
4.092,4.148,0.04,
4.108,4.164,0.04,
4.084,4.148,0.16,
4.108,4.164,0.12,
4.076,4.148,0.04,
4.108,4.164,0.04,
4.092,4.148,0.16,
4.108,4.164,0.04,
4.076,4.132,0.16,
4.108,4.164,0.16,
4.076,4.132,0.04,
4.108,4.164,0.04,
4.092,4.14,0.16,
4.108,4.164,0.12,
4.076,4.148,0.04,
4.108,4.148,0.04,
4.076,4.164,0.16,
4.108,4.164,0.04,
4.084,4.148,0.16,
4.108,4.164,0.04,
4.092,4.148,0.16,
4.108,4.164,0.04,
4.084,4.148,0.12,
4.108,4.164,0.16,
4.076,4.148,0.04,
4.092,4.164,0.12,
4.108,4.148,0.04,
4.092,4.164,0.04,
4.108,4.132,0.16,
4.092,4.164,0.04,
4.108,4.148,0.16,
4.108,4.148,0.12,
4.076,4.164,0.04,
4.108,4.164,0.04,
4.068,4.148,0.16,
4.108,4.164,0.04,
4.092,4.148,0.16,
4.108,4.148,0.04,
4.076,4.164,0.12,
4.108,4.164,0.04,
4.092,4.148,0.16,
4.108,4.164,0.04,
4.084,4.132,0.16,
4.108,4.148,0.04,
4.084,4.164,0.16,
4.108,4.164,0.04,
4.084,4.148,0.16,
4.108,4.164,0.04,
4.076,4.132,0.16,
4.108,4.164,0.04,
4.076,4.14,0.16,
4.108,4.164,0.16,
4.084,4.132,0.04,
4.108,4.148,0.04,
4.076,4.164,0.16,
4.108,4.164,0.04,
4.076,4.148,0.16,
4.108,4.14,0.04,
4.084,4.164,0.16,
4.108,4.164,0.04,
4.092,4.148,0.16,
4.108,4.172,0.12,
4.092,4.148,0.04,
4.108,4.164,0.12,
4.084,4.148,0.04,
4.084,4.164,0.04,
4.116,4.148,0.16,
4.116,4.148,0.04,
4.092,4.172,0.16,
4.092,4.164,0.04,
4.116,4.148,0.16,
4.092,4.164,0.12,
4.116,4.148,0.04,
4.084,4.132,0.04,
4.116,4.196,0.16,
4.092,4.18,0.04,
4.116,4.196,0.16,
4.116,4.172,0.04,
4.092,4.196,0.16,
4.068,4.196,0.04,
4.164,4.14,0.16,
4.164,4.132,0.16,
4.148,4.164,0.04,
4.164,4.148,0.04,
4.124,4.164,0.16,
4.164,4.148,0.04,
4.076,4.164,0.12,
4.076,4.164,0.04,
4.108,4.14,0.16,
4.076,4.164,0.16,
4.108,4.132,0.04,
4.108,4.164,0.04,
4.084,4.132,0.16,
4.108,4.148,0.16,
