Power Payload/Metingen 3/Payload 1 210.csv

CH1,CH2,CH3,Start,Increment,
Volt,Volt,Volt,-5.995,0.01
4.108,4.148,0.04,
4.076,4.164,0.16,
4.108,4.164,0.04,
4.076,4.148,0.16,
4.108,4.148,0.04,
4.076,4.164,0.16,
4.108,4.148,0.12,
4.092,4.164,0.04,
4.108,4.164,0.12,
4.076,4.14,0.04,
4.108,4.148,0.16,
4.084,4.164,0.04,
4.108,4.164,0.04,
4.092,4.132,0.16,
4.108,4.148,0.12,
4.092,4.196,0.04,
4.108,4.196,0.16,
4.092,4.172,0.04,
4.108,4.188,0.04,
4.076,4.164,0.16,
4.1,4.188,0.16,
4.164,4.132,0.04,
4.164,4.156,0.04,
4.132,4.132,0.16,
4.156,4.164,0.12,
4.124,4.132,0.04,
4.148,4.164,0.04,
4.068,4.14,0.16,
4.076,4.164,0.04,
4.108,4.14,0.16,
4.108,4.164,0.16,
4.076,4.132,0.04,
4.076,4.164,0.12,
4.108,4.132,0.04,
4.108,4.164,0.12,
4.076,4.14,0.04,
4.108,4.164,0.04,
4.076,4.14,0.16,
4.076,4.14,0.04,
4.108,4.196,0.12,
4.108,4.196,0.12,
4.076,4.164,0.04,
4.108,4.188,0.12,
4.076,4.164,0.04,
4.076,4.188,0.04,
4.164,4.132,0.16,
4.164,4.156,0.04,
4.132,4.116,0.16,
4.132,4.164,0.04,
4.156,4.092,0.16,
4.156,4.148,0.04,
4.076,4.164,0.16,
4.1,4.052,0.04,
4.052,4.212,0.12,
4.012,4.22,0.04,
4.116,4.188,0.16,
4.092,4.212,0.04,
4.108,4.18,0.16,
3.948,4.18,0.12,
4.172,4.196,0.04,
4.196,4.18,0.04,
4.156,4.196,0.16,
4.172,4.18,0.04,
4.156,4.196,0.12,
4.172,4.196,0.16,
4.14,4.164,0.04,
4.148,4.196,0.04,
4.164,4.18,0.16,
4.164,4.196,0.04,
4.148,4.18,0.16,
4.164,4.172,0.04,
4.148,4.196,0.16,
4.164,4.196,0.04,
4.148,4.18,0.16,
4.164,4.18,0.04,
4.148,4.196,0.12,
4.164,4.18,0.04,
4.148,4.196,0.16,
4.164,4.18,0.04,
4.148,4.196,0.16,
4.164,4.18,0.12,
4.148,4.196,0.04,
4.156,4.18,0.04,
4.172,4.196,0.16,
4.172,4.196,0.04,
4.148,4.172,0.16,
4.148,4.18,0.04,
4.172,4.196,0.16,
4.164,4.18,0.04,
4.148,4.196,0.16,
4.148,4.172,0.12,
4.172,4.196,0.04,
4.164,4.196,0.16,
4.148,4.18,0.04,
4.164,4.196,0.12,
4.148,4.18,0.04,
4.164,4.18,0.04,
4.132,4.196,0.16,
4.164,4.196,0.04,
4.148,4.172,0.16,
4.164,4.18,0.04,
4.148,4.196,0.16,
4.164,4.196,0.04,
4.148,4.172,0.16,
4.164,4.18,0.04,
4.148,4.196,0.16,
4.164,4.18,0.04,
4.148,4.196,0.16,
4.172,4.18,0.04,
4.14,4.196,0.12,
4.164,4.18,0.12,
4.148,4.196,0.04,
4.164,4.196,0.04,
4.156,4.18,0.16,
4.164,4.196,0.04,
4.148,4.172,0.16,
4.148,4.18,0.12,
4.172,4.196,0.04,
4.156,4.18,0.04,
4.164,4.196,0.16,
4.148,4.196,0.04,
4.172,4.18,0.16,
4.172,4.196,0.04,
4.148,4.172,0.16,
4.148,4.18,0.16,
4.172,4.196,0.04,
4.148,4.18,0.16,
4.172,4.196,0.04,
4.164,4.18,0.04,
4.148,4.196,0.12,
4.164,4.196,0.16,
4.148,4.18,0.04,
4.156,4.196,0.04,
4.172,4.18,0.12,
4.164,4.196,0.04,
4.14,4.18,0.16,
4.164,4.18,0.04,
4.148,4.196,0.16,
4.172,4.18,0.12,
4.148,4.196,0.04,
4.172,4.18,0.04,
4.148,4.196,0.12,
4.164,4.18,0.04,
4.148,4.196,0.16,
4.172,4.18,0.12,
4.148,4.196,0.04,
4.148,4.196,0.04,
4.172,4.18,0.16,
4.164,4.196,0.04,
4.148,4.172,0.16,
4.172,4.18,0.04,
4.148,4.196,0.16,
4.156,4.196,0.04,
4.172,4.18,0.16,
4.164,4.18,0.04,
4.148,4.196,0.16,
4.148,4.196,0.04,
4.164,4.18,0.16,
4.164,4.196,0.04,
4.148,4.18,0.16,
4.172,4.18,0.04,
4.148,4.196,0.16,
4.164,4.18,0.12,
4.156,4.196,0.04,
4.164,4.196,0.04,
4.148,4.172,0.16,
4.164,4.196,0.04,
4.148,4.18,0.16,
4.164,4.18,0.04,
4.148,4.196,0.12,
4.164,4.18,0.04,
4.148,4.196,0.16,
4.156,4.196,0.04,
4.164,4.18,0.16,
4.164,4.196,0.04,
4.148,4.172,0.16,
4.148,4.196,0.16,
4.164,4.164,0.04,
4.164,4.196,0.04,
4.148,4.18,0.12,
4.164,4.172,0.16,
4.148,4.196,0.04,
4.164,4.196,0.04,
4.124,4.18,0.16,
4.172,4.196,0.04,
4.148,4.172,0.16,
4.148,4.196,0.04,
4.164,4.18,3.44,
4.172,4.18,3.44,
4.148,4.196,3.32,
4.164,4.196,3.44,
4.148,4.18,3.32,
4.148,4.196,3.44,
4.172,4.172,3.36,
4.164,4.196,3.36,
4.148,4.172,3.44,
4.148,4.18,3.44,
4.172,4.196,3.36,
4.164,4.196,3.44,
4.14,4.172,3.32,
4.164,4.18,3.44,
4.14,4.196,3.36,
4.164,4.196,3.44,
4.148,4.18,3.32,
4.172,4.196,3.44,
4.148,4.18,3.36,
4.172,4.196,3.36,
4.148,4.18,3.44,
4.172,4.196,3.44,
4.148,4.172,3.32,
4.172,4.196,3.44,
4.156,4.18,3.32,
4.172,4.18,3.36,
4.156,4.196,3.44,
4.172,4.18,3.44,
4.132,4.196,3.32,
4.172,4.18,3.44,
4.148,4.196,3.36,
4.156,4.196,3.44,
4.172,4.18,3.32,
4.172,4.172,3.36,
4.148,4.196,3.44,
4.172,4.196,3.44,
4.156,4.172,3.32,
4.172,4.196,3.44,
4.156,4.18,3.36,
4.164,4.18,3.36,
4.148,4.196,3.44,
4.164,4.196,3.36,
4.148,4.18,3.44,
4.164,4.172,3.44,
4.148,4.196,3.32,
4.164,4.196,3.44,
4.148,4.18,3.36,
4.164,4.196,3.36,
4.148,4.18,3.44,
4.164,4.18,3.44,
4.14,4.196,3.32,
4.164,4.18,3.36,
4.148,4.196,3.44,
4.164,4.18,3.36,
4.148,4.196,3.44,
4.164,4.18,3.44,
4.148,4.196,3.32,
4.148,4.196,3.44,
4.172,4.172,3.36,
4.148,4.18,3.36,
4.172,4.196,3.44,
4.164,4.196,3.44,
4.148,4.172,3.32,
4.14,4.18,3.36,
4.172,4.196,3.44,
4.164,4.196,3.44,
4.148,4.18,3.32,
4.164,4.18,3.36,
4.148,4.196,3.44,
4.164,4.18,3.44,
4.148,4.196,3.32,
4.164,4.18,3.36,
4.148,4.196,3.44,
4.148,4.18,3.36,
4.172,4.196,3.44,
4.164,4.18,3.44,
4.148,4.196,3.36,
4.164,4.18,3.44,
4.148,4.196,3.32,
4.164,4.18,3.36,
4.148,4.196,3.44,
4.164,4.196,3.44,
4.148,4.18,3.36,
4.164,4.18,3.44,
4.148,4.196,3.36,
4.156,4.196,3.36,
4.164,4.18,3.44,
4.148,4.18,3.44,
4.172,4.196,3.32,
4.148,4.18,3.36,
4.172,4.196,3.44,
4.164,4.18,3.32,
4.148,4.196,3.44,
4.164,4.18,3.36,
4.148,4.196,3.44,
4.172,4.18,3.44,
4.148,4.196,3.32,
4.164,4.18,3.44,
4.148,4.196,3.32,
4.148,4.18,3.36,
4.164,4.196,3.44,
4.164,4.196,3.36,
4.156,4.172,3.44,
4.164,4.18,3.36,
4.148,4.196,3.44,
4.164,4.18,3.36,
4.148,4.196,3.44,
4.164,4.18,3.44,
4.156,4.196,3.32,
4.148,4.18,3.36,
4.172,4.196,3.44,
4.164,4.18,3.32,
4.148,4.196,3.44,
4.148,4.18,3.36,
4.164,4.196,3.44,
4.164,4.18,3.36,
4.148,4.196,3.44,
4.164,4.196,3.36,
4.148,4.172,3.44,
4.148,4.18,3.36,
4.164,4.196,3.44,
4.156,4.196,3.36,
4.172,4.18,3.44,
4.148,4.18,3.44,
4.164,4.196,3.36,
4.156,4.18,3.36,
4.172,4.196,3.44,
4.164,4.18,3.44,
4.148,4.196,3.36,
4.164,4.18,3.36,
4.148,4.196,3.44,
4.164,4.196,3.32,
4.156,4.18,3.44,
4.148,4.196,3.36,
4.172,4.156,3.44,
4.156,4.196,3.36,
4.172,4.18,3.44,
4.164,4.196,3.44,
4.148,4.172,3.32,
4.164,4.18,3.44,
4.116,4.196,3.32,
4.156,4.196,3.44,
4.172,4.156,3.36,
4.172,4.196,3.44,
4.148,4.164,3.32,
4.156,4.18,3.44,
4.164,4.196,3.32,
4.172,4.196,3.36,
4.116,4.156,3.44,
4.148,4.196,3.36,
4.172,4.156,3.44,
4.164,4.196,3.44,
4.148,4.172,3.32,
4.164,4.18,3.36,
4.124,4.196,3.44,
4.164,4.196,3.36,
4.1,4.18,3.44,
4.164,4.196,3.44,
4.14,4.18,3.36,
4.164,4.18,3.36,
4.148,4.196,3.44,
4.148,4.196,3.36,
4.172,4.18,3.44,
4.164,4.18,3.36,
4.132,4.196,3.44,
4.156,4.196,3.32,
4.172,4.172,3.44,
4.164,4.172,3.44,
4.148,4.196,3.36,
4.148,4.196,3.44,
4.164,4.172,3.36,
4.164,4.196,3.44,
4.148,4.164,3.32,
4.14,4.18,3.44,
4.172,4.196,3.32,
4.172,4.18,3.44,
4.14,4.196,3.32,
4.164,4.196,3.44,
4.148,4.172,3.32,
4.148,4.18,3.44,
4.172,4.196,3.36,
4.164,4.18,3.44,
4.148,4.196,3.36,
4.164,4.196,3.36,
4.148,4.18,3.44,
4.164,4.196,3.44,
4.148,4.18,3.32,
4.148,4.196,3.36,
4.164,4.18,3.44,
4.148,4.196,3.44,
4.172,4.18,3.32,
4.164,4.196,3.44,
4.148,4.1,3.32,
4.164,4.124,3.36,
4.148,4.164,3.44,
4.164,4.164,3.44,
4.148,4.132,3.36,
4.164,4.164,3.36,
4.02,4.116,3.44,
4.06,4.124,3.44,
4.108,4.172,3.36,
4.108,4.148,3.36,
4.076,4.164,3.44,
4.044,4.148,3.36,
4.116,4.164,3.44,
4.052,4.164,3.44,
4.132,4.148,3.32,
4.108,4.164,3.44,
4.076,4.124,3.32,
4.108,4.164,3.44,
4.092,4.116,3.36,
4.092,4.164,3.36,
4.108,4.148,3.44,
4.108,4.148,3.44,
4.06,4.164,3.36,
4.108,4.148,3.44,
4.036,4.164,3.36,
4.108,4.148,3.36,
4.092,4.164,3.44,
4.084,4.124,3.36,
4.116,4.172,3.44,
4.116,4.164,3.36,
4.092,4.132,3.44,
4.116,4.164,3.36,
4.092,4.132,3.44,
4.06,4.164,3.44,
4.132,4.132,3.32,
4.116,4.124,3.44,
4.068,4.164,3.32,
4.108,4.164,3.44,
4.076,4.132,3.36,
4.108,4.164,3.36,
4.076,4.124,3.44,
4.108,4.164,3.36,
4.052,4.1,3.44,
4.108,4.164,3.44,
4.068,4.116,3.36,
4.108,4.164,3.36,
4.06,4.124,3.44,
4.02,4.148,3.44,
4.116,4.172,3.32,
4.108,4.172,3.44,
4.036,4.124,3.36,
4.044,4.124,3.44,
4.116,4.172,3.36,
4.092,4.172,3.44,
4.116,4.132,3.36,
4.116,4.124,3.36,
4.06,4.196,3.44,
4.052,4.148,3.36,
4.116,4.164,3.44,
4.116,4.148,3.32,
4.068,4.164,3.44,
4.068,4.148,3.44,
4.164,4.164,3.36,
4.116,4.164,3.36,
4.092,4.148,3.44,
4.092,4.148,3.44,
4.108,4.164,3.36,
4.108,4.164,3.44,
4.076,4.148,3.32,
4.092,4.148,3.36,
4.108,4.164,3.44,
4.092,4.148,3.36,
4.116,4.164,3.44,
4.108,4.148,3.36,
4.092,4.164,3.44,
4.092,4.148,3.44,
4.108,4.164,3.32,
4.092,4.188,3.44,
4.108,4.076,3.36,
4.092,4.14,3.36,
4.108,4.116,3.44,
4.092,4.14,3.36,
4.116,4.124,3.44,
4.148,4.124,3.36,
4.004,4.156,3.44,
4.052,4.148,3.44,
4.076,4.124,3.36,
4.076,4.132,3.44,
4.044,4.156,3.36,
4.052,4.132,3.36,
4.084,4.156,3.44,
4.084,4.132,3.44,
4.06,4.148,3.36,
4.068,4.132,3.36,
4.084,4.156,3.44,
4.068,4.156,3.44,
4.084,4.124,3.36,
4.084,4.14,3.44,
4.068,4.116,3.36,
4.068,4.14,3.4,
4.084,4.124,3.44,
4.084,4.124,3.4,
4.052,4.188,3.48,
4.076,4.18,3.44,
4.036,3.38,3.4,
4.076,3.508,3.4,
4.052,3.572,3.44,
4.052,3.556,3.4,
4.14,3.588,3.48,
4.132,3.572,3.4,
2.892,3.588,3.44,
3.004,3.572,3.4,
3.068,3.604,3.44,
3.06,3.588,3.4,
3.084,3.604,3.48,
3.076,3.604,3.44,
3.1,3.572,3.32,
3.1,3.58,3.44,
3.076,3.604,3.32,
3.092,3.588,3.36,
3.108,3.604,3.44,
3.108,3.588,3.36,
3.084,4.364,3.44,
3.084,4.228,3.36,
3.108,4.172,3.44,
3.092,4.188,3.44,
3.108,4.156,3.32,
3.084,4.164,3.44,
4.316,4.148,3.36,
4.172,4.164,3.44,
4.116,4.148,3.32,
4.132,4.148,3.44,
4.092,4.196,3.36,
4.116,4.188,3.44,
4.092,4.132,3.32,
4.108,4.148,3.36,
4.084,4.196,3.44,
4.076,4.196,3.4,
4.164,4.164,3.44,
4.164,4.124,3.4,
4.076,4.196,3.44,
4.092,4.196,3.44,
4.172,3.348,3.36,
4.164,3.46,3.44,
4.116,3.556,3.32,
4.044,3.516,3.44,
4.172,3.58,3.36,
4.164,3.548,3.36,
2.86,4.356,3.44,
2.932,4.3,3.44,
3.06,4.228,3.32,
3.004,4.228,3.32,
3.076,4.188,3.44,
3.012,4.196,3.36,
4.3,4.148,3.44,
4.26,4.132,3.44,
4.196,4.196,3.36,
4.204,4.196,3.36,
4.164,4.132,3.44,
4.172,4.156,3.44,
4.092,4.132,3.32,
4.084,4.132,3.44,
4.156,4.164,3.32,
4.164,4.132,3.44,
4.092,4.196,3.32,
4.108,4.196,3.44,
4.068,4.172,3.32,
4.108,4.188,3.36,
4.076,4.164,3.44,
4.076,4.188,3.36,
4.164,4.164,3.44,
4.164,4.164,3.44,
4.132,4.188,3.36,
4.156,4.172,3.44,
4.132,4.188,3.36,
4.156,4.188,3.36,
4.124,4.132,3.44,
4.156,4.188,3.44,
4.132,3.348,3.32,
4.132,3.372,3.36,
4.156,4.196,3.48,
4.156,4.148,3.44,
4.076,4.196,3.4,
4.148,4.196,3.48,
2.844,4.164,3.36,
2.868,4.18,3.44,
4.14,3.364,3.36,
4.076,3.468,3.36,
4.164,3.556,3.44,
4.164,3.516,3.36,
4.116,4.332,3.44,
4.14,4.26,3.44,
2.852,4.18,3.36,
2.94,4.188,3.36,
3.06,4.156,3.44,
2.996,4.172,3.36,
4.276,4.148,3.44,
4.204,4.148,3.44,
4.124,4.196,3.32,
4.14,4.196,3.36,
4.1,4.172,3.44,
4.116,4.188,3.44,
4.092,4.172,3.36,
4.092,4.188,3.36,
4.164,4.132,3.44,
4.164,4.132,3.4,
4.132,4.156,3.48,
4.132,4.132,3.4,
4.156,4.196,3.48,
4.156,4.188,3.44,
4.076,3.884,3.36,
4.1,3.364,3.36,
4.068,3.524,3.44,
4.076,3.508,3.36,
4.164,3.572,3.44,
4.156,3.548,3.44,
3.66,4.332,3.36,
3.044,4.252,3.44,
2.86,4.18,3.32,
3.004,4.188,3.44,
3.076,4.148,3.36,
3.052,4.164,3.44,
4.284,4.148,3.32,
4.196,4.148,3.36,
4.116,4.196,3.44,
4.132,4.196,3.44,
4.092,4.172,3.32,
4.108,4.188,3.36,
4.092,4.164,3.44,
4.092,4.188,3.44,
4.164,4.124,3.36,
4.164,4.156,3.44,
4.132,4.132,3.36,
4.156,4.132,3.36,
4.132,4.196,3.44,
4.156,4.188,3.36,
4.068,3.404,3.44,
4.076,3.452,3.44,
4.1,4.228,3.36,
4.076,4.18,3.32,
4.164,4.148,3.44,
4.156,4.164,3.36,
2.924,4.148,3.44,
2.972,4.164,3.44,
4.164,4.148,3.32,
4.132,4.164,3.36,
4.092,4.132,3.44,
4.116,4.164,3.36,
4.084,4.132,3.44,
4.108,4.148,3.44,
4.084,4.196,3.36,
4.108,4.196,3.36,
4.076,4.164,3.44,
4.108,4.188,3.44,
4.076,4.164,3.32,
4.092,4.188,3.36,
4.164,4.124,3.44,
4.156,4.156,3.36,
4.132,4.132,3.44,
4.156,4.14,3.36,
4.132,4.196,3.44,
4.156,4.188,3.36,
4.068,4.132,3.44,
4.1,4.156,3.36,
4.06,4.132,3.44,
4.076,4.124,3.44,
4.164,4.196,3.32,
4.156,4.196,3.36,
4.068,4.164,3.44,
4.076,4.188,3.36,
4.108,4.172,3.44,
4.044,4.188,3.36,
4.164,4.164,3.44,
4.164,4.188,3.44,
4.132,4.164,3.36,
4.156,4.164,3.36,
4.124,4.188,3.44,
4.124,4.188,3.44,
4.156,4.132,3.36,
4.132,4.132,3.36,
4.148,4.196,3.44,
4.156,3.364,3.32,
4.124,4.196,3.44,
4.156,4.148,3.44,
4.076,4.196,3.36,
4.076,4.212,3.36,
4.164,4.164,3.44,
4.148,3.388,3.44,
2.86,4.196,3.32,
4.092,4.172,3.44,
4.164,4.14,3.36,
4.164,4.148,3.36,
4.132,4.164,3.44,
4.156,4.164,3.36,
2.916,4.148,3.44,
4.116,4.164,3.36,
4.084,4.132,3.44,
4.108,4.164,3.36,
4.076,4.14,3.44,
4.108,4.148,3.44,
4.092,4.196,3.32,
4.108,4.196,3.44,
4.068,4.172,3.32,
4.108,4.172,3.36,
4.076,4.188,3.44,
4.076,4.188,3.44,
4.164,4.132,3.32,
4.164,4.132,3.36,
4.132,4.156,3.44,
4.132,4.132,3.44,
4.156,4.164,3.36,
4.156,4.14,3.44,
4.076,4.164,3.36,
4.068,4.14,3.44,
4.1,4.164,3.36,
4.076,4.164,3.44,
4.108,4.132,3.36,
4.108,4.132,3.44,
4.076,4.164,3.36,
4.108,4.164,3.44,
4.076,4.132,3.32,
4.108,4.164,3.36,
4.076,4.132,3.44,
4.076,4.164,3.36,
4.108,4.14,3.44,
4.108,4.14,3.36,
4.068,4.196,3.44,
4.108,4.196,3.44,
4.076,4.164,3.32,
4.108,4.188,3.44,
4.076,4.164,3.36,
4.076,4.188,3.44,
4.164,4.124,3.36,
4.164,4.132,3.44,
4.124,4.164,3.32,
4.156,4.164,3.44,
4.124,4.132,3.32,
4.156,4.164,3.44,
4.076,4.14,3.36,
4.076,4.164,3.36,
4.108,4.14,3.44,
4.108,4.164,3.44,
4.076,4.14,3.32,
4.108,4.164,3.36,
4.076,4.148,3.44,
4.108,4.164,3.36,
4.076,4.132,3.44,
4.108,4.164,3.36,
4.084,4.148,3.44,
4.108,4.164,3.44,
4.092,4.132,3.36,
4.108,4.14,3.44,
4.076,4.196,3.36,
4.108,4.196,3.44,
4.076,4.164,3.36,
4.108,4.188,3.32,
4.076,4.164,3.44,
4.084,4.188,3.36,
4.164,4.124,3.44,
4.164,4.156,3.36,
4.132,4.132,3.44,
4.156,4.132,3.36,
4.124,4.164,3.44,
4.156,4.164,3.36,
4.076,4.132,3.44,
4.1,4.124,3.36,
4.068,4.164,3.44,
4.068,4.164,3.44,
4.1,4.132,3.32,
4.108,4.164,3.36,
4.076,4.132,3.44,
4.108,4.132,3.36,
4.068,4.164,3.44,
4.108,4.148,3.36,
4.076,4.164,3.44,
4.108,4.132,3.44,
4.076,4.164,3.32,
4.076,4.148,3.36,
4.108,4.196,3.44,
4.108,4.188,3.44,
4.076,4.172,3.36,
4.108,4.188,3.36,
4.068,4.164,3.44,
4.084,4.188,3.36,
4.164,4.132,3.44,
4.164,4.132,3.36,
4.124,4.156,3.44,
4.156,4.156,3.44,
4.124,4.124,3.36,
4.156,4.164,3.44,
4.076,4.14,3.32,
4.1,4.132,3.36,
4.068,4.164,3.44,
4.108,4.164,3.36,
4.06,4.132,3.44,
4.108,4.164,3.44,
4.076,4.132,3.36,
4.108,4.164,3.44,
4.076,4.124,3.32,
4.108,4.164,3.44,
4.076,4.14,3.32,
4.108,4.132,3.36,
4.076,4.164,3.44,
4.108,4.148,3.44,
4.06,4.196,3.36,
4.108,4.188,3.44,
4.068,4.164,3.32,
4.108,4.188,3.44,
4.076,4.164,3.36,
4.092,4.188,3.36,
4.164,4.132,3.44,
4.156,4.156,3.36,
4.124,4.14,3.44,
4.156,4.164,3.44,
4.132,4.132,0.04,
4.148,4.156,0.16,
4.076,4.132,0.04,
4.076,4.164,0.04,
4.108,4.132,0.16,
4.108,4.164,0.16,
4.084,4.132,0.04,
4.108,4.124,0.04,
4.076,4.164,0.16,
4.108,4.164,0.12,
4.068,4.132,0.04,
4.084,4.164,0.12,
4.108,4.14,0.04,
4.108,4.14,0.04,
4.06,4.196,0.16,
4.108,4.196,0.16,
4.076,4.164,0.04,
4.076,4.188,0.04,
4.108,4.164,0.16,
4.076,4.188,0.16,
4.164,4.132,0.04,
4.164,4.124,0.16,
4.124,4.156,0.04,
4.156,4.132,0.04,
4.132,4.164,0.16,
4.156,4.164,0.04,
4.076,4.14,0.16,
4.1,4.164,0.04,
4.068,4.132,0.16,
4.076,4.164,0.04,
4.108,4.14,0.16,
4.108,4.164,0.16,
4.076,4.132,0.04,
4.108,4.164,0.04,
4.068,4.14,0.12,
4.108,4.164,0.12,
4.084,4.132,0.04,
4.076,4.164,0.12,
4.108,4.132,0.04,
4.108,4.14,0.04,
4.076,4.196,0.16,
4.108,4.196,0.04,
4.076,4.164,0.16,
4.108,4.188,0.16,
4.068,4.14,0.04,
4.076,4.188,0.04,
4.164,4.132,0.16,
4.164,4.132,0.12,
4.132,4.156,0.04,
4.156,4.132,0.04,
4.084,4.164,0.16,
4.156,4.164,0.04,
4.068,4.132,0.16,
4.1,4.164,0.16,
4.068,4.14,0.04,
4.076,4.164,0.04,
4.108,4.132,0.16,
4.108,4.132,0.04,
4.068,4.164,0.16,
4.108,4.148,0.04,
4.076,4.164,0.16,
4.108,4.164,0.16,
4.076,4.132,0.04,
4.076,4.148,0.16,
4.108,4.164,0.04,
4.108,4.148,0.04,
4.076,4.196,0.12,
4.108,4.172,0.16,
4.068,4.188,0.04,
4.108,4.188,0.04,
4.084,4.164,0.16,
4.092,4.188,0.04,
4.164,4.124,0.16,
4.132,4.156,0.04,
4.164,4.132,0.16,
4.156,4.132,0.04,
4.132,4.164,0.16,
4.156,4.132,0.04,
4.068,4.164,0.12,
4.076,4.164,0.16,
4.1,4.148,0.04,
4.108,4.164,0.04,
4.068,4.132,0.16,
4.076,4.164,0.16,
4.108,4.132,0.04,
4.108,4.164,0.04,
4.076,4.132,0.12,
4.108,4.132,0.04,
4.076,4.164,0.16,
4.108,4.164,0.04,
4.068,4.132,0.16,
4.108,4.14,0.04,
4.076,4.196,0.16,
4.076,4.188,0.04,
4.108,4.172,0.16,
4.108,4.172,0.08,
4.076,4.188,0.16,
4.076,4.188,0.04,
4.164,4.132,0.16,
4.156,4.132,0.04,
4.132,4.156,0.16,
4.132,4.156,0.16,
4.156,4.132,0.04,
4.148,4.164,0.16,
4.068,4.14,0.04,
4.076,4.148,0.04,
4.1,4.164,0.16,
4.108,4.14,0.04,
4.076,4.164,0.16,
4.108,4.164,0.04,
4.076,4.132,0.16,
4.108,4.164,0.16,
4.084,4.14,0.04,
4.108,4.164,0.16,
4.076,4.14,0.04,
4.108,4.148,0.12,
4.076,4.164,0.04,
4.108,4.132,0.04,
4.076,4.196,0.16,
4.108,4.172,0.16,
4.076,4.196,0.04,
4.108,4.188,0.04,
4.076,4.172,0.16,
4.076,4.188,0.04,
4.164,4.124,0.16,
4.132,4.132,0.04,
4.164,4.164,0.16,
4.132,4.164,0.04,
4.164,4.132,0.16,
4.148,4.164,0.04,
4.068,4.148,0.16,
4.108,4.164,0.16,
4.084,4.132,0.04,
4.108,4.148,0.04,
4.076,4.164,0.16,
4.108,4.148,0.16,
4.092,4.164,0.04,
4.108,4.164,0.16,
4.076,4.132,0.04,
4.108,4.164,0.04,
4.092,4.14,0.16,
4.108,4.164,0.04,
4.092,4.132,0.16,
4.084,4.148,0.04,
4.116,4.164,0.16,
4.108,4.164,0.04,
4.076,4.14,0.16,
4.108,4.196,0.04,
4.068,4.132,0.16,
4.108,4.132,0.04,
4.076,4.156,0.16,
4.108,4.132,0.16,
4.084,4.164,0.04,
4.084,4.164,0.04,
4.164,4.14,0.16,
4.076,4.164,0.04,
4.108,4.14,0.16,
4.108,4.14,0.04,
4.068,4.164,0.16,
4.108,4.148,0.12,
4.084,4.164,0.04,
4.108,4.164,0.04,
4.076,4.132,0.16,
4.076,4.164,0.04,
4.108,4.124,0.12,
4.108,4.164,0.16,
4.076,4.14,0.04,
4.108,4.164,0.12,
4.068,4.132,0.04,
4.108,4.148,0.16,
4.068,4.164,0.04,
4.108,4.164,0.04,
4.076,4.124,0.16,
4.108,4.164,0.04,
4.068,4.132,0.16,
4.108,4.148,0.04,
4.084,4.164,0.16,
4.108,4.164,0.04,
4.06,4.124,0.16,
4.108,4.164,0.16,
4.076,4.132,0.04,
4.108,4.164,0.04,
4.076,4.14,0.16,
4.108,4.164,0.16,
4.068,4.14,0.04,
4.076,4.148,0.12,
4.108,4.164,0.04,
4.108,4.164,0.04,
4.076,4.132,0.16,
4.108,4.164,0.12,
4.084,4.148,0.04,
4.108,4.164,0.04,
4.076,4.132,0.16,
4.108,4.148,0.12,
4.068,4.164,0.04,
4.108,4.164,0.16,
4.084,4.132,0.04,
4.108,4.164,0.04,
4.076,4.132,0.16,
4.108,4.14,0.16,
4.076,4.164,0.04,
4.076,4.164,0.16,
4.108,4.132,0.04,
4.108,4.164,0.04,
4.076,4.132,0.16,
4.108,4.164,0.16,
4.084,4.132,0.04,
4.108,4.132,0.04,
4.076,4.164,0.12,
4.108,4.164,0.04,
4.068,4.14,0.16,
4.108,4.164,0.04,
4.076,4.132,0.16,
4.108,4.164,0.04,
4.06,4.132,0.16,
4.108,4.164,0.16,
4.084,4.14,0.04,
4.108,4.14,0.04,
4.068,4.164,0.16,
4.108,4.164,0.16,
4.076,4.14,0.04,
4.108,4.164,0.04,
4.076,4.132,0.16,
4.076,4.164,0.12,
4.108,4.148,0.04,
4.108,4.164,0.04,
4.076,4.14,0.16,
4.108,4.164,0.04,
4.068,4.14,0.16,
4.108,4.164,0.04,
4.076,4.14,0.16,
4.108,4.164,0.16,
4.076,4.124,0.04,
4.108,4.164,0.04,
4.068,4.14,0.16,
4.108,4.164,0.12,
4.076,4.14,0.04,
4.108,4.132,0.04,
4.068,4.164,0.16,
4.108,4.164,0.04,
4.076,4.132,0.16,
4.108,4.164,0.12,
4.076,4.132,0.04,
4.108,4.164,0.04,
4.068,4.14,0.16,
4.108,4.148,0.16,
4.084,4.196,0.04,
4.108,4.164,0.04,
4.068,4.188,0.16,
4.108,4.188,0.16,
4.068,4.164,0.04,
4.092,4.188,0.16,
4.164,4.124,0.04,
4.124,4.132,0.04,
4.156,4.156,0.16,
4.132,4.164,0.04,
4.156,4.132,0.16,
4.156,4.132,0.12,
4.06,4.164,0.04,
4.076,4.148,0.04,
4.108,4.164,0.16,
4.108,4.164,0.04,
4.076,4.14,0.16,
4.108,4.164,0.16,
4.068,4.132,0.04,
4.108,4.148,0.16,
4.084,4.164,0.04,
4.108,4.132,0.04,
4.076,4.164,0.16,
4.076,4.132,0.16,
4.108,4.196,0.04,
4.108,4.196,0.04,
4.084,4.172,0.16,
4.108,4.188,0.04,
4.076,4.164,0.16,
4.084,4.188,0.04,
4.164,4.132,0.16,
4.164,4.124,0.04,
4.132,4.156,0.16,
4.132,4.132,0.12,
4.156,4.164,0.04,
4.156,4.164,0.16,
4.076,4.132,0.04,
4.06,4.164,0.04,
4.1,4.108,0.16,
4.108,4.164,0.04,
4.076,4.132,0.16,
4.108,4.124,0.04,
4.076,4.164,0.16,
4.108,4.148,0.04,
4.044,4.164,0.16,
4.108,4.164,0.12,
4.084,4.132,0.04,
4.068,4.164,0.04,
4.108,4.14,0.16,
4.108,4.14,0.04,
4.076,4.196,0.16,
4.108,4.196,0.04,
4.068,4.164,0.16,
4.108,4.188,0.04,
4.084,4.164,0.16,
4.076,4.188,0.04,
4.164,4.132,0.16,
4.164,4.132,0.04,
4.132,4.156,0.16,
4.132,4.132,0.12,
4.156,4.164,0.04,
4.148,4.132,0.16,
4.068,4.164,0.04,
4.076,4.164,0.04,
4.1,4.132,0.16,
4.076,4.164,0.04,
4.108,4.132,0.16,
4.108,4.164,0.16,
4.068,4.132,0.04,
4.108,4.164,0.04,
4.076,4.14,0.16,
4.108,4.164,0.16,
4.068,4.132,0.04,
4.108,4.164,0.04,
4.076,4.14,0.16,
4.108,4.148,0.16,
4.076,4.196,0.04,
4.108,4.196,0.04,
4.068,4.164,0.16,
4.108,4.188,0.04,
4.076,4.172,0.16,
4.092,4.188,0.12,
4.172,4.132,0.04,
4.164,4.132,0.16,
4.132,4.164,0.04,
