Power Payload/Metingen 3/Payload 1 310.csv

CH1,CH2,CH3,Start,Increment,
Volt,Volt,Volt,-5.995,0.01
4.108,4.164,0.04,
4.068,4.132,0.16,
4.108,4.148,0.04,
4.076,4.164,0.16,
4.108,4.132,0.04,
4.076,4.196,0.16,
4.076,4.196,0.04,
4.108,4.172,0.16,
4.108,4.188,0.16,
4.076,4.172,0.04,
4.076,4.188,0.08,
4.164,4.132,0.16,
4.164,4.1,0.16,
4.132,4.156,0.04,
4.156,4.132,0.12,
4.124,4.156,0.04,
4.156,4.14,0.16,
4.076,4.164,0.04,
4.02,4.164,0.04,
4.1,4.132,0.16,
4.068,4.164,0.04,
4.1,4.132,0.16,
4.076,4.164,0.04,
4.108,4.132,0.16,
4.108,4.132,0.16,
4.068,4.164,0.04,
4.108,4.164,0.04,
4.076,4.132,0.16,
4.108,4.164,0.04,
4.076,4.132,0.16,
4.076,4.132,0.16,
4.108,4.196,0.04,
4.108,4.196,0.16,
4.076,4.172,0.04,
4.108,4.172,0.04,
4.076,4.188,0.16,
4.076,4.188,0.04,
4.164,4.132,0.16,
4.156,4.132,0.04,
4.132,4.156,0.16,
4.156,4.156,0.04,
4.132,4.132,0.16,
4.156,4.164,0.12,
4.076,4.132,0.04,
4.076,4.164,0.16,
4.1,4.132,0.04,
4.068,4.164,0.16,
4.108,4.132,0.04,
4.108,4.164,0.04,
4.076,4.14,0.16,
4.108,4.164,0.12,
4.068,4.132,0.04,
4.108,4.164,0.04,
4.068,4.132,0.16,
4.108,4.132,0.04,
4.076,4.164,0.16,
4.108,4.148,0.04,
4.068,4.196,0.16,
4.076,4.196,0.04,
4.108,4.172,0.16,
4.108,4.188,0.16,
4.076,4.164,0.04,
4.092,4.188,0.04,
4.164,4.124,0.16,
4.164,4.132,0.04,
4.124,4.156,0.16,
4.132,4.164,0.16,
4.156,4.132,0.04,
4.156,4.164,0.16,
4.076,4.132,0.04,
4.1,4.164,0.04,
4.068,4.132,0.16,
4.076,4.164,0.04,
4.108,4.132,0.16,
4.108,4.132,0.12,
4.076,4.164,0.04,
4.076,4.164,0.12,
4.108,4.132,0.04,
4.108,4.164,0.04,
4.076,4.132,0.16,
4.108,4.164,0.16,
4.076,4.132,0.04,
4.108,4.148,0.12,
4.076,4.196,0.04,
4.108,4.188,0.04,
4.076,4.172,0.16,
4.108,4.188,0.04,
4.076,4.164,0.16,
4.084,4.188,0.04,
4.164,4.116,0.16,
4.156,4.092,0.04,
4.132,4.164,0.16,
4.156,4.164,0.12,
4.132,4.148,0.04,
4.156,4.148,0.16,
4.052,4.164,0.04,
4.012,4.164,0.12,
4.116,4.148,0.04,
4.116,4.1,0.04,
4.092,4.188,0.16,
4.084,4.164,0.12,
4.116,4.14,0.04,
4.1,4.164,0.04,
4.116,4.132,0.16,
4.02,4.164,0.04,
4.148,4.124,0.16,
4.116,4.164,0.12,
4.068,4.14,0.04,
4.116,4.164,0.04,
4.068,4.132,0.16,
4.116,4.164,0.04,
4.068,4.124,0.16,
4.116,4.164,0.12,
4.076,4.116,0.04,
4.108,4.124,0.16,
4.076,4.18,0.04,
4.108,4.172,0.04,
4.06,4.14,0.16,
4.036,4.164,0.04,
4.116,4.148,0.16,
4.06,4.164,0.16,
4.148,4.148,0.04,
4.116,4.164,0.04,
4.068,4.124,0.16,
4.116,4.148,0.04,
4.084,4.164,0.16,
4.092,4.148,0.04,
4.116,4.164,0.16,
4.116,4.164,0.04,
4.068,4.148,0.16,
4.092,4.164,0.04,
4.116,4.124,0.16,
4.116,4.148,0.04,
4.092,4.164,0.16,
4.108,4.148,0.16,
4.092,4.164,0.04,
4.108,4.148,0.04,
4.068,4.164,0.16,
4.108,4.164,0.04,
4.092,4.124,0.16,
4.092,4.148,0.16,
4.116,4.164,0.04,
4.108,4.164,0.04,
4.092,4.148,0.16,
4.116,4.164,0.04,
4.068,4.148,0.16,
4.116,4.164,0.04,
4.092,4.1,0.16,
4.092,4.148,0.16,
4.116,4.164,0.04,
4.116,4.164,0.16,
4.092,4.132,0.04,
4.036,4.164,0.16,
4.116,4.148,0.04,
4.116,4.164,0.04,
4.092,4.14,0.16,
4.06,4.164,0.04,
4.116,4.148,0.16,
4.108,4.148,0.12,
4.092,4.164,0.04,
4.108,4.148,0.04,
4.084,4.164,0.16,
4.092,4.148,0.16,
4.116,4.164,0.04,
4.108,4.148,0.12,
4.084,4.164,0.04,
4.092,4.148,0.16,
4.116,4.164,0.04,
4.108,4.164,0.04,
4.092,4.148,0.16,
4.108,4.148,0.16,
4.092,4.164,0.04,
4.108,4.164,0.04,
4.092,4.148,0.16,
4.108,4.148,0.04,
4.092,4.164,0.16,
4.108,4.148,0.04,
4.076,4.164,0.16,
4.108,4.164,0.04,
4.092,4.148,0.16,
4.116,4.164,0.04,
4.092,4.148,0.16,
4.092,4.164,0.04,
4.116,4.148,3.44,
4.092,4.148,3.36,
4.116,4.164,3.44,
4.108,4.164,3.36,
4.092,4.14,3.44,
4.108,4.148,3.44,
4.092,4.164,3.36,
4.108,4.164,3.36,
4.084,4.132,3.44,
4.108,4.148,3.36,
4.068,4.164,3.44,
4.116,4.164,3.36,
4.076,4.148,3.44,
4.084,4.164,3.44,
4.116,4.132,3.32,
4.092,4.164,3.36,
4.108,4.148,3.44,
4.092,4.148,3.44,
4.116,4.164,3.36,
4.108,4.164,3.36,
4.084,4.132,3.44,
4.108,4.164,3.36,
4.092,4.14,3.44,
4.108,4.164,3.36,
4.092,4.148,3.44,
4.108,4.164,3.44,
4.068,4.148,3.36,
4.108,4.164,3.44,
4.076,4.124,3.32,
4.108,4.148,3.36,
4.092,4.196,3.44,
4.108,4.196,3.44,
4.084,4.14,3.32,
4.06,4.196,3.44,
4.116,4.14,3.32,
4.092,4.196,3.36,
4.164,4.14,3.44,
4.164,4.14,3.36,
4.076,4.196,3.44,
4.092,4.148,3.36,
4.164,4.196,3.44,
4.092,4.196,3.44,
4.164,4.14,3.32,
4.076,4.196,3.36,
4.164,4.132,3.44,
4.092,4.148,3.36,
4.164,4.196,3.44,
4.076,4.14,3.44,
4.164,4.196,3.36,
4.092,4.196,3.36,
4.164,4.14,3.44,
4.092,4.196,3.44,
4.164,4.14,3.36,
4.076,4.196,3.44,
4.164,4.14,3.36,
4.092,4.148,3.44,
4.164,4.196,3.32,
4.164,4.196,3.36,
4.084,4.132,3.44,
4.092,4.196,3.36,
4.164,4.14,3.44,
4.092,4.132,3.36,
4.164,4.196,3.44,
4.092,4.196,3.36,
4.164,4.14,3.44,
4.092,4.196,3.36,
4.164,4.14,3.44,
4.164,4.196,3.44,
4.084,4.14,3.36,
4.084,4.148,3.36,
4.164,4.196,3.44,
4.092,4.132,3.36,
4.164,4.196,3.44,
4.092,4.132,3.44,
4.164,4.196,3.36,
4.092,4.196,3.44,
4.164,4.132,3.32,
4.076,4.14,3.36,
4.164,4.196,3.44,
4.092,4.148,3.36,
4.164,4.196,3.44,
4.092,4.132,3.44,
4.164,4.196,3.36,
4.092,4.196,3.44,
4.164,4.132,3.32,
4.092,4.14,3.44,
4.164,4.196,3.36,
4.164,4.148,3.44,
4.076,4.196,3.36,
4.092,4.196,3.32,
4.164,4.14,3.44,
4.092,4.14,3.36,
4.164,4.196,3.44,
4.092,4.148,3.44,
4.164,4.196,3.36,
4.092,4.148,3.44,
4.164,4.196,3.36,
4.084,4.148,3.44,
4.164,4.196,3.36,
4.092,4.148,3.36,
4.164,4.196,3.44,
4.092,4.132,3.36,
4.164,4.196,3.44,
4.092,4.148,3.44,
4.164,4.196,3.36,
4.092,4.148,3.36,
4.164,4.196,3.44,
4.164,4.148,3.36,
4.076,4.196,3.44,
4.092,4.148,3.44,
4.172,4.196,3.32,
4.092,4.148,3.44,
4.172,4.196,3.36,
4.172,4.148,3.44,
4.092,4.196,3.36,
4.092,4.196,3.44,
4.172,4.14,3.32,
4.092,4.148,3.36,
4.172,4.196,3.44,
4.092,4.148,3.36,
4.172,4.196,3.44,
4.172,4.196,3.36,
4.092,4.132,3.44,
4.092,4.196,3.32,
4.172,4.132,3.44,
4.092,4.196,3.44,
4.172,4.132,3.36,
4.172,4.196,3.36,
4.076,4.14,3.44,
4.092,4.196,3.36,
4.164,4.14,3.44,
4.164,4.196,3.36,
4.076,4.116,3.44,
4.092,4.116,3.36,
4.164,4.196,3.44,
4.092,4.148,3.44,
4.164,4.196,3.32,
4.164,4.196,3.44,
4.044,4.14,3.32,
4.044,4.196,3.36,
4.172,4.116,3.44,
4.092,4.14,3.36,
4.164,4.196,3.44,
4.092,4.196,3.44,
4.164,4.132,3.32,
4.164,4.148,3.44,
4.044,4.196,3.36,
4.076,4.124,3.36,
4.164,4.196,3.44,
4.164,4.196,3.44,
4.084,4.14,3.32,
4.092,4.196,3.44,
4.164,4.132,3.36,
4.068,4.196,3.44,
4.164,4.132,3.32,
4.092,4.196,3.36,
4.164,4.132,3.44,
4.084,4.196,3.44,
4.164,4.132,3.32,
4.092,4.196,3.44,
4.164,4.14,3.36,
4.092,4.14,3.32,
4.164,4.196,3.44,
4.092,4.14,3.44,
4.164,4.196,3.36,
4.092,4.196,3.36,
4.164,4.14,3.44,
4.084,4.196,3.36,
4.164,4.132,3.44,
4.076,4.148,3.44,
4.164,4.196,3.32,
4.092,4.132,3.36,
4.164,4.196,3.44,
4.092,4.132,3.36,
4.164,4.196,3.44,
4.092,4.196,3.36,
4.164,4.132,3.44,
4.084,4.196,3.36,
4.164,4.132,3.44,
4.092,4.148,3.32,
4.164,4.196,3.44,
4.092,4.132,3.36,
4.164,4.196,3.44,
4.092,4.14,3.36,
4.164,4.196,3.44,
4.092,4.148,3.36,
4.164,4.196,3.44,
4.092,4.148,3.44,
4.164,4.196,3.36,
4.076,4.196,3.44,
4.164,4.132,3.32,
4.092,4.148,3.32,
4.164,4.196,3.44,
4.092,4.14,3.36,
4.164,4.196,3.44,
4.164,4.148,3.36,
4.092,4.196,3.44,
4.092,4.196,3.44,
4.164,4.132,3.32,
4.076,4.196,3.44,
4.164,4.108,3.32,
4.092,4.148,3.44,
4.164,4.196,3.36,
4.092,4.196,3.36,
4.164,4.068,3.44,
4.164,4.084,3.44,
4.036,4.148,3.32,
4.084,4.156,3.36,
4.164,4.124,3.44,
4.156,4.156,3.44,
3.98,4.124,3.36,
3.996,4.124,3.44,
4.084,4.156,3.36,
4.084,4.124,3.36,
4.06,4.156,3.44,
4.084,4.156,3.36,
4.052,4.1,3.44,
4.06,4.156,3.36,
4.084,4.124,3.44,
4.06,4.148,3.44,
4.084,4.092,3.36,
4.084,4.124,3.44,
4.028,4.156,3.36,
4.068,4.124,3.36,
4.084,4.156,3.44,
4.084,4.156,3.44,
4.012,4.124,3.32,
4.084,4.156,3.36,
4.052,4.124,3.44,
4.084,4.148,3.44,
4.052,4.124,3.36,
4.084,4.124,3.44,
4.052,4.156,3.32,
4.084,4.148,3.44,
4.068,4.124,3.36,
4.084,4.156,3.36,
4.06,4.116,3.44,
4.084,4.156,3.36,
4.052,4.124,3.44,
4.084,4.156,3.36,
4.06,4.124,3.44,
4.084,4.156,3.44,
4.052,4.124,3.36,
4.068,4.148,3.36,
4.084,4.124,3.44,
4.084,4.124,3.44,
4.068,4.156,3.32,
4.06,4.156,3.44,
4.084,4.124,3.36,
4.084,4.148,3.44,
4.06,4.124,3.36,
4.068,4.156,3.44,
4.084,4.124,3.36,
4.084,4.124,3.36,
4.06,4.156,3.44,
4.084,4.148,3.44,
4.068,4.124,3.32,
4.084,4.148,3.36,
4.06,4.124,3.44,
4.084,4.156,3.44,
4.06,4.124,3.4,
4.084,4.148,3.44,
4.052,4.124,3.4,
4.084,4.108,3.4,
4.06,4.196,3.44,
4.084,4.18,3.44,
4.06,3.364,3.4,
4.084,3.492,3.4,
4.06,3.548,3.44,
4.036,3.54,3.4,
4.14,3.564,3.44,
4.132,3.572,3.4,
2.86,3.548,3.44,
2.972,3.548,3.4,
3.028,3.58,3.48,
3.012,3.58,3.4,
3.052,3.556,3.44,
3.036,3.564,3.44,
3.06,3.58,3.36,
3.068,3.564,3.44,
3.036,3.58,3.36,
3.068,3.58,3.44,
3.044,3.564,3.36,
3.068,3.564,3.44,
3.044,4.356,3.36,
3.044,4.268,3.36,
3.076,4.204,3.44,
3.076,4.212,3.44,
3.044,4.18,3.32,
3.052,4.196,3.36,
4.308,4.132,3.44,
4.228,4.132,3.36,
4.164,4.164,3.44,
4.172,4.148,3.44,
4.148,4.196,3.32,
4.164,4.188,3.44,
4.076,4.132,3.36,
4.108,4.14,3.36,
4.084,4.196,3.44,
4.092,4.188,3.4,
4.164,4.148,3.48,
4.156,4.124,3.4,
4.076,4.196,3.48,
4.076,4.196,3.44,
4.164,3.332,3.36,
4.164,3.452,3.36,
4.092,3.532,3.44,
4.052,3.508,3.32,
4.164,3.572,3.44,
4.164,3.532,3.36,
2.812,4.356,3.44,
2.916,4.3,3.44,
3.028,4.228,3.36,
2.98,4.228,3.44,
3.068,4.188,3.36,
3.012,4.196,3.44,
4.308,4.14,3.36,
4.26,4.132,3.44,
4.196,4.196,3.36,
4.196,4.196,3.44,
4.164,4.14,3.32,
4.164,4.156,3.44,
4.068,4.124,3.32,
4.076,4.164,3.36,
4.164,4.14,3.44,
4.164,4.14,3.44,
4.092,4.196,3.36,
4.068,4.196,3.44,
4.108,4.172,3.36,
4.068,4.148,3.32,
4.108,4.196,3.44,
4.068,4.196,3.36,
4.164,4.172,3.44,
4.164,4.188,3.36,
4.14,4.172,3.44,
4.092,4.172,3.44,
4.164,4.196,3.36,
4.164,4.188,3.44,
4.14,4.132,3.32,
4.164,4.188,3.44,
4.148,3.372,3.36,
4.164,3.396,3.44,
4.132,4.212,3.32,
4.164,4.212,3.44,
4.076,4.18,3.36,
4.156,4.196,3.36,
2.884,4.164,3.44,
2.9,4.188,3.36,
4.172,4.132,3.44,
4.172,4.132,3.4,
4.14,4.196,3.44,
4.156,4.196,3.44,
4.132,4.156,3.36,
4.148,4.188,3.36,
4.076,3.372,3.44,
4.076,3.484,3.36,
4.156,3.572,3.44,
4.164,3.548,3.36,
4.116,4.332,3.44,
4.156,4.3,3.36,
2.884,4.188,3.44,
2.964,4.196,3.44,
3.084,4.156,3.36,
3.036,4.172,3.44,
4.276,4.148,3.36,
4.244,4.132,3.36,
4.132,4.196,3.44,
4.148,4.204,3.44,
4.1,4.18,3.36,
4.116,4.196,3.44,
4.076,4.172,3.32,
4.076,4.188,3.44,
4.164,4.132,3.36,
4.172,4.132,3.36,
4.148,4.164,3.48,
4.164,4.132,3.4,
4.14,4.196,3.44,
4.164,4.196,3.44,
4.092,4.156,3.36,
4.076,4.188,3.44,
4.108,3.364,3.36,
4.076,3.508,3.44,
4.164,3.58,3.32,
4.164,3.564,3.44,
4.124,4.34,3.36,
4.148,4.268,3.36,
2.86,4.18,3.44,
3.012,4.188,3.44,
3.1,4.148,3.36,
3.068,4.172,3.44,
4.284,4.148,3.32,
4.212,4.14,3.36,
4.124,4.204,3.44,
4.132,4.18,3.44,
4.092,4.196,3.36,
4.116,4.196,3.44,
4.092,4.164,3.32,
4.076,4.188,3.44,
4.172,4.132,3.32,
4.164,4.132,3.4,
4.148,4.164,3.44,
4.164,4.132,3.44,
4.132,4.196,3.36,
4.164,4.196,3.44,
4.076,3.572,3.32,
4.108,3.396,3.44,
4.076,3.58,3.36,
4.076,3.556,3.36,
4.164,4.292,3.44,
4.164,4.22,3.44,
3.18,4.156,3.32,
2.94,4.172,3.44,
3.132,4.148,3.36,
3.068,4.164,3.36,
4.236,4.132,3.44,
4.164,4.164,3.44,
4.1,4.132,3.32,
4.116,4.148,3.44,
4.092,4.196,3.36,
4.108,4.196,3.44,
4.076,4.172,3.36,
4.108,4.188,3.36,
4.068,4.172,3.44,
4.092,4.188,3.36,
4.172,4.132,3.44,
4.164,4.164,3.4,
4.14,4.132,3.48,
4.124,4.148,3.36,
4.164,4.196,3.44,
4.164,4.196,3.44,
4.076,3.372,3.36,
4.108,3.452,3.36,
4.076,4.108,3.44,
4.092,4.3,3.44,
4.164,4.204,3.36,
4.164,4.212,3.36,
2.884,4.156,3.44,
2.972,4.164,3.44,
3.98,4.148,3.32,
4.252,4.164,3.44,
4.132,4.148,3.36,
4.156,4.164,3.44,
4.1,4.14,3.36,
4.116,4.148,3.36,
4.084,4.196,3.44,
4.108,4.196,3.36,
4.076,4.172,3.44,
4.108,4.164,3.44,
4.076,4.188,3.36,
4.084,4.188,3.44,
4.164,4.124,3.32,
4.156,4.132,3.36,
4.132,4.164,3.44,
4.156,4.164,3.36,
4.124,4.132,3.44,
4.156,4.164,3.44,
4.068,4.132,3.36,
4.076,4.164,3.44,
4.108,4.132,3.36,
4.076,4.164,3.44,
4.108,4.14,3.36,
4.108,4.164,3.36,
4.076,4.14,3.44,
4.108,4.164,3.44,
4.076,4.14,3.36,
4.108,4.164,3.32,
4.068,4.132,3.44,
4.108,4.132,3.44,
4.076,4.164,3.36,
4.108,4.164,3.44,
4.068,4.132,3.32,
4.108,4.164,3.36,
4.068,4.132,3.44,
4.108,4.164,3.44,
4.076,4.14,3.36,
4.108,4.164,3.36,
4.076,4.14,3.44,
4.068,4.164,3.44,
4.108,4.14,3.32,
4.108,4.164,3.44,
4.076,4.132,3.36,
4.108,4.164,3.44,
4.076,4.132,3.32,
4.108,4.164,3.44,
4.076,4.132,3.32,
4.108,4.164,3.44,
4.076,4.132,3.36,
4.108,4.164,3.44,
4.076,4.132,3.36,
4.108,4.148,3.36,
4.068,4.164,3.44,
4.108,4.164,3.36,
4.068,4.132,3.44,
4.108,4.164,3.36,
4.076,4.14,3.44,
4.108,4.164,3.36,
4.076,4.132,3.44,
4.108,4.132,3.44,
4.076,4.164,3.36,
4.108,4.164,3.36,
4.068,4.14,3.44,
4.108,4.132,3.44,
4.076,4.164,3.32,
4.108,4.14,3.44,
4.068,4.196,3.36,
4.108,4.196,3.36,
4.068,4.172,3.44,
4.108,4.188,3.44,
4.076,4.132,3.36,
4.068,4.132,3.44,
4.164,4.164,3.36,
4.164,4.132,3.44,
4.124,4.164,3.32,
4.156,4.132,3.44,
4.068,4.172,3.36,
4.108,4.196,3.44,
4.076,4.172,3.36,
4.076,4.188,3.44,
4.108,4.164,3.32,
4.068,4.188,3.44,
4.14,4.164,3.32,
4.164,4.188,3.44,
4.124,4.156,3.36,
4.156,4.188,3.36,
4.132,4.164,3.44,
4.156,4.188,3.44,
4.132,4.124,3.32,
4.156,4.132,3.32,
4.124,4.188,3.44,
4.124,4.188,3.44,
4.156,4.124,3.36,
4.148,4.156,3.36,
4.06,4.124,3.44,
4.076,4.132,3.36,
4.156,4.196,3.44,
4.156,4.188,3.44,
4.068,3.388,3.36,
4.068,4.172,3.44,
4.108,4.148,3.36,
4.068,4.164,3.44,
4.164,4.14,3.32,
4.156,4.164,3.36,
2.892,4.14,3.44,
4.116,4.132,3.44,
4.092,4.196,3.32,
4.108,4.196,3.44,
4.068,4.148,3.32,
4.108,3.396,3.36,
4.076,4.22,3.44,
4.076,4.212,3.44,
4.164,4.156,3.36,
4.164,4.148,3.44,
4.108,4.212,3.36,
4.156,4.164,3.36,
2.924,4.132,3.44,
4.156,4.132,3.36,
4.1,4.196,3.44,
4.092,4.196,3.44,
4.172,3.396,3.36,
4.108,4.124,3.44,
4.076,4.196,3.32,
4.076,4.164,3.36,
4.164,4.148,3.44,
4.156,4.164,3.36,
2.924,4.132,3.44,
4.052,4.164,3.44,
4.14,4.132,3.32,
4.116,4.164,3.44,
4.076,4.124,3.36,
4.108,4.164,3.36,
4.076,4.132,3.44,
4.108,4.132,3.44,
4.076,4.196,3.36,
4.108,4.196,3.36,
4.044,4.164,3.44,
4.108,4.188,3.44,
4.076,4.172,3.36,
4.076,4.188,3.44,
4.164,4.124,3.36,
4.156,4.156,3.44,
4.124,4.132,3.36,
4.156,4.132,3.32,
4.124,4.164,3.44,
4.156,4.164,3.36,
4.068,4.14,3.44,
4.076,4.164,3.44,
4.108,4.132,3.32,
4.068,4.164,3.44,
4.108,4.14,3.32,
4.108,4.164,3.36,
4.076,4.14,3.44,
4.108,4.164,3.36,
4.076,4.132,3.44,
4.108,4.164,3.36,
4.076,4.132,3.44,
4.108,4.164,3.36,
4.076,4.132,3.44,
4.108,4.164,3.36,
4.076,4.196,3.44,
4.108,4.188,3.44,
4.076,4.164,3.36,
4.108,4.172,3.36,
4.076,4.188,3.44,
4.092,4.188,3.36,
4.164,4.124,3.44,
4.156,4.156,3.36,
4.124,4.132,3.44,
4.148,4.14,3.36,
4.124,4.164,3.44,
4.148,4.132,3.36,
4.068,4.164,3.44,
4.1,4.164,3.36,
4.068,4.132,3.44,
4.076,4.164,3.44,
4.108,4.132,0.12,
4.076,4.164,0.04,
4.108,4.132,0.16,
4.108,4.148,0.16,
4.068,4.164,0.04,
4.108,4.164,0.04,
4.076,4.132,0.16,
4.108,4.132,0.04,
4.068,4.196,0.16,
4.092,4.196,0.04,
4.116,4.172,0.16,
4.108,4.188,0.04,
4.076,4.172,0.16,
4.068,4.188,0.04,
4.164,4.124,0.16,
4.164,4.132,0.04,
4.132,4.156,0.16,
4.164,4.132,0.04,
4.132,4.164,0.16,
4.156,4.164,0.16,
4.068,4.132,0.04,
4.076,4.164,0.12,
4.108,4.132,0.04,
4.108,4.132,0.04,
4.076,4.164,0.16,
4.108,4.156,0.04,
4.076,4.132,0.16,
4.108,4.132,0.04,
4.076,4.164,0.16,
4.076,4.164,0.12,
4.108,4.132,0.04,
4.108,4.132,0.04,
4.076,4.164,0.16,
4.108,4.148,0.16,
4.076,4.196,0.04,
4.108,4.196,0.04,
4.076,4.164,0.16,
4.076,4.188,0.12,
4.108,4.164,0.04,
4.076,4.188,0.16,
4.164,4.132,0.04,
4.164,4.132,0.12,
4.132,4.156,0.04,
4.132,4.132,0.12,
4.156,4.164,0.04,
4.156,4.164,0.04,
4.068,4.132,0.16,
4.076,4.156,0.16,
4.1,4.132,0.04,
4.076,4.164,0.16,
4.108,4.132,0.04,
4.108,4.164,0.04,
4.068,4.132,0.16,
4.108,4.164,0.04,
4.076,4.14,0.16,
4.108,4.164,0.04,
4.068,4.132,0.16,
4.108,4.164,0.16,
4.076,4.132,0.04,
4.108,4.14,0.04,
4.076,4.196,0.16,
4.108,4.196,0.04,
4.076,4.164,0.12,
4.076,4.188,0.04,
4.108,4.172,0.16,
4.076,4.188,0.04,
4.164,4.124,0.16,
4.164,4.156,0.04,
4.132,4.132,0.16,
4.156,4.132,0.16,
4.124,4.164,0.04,
4.156,4.164,0.04,
4.068,4.132,0.16,
4.1,4.164,0.04,
4.068,4.132,0.16,
4.068,4.164,0.04,
4.108,4.132,0.16,
4.108,4.132,0.04,
4.076,4.164,0.16,
4.108,4.164,0.04,
4.076,4.14,0.16,
4.108,4.164,0.12,
4.076,4.132,0.04,
4.108,4.164,0.16,
4.076,4.132,0.04,
4.108,4.148,0.04,
4.076,4.196,0.12,
4.108,4.188,0.04,
4.076,4.164,0.16,
4.108,4.188,0.04,
4.068,4.164,0.16,
4.076,4.188,0.04,
4.164,4.124,0.16,
4.164,4.132,0.04,
4.132,4.156,0.16,
4.148,4.132,0.04,
4.124,4.164,0.16,
4.156,4.132,0.04,
4.052,4.164,0.16,
4.076,4.164,0.16,
4.1,4.14,0.04,
4.108,4.164,0.16,
4.076,4.132,0.04,
4.108,4.164,0.04,
4.076,4.14,0.16,
4.108,4.164,0.04,
4.076,4.132,0.16,
4.108,4.164,0.04,
4.076,4.132,0.16,
4.108,4.164,0.12,
4.076,4.132,0.04,
4.108,4.148,0.04,
4.076,4.196,0.16,
4.108,4.188,0.04,
4.068,4.172,0.16,
4.108,4.188,0.16,
4.076,4.164,0.04,
4.092,4.188,0.04,
4.164,4.124,0.16,
4.156,4.132,0.04,
4.124,4.164,0.16,
4.156,4.132,0.16,
4.132,4.164,0.04,
4.14,4.164,0.04,
4.068,4.132,0.16,
4.076,4.164,0.12,
4.108,4.132,0.04,
4.108,4.164,0.04,
4.068,4.132,0.16,
4.108,4.164,0.16,
4.076,4.14,0.04,
4.06,4.164,0.04,
4.108,4.132,0.12,
4.108,4.164,0.04,
4.076,4.14,0.16,
4.108,4.132,0.16,
4.076,4.196,0.04,
4.108,4.196,0.04,
4.076,4.172,0.16,
4.076,4.188,0.04,
4.108,4.172,0.16,
4.084,4.188,0.04,
4.164,4.132,0.16,
4.156,4.156,0.04,
4.132,4.124,0.16,
4.156,4.164,0.04,
4.124,4.132,0.16,
4.156,4.164,0.12,
4.084,4.132,0.04,
4.1,4.164,0.04,
4.06,4.132,0.16,
4.076,4.164,0.16,
4.108,4.132,0.04,
4.108,4.164,0.12,
4.076,4.132,0.04,
4.108,4.164,0.04,
4.076,4.132,0.16,
4.108,4.164,0.12,
4.076,4.132,0.04,
4.108,4.164,0.04,
4.076,4.132,0.16,
4.076,4.14,0.12,
4.108,4.196,0.04,
4.108,4.196,0.16,
4.068,4.172,0.04,
4.108,4.172,0.04,
4.076,4.188,0.16,
4.076,4.188,0.12,
4.164,4.132,0.04,
4.164,4.132,0.16,
4.132,4.156,0.04,
4.156,4.132,0.04,
4.124,4.164,0.16,
4.156,4.164,0.04,
4.068,4.132,0.16,
4.1,4.164,0.04,
4.068,4.132,0.16,
4.076,4.164,0.04,
4.108,4.132,0.16,
4.108,4.164,0.16,
4.076,4.14,0.04,
4.108,4.164,0.04,
4.076,4.132,0.12,
4.108,4.164,0.16,
4.068,4.132,0.04,
4.108,4.164,0.12,
4.068,4.132,0.04,
4.108,4.14,0.04,
4.076,4.196,0.16,
4.108,4.188,0.04,
4.076,4.164,0.16,
4.108,4.188,0.04,
4.076,4.164,0.16,
4.068,4.188,0.04,
4.164,4.124,0.16,
4.164,4.156,0.04,
4.132,4.132,0.16,
4.156,4.132,0.04,
4.124,4.164,0.16,
4.156,4.164,0.04,
4.068,4.14,0.12,
4.1,4.164,0.04,
4.068,4.14,0.16,
4.068,4.164,0.04,
4.108,4.148,0.16,
4.108,4.164,0.04,
4.076,4.14,0.16,
4.108,4.164,0.16,
4.068,4.14,0.04,
4.092,4.164,0.04,
4.108,4.148,0.16,
4.108,4.164,0.16,
4.068,4.132,0.04,
4.108,4.148,0.12,
4.084,4.196,0.04,
4.108,4.196,0.04,
4.076,4.148,0.16,
4.108,4.188,0.04,
4.076,4.164,0.16,
4.092,4.188,0.04,
4.164,4.132,0.16,
4.164,4.132,0.12,
4.092,4.164,0.04,
4.164,4.132,0.04,
4.124,4.164,0.16,
4.156,4.132,0.12,
4.076,4.164,0.04,
4.108,4.164,0.04,
4.076,4.132,0.16,
4.108,4.164,0.12,
4.076,4.132,0.04,
4.108,4.164,0.16,
4.076,4.132,0.04,
4.108,4.164,0.12,
4.076,4.14,0.04,
4.108,4.164,0.16,
4.076,4.14,0.04,
4.108,4.164,0.04,
4.076,4.132,0.16,
4.108,4.148,0.04,
4.076,4.196,0.16,
4.108,4.188,0.04,
4.076,4.172,0.16,
4.108,4.188,0.04,
4.076,4.164,0.16,
4.1,4.18,0.04,
4.164,4.124,0.16,
4.132,4.132,0.12,
4.156,4.164,0.04,
4.156,4.164,0.04,
4.132,4.132,0.16,
4.148,4.164,0.04,
4.06,4.14,0.16,
4.068,4.164,0.04,
4.108,4.124,0.16,
4.108,4.164,0.04,
4.068,4.14,0.16,
4.108,4.164,0.04,
4.076,4.132,0.16,
4.108,4.164,0.04,
4.06,4.132,0.16,
4.108,4.164,0.04,
4.076,4.132,0.16,
4.108,4.148,0.04,
4.068,4.188,0.16,
4.108,4.196,0.16,
4.068,4.18,0.04,
4.108,4.188,0.04,
4.068,4.164,0.12,
4.084,4.188,0.04,
4.164,4.132,0.16,
4.164,4.156,0.04,
4.132,4.132,0.16,
4.156,4.132,0.04,
4.132,4.164,0.16,
4.156,4.164,0.04,
4.084,4.132,0.16,
4.1,4.164,0.04,
4.068,4.132,0.16,
4.108,4.164,0.04,
4.076,4.132,0.16,
4.108,4.164,0.04,
4.076,4.132,0.12,
4.108,4.164,0.12,
4.068,4.132,0.04,
4.108,4.164,0.16,
4.076,4.132,0.04,
4.108,4.164,0.04,
4.076,4.132,0.16,
4.108,4.148,0.04,
4.076,4.196,0.16,
4.108,4.196,0.04,
4.06,4.172,0.16,
4.108,4.188,0.16,
4.068,4.164,0.04,
4.076,4.188,0.16,
4.164,4.124,0.04,
4.164,4.132,0.12,
4.124,4.156,0.04,
4.156,4.164,0.04,
4.132,4.132,0.16,
4.156,4.164,0.16,
4.068,4.132,0.04,
4.1,4.164,0.12,
4.068,4.132,0.04,
4.108,4.164,0.04,
4.068,4.132,0.16,
4.108,4.164,0.04,
4.076,4.124,0.16,
4.108,4.164,0.04,
4.076,4.14,0.16,
4.108,4.164,0.16,
4.076,4.132,0.04,
4.108,4.164,0.16,
4.068,4.148,0.04,
4.108,4.132,0.12,
4.076,4.196,0.04,
4.108,4.196,0.16,
4.076,4.164,0.04,
4.108,4.188,0.04,
4.076,4.164,0.16,
4.068,4.188,0.04,
