Measurements/Power Payload/Metingen 6/Payload 2 310.csv

CH1,CH2,CH3,Start,Increment,
Volt,Volt,Volt,-5.995,0.01
4.156,4.148,0.04,
4.14,4.164,0.16,
4.156,4.148,0.16,
4.132,4.164,0.04,
4.148,4.164,0.16,
4.076,4.148,0.04,
4.108,4.148,0.16,
4.076,4.164,0.04,
4.108,4.148,0.04,
4.084,4.164,0.16,
4.092,4.148,0.04,
4.108,4.164,0.16,
4.092,4.148,0.04,
4.108,4.164,0.16,
4.092,4.148,0.16,
4.108,4.164,0.04,
4.108,4.148,0.04,
4.076,4.196,0.16,
4.092,4.196,0.04,
4.108,4.18,0.16,
4.092,4.188,0.16,
4.108,4.172,0.04,
4.076,4.188,0.16,
4.164,4.132,0.04,
4.164,4.132,0.04,
4.148,4.164,0.16,
4.156,4.164,0.16,
4.132,4.14,0.04,
4.156,4.148,0.16,
4.076,4.164,0.04,
4.076,4.164,0.04,
4.108,4.148,0.16,
4.108,4.148,0.04,
4.076,4.164,0.16,
4.108,4.164,0.04,
4.084,4.148,0.16,
4.108,4.164,0.16,
4.084,4.14,0.04,
4.092,4.148,0.04,
4.108,4.164,0.16,
4.092,4.164,0.04,
4.108,4.148,0.16,
4.108,4.148,0.16,
4.076,4.204,0.04,
4.092,4.196,0.04,
4.108,4.18,0.16,
4.108,4.196,0.04,
4.084,4.172,0.16,
4.084,4.196,0.12,
4.172,4.132,0.04,
4.164,4.148,0.04,
4.148,4.164,0.16,
4.164,4.148,0.04,
4.132,4.164,0.16,
4.164,4.164,0.04,
4.076,4.148,0.16,
4.108,4.164,0.04,
4.084,4.148,0.16,
4.092,4.164,0.04,
4.116,4.148,0.16,
4.092,4.164,0.04,
4.116,4.148,0.16,
4.092,4.164,0.04,
4.116,4.148,0.16,
4.092,4.148,0.04,
4.116,4.164,0.12,
4.092,4.148,0.04,
4.116,4.164,0.16,
4.092,4.148,0.04,
4.108,4.196,0.16,
4.092,4.196,0.16,
4.108,4.164,0.04,
4.108,4.172,0.16,
4.076,4.188,0.04,
4.076,4.188,0.16,
4.164,4.132,0.04,
4.164,4.164,0.16,
4.132,4.132,0.04,
4.156,4.148,0.16,
4.132,4.164,0.04,
4.156,4.148,0.04,
4.076,4.164,0.16,
4.108,4.148,0.04,
4.076,4.164,0.16,
4.092,4.148,0.04,
4.108,4.164,0.16,
4.108,4.148,0.16,
4.084,4.164,0.04,
4.092,4.164,0.08,
4.108,4.148,0.16,
4.092,4.164,0.04,
4.108,4.14,0.16,
4.084,4.148,0.04,
4.116,4.164,0.16,
4.092,4.148,0.04,
4.108,4.196,0.16,
4.108,4.196,0.04,
4.084,4.172,0.16,
4.092,4.172,0.16,
4.108,4.188,0.04,
4.092,4.188,0.04,
4.164,4.132,0.16,
4.164,4.148,0.04,
4.132,4.164,0.16,
4.156,4.148,0.16,
4.132,4.164,0.04,
4.156,4.164,0.04,
4.076,4.132,0.16,
4.084,4.164,0.04,
4.108,4.148,0.16,
4.092,4.164,0.04,
4.108,4.14,0.16,
4.108,4.148,0.16,
4.084,4.164,0.04,
4.108,4.148,0.04,
4.084,4.164,0.16,
4.108,4.148,0.04,
4.076,4.164,0.16,
4.092,4.148,0.16,
4.108,4.164,0.04,
4.092,4.172,0.12,
4.108,4.196,0.04,
4.108,4.196,0.04,
4.076,4.172,0.16,
4.092,4.188,0.16,
4.108,4.172,0.04,
4.116,4.188,0.04,
4.164,4.132,0.16,
4.156,4.148,0.04,
4.14,4.164,0.16,
4.156,4.164,0.04,
4.132,4.132,0.16,
4.156,4.132,0.04,
4.076,4.164,0.16,
4.084,4.148,0.04,
4.108,4.164,0.16,
4.108,4.164,0.12,
4.076,4.148,0.04,
4.084,4.164,0.16,
4.108,4.148,0.04,
4.092,4.164,0.04,
4.108,4.14,0.16,
4.108,4.148,0.16,
4.076,4.164,0.04,
4.092,4.148,0.04,
4.108,4.196,0.16,
4.108,4.196,0.04,
4.076,4.172,0.16,
4.092,4.172,0.04,
4.108,4.196,0.16,
4.092,4.188,0.04,
4.164,4.132,0.16,
4.164,4.14,0.16,
4.132,4.164,0.04,
4.156,4.148,0.04,
4.124,4.164,3.44,
4.156,4.164,3.36,
4.076,4.132,3.44,
4.076,4.164,3.44,
4.108,4.14,3.32,
4.092,4.148,3.44,
4.108,4.164,3.32,
4.108,4.148,3.36,
4.084,4.164,3.44,
4.108,4.148,3.44,
4.076,4.164,3.36,
4.108,4.148,3.44,
4.076,4.164,3.36,
4.092,4.148,3.44,
4.108,4.164,3.32,
4.092,4.148,3.44,
4.108,4.196,3.36,
4.108,4.196,3.44,
4.076,4.172,3.32,
4.108,4.188,3.36,
4.084,4.172,3.44,
4.092,4.188,3.44,
4.164,4.132,3.36,
4.164,4.132,3.44,
4.14,4.164,3.32,
4.132,4.164,3.36,
4.156,4.14,3.44,
4.156,4.148,3.44,
4.076,4.164,3.36,
4.076,4.148,3.44,
4.108,4.164,3.36,
4.108,4.148,3.44,
4.076,4.164,3.32,
4.092,4.164,3.36,
4.108,4.14,3.44,
4.092,4.164,3.44,
4.108,4.14,3.36,
4.108,4.164,3.44,
4.084,4.148,3.36,
4.108,4.148,3.32,
4.068,4.164,3.44,
4.108,4.148,3.36,
4.076,4.196,3.44,
4.092,4.18,3.36,
4.108,4.196,3.44,
4.092,4.188,3.36,
4.108,4.164,3.44,
4.076,4.188,3.44,
4.164,4.132,3.36,
4.164,4.14,3.36,
4.132,4.164,3.44,
4.156,4.148,3.44,
4.132,4.164,3.36,
4.156,4.148,3.44,
4.076,4.164,3.36,
4.108,4.164,3.36,
4.076,4.132,3.44,
4.108,4.148,3.36,
4.076,4.164,3.44,
4.092,4.148,3.44,
4.108,4.164,3.32,
4.108,4.148,3.36,
4.084,4.164,3.44,
4.092,4.148,3.36,
4.108,4.164,3.44,
4.092,4.164,3.44,
4.108,4.14,3.36,
4.108,4.148,3.36,
4.084,4.196,3.44,
4.084,4.18,3.44,
4.108,4.196,3.36,
4.108,4.188,3.44,
4.068,4.164,3.32,
4.092,4.188,3.36,
4.164,4.132,3.44,
4.164,4.132,3.44,
4.132,4.164,3.36,
4.156,4.148,3.36,
4.124,4.164,3.44,
4.156,4.148,3.44,
4.068,4.164,3.32,
4.108,4.164,3.36,
4.068,4.132,3.44,
4.108,4.148,3.44,
4.084,4.164,3.36,
4.092,4.164,3.44,
4.108,4.14,3.32,
4.108,4.148,3.44,
4.076,4.172,3.36,
4.108,4.164,3.36,
4.084,4.148,3.44,
4.108,4.164,3.36,
4.076,4.14,3.44,
4.092,4.172,3.36,
4.116,4.204,3.44,
4.116,4.196,3.44,
4.092,4.172,3.36,
4.116,4.172,3.44,
4.084,4.196,3.36,
4.124,4.18,3.36,
4.172,4.148,3.44,
4.164,4.164,3.44,
4.132,4.148,3.36,
4.164,4.164,3.44,
4.14,4.148,3.36,
4.148,4.164,3.36,
4.092,4.14,3.44,
4.092,4.164,3.44,
4.108,4.148,3.36,
4.116,4.148,3.44,
4.092,4.164,3.32,
4.116,4.164,3.36,
4.084,4.14,3.44,
4.108,4.164,3.32,
4.092,4.14,3.44,
4.092,4.164,3.36,
4.108,4.132,3.44,
4.116,4.148,3.44,
4.084,4.196,3.36,
4.108,4.196,3.44,
4.068,4.18,3.32,
4.108,4.196,3.36,
4.076,4.172,3.44,
4.092,4.188,3.36,
4.164,4.132,3.44,
4.164,4.132,3.36,
4.14,4.164,3.44,
4.156,4.148,3.44,
4.124,4.164,3.32,
4.156,4.148,3.36,
4.084,4.164,3.44,
4.076,4.164,3.44,
4.108,4.148,3.32,
4.108,4.164,3.36,
4.068,4.116,3.44,
4.092,4.172,3.36,
4.108,4.14,3.44,
4.108,4.148,3.44,
4.084,4.164,3.36,
4.108,4.164,3.44,
4.044,4.148,3.32,
4.116,4.164,3.36,
4.076,4.116,3.44,
4.092,4.164,3.36,
4.116,4.148,3.44,
4.108,4.164,3.36,
4.092,4.132,3.44,
4.108,4.164,3.44,
4.036,4.14,3.32,
4.108,4.148,3.44,
4.084,4.196,3.32,
4.108,4.164,3.36,
4.068,4.14,3.44,
4.108,4.164,3.44,
4.068,4.132,3.36,
4.164,4.164,3.36,
4.084,4.14,3.44,
4.108,4.148,3.44,
4.068,4.164,3.36,
4.108,4.164,3.44,
4.068,4.148,3.36,
4.108,4.148,3.36,
4.076,4.164,3.44,
4.092,4.164,3.36,
4.108,4.148,3.44,
4.108,4.164,3.36,
4.092,4.14,3.44,
4.108,4.148,3.44,
4.076,4.164,3.36,
4.108,4.148,3.44,
4.084,4.164,3.32,
4.108,4.164,3.44,
4.076,4.14,3.36,
4.084,4.164,3.44,
4.108,4.148,3.36,
4.092,4.164,3.44,
4.108,4.14,3.36,
4.108,4.148,3.36,
4.068,4.164,3.44,
4.092,4.148,3.36,
4.108,4.164,3.44,
4.108,4.164,3.44,
4.076,4.132,3.36,
4.092,4.164,3.44,
4.108,4.148,3.32,
4.108,4.148,3.44,
4.092,4.164,3.36,
4.108,4.148,3.36,
4.084,4.164,3.44,
4.092,4.148,3.44,
4.108,4.164,3.32,
4.108,4.164,3.44,
4.084,4.148,3.36,
4.092,4.164,3.44,
4.108,4.132,3.36,
4.092,4.148,3.44,
4.108,4.164,3.32,
4.108,4.148,3.44,
4.092,4.164,3.36,
4.108,4.164,3.44,
4.068,4.148,3.36,
4.108,4.1,3.36,
4.084,4.172,3.44,
4.092,4.164,3.36,
4.108,4.148,3.44,
4.092,4.164,3.44,
4.108,4.148,3.36,
4.028,4.164,3.44,
4.116,4.148,3.36,
4.108,4.148,3.36,
4.084,4.164,3.44,
4.108,4.164,3.44,
4.084,4.148,3.36,
4.092,4.148,3.44,
4.108,4.164,3.36,
4.108,4.164,3.44,
4.092,4.148,3.32,
4.108,4.148,3.44,
4.076,4.164,3.32,
4.108,4.164,3.44,
4.092,4.148,3.36,
4.108,4.148,3.44,
4.084,4.164,3.36,
4.108,4.164,3.36,
4.076,4.148,3.44,
4.108,4.164,3.44,
4.092,4.14,3.32,
4.108,4.148,3.44,
4.076,4.164,3.36,
4.092,4.164,3.44,
4.108,4.148,3.32,
4.108,4.164,3.36,
4.076,4.124,3.44,
4.092,4.164,3.36,
4.108,4.148,3.44,
4.092,4.164,3.44,
4.108,4.108,3.36,
4.108,4.148,3.44,
4.06,4.164,3.32,
4.092,4.148,3.36,
4.108,4.164,3.44,
4.044,4.164,3.36,
4.116,4.132,3.44,
4.108,4.164,3.32,
4.076,4.148,3.44,
4.108,4.164,3.36,
4.092,4.132,3.44,
4.108,4.148,3.44,
4.076,4.196,3.36,
4.092,4.18,3.36,
4.116,4.196,3.44,
4.108,4.188,3.36,
4.076,4.14,3.44,
4.092,4.132,3.44,
4.164,4.164,3.36,
4.164,4.164,3.36,
4.14,4.14,3.44,
4.156,4.14,3.36,
4.084,4.164,3.48,
4.076,4.164,3.4,
4.108,4.148,3.48,
4.108,4.164,3.4,
4.076,4.14,3.44,
4.108,4.196,3.4,
4.076,3.46,3.44,
4.108,3.588,3.4,
4.076,3.652,3.44,
4.108,3.644,3.4,
4.068,3.668,3.48,
4.164,3.684,3.4,
2.972,3.66,3.48,
3.1,3.684,3.4,
3.164,3.668,3.44,
3.148,3.676,3.4,
3.188,3.692,3.44,
3.18,3.692,3.48,
3.212,3.668,3.36,
3.18,3.676,3.44,
3.212,3.692,3.32,
3.212,3.692,3.36,
3.188,3.676,3.44,
3.212,3.676,3.44,
3.18,4.364,3.36,
3.18,4.244,3.44,
3.212,4.172,3.32,
3.196,4.188,3.36,
3.22,4.156,3.44,
3.196,4.148,3.36,
4.316,4.204,3.44,
4.188,4.212,3.36,
4.092,4.148,3.44,
4.132,4.164,3.36,
4.092,4.14,3.44,
4.076,4.14,3.36,
4.172,4.196,3.44,
4.172,4.196,3.4,
4.092,4.132,3.48,
4.084,4.132,3.4,
4.116,4.196,3.44,
4.084,4.196,3.44,
4.172,3.444,3.36,
4.164,3.58,3.44,
4.076,3.652,3.36,
4.068,3.628,3.36,
4.164,3.684,3.44,
4.164,3.644,3.36,
2.956,4.356,3.44,
3.06,4.276,3.48,
3.164,4.188,3.36,
3.132,4.18,3.36,
3.22,4.22,3.44,
3.14,4.204,3.36,
4.3,3.492,3.44,
4.22,3.532,3.36,
4.124,4.268,3.44,
4.124,4.204,3.44,
4.196,4.244,3.32,
4.164,4.212,3.44,
3.036,4.18,3.32,
3.06,4.196,3.44,
4.212,4.18,3.32,
4.148,4.196,3.36,
4.22,4.172,3.44,
4.172,4.196,3.36,
4.148,4.172,3.44,
4.164,4.188,3.44,
4.148,4.164,3.32,
4.164,4.188,3.32,
4.124,4.164,3.44,
4.164,4.188,3.36,
4.14,4.14,3.44,
4.132,4.148,3.44,
4.156,4.164,3.36,
4.132,4.148,3.44,
4.156,4.196,3.32,
4.156,4.196,3.36,
4.076,3.476,3.44,
4.076,3.572,3.44,
4.108,4.252,3.36,
4.092,4.196,3.44,
4.164,4.156,3.36,
4.164,4.148,3.44,
3.012,4.196,3.36,
3.108,4.196,3.44,
4.196,4.172,3.32,
4.14,4.196,3.44,
4.1,3.492,3.32,
4.076,3.572,3.44,
4.172,4.252,3.32,
4.164,4.228,3.44,
4.116,4.188,3.36,
4.156,4.204,3.44,
3.012,4.18,3.36,
3.1,4.18,3.36,
4.196,4.196,3.44,
4.156,4.188,3.36,
4.196,4.14,3.44,
4.172,4.148,3.44,
4.148,4.196,3.36,
4.164,4.196,3.32,
4.132,4.164,3.44,
4.164,3.484,3.44,
4.076,4.252,3.36,
4.092,4.244,3.36,
4.172,4.172,3.44,
4.164,4.18,3.36,
4.116,4.148,3.44,
3.012,4.172,3.44,
4.196,4.148,3.36,
4.188,4.164,3.36,
4.116,4.148,3.44,
4.132,4.164,3.36,
4.092,4.148,3.44,
4.116,4.148,3.44,
4.092,4.196,3.32,
4.108,4.18,3.36,
4.092,4.196,3.44,
4.108,4.196,3.36,
4.084,4.172,3.44,
4.092,4.196,3.36,
4.164,4.148,3.44,
4.172,4.164,3.44,
4.132,4.14,3.36,
4.164,4.148,3.36,
4.124,4.164,3.44,
4.164,4.164,3.44,
4.092,4.148,3.32,
4.084,4.148,3.44,
4.108,4.164,3.36,
4.092,4.164,3.36,
4.116,4.148,3.44,
4.116,4.148,3.36,
4.092,4.164,3.44,
4.076,4.164,3.44,
4.116,4.132,3.36,
4.108,4.148,3.36,
4.092,4.164,3.44,
4.108,4.164,3.36,
4.084,4.148,3.44,
4.108,4.148,3.44,
4.084,4.212,3.32,
4.092,4.196,3.44,
4.108,4.18,3.32,
4.108,4.196,3.36,
4.084,4.18,3.44,
4.092,4.196,3.44,
4.172,4.132,3.32,
4.164,4.164,3.44,
4.148,4.14,3.36,
4.164,4.148,3.36,
4.148,4.204,3.44,
4.164,4.196,3.36,
4.076,3.484,3.44,
4.108,3.484,3.36,
4.068,4.236,3.44,
4.092,4.3,3.36,
4.172,4.196,3.44,
4.164,4.204,3.44,
3.036,4.164,3.36,
3.028,4.172,3.44,
4.164,4.148,3.32,
4.244,4.164,3.36,
4.132,4.148,3.44,
4.148,4.148,3.36,
4.116,4.164,3.44,
4.132,4.148,3.36,
4.092,4.196,3.44,
4.108,4.196,3.36,
4.084,4.172,3.44,
4.108,4.196,3.44,
4.092,4.172,3.36,
4.092,4.188,3.36,
4.164,4.132,3.44,
4.164,4.14,3.44,
4.132,4.164,3.36,
4.164,4.148,3.44,
4.132,4.196,3.32,
4.156,4.196,3.44,
4.068,3.476,3.36,
4.108,3.54,3.36,
4.076,4.284,3.44,
4.092,4.252,3.44,
4.164,4.18,3.32,
4.164,4.188,3.36,
3.004,4.156,3.44,
3.076,4.172,3.44,
4.228,4.148,3.36,
4.196,4.148,3.44,
4.124,4.164,3.32,
4.14,4.164,3.36,
4.1,4.148,3.44,
4.116,4.148,3.36,
4.084,4.196,3.44,
4.076,4.196,3.44,
4.108,4.18,3.36,
4.108,4.172,3.44,
4.092,4.188,3.32,
4.092,4.188,3.44,
4.164,4.132,3.36,
4.164,4.148,3.4,
4.132,4.164,3.48,
4.132,4.148,3.44,
4.156,4.196,3.36,
4.156,4.196,3.32,
4.076,3.468,3.44,
4.092,3.564,3.36,
4.108,3.668,3.44,
4.092,3.644,3.36,
4.164,4.332,3.44,
4.156,4.268,3.44,
2.98,4.188,3.36,
3.06,4.188,3.44,
3.204,4.156,3.36,
3.156,4.172,3.44,
4.276,4.148,3.36,
4.212,4.148,3.36,
4.124,4.172,3.44,
4.14,4.156,3.44,
4.1,4.196,3.36,
4.116,4.18,3.44,
4.076,4.196,3.32,
4.116,4.188,3.44,
4.076,4.164,3.32,
4.116,4.172,3.36,
4.164,4.132,3.48,
4.164,4.148,3.48,
4.132,4.196,3.36,
4.132,4.196,3.44,
4.156,4.164,3.32,
4.148,4.188,3.44,
4.076,3.452,3.32,
4.092,3.564,3.36,
4.164,4.3,3.44,
4.164,4.236,3.44,
4.116,4.18,3.36,
4.148,4.188,3.44,
2.972,4.156,3.36,
3.06,4.148,3.44,
4.244,4.172,3.32,
4.188,4.164,3.36,
4.124,4.148,3.44,
4.132,4.148,3.44,
4.092,4.196,3.32,
4.116,4.196,3.44,
4.084,4.18,3.32,
4.092,4.188,3.44,
4.116,4.172,3.36,
4.092,4.188,3.44,
4.172,4.132,3.36,
4.164,4.132,3.32,
4.14,4.164,3.44,
4.156,4.148,3.36,
4.132,4.196,3.44,
4.156,4.196,3.44,
4.076,4.132,3.36,
4.076,4.124,3.36,
4.108,4.188,3.44,
4.084,4.196,3.44,
4.164,4.172,3.36,
4.164,4.188,3.44,
4.084,4.132,3.36,
4.076,4.196,3.36,
4.148,3.452,3.44,
4.164,3.484,3.44,
4.14,4.196,3.32,
4.156,4.172,3.36,
4.076,4.148,3.44,
4.164,4.148,3.36,
2.972,4.196,3.44,
3.004,4.18,3.44,
4.14,4.196,3.36,
4.116,4.196,3.44,
4.092,4.172,3.36,
4.092,4.188,3.36,
4.164,4.14,3.44,
4.164,4.164,3.44,
4.132,4.132,3.36,
4.156,4.148,3.32,
4.132,4.196,3.44,
4.156,4.196,3.44,
4.076,3.46,3.36,
4.108,3.452,3.36,
4.068,4.228,3.44,
4.084,4.196,3.44,
4.164,4.156,3.36,
4.164,4.172,3.44,
2.972,4.148,3.36,
2.972,4.148,3.36,
4.172,4.164,3.44,
4.14,4.148,3.36,
4.1,4.164,3.44,
4.116,4.164,3.44,
4.092,4.14,3.36,
4.116,4.148,3.36,
4.084,4.196,3.44,
4.092,4.196,3.44,
4.116,4.164,3.32,
4.108,4.188,3.36,
4.076,4.172,3.44,
4.084,4.188,3.36,
4.164,4.132,3.44,
4.164,4.164,3.36,
4.124,4.14,3.44,
4.156,4.164,3.44,
4.132,4.148,3.32,
4.156,4.164,3.36,
4.076,4.148,3.44,
4.108,4.148,3.44,
4.076,4.164,3.36,
4.092,4.164,3.44,
4.108,4.148,3.36,
4.108,4.148,3.44,
4.092,4.164,3.36,
4.108,4.164,3.36,
4.084,4.148,3.44,
4.108,4.148,3.36,
4.092,4.164,3.44,
4.108,4.148,3.44,
4.076,4.164,3.36,
4.092,4.148,3.36,
4.116,4.196,3.44,
4.092,4.196,3.44,
4.108,4.172,3.36,
4.092,4.188,3.44,
4.108,4.172,3.36,
4.092,4.188,3.44,
4.164,4.132,3.36,
4.164,4.132,3.36,
4.132,4.164,3.44,
4.132,4.164,3.44,
4.156,4.148,3.36,
4.148,4.164,3.36,
4.076,4.14,3.44,
4.076,4.164,3.36,
4.108,4.132,3.44,
4.092,4.164,3.32,
4.108,4.14,3.44,
4.108,4.148,3.44,
4.076,4.164,3.36,
4.108,4.148,3.36,
4.084,4.172,3.44,
4.108,4.172,3.44,
4.076,4.148,3.36,
4.092,4.172,3.44,
4.108,4.148,3.32,
4.092,4.172,3.44,
4.116,4.196,3.36,
4.116,4.18,3.36,
4.092,4.196,3.44,
4.116,4.18,3.44,
4.092,4.196,3.36,
4.132,4.188,3.44,
4.172,4.132,3.36,
4.164,4.148,3.44,
4.14,4.164,3.36,
4.148,4.164,3.36,
4.164,4.148,3.44,
4.148,4.148,3.44,
4.076,4.164,3.32,
4.092,4.148,3.44,
4.116,4.164,3.36,
4.116,4.164,3.44,
4.092,4.132,3.36,
4.092,4.148,3.36,
4.116,4.164,3.44,
4.092,4.164,3.32,
4.116,4.148,3.44,
4.108,4.14,3.44,
4.06,4.164,3.36,
4.092,4.148,3.36,
4.108,4.196,3.44,
4.108,4.196,3.36,
4.076,4.172,3.44,
4.076,4.196,3.44,
4.108,4.172,3.32,
4.092,4.188,3.44,
4.164,4.132,3.36,
4.164,4.132,3.44,
4.132,4.164,3.32,
4.156,4.148,3.44,
4.132,4.164,3.36,
4.156,4.164,3.36,
4.076,4.132,3.44,
4.076,4.164,3.36,
4.108,4.148,3.44,
4.092,4.164,3.36,
4.108,4.148,3.44,
4.108,4.164,3.44,
4.076,4.148,3.36,
4.092,4.164,3.36,
4.116,4.148,3.44,
4.108,4.164,3.36,
4.076,4.148,3.44,
4.092,4.148,3.44,
4.116,4.164,3.32,
4.092,4.164,3.36,
4.108,4.148,3.44,
4.108,4.148,3.36,
4.076,4.164,3.44,
4.092,4.164,3.32,
4.108,4.148,3.44,
4.116,4.148,3.36,
4.076,4.196,3.44,
4.084,4.164,3.36,
4.108,4.148,3.44,
4.108,4.164,3.44,
4.092,4.148,3.32,
4.164,4.164,3.36,
4.076,4.148,3.44,
4.108,4.164,3.44,
4.092,4.148,3.36,
4.108,4.164,3.44,
4.084,4.148,3.32,
4.084,4.148,3.36,
4.116,4.164,3.44,
4.108,4.164,3.36,
4.092,4.148,3.44,
4.108,4.148,3.36,
4.092,4.164,3.44,
4.108,4.164,3.44,
4.076,4.148,3.36,
4.108,4.164,3.44,
4.084,4.148,3.36,
4.108,4.164,3.44,
4.084,4.148,3.36,
4.108,4.164,3.44,
4.092,4.148,3.36,
4.108,4.148,3.44,
4.076,4.164,3.32,
4.092,4.148,3.44,
4.108,4.164,3.36,
4.108,4.164,3.44,
4.092,4.148,3.36,
4.108,4.164,3.36,
4.092,4.148,3.44,
4.108,4.164,3.36,
4.092,4.148,3.44,
4.108,4.164,3.44,
4.076,4.148,3.36,
4.092,4.164,3.44,
4.116,4.148,3.32,
4.108,4.164,3.32,
4.092,4.148,3.44,
4.108,4.164,3.44,
4.076,4.148,3.36,
4.092,4.148,3.44,
4.108,4.164,3.32,
4.108,4.164,3.44,
4.076,4.148,3.32,
4.092,4.164,3.36,
4.116,4.148,3.44,
4.092,4.164,3.36,
4.116,4.148,3.44,
4.108,4.164,3.44,
4.092,4.132,3.36,
4.108,4.148,3.36,
4.092,4.164,3.44,
4.116,4.148,3.36,
4.076,4.164,3.44,
4.068,4.164,3.36,
4.116,4.148,3.44,
4.092,4.148,3.44,
4.108,4.164,3.32,
4.076,4.164,3.44,
4.108,4.148,3.36,
4.092,4.148,3.44,
4.116,4.164,3.36,
4.108,4.164,3.44,
4.076,4.148,3.32,
4.116,4.164,3.44,
4.092,4.148,3.32,
4.108,4.164,3.36,
4.084,4.148,3.44,
4.116,4.148,3.44,
4.084,4.164,3.32,
4.108,4.164,3.44,
4.092,4.148,3.32,
4.108,4.148,3.44,
4.076,4.164,3.36,
4.108,4.164,3.44,
4.092,4.148,3.36,
4.108,4.148,3.36,
4.092,4.164,3.44,
4.084,4.164,3.44,
4.116,4.148,3.36,
4.108,4.164,3.36,
4.084,4.148,3.44,
4.108,4.148,3.44,
4.076,4.164,3.36,
4.108,4.164,3.44,
4.092,4.148,3.32,
4.092,4.164,3.36,
4.108,4.148,3.44,
4.076,4.164,3.44,
4.108,4.148,3.32,
4.108,4.164,3.36,
4.092,4.148,3.44,
4.108,4.148,3.44,
4.076,4.196,3.36,
4.084,4.196,3.36,
4.116,4.18,3.44,
4.108,4.196,3.36,
4.092,4.164,3.44,
4.076,4.188,3.44,
4.164,4.14,3.36,
4.164,4.14,3.44,
4.148,4.164,3.36,
4.164,4.14,3.44,
4.132,4.164,3.36,
4.156,4.164,3.44,
4.076,4.148,3.36,
4.076,4.164,3.44,
4.108,4.148,3.36,
4.084,4.164,3.36,
4.108,4.148,3.44,
4.108,4.148,3.44,
4.092,4.164,3.32,
4.076,4.148,3.44,
4.116,4.164,3.36,
4.092,4.148,3.36,
4.108,4.164,3.44,
4.092,4.164,3.36,
4.108,4.148,3.44,
4.108,4.148,3.36,
4.084,4.212,3.44,
4.092,4.196,3.36,
4.108,4.172,3.44,
4.108,4.188,3.36,
4.092,4.172,3.44,
4.092,4.188,3.32,
4.164,4.14,3.44,
4.164,4.164,3.44,
4.132,4.14,3.36,
4.156,4.148,3.36,
4.124,4.164,3.44,
4.156,4.164,3.44,
4.076,4.148,3.32,
4.108,4.164,3.44,
4.068,4.132,3.32,
4.108,4.148,3.36,
4.076,4.172,3.44,
4.108,4.148,3.36,
4.076,4.172,3.44,
4.068,4.148,3.44,
4.116,4.172,3.32,
4.092,4.164,3.36,
4.116,4.148,3.44,
4.116,4.148,3.36,
4.092,4.172,3.44,
4.092,4.148,3.44,
4.116,4.196,3.32,
4.116,4.18,3.36,
4.092,4.196,3.44,
4.092,4.18,3.36,
4.116,4.196,3.44,
4.1,4.196,3.44,
4.172,4.132,3.32,
4.164,4.148,3.44,
4.14,4.164,3.36,
4.148,4.164,3.36,
4.164,4.148,3.44,
4.164,4.164,3.36,
4.076,4.148,3.44,
4.084,4.148,3.36,
4.116,4.164,3.44,
4.092,4.148,3.44,
4.116,4.164,3.36,
4.108,4.148,3.36,
4.076,4.164,3.44,
4.076,4.164,3.44,
4.108,4.148,3.32,
4.108,4.148,0.96,
4.084,4.164,0.04,
4.076,4.164,0.04,
4.108,4.14,0.16,
4.108,4.148,0.16,
4.084,4.196,0.04,
4.108,4.172,0.04,
4.076,4.196,0.16,
4.108,4.172,0.04,
4.076,4.188,0.16,
4.092,4.188,0.16,
4.164,4.132,0.04,
4.132,4.132,0.04,
4.164,4.164,0.16,
4.132,4.164,0.04,
4.156,4.14,0.16,
4.156,4.148,0.16,
4.06,4.164,0.04,
4.068,4.164,0.16,
4.108,4.148,0.04,
4.108,4.148,0.04,
4.068,4.164,0.16,
4.108,4.148,0.16,
4.084,4.164,0.04,
4.092,4.164,0.16,
4.116,4.148,0.04,
4.108,4.148,0.04,
4.084,4.164,0.16,
4.108,4.148,0.04,
4.084,4.164,0.16,
4.092,4.172,0.04,
4.116,4.196,0.16,
4.084,4.18,0.16,
4.116,4.188,0.04,
4.108,4.188,0.04,
4.092,4.172,0.16,
4.164,4.18,0.12,
4.132,4.132,0.04,
4.132,4.148,0.16,
4.164,4.164,0.04,
4.132,4.148,0.16,
4.156,4.164,0.04,
4.132,4.164,0.04,
4.076,4.148,0.16,
4.092,4.164,0.04,
4.108,4.148,0.16,
4.108,4.148,0.16,
4.092,4.164,0.04,
4.108,4.164,0.04,
4.084,4.148,0.16,
4.092,4.164,0.12,
4.116,4.148,0.04,
4.092,4.164,0.08,
4.108,4.148,0.16,
4.092,4.148,0.16,
4.116,4.204,0.04,
4.108,4.196,0.04,
4.084,4.172,0.16,
4.108,4.188,0.16,
4.076,4.172,0.04,
4.092,4.188,0.04,
4.164,4.132,0.16,
4.164,4.14,0.12,
4.132,4.164,0.04,
4.164,4.148,0.04,
4.132,4.164,0.12,
4.156,4.148,0.04,
4.076,4.164,0.16,
4.076,4.164,0.16,
4.108,4.148,0.04,
4.108,4.164,0.04,
4.084,4.148,0.16,
4.108,4.164,0.16,
4.084,4.148,0.04,
4.108,4.164,0.04,
4.084,4.148,0.16,
4.108,4.148,0.16,
4.092,4.164,0.04,
4.084,4.164,0.04,
4.116,4.148,0.16,
4.092,4.148,0.04,
4.116,4.212,0.16,
4.108,4.196,0.04,
4.084,4.172,0.16,
4.108,4.196,0.04,
4.092,4.172,0.16,
4.092,4.188,0.04,
4.172,4.132,0.16,
4.124,4.148,0.16,
4.164,4.164,0.04,
4.164,4.164,0.04,
4.14,4.132,0.16,
4.156,4.164,0.04,
4.076,4.148,0.16,
4.108,4.148,0.12,
4.084,4.164,0.04,
4.108,4.148,0.12,
4.06,4.164,0.04,
4.108,4.164,0.04,
4.084,4.148,0.16,
4.108,4.164,0.16,
4.092,4.148,0.04,
4.092,4.164,0.04,
4.108,4.148,0.16,
4.108,4.148,0.16,
4.092,4.164,0.04,
4.092,4.148,0.16,
4.108,4.196,0.04,
4.108,4.18,0.04,
4.092,4.196,0.16,
4.108,4.188,0.12,
4.092,4.156,0.04,
4.084,4.188,0.04,
4.164,4.14,0.16,
4.164,4.148,0.16,
4.132,4.164,0.04,
4.156,4.148,0.04,
4.124,4.164,0.16,
4.156,4.164,0.12,
4.084,4.148,0.04,
4.076,4.164,0.04,
4.108,4.148,0.16,
4.084,4.164,0.04,
4.108,4.132,0.16,
4.108,4.164,0.16,
4.092,4.148,0.04,
4.108,4.148,0.04,
4.084,4.164,0.16,
4.076,4.148,0.04,
4.116,4.164,0.16,
