Measurements/Power Payload/Metingen 6/Payload 2 50.csv

CH1,CH2,CH3,Start,Increment,
Volt,Volt,Volt,-5.995,0.01
4.108,4.164,0.04,
4.084,4.148,0.16,
4.092,4.148,0.16,
4.116,4.196,0.04,
4.116,4.196,0.12,
4.084,4.164,0.04,
4.092,4.196,0.16,
4.116,4.172,0.04,
4.092,4.188,0.04,
4.164,4.132,0.16,
4.164,4.132,0.04,
4.132,4.164,0.16,
4.164,4.148,0.04,
4.132,4.164,0.16,
4.156,4.148,0.04,
4.076,4.164,0.16,
4.076,4.148,0.04,
4.108,4.172,0.16,
4.108,4.164,0.04,
4.076,4.148,0.16,
4.076,4.164,0.04,
4.116,4.148,0.16,
4.108,4.164,0.16,
4.092,4.148,0.04,
4.092,4.148,0.04,
4.116,4.172,0.16,
4.108,4.172,0.12,
4.092,4.148,0.04,
4.108,4.172,0.04,
4.076,4.148,0.16,
4.116,4.148,0.12,
4.092,4.172,0.04,
4.092,4.172,0.04,
4.116,4.148,0.16,
4.116,4.148,0.04,
4.092,4.196,0.16,
4.116,4.148,0.16,
4.092,4.164,0.04,
4.1,4.148,0.04,
4.116,4.172,0.16,
4.092,4.148,0.16,
4.164,4.172,0.04,
4.116,4.172,0.16,
4.092,4.148,0.04,
4.092,4.148,0.04,
4.116,4.172,0.16,
4.116,4.164,0.04,
4.092,4.148,0.16,
4.092,4.164,0.16,
4.116,4.148,0.04,
4.116,4.164,0.04,
4.084,4.148,0.16,
4.108,4.164,0.16,
4.092,4.148,0.04,
4.116,4.148,0.12,
4.076,4.172,0.04,
4.092,4.164,0.04,
4.116,4.148,0.16,
4.092,4.164,0.16,
4.116,4.148,0.04,
4.076,4.164,0.04,
4.116,4.148,0.16,
4.092,4.164,0.16,
4.116,4.148,0.04,
4.092,4.164,0.04,
4.116,4.148,0.16,
4.108,4.164,0.04,
4.092,4.148,0.16,
4.084,4.164,0.16,
4.116,4.148,0.04,
4.116,4.164,0.16,
4.084,4.148,0.04,
4.092,4.148,0.16,
4.116,4.164,0.04,
4.092,4.148,0.04,
4.108,4.172,0.16,
4.084,4.164,0.16,
4.116,4.148,0.04,
4.092,4.164,0.04,
4.108,4.148,0.16,
4.092,4.148,0.16,
4.116,4.164,0.04,
4.108,4.148,0.04,
4.092,4.164,0.16,
4.092,4.164,0.12,
4.116,4.148,0.04,
4.108,4.148,0.04,
4.092,4.164,0.16,
4.092,4.164,0.16,
4.116,4.148,0.04,
4.116,4.148,0.04,
4.076,4.172,0.16,
4.092,4.164,0.04,
4.116,4.148,0.16,
4.092,4.164,0.04,
4.116,4.148,3.44,
4.084,4.148,3.44,
4.116,4.164,3.36,
4.092,4.148,3.32,
4.116,4.164,3.44,
4.108,4.164,3.36,
4.076,4.14,3.44,
4.108,4.164,3.36,
4.092,4.14,3.44,
4.116,4.164,3.44,
4.084,4.148,3.32,
4.108,4.164,3.44,
4.068,4.148,3.32,
4.076,4.164,3.44,
4.116,4.132,3.36,
4.092,4.148,3.44,
4.108,4.172,3.32,
4.092,4.164,3.44,
4.116,4.148,3.32,
4.108,4.164,3.36,
4.084,4.148,3.44,
4.084,4.164,3.36,
4.116,4.132,3.44,
4.092,4.148,3.36,
4.116,4.164,3.44,
4.084,4.148,3.44,
4.116,4.172,3.32,
4.108,4.164,3.36,
4.068,4.148,3.44,
4.108,4.164,3.44,
4.084,4.148,3.36,
4.084,4.164,3.32,
4.116,4.148,3.44,
4.092,4.164,3.36,
4.116,4.148,3.44,
4.116,4.164,3.44,
4.076,4.148,3.36,
4.108,4.148,3.44,
4.092,4.196,3.32,
4.092,4.18,3.36,
4.116,4.196,3.44,
4.108,4.196,3.44,
4.092,4.132,3.32,
4.092,4.164,3.44,
4.164,4.132,3.32,
4.164,4.148,3.44,
4.132,4.164,3.36,
4.164,4.164,3.36,
4.076,4.148,3.44,
4.108,4.148,3.36,
4.076,4.164,3.44,
4.084,4.164,3.36,
4.108,4.148,3.44,
4.108,4.164,3.36,
4.076,4.148,3.44,
4.108,4.164,3.36,
4.076,4.148,3.44,
4.108,4.148,3.44,
4.092,4.164,3.32,
4.108,4.164,3.36,
4.092,4.148,3.44,
4.092,4.164,3.44,
4.116,4.148,3.36,
4.092,4.156,3.44,
4.116,4.196,3.36,
4.108,4.196,3.44,
4.092,4.172,3.36,
4.092,4.188,3.44,
4.116,4.132,3.36,
4.108,4.14,3.36,
4.164,4.164,3.44,
4.156,4.164,3.44,
4.132,4.148,3.32,
4.156,4.148,3.36,
4.076,4.164,3.44,
4.108,4.164,3.36,
4.084,4.148,3.44,
4.108,4.164,3.44,
4.092,4.148,3.32,
4.108,4.164,3.44,
4.092,4.148,3.32,
4.092,4.164,3.36,
4.116,4.148,3.44,
4.092,4.148,3.44,
4.116,4.164,3.36,
4.108,4.164,3.32,
4.092,4.148,3.44,
4.092,4.148,3.32,
4.116,4.196,3.44,
4.092,4.196,3.44,
4.116,4.18,3.36,
4.108,4.196,3.44,
4.092,4.164,3.36,
4.084,4.188,3.36,
4.164,4.132,3.44,
4.164,4.148,3.36,
4.132,4.164,3.44,
4.164,4.148,3.44,
4.14,4.164,3.32,
4.156,4.164,3.44,
4.076,4.148,3.32,
4.084,4.164,3.44,
4.108,4.148,3.36,
4.108,4.164,3.44,
4.092,4.148,3.36,
4.084,4.148,3.44,
4.116,4.172,3.32,
4.092,4.164,3.44,
4.116,4.148,3.32,
4.092,4.164,3.36,
4.116,4.148,3.44,
4.092,4.148,3.44,
4.116,4.164,3.32,
4.092,4.148,3.36,
4.108,4.196,3.44,
4.108,4.18,3.44,
4.092,4.196,3.36,
4.092,4.18,3.44,
4.116,4.196,3.36,
4.092,4.164,3.36,
4.164,4.132,3.44,
4.164,4.148,3.44,
4.14,4.164,3.36,
4.164,4.148,3.36,
4.132,4.164,3.44,
4.116,4.148,3.36,
4.076,4.164,3.44,
4.092,4.164,3.36,
4.108,4.148,3.44,
4.084,4.148,3.44,
4.116,4.172,3.32,
4.092,4.14,3.36,
4.108,4.172,3.44,
4.116,4.172,3.36,
4.084,4.116,3.44,
4.092,4.172,3.36,
4.116,4.148,3.44,
4.116,4.156,3.44,
4.068,4.204,3.36,
4.116,4.204,3.44,
4.06,4.18,3.32,
4.116,4.196,3.44,
4.092,4.156,3.32,
4.092,4.196,3.36,
4.172,4.148,3.44,
4.172,4.132,3.44,
4.14,4.164,3.32,
4.164,4.132,3.36,
4.116,4.172,3.44,
4.164,4.164,3.36,
4.092,4.132,3.44,
4.076,4.148,3.44,
4.108,4.164,3.36,
4.116,4.148,3.44,
4.068,4.164,3.36,
4.108,4.14,3.44,
4.068,4.164,3.36,
4.092,4.164,3.44,
4.108,4.148,3.36,
4.108,4.164,3.44,
4.092,4.148,3.32,
4.068,4.164,3.44,
4.108,4.148,3.36,
4.108,4.148,3.44,
4.092,4.196,3.32,
4.108,4.196,3.44,
4.076,4.172,3.36,
4.108,4.188,3.36,
4.092,4.172,3.44,
4.092,4.188,3.36,
4.164,4.132,3.44,
4.164,4.164,3.36,
4.132,4.14,3.44,
4.156,4.164,3.44,
4.116,4.108,3.32,
4.156,4.124,3.44,
4.076,4.172,3.36,
4.108,4.148,3.36,
4.076,4.172,3.44,
4.108,4.148,3.44,
4.036,4.164,3.36,
4.06,4.164,3.44,
4.116,4.148,3.36,
4.108,4.148,3.44,
4.084,4.164,3.36,
4.108,4.14,3.36,
4.084,4.164,3.44,
4.092,4.148,3.36,
4.108,4.164,3.44,
4.108,4.148,3.36,
4.076,4.196,3.44,
4.068,4.196,3.36,
4.116,4.172,3.44,
4.092,4.196,3.44,
4.116,4.172,3.32,
4.092,4.188,3.36,
4.164,4.132,3.44,
4.164,4.132,3.44,
4.132,4.164,3.36,
4.132,4.164,3.36,
4.156,4.148,3.44,
4.156,4.164,3.36,
4.076,4.148,3.44,
4.076,4.164,3.36,
4.108,4.124,3.44,
4.108,4.164,3.36,
4.076,4.148,3.44,
4.092,4.108,3.36,
4.108,4.172,3.44,
4.116,4.148,3.36,
4.06,4.164,3.44,
4.076,4.148,3.44,
4.116,4.164,3.36,
4.036,4.164,3.44,
4.116,4.148,3.32,
4.116,4.148,3.44,
4.076,4.196,3.32,
4.092,4.196,3.44,
4.108,4.18,3.32,
4.092,4.188,3.36,
4.116,4.164,3.44,
4.076,4.188,3.44,
4.164,4.132,3.36,
4.164,4.148,3.44,
4.132,4.164,3.36,
4.164,4.164,3.44,
4.132,4.132,3.36,
4.156,4.164,3.44,
4.076,4.148,3.32,
4.108,4.164,3.44,
4.092,4.148,3.32,
4.108,4.164,3.36,
4.076,4.148,3.44,
4.108,4.148,3.44,
4.092,4.164,3.36,
4.084,4.148,3.32,
4.116,4.164,3.44,
4.108,4.164,3.36,
4.084,4.148,3.44,
4.108,4.124,3.4,
4.092,4.18,3.44,
4.108,4.18,3.4,
4.084,4.204,3.44,
4.108,4.196,3.4,
4.092,4.164,3.48,
4.044,4.164,3.4,
4.14,3.428,3.44,
4.164,3.596,3.4,
4.132,3.652,3.44,
4.164,3.644,3.4,
4.124,3.668,3.48,
4.116,3.66,3.4,
2.932,3.684,3.48,
3.1,3.66,3.4,
3.172,3.684,3.44,
3.156,3.668,3.44,
3.188,3.692,3.4,
3.172,3.692,3.44,
3.196,3.676,3.36,
3.18,3.692,3.36,
3.212,3.66,3.44,
3.172,3.676,3.44,
3.212,4.052,3.32,
3.212,4.364,3.36,
3.188,4.26,3.44,
3.212,4.252,3.44,
3.18,4.204,3.36,
3.188,4.212,3.44,
3.844,4.18,3.36,
4.196,4.196,3.44,
4.324,4.132,3.32,
4.22,4.148,3.36,
4.172,4.164,3.44,
4.172,4.148,3.44,
4.148,4.196,3.32,
4.164,4.172,3.44,
4.068,4.132,3.36,
4.108,4.148,3.32,
4.092,4.196,3.44,
4.092,4.196,3.4,
4.164,4.148,3.44,
4.132,4.124,3.4,
4.068,4.196,3.44,
4.076,4.196,3.44,
4.164,3.452,3.36,
4.164,3.564,3.36,
4.092,3.652,3.44,
4.06,3.62,3.36,
4.164,3.676,3.44,
4.164,3.644,3.36,
2.972,4.34,3.44,
3.06,4.3,3.44,
3.164,4.22,3.32,
3.116,4.228,3.36,
3.212,4.188,3.44,
3.132,4.188,3.44,
4.284,4.148,3.32,
4.26,4.148,3.44,
4.18,4.164,3.36,
4.196,4.148,3.36,
4.156,4.164,3.44,
4.14,4.148,3.44,
4.076,4.164,3.36,
4.092,4.156,3.32,
4.108,4.196,3.44,
4.108,4.196,3.36,
4.076,3.484,3.44,
4.108,3.548,3.36,
4.092,4.276,3.44,
4.092,4.252,3.44,
4.164,4.204,3.32,
4.156,4.212,3.36,
3.028,4.18,3.44,
3.084,4.18,3.44,
4.22,4.196,3.36,
4.22,4.188,3.36,
4.156,4.164,3.44,
4.172,4.172,3.44,
4.148,4.188,3.32,
4.148,4.188,3.36,
4.164,4.172,3.44,
4.156,4.188,3.44,
4.124,4.164,3.36,
4.156,4.188,3.44,
4.132,4.132,3.32,
4.156,4.164,3.36,
4.124,4.14,3.44,
4.156,4.14,3.44,
4.124,4.196,3.32,
4.156,4.196,3.36,
4.076,4.172,3.44,
4.108,4.18,3.44,
4.076,4.196,3.36,
4.084,4.196,3.44,
4.164,4.14,3.36,
4.164,4.164,3.44,
4.132,4.132,3.36,
4.164,4.148,3.44,
4.132,4.196,3.32,
4.164,4.196,3.44,
4.076,4.172,3.36,
4.108,4.196,3.36,
4.084,4.132,3.44,
4.092,4.132,3.44,
4.164,4.196,3.32,
4.164,3.452,3.36,
4.132,4.212,3.44,
4.164,4.212,3.44,
4.076,4.18,3.36,
4.076,4.196,3.44,
4.164,4.132,3.36,
2.972,4.148,3.32,
4.18,4.164,3.44,
4.172,4.148,3.36,
4.148,4.196,3.44,
4.164,4.172,3.44,
4.068,4.196,3.36,
4.108,4.18,3.44,
4.076,4.196,3.32,
4.076,4.196,3.36,
4.164,4.132,3.44,
4.14,4.148,3.44,
4.164,4.196,3.32,
4.14,4.196,3.44,
4.164,4.18,3.36,
4.164,4.188,3.36,
4.068,4.148,3.44,
4.084,4.196,3.36,
4.164,3.452,3.44,
4.148,4.172,3.36,
4.164,4.22,3.44,
4.164,4.196,3.44,
4.092,4.18,3.32,
4.164,4.18,3.36,
2.98,4.196,3.44,
4.116,4.132,3.44,
4.188,4.164,3.36,
4.172,4.132,3.44,
4.148,4.196,3.32,
4.132,4.196,3.36,
4.164,4.172,3.44,
4.116,4.188,3.44,
4.068,4.172,3.36,
4.076,4.188,3.36,
4.164,4.164,3.44,
4.164,4.188,3.36,
4.132,3.484,3.44,
4.132,4.156,3.44,
4.164,4.172,3.36,
4.132,4.172,3.44,
4.156,4.14,3.32,
4.156,4.148,3.44,
3.02,4.172,3.32,
4.116,4.156,3.36,
4.092,4.196,3.44,
4.068,4.196,3.36,
4.116,4.18,3.44,
4.092,4.18,3.36,
4.116,4.196,3.44,
4.092,4.196,3.44,
4.172,4.14,3.32,
4.164,4.14,3.36,
4.14,4.164,3.44,
4.148,4.148,3.36,
4.164,4.164,3.44,
4.164,4.148,3.44,
4.092,4.164,3.36,
4.076,4.164,3.44,
4.116,4.148,3.32,
4.092,4.148,3.44,
4.116,4.164,3.36,
4.108,4.148,3.44,
4.076,4.164,3.36,
4.108,4.148,3.36,
4.092,4.164,3.44,
4.116,4.148,3.44,
4.076,4.164,3.36,
4.092,4.148,3.36,
4.116,4.172,3.44,
4.092,4.156,3.36,
4.116,4.196,3.44,
4.108,4.18,3.36,
4.084,4.196,3.44,
4.092,4.18,3.36,
4.116,4.196,3.44,
4.1,4.196,3.44,
4.172,4.148,3.32,
4.164,4.148,3.44,
4.14,4.164,3.32,
4.148,4.164,3.44,
4.164,4.14,3.36,
4.164,4.164,3.36,
4.092,4.124,3.44,
4.092,4.148,3.44,
4.108,4.164,3.32,
4.116,4.164,3.32,
4.084,4.148,3.44,
4.06,4.148,3.36,
4.116,4.164,3.44,
4.092,4.148,3.44,
4.108,4.164,3.32,
4.076,4.164,3.36,
4.116,4.148,3.44,
4.108,4.148,3.36,
4.076,4.172,3.44,
4.076,4.148,3.44,
4.116,4.172,3.32,
4.092,4.172,3.36,
4.116,4.148,3.44,
4.092,4.164,3.36,
4.116,4.148,3.44,
4.092,4.148,3.36,
4.116,4.196,3.44,
4.116,4.148,3.44,
4.092,4.164,3.32,
4.116,4.148,3.44,
4.092,4.172,3.36,
4.092,4.148,3.44,
4.172,4.172,3.36,
4.116,4.148,3.44,
4.092,4.164,3.32,
4.092,4.148,3.44,
4.116,4.172,3.36,
4.116,4.148,3.36,
4.092,4.164,3.44,
4.092,4.148,3.44,
4.116,4.164,3.32,
4.116,4.164,3.44,
4.092,4.148,3.32,
4.092,4.148,3.44,
4.108,4.164,3.36,
4.116,4.164,3.36,
4.076,4.148,3.44,
4.092,4.148,3.36,
4.116,4.164,3.44,
4.108,4.148,3.36,
4.076,4.164,3.44,
4.092,4.148,3.36,
4.116,4.164,3.44,
4.092,4.164,3.44,
4.116,4.148,3.32,
4.092,4.164,3.44,
4.108,4.148,3.36,
4.092,4.148,3.36,
4.108,4.164,3.44,
4.092,4.148,3.44,
4.116,4.164,3.36,
4.108,4.148,3.36,
4.092,4.164,3.44,
4.092,4.148,3.44,
4.116,4.164,3.36,
4.092,4.148,3.36,
4.108,4.164,3.44,
4.092,4.164,3.44,
4.116,4.148,3.32,
4.116,4.164,3.36,
4.084,4.148,3.44,
4.092,4.164,3.36,
4.116,4.148,3.44,
4.108,4.148,3.44,
4.092,4.164,3.36,
4.084,4.148,3.44,
4.116,4.164,3.32,
4.092,4.148,3.44,
4.116,4.164,3.36,
4.084,4.148,3.44,
4.116,4.164,3.32,
4.092,4.148,3.36,
4.116,4.164,3.44,
4.092,4.164,3.44,
4.108,4.148,3.36,
4.108,4.148,3.36,
4.084,4.164,3.44,
4.092,4.148,3.36,
4.108,4.164,3.44,
4.116,4.148,3.36,
4.076,4.164,3.44,
4.092,4.164,3.36,
4.116,4.148,3.44,
4.108,4.148,3.44,
4.092,4.164,3.36,
4.092,4.164,3.44,
4.108,4.148,3.32,
4.108,4.148,3.44,
4.092,4.164,3.36,
4.076,4.164,3.36,
4.116,4.148,3.44,
4.092,4.164,3.44,
4.108,4.148,3.36,
4.092,4.164,3.44,
4.116,4.124,3.36,
4.092,4.1,3.36,
4.108,4.172,3.44,
4.092,4.172,3.44,
4.108,4.156,3.32,
4.044,4.14,3.32,
4.116,4.172,3.44,
4.028,4.148,3.44,
4.116,4.172,3.32,
4.1,4.164,3.44,
4.116,4.148,3.36,
4.068,4.164,3.44,
4.116,4.148,3.32,
4.1,4.148,3.36,
4.116,4.164,3.44,
4.116,4.148,3.36,
4.092,4.172,3.44,
4.116,4.164,3.44,
4.092,4.148,3.32,
4.092,4.164,3.44,
4.116,4.148,3.32,
4.092,4.164,3.36,
4.116,4.148,3.44,
4.1,4.148,3.44,
4.116,4.172,3.36,
4.116,4.164,3.44,
4.092,4.148,3.36,
4.092,4.164,3.44,
4.116,4.148,3.36,
4.092,4.148,3.36,
4.116,4.164,3.44,
4.092,4.164,3.44,
4.116,4.148,3.36,
4.092,4.148,3.44,
4.116,4.172,3.36,
4.116,4.148,3.36,
4.092,4.172,3.44,
4.1,4.164,3.36,
4.116,4.148,3.44,
4.092,4.148,3.44,
4.116,4.164,3.32,
4.092,4.164,3.44,
4.116,4.148,3.36,
4.092,4.164,3.44,
4.116,4.148,3.36,
4.116,4.1,3.36,
4.092,4.196,3.44,
4.1,4.172,3.36,
4.116,4.132,3.44,
4.116,4.172,3.44,
4.092,4.124,3.36,
4.028,4.172,3.44,
4.164,4.132,3.36,
4.116,4.172,3.36,
4.084,4.148,3.44,
4.116,4.148,3.44,
4.06,4.172,3.36,
4.076,4.14,3.44,
4.116,4.172,3.36,
4.116,4.132,3.36,
4.092,4.172,3.44,
4.116,4.116,3.36,
4.076,4.172,3.44,
4.116,4.172,3.44,
4.068,4.132,3.36,
4.068,4.132,3.36,
4.116,4.196,3.44,
4.036,4.172,3.44,
4.124,4.148,3.36,
4.116,4.172,3.44,
4.068,4.132,3.36,
4.068,4.172,3.36,
4.156,4.148,3.44,
4.124,4.156,3.44,
4.084,4.172,3.32,
4.116,4.156,3.44,
4.084,4.172,3.36,
4.116,4.172,3.36,
4.1,4.14,3.44,
4.116,4.172,3.36,
4.1,4.156,3.44,
4.1,4.172,3.36,
4.116,4.156,3.44,
4.116,4.172,3.36,
4.076,4.148,3.44,
4.116,4.172,3.44,
4.1,4.14,3.32,
4.116,4.156,3.36,
4.1,4.172,3.44,
4.116,4.172,3.36,
4.1,4.148,3.44,
4.116,4.156,3.44,
4.068,4.172,3.36,
4.116,4.172,3.44,
4.1,4.132,3.36,
4.116,4.156,3.36,
4.092,4.172,3.44,
4.116,4.156,3.44,
4.1,4.172,3.36,
4.116,4.172,3.44,
4.076,4.148,3.36,
4.1,4.172,3.44,
4.116,4.148,3.32,
4.116,4.148,3.44,
4.1,4.172,3.36,
4.116,4.148,3.44,
4.092,4.172,3.36,
4.116,4.172,3.44,
4.076,4.156,3.32,
4.116,4.172,3.36,
4.1,4.14,3.44,
4.116,4.156,3.44,
4.092,4.172,3.36,
4.116,4.156,3.44,
4.1,4.172,3.32,
4.116,4.172,3.44,
4.068,4.156,3.36,
4.116,4.172,3.44,
4.1,4.14,3.32,
4.116,4.172,3.44,
4.1,4.156,3.36,
4.1,4.156,3.36,
4.124,4.172,3.44,
4.076,4.172,3.36,
4.132,4.156,3.44,
4.116,4.172,3.44,
4.1,4.132,3.36,
4.116,4.156,3.44,
4.1,4.172,3.36,
4.116,4.172,3.36,
4.1,4.156,3.44,
4.084,4.172,3.44,
4.132,4.156,3.36,
4.1,4.132,3.36,
4.124,4.172,3.44,
4.116,4.148,3.36,
4.1,4.172,3.44,
4.124,4.172,3.44,
4.1,4.148,3.36,
4.116,4.172,3.36,
4.068,4.148,3.44,
4.116,4.172,3.44,
4.092,4.14,3.32,
4.116,4.172,3.44,
4.1,4.148,3.36,
4.116,4.148,3.36,
4.1,4.172,3.44,
4.116,4.148,3.44,
4.068,4.172,3.36,
4.116,4.172,3.36,
4.1,4.14,3.44,
4.1,4.156,3.44,
4.116,4.172,3.36,
4.1,4.156,3.44,
4.116,4.172,3.36,
4.116,4.172,3.44,
4.068,4.148,3.32,
4.116,4.14,3.44,
4.1,4.172,3.36,
4.1,4.172,3.36,
4.116,4.148,3.44,
4.116,4.156,3.44,
4.1,4.172,3.32,
4.116,4.156,3.44,
4.068,4.172,3.36,
4.116,4.172,3.44,
4.092,4.132,3.36,
4.1,4.172,3.36,
4.116,4.148,3.44,
4.116,4.172,3.36,
4.1,4.148,3.44,
4.116,4.156,3.44,
4.068,4.172,3.36,
4.116,4.14,3.36,
4.1,4.172,3.44,
4.1,4.172,3.44,
4.116,4.148,3.32,
4.116,4.156,3.36,
4.1,4.172,3.44,
4.116,4.172,3.36,
4.076,4.148,3.44,
4.1,4.148,3.44,
4.116,4.172,3.32,
4.116,4.156,3.44,
4.1,4.172,3.32,
4.116,4.148,3.36,
4.1,4.172,3.44,
4.116,4.172,3.36,
4.084,4.156,3.44,
4.116,4.132,3.44,
4.1,4.172,3.32,
4.116,4.156,3.44,
4.092,4.172,3.36,
4.116,4.148,3.36,
4.1,4.196,3.44,
4.116,4.172,3.36,
4.076,4.14,3.44,
4.116,4.172,3.44,
4.1,4.14,3.36,
4.092,4.172,3.36,
4.164,4.156,3.44,
4.116,4.156,3.44,
4.068,4.172,3.32,
4.116,4.156,3.36,
4.068,4.172,3.44,
4.116,4.172,3.36,
4.092,4.14,3.44,
4.116,4.156,3.36,
4.092,4.172,3.44,
4.116,4.172,3.44,
4.1,4.124,3.36,
4.116,4.172,3.44,
4.068,4.156,3.36,
4.116,4.172,3.44,
4.1,4.14,3.36,
4.116,4.148,3.44,
4.06,4.172,3.32,
4.116,4.172,3.44,
4.1,4.148,3.36,
4.116,4.172,3.44,
4.068,4.156,3.36,
4.092,4.172,3.36,
4.116,4.14,3.44,
4.116,4.156,3.44,
4.1,4.172,3.32,
4.116,4.172,3.44,
4.1,4.148,3.36,
4.116,4.172,3.44,
4.076,4.156,3.36,
4.116,4.172,3.44,
4.1,4.14,3.32,
4.116,4.172,3.44,
4.1,4.156,3.36,
4.116,4.156,3.44,
4.1,4.172,3.36,
4.116,4.148,3.44,
4.068,4.172,3.36,
4.116,4.172,3.36,
4.1,4.14,3.44,
4.116,4.172,3.36,
4.1,4.148,3.44,
4.116,4.172,3.44,
4.092,4.156,3.36,
4.116,4.156,3.44,
4.068,4.172,3.32,
4.116,4.148,3.36,
4.092,4.172,3.44,
4.116,4.156,3.44,
4.1,4.172,3.36,
4.116,4.156,3.44,
4.1,4.172,3.32,
4.068,4.172,3.44,
4.116,4.148,3.36,
4.116,4.172,3.36,
4.1,4.132,3.44,
4.1,4.148,3.44,
4.116,4.172,3.36,
4.116,4.172,3.36,
4.1,4.156,3.44,
4.116,4.172,3.44,
4.076,4.148,3.36,
4.116,4.172,3.36,
4.1,4.14,3.44,
4.116,4.156,3.44,
4.1,4.172,3.32,
4.116,4.148,3.44,
4.092,4.172,3.32,
4.116,4.156,3.36,
4.068,4.172,3.44,
4.116,4.14,3.36,
4.1,4.172,3.44,
4.1,4.172,3.44,
4.116,4.156,0.04,
4.116,4.156,0.04,
4.1,4.172,0.16,
4.116,4.156,0.04,
4.068,4.172,0.16,
4.116,4.172,0.16,
4.1,4.14,0.04,
4.116,4.172,0.16,
4.1,4.14,0.04,
4.116,4.148,0.04,
4.1,4.172,0.16,
4.116,4.172,0.16,
4.068,4.148,0.04,
4.116,4.172,0.04,
4.076,4.14,0.16,
4.1,4.172,0.04,
4.116,4.148,0.16,
4.116,4.172,0.04,
4.1,4.148,0.16,
4.116,4.172,0.04,
4.068,4.148,0.16,
4.1,4.172,0.04,
4.116,4.132,0.16,
4.1,4.148,0.04,
4.116,4.172,0.12,
4.1,4.156,0.04,
4.116,4.172,0.16,
4.116,4.172,0.12,
4.068,4.148,0.04,
4.116,4.172,0.04,
4.1,4.132,0.16,
4.116,4.172,0.04,
4.1,4.148,0.16,
4.1,4.172,0.04,
4.116,4.148,0.16,
4.116,4.156,0.04,
4.068,4.172,0.16,
4.116,4.14,0.04,
4.1,4.172,0.16,
4.116,4.156,0.04,
4.1,4.172,0.16,
4.116,4.156,0.16,
4.1,4.172,0.04,
4.116,4.156,0.16,
4.068,4.172,0.04,
4.1,4.172,0.04,
4.116,4.148,0.16,
4.1,4.172,0.04,
4.132,4.156,0.12,
4.1,4.156,0.04,
4.132,4.188,0.16,
4.084,4.188,0.04,
4.124,4.148,0.16,
4.116,4.172,0.04,
4.1,4.124,0.16,
4.1,4.172,0.04,
4.156,4.124,0.16,
4.148,4.172,0.16,
4.092,4.148,0.04,
4.116,4.148,0.16,
4.06,4.172,0.04,
4.116,4.148,0.12,
4.06,4.164,0.04,
4.116,4.132,0.04,
4.084,4.172,0.16,
4.092,4.172,0.04,
4.124,4.116,0.16,
4.116,4.172,0.04,
4.084,4.132,0.16,
4.116,4.172,0.04,
4.068,4.132,0.16,
4.116,4.172,0.04,
4.044,4.14,0.16,
4.116,4.172,0.04,
4.068,4.148,0.16,
4.116,4.148,0.04,
4.068,4.172,0.16,
4.116,4.148,0.04,
4.068,4.172,0.16,
4.116,4.148,0.16,
4.084,4.172,0.04,
4.092,4.148,0.04,
4.116,4.172,0.16,
4.116,4.14,0.04,
4.076,4.172,0.16,
4.116,4.148,0.04,
4.092,4.172,0.16,
4.092,4.172,0.16,
4.116,4.148,0.04,
4.116,4.148,0.04,
4.084,4.172,0.16,
4.116,4.148,0.16,
4.092,4.172,0.04,
4.116,4.148,0.04,
4.084,4.172,0.16,
4.092,4.164,0.12,
4.116,4.148,0.04,
4.116,4.172,0.04,
4.092,4.148,0.16,
4.092,4.148,0.04,
4.116,4.172,0.16,
4.116,4.148,0.04,
4.092,4.188,0.16,
4.116,4.164,0.04,
4.092,4.132,0.16,
4.092,4.172,0.16,
4.116,4.132,0.04,
4.092,4.116,0.04,
4.14,4.188,0.16,
4.116,4.172,0.12,
4.084,4.14,0.04,
4.116,4.172,0.04,
4.076,4.116,0.16,
4.044,4.172,0.16,
4.14,4.148,0.04,
4.132,4.172,0.04,
4.084,4.148,0.12,
4.116,4.172,0.04,
4.044,4.148,0.16,
4.116,4.132,0.04,
4.092,4.172,0.16,
4.116,4.148,0.04,
4.1,4.204,0.16,
4.116,4.196,0.16,
4.092,4.172,0.04,
4.116,4.18,0.04,
4.068,4.196,0.16,
4.1,4.196,0.04,
4.172,4.14,0.16,
4.164,4.148,0.04,
4.148,4.196,0.16,
4.148,4.148,0.12,
4.164,4.196,0.04,
4.164,4.148,0.04,
4.076,4.196,0.12,
4.092,4.148,0.04,
4.164,4.196,0.16,
4.092,4.148,0.04,
4.172,4.196,0.16,
4.092,4.148,0.04,
4.172,4.196,0.16,
4.092,4.148,0.16,
4.172,4.196,0.04,
4.172,4.188,0.12,
4.084,4.14,0.04,
4.084,4.164,0.04,
4.172,4.148,0.12,
4.092,4.132,0.04,
4.172,4.172,0.16,
4.06,4.108,0.04,
4.156,4.196,0.16,
4.116,4.156,0.12,
4.092,4.172,0.04,
4.116,4.172,0.16,
4.052,4.148,0.04,
4.036,4.156,0.16,
4.164,4.172,0.04,
4.116,4.172,0.04,
4.1,4.116,0.12,
4.116,4.156,0.04,
4.092,4.204,0.16,
4.116,4.196,0.04,
4.1,4.18,0.16,
4.116,4.18,0.12,
4.044,4.196,0.04,
4.092,4.188,0.04,
4.172,4.14,0.16,
4.172,4.196,0.04,
4.148,4.14,0.16,
4.164,4.196,0.04,
4.14,4.148,0.16,
4.164,4.196,0.04,
4.092,4.148,0.16,
4.164,4.196,0.04,
4.084,4.148,0.12,
4.164,4.196,0.04,
4.092,4.148,0.16,
4.164,4.148,0.04,
4.092,4.196,0.16,
4.164,4.196,0.12,
4.092,4.148,0.04,
4.164,4.196,0.04,
4.092,4.14,0.16,
4.172,4.132,0.04,
4.092,4.172,0.16,
4.172,4.172,0.04,
4.092,4.108,0.12,
4.156,4.172,0.04,
4.052,4.116,0.16,
4.116,4.172,0.16,
4.068,4.148,0.04,
4.116,4.148,0.04,
4.028,4.172,0.16,
4.116,4.172,0.16,
4.052,4.148,0.04,
4.124,4.172,0.04,
4.092,4.148,0.16,
4.116,4.172,0.04,
4.092,4.148,0.16,
4.116,4.172,0.04,
4.092,4.148,0.16,
4.116,4.148,0.04,
4.092,4.172,0.12,
4.116,4.172,0.12,
4.076,4.148,0.04,
4.116,4.148,0.04,
4.092,4.172,0.16,
4.092,4.148,0.04,
4.116,4.172,0.16,
4.116,4.172,0.04,
4.084,4.148,0.16,
4.116,4.148,0.04,
4.092,4.172,0.16,
4.116,4.172,0.04,
4.092,4.148,0.16,
4.116,4.148,0.04,
4.092,4.172,0.16,
4.092,4.172,0.04,
4.116,4.148,0.16,
4.116,4.148,0.16,
4.076,4.172,0.04,
4.116,4.172,0.16,
4.092,4.148,0.04,
4.116,4.164,0.04,
4.092,4.148,0.16,
4.116,4.148,0.12,
4.076,4.172,0.04,
4.116,4.148,0.04,
