Measurements/Power Payload/Metingen 1/Payload 1 110.csv

CH1,CH2,CH3,Start,Increment,
Volt,Volt,Volt,-2.9975,0.005
4.164,4.196,0.12,
4.14,3.42,0.04,
4.164,3.932,0.04,
4.132,4.22,0.16,
4.148,4.212,0.04,
4.084,4.18,0.16,
4.172,4.18,0.04,
2.924,4.196,0.16,
3.772,4.196,0.04,
4.188,4.148,0.16,
4.172,4.164,0.04,
4.148,4.132,0.16,
4.14,4.132,0.04,
4.164,4.196,0.16,
4.164,4.196,0.12,
4.084,4.132,0.04,
4.108,4.14,0.12,
4.076,4.164,0.04,
4.076,4.148,0.16,
4.164,4.164,0.04,
4.164,4.164,0.04,
4.076,4.148,0.16,
4.076,4.164,0.04,
4.108,4.132,0.16,
4.108,4.164,0.04,
4.092,4.14,0.16,
4.108,4.132,0.16,
4.076,4.196,0.04,
4.076,4.196,0.12,
4.108,4.18,0.04,
4.108,4.164,0.04,
4.068,4.196,0.16,
4.068,4.188,0.12,
4.172,4.164,0.04,
4.164,4.188,0.16,
4.132,4.164,0.04,
4.156,4.18,0.16,
4.124,4.132,0.04,
4.156,4.196,0.04,
4.132,3.404,0.16,
4.156,4.188,0.04,
4.132,4.156,0.16,
4.14,4.148,0.04,
4.076,4.204,0.16,
4.164,4.196,0.04,
2.908,4.148,0.16,
4.132,4.132,0.16,
4.092,4.196,0.04,
4.092,4.18,0.04,
4.172,4.196,0.16,
4.164,4.188,0.04,
4.084,4.172,0.16,
4.076,4.188,0.04,
4.148,4.132,0.16,
4.148,4.196,0.04,
4.164,3.428,0.16,
4.156,4.172,0.04,
4.124,4.22,0.12,
4.148,4.212,0.12,
4.076,4.18,0.04,
4.164,4.18,0.04,
2.924,4.148,0.12,
4.1,4.148,0.04,
4.188,4.196,0.16,
4.172,4.196,0.16,
4.148,4.172,0.04,
4.156,3.42,0.04,
4.076,4.228,0.16,
4.076,4.212,0.04,
4.164,4.172,0.16,
4.164,4.172,0.04,
4.116,4.156,0.16,
2.932,4.148,0.16,
4.172,4.164,0.04,
4.156,4.148,0.04,
4.116,4.164,0.16,
4.116,4.164,0.16,
4.084,4.148,0.04,
4.092,4.148,0.16,
4.116,4.196,0.04,
4.108,4.196,0.04,
4.084,4.172,0.16,
4.108,4.188,0.04,
4.084,4.172,0.16,
4.092,4.188,0.12,
4.164,4.132,0.04,
4.164,4.124,0.04,
4.14,4.164,0.16,
4.132,4.148,0.04,
4.156,4.164,0.16,
4.156,4.148,0.04,
4.084,4.164,0.16,
4.068,4.164,0.04,
4.108,4.148,0.16,
4.092,4.148,0.16,
4.108,4.196,0.04,
4.108,4.196,0.04,
4.092,3.412,0.16,
4.092,3.524,0.12,
4.108,4.3,0.04,
4.092,4.252,0.04,
4.164,4.18,0.16,
4.156,4.188,0.04,
2.9,4.156,0.16,
3.004,4.148,0.16,
4.244,4.204,0.04,
4.196,4.196,0.04,
4.124,4.172,0.16,
4.1,4.196,0.04,
4.132,4.172,0.12,
4.084,4.188,0.12,
4.172,4.132,0.04,
4.164,4.132,0.12,
4.14,4.164,0.04,
4.132,4.148,0.04,
4.156,4.196,0.16,
4.156,4.196,0.04,
4.076,4.132,0.12,
4.076,4.132,0.12,
4.108,4.196,0.04,
4.092,4.196,0.04,
4.164,4.172,0.16,
4.164,4.188,0.04,
4.076,4.132,0.16,
4.068,4.196,0.04,
4.164,3.428,0.16,
4.164,4.204,0.12,
4.132,4.156,0.04,
4.156,4.172,0.04,
4.076,4.148,0.16,
4.164,4.148,0.04,
2.924,4.196,0.16,
4.14,4.196,0.16,
4.1,4.172,0.04,
4.116,4.164,0.16,
4.092,4.196,0.04,
4.092,4.188,0.04,
4.164,4.132,0.16,
4.164,4.14,0.04,
4.148,4.164,0.16,
4.156,4.164,0.04,
4.132,4.148,0.16,
4.156,4.14,0.16,
4.068,4.164,0.04,
4.076,4.164,0.04,
4.108,4.132,0.16,
4.108,4.164,0.12,
4.076,4.148,0.04,
4.084,4.164,0.04,
4.108,4.148,0.16,
4.108,4.148,0.04,
4.068,4.164,0.16,
4.108,4.148,0.04,
4.076,4.164,0.12,
4.092,4.164,0.16,
4.108,4.148,0.04,
4.108,4.148,0.04,
4.076,4.196,0.16,
4.076,4.196,0.04,
4.108,4.172,0.16,
4.108,4.188,0.04,
4.092,4.172,0.16,
4.084,4.188,0.12,
4.164,4.124,0.04,
4.164,4.132,0.04,
4.14,4.164,0.16,
4.156,4.148,0.16,
4.124,4.164,0.04,
4.156,4.148,0.16,
4.06,4.164,0.04,
4.084,4.148,0.04,
4.108,4.164,0.16,
4.084,4.148,0.04,
4.108,4.164,0.16,
4.108,4.148,0.16,
4.092,4.164,0.04,
4.092,4.164,0.04,
4.108,4.148,0.16,
4.108,4.148,0.04,
4.084,4.164,0.16,
4.108,4.148,0.04,
4.092,4.188,0.16,
4.108,4.172,0.16,
4.076,4.196,0.04,
4.092,4.196,0.12,
4.108,4.164,0.04,
4.084,4.188,0.12,
4.148,4.164,0.04,
4.124,4.188,0.12,
4.164,4.132,0.04,
4.156,4.148,0.04,
4.124,4.164,0.16,
4.132,4.164,0.04,
4.156,4.148,0.16,
4.148,4.148,0.04,
4.076,4.164,0.16,
4.084,4.148,0.04,
4.116,4.172,0.16,
4.092,4.148,0.04,
4.116,4.172,0.16,
4.092,4.164,0.04,
4.116,4.148,0.16,
4.084,4.164,0.16,
4.116,4.148,0.04,
4.116,4.164,0.04,
4.092,4.148,0.16,
4.116,4.148,0.12,
4.092,4.196,0.04,
4.092,4.196,0.04,
4.116,4.18,0.16,
4.108,4.172,0.12,
4.092,4.188,0.04,
4.076,4.188,0.04,
4.164,4.132,0.16,
4.164,4.132,0.16,
4.148,4.164,0.04,
4.156,4.164,0.04,
4.124,4.14,0.16,
4.156,4.164,0.04,
4.076,4.148,0.16,
4.076,4.164,0.04,
4.116,4.132,0.16,
4.076,4.148,0.04,
4.116,4.172,0.16,
4.092,4.164,0.04,
4.116,4.148,0.16,
4.092,4.164,0.04,
4.116,4.148,0.12,
4.092,4.164,0.04,
4.116,4.148,0.16,
4.116,4.164,0.16,
4.076,4.14,0.04,
4.076,4.148,0.04,
4.116,4.196,0.16,
4.108,4.196,0.12,
4.092,4.172,0.04,
4.108,4.196,0.04,
4.076,4.164,0.16,
4.076,4.188,0.12,
4.164,4.132,0.04,
4.164,4.132,0.04,
4.14,4.164,0.16,
4.156,4.14,0.04,
4.132,4.164,0.16,
4.156,4.164,0.04,
4.084,4.148,0.16,
4.076,4.164,0.04,
4.108,4.14,0.16,
4.084,4.164,0.04,
4.108,4.148,0.16,
4.092,4.148,0.16,
4.108,4.164,0.04,
4.108,4.148,0.04,
4.084,4.172,0.12,
4.108,4.148,0.04,
4.092,4.172,0.16,
4.076,4.164,0.04,
4.116,4.148,0.16,
4.092,4.148,0.04,
4.116,4.196,0.12,
4.116,4.18,0.04,
4.1,4.196,0.16,
4.092,4.172,0.04,
4.116,4.196,0.16,
4.092,4.188,0.04,
4.172,4.132,0.16,
4.164,4.132,0.04,
4.148,4.164,0.16,
4.14,4.148,0.04,
4.164,4.164,0.16,
4.164,4.164,0.04,
4.068,4.148,0.16,
4.068,4.148,0.12,
4.108,4.164,0.04,
4.092,4.164,0.04,
4.108,4.148,0.16,
4.108,4.148,0.04,
4.084,4.164,0.16,
4.092,4.148,0.04,
4.108,4.172,0.16,
4.108,4.148,0.04,
4.092,4.172,0.16,
4.108,4.148,0.16,
4.076,4.164,0.04,
4.092,4.164,0.12,
4.116,4.148,0.04,
4.116,4.148,0.04,
4.092,4.172,0.16,
4.092,4.148,0.12,
4.116,4.196,0.04,
4.092,4.196,0.04,
4.116,4.132,0.16,
4.084,4.14,0.16,
4.116,4.164,0.04,
4.092,4.164,0.04,
4.172,4.148,3.44,
4.164,4.148,3.44,
4.076,4.164,3.36,
4.076,4.164,3.44,
4.108,4.108,3.32,
4.092,4.164,3.36,
4.108,4.148,3.44,
4.108,4.164,3.44,
4.076,4.148,3.36,
4.036,4.148,3.44,
4.116,4.172,3.36,
4.108,4.164,3.36,
4.076,4.148,3.44,
4.076,4.124,3.44,
4.116,4.172,3.32,
4.116,4.148,3.36,
4.076,4.172,3.44,
4.092,4.164,3.44,
4.116,4.148,3.36,
4.116,4.148,3.44,
4.044,4.172,3.32,
4.092,4.164,3.36,
4.116,4.148,3.44,
4.076,4.164,3.44,
4.116,4.148,3.36,
4.092,4.164,3.36,
4.116,4.148,3.44,
4.092,4.164,3.36,
4.116,4.148,3.44,
4.092,4.164,3.36,
4.116,4.148,3.44,
4.092,4.148,3.44,
4.116,4.164,3.32,
4.092,4.164,3.44,
4.116,4.148,3.36,
4.108,4.148,3.44,
4.084,4.164,3.36,
4.108,4.164,3.44,
4.076,4.148,3.36,
4.108,4.164,3.32,
4.092,4.148,3.44,
4.116,4.164,3.44,
4.076,4.148,3.32,
4.084,4.164,3.36,
4.108,4.148,3.44,
4.108,4.148,3.36,
4.092,4.164,3.44,
4.108,4.148,3.36,
4.084,4.164,3.44,
4.108,4.164,3.44,
4.092,4.14,3.36,
4.108,4.164,3.36,
4.084,4.148,3.44,
4.076,4.148,3.36,
4.108,4.164,3.44,
4.108,4.164,3.44,
4.076,4.148,3.36,
4.108,4.164,3.44,
4.092,4.14,3.32,
4.092,4.164,3.44,
4.108,4.148,3.32,
4.108,4.148,3.44,
4.092,4.164,3.32,
4.076,4.148,3.36,
4.108,4.164,3.44,
4.108,4.164,3.44,
4.092,4.148,3.32,
4.076,4.148,3.44,
4.108,4.164,3.32,
4.108,4.148,3.36,
4.084,4.164,3.44,
4.108,4.164,3.44,
4.084,4.148,3.36,
4.108,4.164,3.44,
4.076,4.148,3.32,
4.084,4.164,3.36,
4.116,4.148,3.44,
4.108,4.148,3.44,
4.092,4.164,3.36,
4.092,4.164,3.36,
4.108,4.148,3.44,
4.108,4.164,3.36,
4.076,4.14,3.44,
4.076,4.148,3.44,
4.108,4.164,3.36,
4.108,4.164,3.36,
4.092,4.132,3.44,
4.108,4.148,3.36,
4.084,4.164,3.44,
4.092,4.164,3.36,
4.108,4.148,3.44,
4.108,4.148,3.36,
4.076,4.196,3.44,
4.084,4.196,3.44,
4.108,4.172,3.32,
4.108,4.188,3.36,
4.076,4.172,3.44,
4.092,4.188,3.36,
4.164,4.132,3.44,
4.164,4.164,3.44,
4.132,4.14,3.32,
4.156,4.148,3.44,
4.132,4.164,3.36,
4.156,4.148,3.44,
4.076,4.164,3.32,
4.108,4.164,3.36,
4.084,4.124,3.44,
4.108,4.148,3.44,
4.084,4.164,3.32,
4.092,4.164,3.44,
4.108,4.148,3.36,
4.108,4.148,3.44,
4.06,4.164,3.36,
4.092,4.164,3.44,
4.108,4.148,3.32,
4.108,4.148,3.36,
4.076,4.164,3.44,
4.108,4.148,3.36,
4.076,4.196,3.44,
4.092,4.196,3.36,
4.108,4.172,3.44,
4.108,4.188,3.32,
4.092,4.172,3.44,
4.084,4.188,3.36,
4.164,4.14,3.44,
4.164,4.164,3.44,
4.132,4.108,3.32,
4.156,4.14,3.36,
4.132,4.172,3.44,
4.156,4.164,3.36,
4.076,4.148,3.44,
4.108,4.148,3.36,
4.036,4.164,3.44,
4.084,4.164,3.44,
4.116,4.116,3.32,
4.108,4.148,3.44,
4.076,4.164,3.36,
4.108,4.148,3.44,
4.076,4.164,3.36,
4.108,4.164,3.36,
4.044,4.132,3.44,
4.108,4.148,3.36,
4.076,4.196,3.44,
4.084,4.196,3.36,
4.108,4.164,3.44,
4.108,4.196,3.44,
4.068,4.172,3.32,
4.076,4.188,3.44,
4.156,4.172,3.32,
4.164,4.188,3.36,
4.132,4.14,3.44,
4.156,4.164,3.44,
4.124,4.132,3.36,
4.156,4.164,3.44,
4.132,4.148,3.32,
4.148,4.148,3.36,
4.076,4.164,3.44,
4.108,4.148,3.36,
4.076,4.164,3.44,
4.108,4.164,3.44,
4.092,4.14,3.36,
4.108,4.164,3.44,
4.084,4.148,3.32,
4.108,4.164,3.44,
4.084,4.148,3.36,
4.108,4.148,3.44,
4.076,4.164,3.32,
4.108,4.148,3.44,
4.092,4.196,3.32,
4.108,4.196,3.44,
4.092,4.172,3.36,
4.108,4.188,3.44,
4.076,4.164,3.36,
4.076,4.188,3.44,
4.164,4.148,3.32,
4.164,4.132,3.36,
4.132,4.164,3.44,
4.156,4.164,3.36,
4.132,4.124,3.44,
4.156,4.164,3.36,
4.084,4.148,3.44,
4.108,4.164,3.36,
4.068,4.148,3.44,
4.052,4.148,3.44,
4.108,4.164,3.36,
4.092,4.164,3.44,
4.108,4.148,3.32,
4.108,4.148,3.44,
4.084,4.164,3.32,
4.092,4.164,3.44,
4.108,4.148,3.32,
4.108,4.164,3.44,
4.076,4.148,3.36,
4.084,4.148,3.36,
4.116,4.196,3.44,
4.108,4.196,3.44,
4.092,4.172,3.36,
4.108,4.188,3.44,
4.084,4.172,3.36,
4.092,4.188,3.36,
4.164,4.132,3.44,
4.164,4.14,3.44,
4.132,4.164,3.36,
4.156,4.164,3.36,
4.124,4.148,3.44,
4.156,4.164,3.44,
4.076,4.148,3.36,
4.108,4.14,3.44,
4.076,4.172,3.36,
4.108,4.148,3.44,
4.084,4.172,3.32,
4.108,4.164,3.44,
4.084,4.148,3.36,
4.076,4.164,3.36,
4.116,4.148,3.44,
4.116,4.148,3.44,
4.092,4.172,3.32,
4.092,4.164,3.36,
4.116,4.148,3.44,
4.092,4.148,3.36,
4.116,4.196,3.44,
4.092,4.188,3.44,
4.116,4.172,3.32,
4.084,4.188,3.36,
4.116,4.172,3.44,
4.1,4.188,3.36,
4.172,4.132,3.44,
4.164,4.132,3.36,
4.132,4.164,3.44,
4.156,4.148,3.44,
4.132,4.164,3.32,
4.156,4.148,3.44,
4.068,4.164,3.36,
4.084,4.148,3.36,
4.108,4.172,3.44,
4.092,4.148,3.36,
4.108,4.172,3.44,
4.068,4.164,3.44,
4.116,4.148,3.4,
4.084,4.196,3.44,
4.116,3.42,3.4,
4.092,3.532,3.44,
4.116,3.612,3.4,
4.092,3.596,3.4,
4.116,3.636,3.44,
4.164,3.628,3.4,
2.924,3.652,3.44,
3.036,3.628,3.4,
3.124,3.66,3.44,
3.116,3.644,3.4,
3.156,3.66,3.44,
3.164,3.66,3.4,
3.124,3.628,3.48,
3.14,3.66,3.48,
3.164,3.644,3.36,
3.148,3.66,3.36,
3.18,3.636,3.44,
3.18,3.644,3.44,
3.124,4.364,3.36,
3.18,4.26,3.44,
3.156,4.188,3.36,
3.148,4.196,3.36,
3.18,4.156,3.44,
3.148,4.148,3.44,
4.324,4.212,3.32,
4.204,4.196,3.44,
4.124,4.132,3.36,
4.14,4.132,3.36,
4.1,4.196,3.44,
4.092,4.196,3.44,
4.172,4.18,3.32,
4.164,4.196,3.4,
4.076,4.132,3.44,
4.076,4.196,3.4,
4.164,3.404,3.44,
4.164,3.476,3.44,
4.132,3.588,3.4,
4.164,3.572,3.32,
4.068,3.636,3.44,
4.172,3.62,3.36,
2.908,3.684,3.44,
2.972,4.164,3.36,
3.108,4.356,3.44,
3.076,4.22,3.44,
3.164,4.172,3.32,
3.108,4.156,3.44,
3.236,4.22,3.4,
4.044,4.196,3.4,
4.308,3.436,3.44,
4.172,3.516,3.44,
4.116,3.604,3.32,
4.1,3.58,3.36,
4.18,3.692,3.44,
4.164,4.164,3.36,
2.924,4.34,3.44,
3.012,4.252,3.36,
3.124,4.204,3.44,
3.044,4.212,3.32,
3.228,4.18,3.44,
4.036,4.196,3.44,
4.284,4.18,3.36,
4.22,4.196,3.36,
4.172,4.14,3.44,
4.172,4.148,3.44,
4.156,4.164,3.32,
4.164,4.148,3.36,
4.14,4.196,3.44,
4.164,4.196,3.44,
4.092,4.156,3.32,
4.092,3.404,3.36,
4.108,4.228,3.44,
4.092,4.276,3.44,
4.172,4.188,3.32,
4.164,4.196,3.36,
4.124,4.164,3.44,
2.924,4.172,3.36,
4.164,4.148,3.44,
4.22,4.164,3.44,
4.124,4.148,3.32,
4.14,4.164,3.44,
4.1,4.148,3.32,
4.1,4.148,3.44,
4.116,4.212,3.32,
4.084,4.196,3.44,
4.116,4.18,3.32,
4.108,4.196,3.44,
4.092,4.18,3.32,
4.076,4.188,3.36,
4.172,4.14,3.44,
4.172,4.164,3.36,
4.148,4.132,3.44,
4.164,4.148,3.44,
4.14,4.196,3.32,
4.164,4.196,3.36,
4.092,4.132,3.44,
4.076,4.14,3.44,
4.116,4.212,3.36,
4.084,4.18,3.44,
4.164,4.196,3.36,
4.164,4.196,3.44,
4.092,4.132,3.32,
4.068,4.196,3.44,
4.164,3.42,3.36,
4.164,4.204,3.44,
4.132,4.156,3.36,
4.164,4.172,3.36,
4.076,4.148,3.44,
4.164,4.14,3.36,
2.94,4.196,3.44,
4.14,4.196,3.44,
4.1,4.18,3.36,
4.116,4.188,3.44,
4.092,4.172,3.32,
4.068,4.188,3.32,
4.172,4.132,3.44,
4.164,4.132,3.44,
4.132,4.164,3.36,
4.156,4.132,3.36,
4.124,4.164,3.44,
4.156,4.148,3.44,
4.076,4.164,3.32,
4.076,4.164,3.44,
4.108,4.14,3.32,
4.076,4.148,3.36,
4.108,4.164,3.44,
4.108,4.148,3.36,
4.092,4.164,3.44,
4.108,4.164,3.44,
4.076,4.14,3.36,
4.108,4.164,3.36,
4.084,4.148,3.44,
4.108,4.164,3.44,
4.084,4.14,3.32,
4.076,4.148,3.32,
4.108,4.196,3.44,
4.108,4.196,3.44,
4.084,4.172,3.36,
4.108,4.172,3.44,
4.076,4.188,3.36,
4.092,4.188,3.44,
4.164,4.132,3.32,
4.164,4.164,3.44,
4.132,4.132,3.36,
4.124,4.148,3.36,
4.156,4.164,3.44,
4.156,4.148,3.36,
4.068,4.164,3.44,
4.108,4.164,3.44,
4.076,4.132,0.4,
4.092,4.148,0.04,
4.108,4.164,0.16,
4.084,4.148,0.04,
4.108,4.164,0.16,
4.068,4.164,0.12,
4.116,4.148,0.04,
4.108,4.164,0.04,
4.084,4.148,0.16,
4.108,4.148,0.04,
4.076,4.188,0.16,
4.108,4.18,0.04,
4.092,4.196,0.16,
4.108,4.196,0.12,
4.092,4.172,0.04,
4.068,4.188,0.04,
4.156,4.164,0.16,
4.148,4.18,0.04,
4.164,4.124,0.16,
4.164,4.164,0.04,
4.124,4.132,0.16,
4.156,4.164,0.12,
4.132,4.148,0.04,
4.156,4.164,0.04,
4.052,4.14,0.16,
4.076,4.148,0.16,
4.108,4.164,0.04,
4.108,4.164,0.16,
4.084,4.148,0.04,
4.108,4.164,0.16,
4.076,4.132,0.04,
4.092,4.164,0.16,
4.108,4.148,0.04,
4.108,4.164,0.04,
4.092,4.14,0.16,
4.108,4.148,0.16,
4.076,4.196,0.04,
4.108,4.196,0.04,
4.092,4.18,0.16,
4.108,4.188,0.04,
4.076,4.164,0.16,
4.092,4.188,0.04,
4.164,4.132,0.12,
4.164,4.132,0.04,
4.132,4.164,0.16,
4.156,4.148,0.04,
4.132,4.164,0.16,
4.156,4.164,0.04,
4.084,4.14,0.16,
4.076,4.148,0.04,
4.108,4.164,0.16,
4.092,4.148,0.16,
4.108,4.164,0.04,
4.084,4.164,0.04,
4.108,4.148,0.16,
4.076,4.148,0.04,
4.116,4.164,0.16,
4.108,4.164,0.04,
4.084,4.148,0.12,
4.108,4.164,0.04,
4.084,4.14,0.16,
4.092,4.148,0.04,
4.108,4.196,0.16,
4.108,4.196,0.04,
4.076,4.172,0.16,
4.084,4.196,0.16,
4.116,4.172,0.04,
4.084,4.188,0.04,
4.164,4.132,0.12,
4.164,4.132,0.04,
4.14,4.164,0.16,
4.156,4.164,0.04,
4.132,4.148,0.16,
4.156,4.164,0.04,
4.076,4.148,0.16,
4.068,4.164,0.04,
4.108,4.148,0.16,
4.108,4.164,0.12,
4.076,4.148,0.04,
4.108,4.148,0.04,
4.076,4.164,0.16,
4.108,4.148,0.04,
4.084,4.164,0.16,
4.108,4.164,0.04,
4.076,4.148,0.12,
4.076,4.148,0.04,
4.108,4.164,0.16,
4.108,4.148,0.04,
4.092,4.196,0.16,
4.084,4.196,0.16,
4.116,4.172,0.04,
4.092,4.172,0.04,
4.116,4.196,0.16,
4.092,4.188,0.04,
4.164,4.132,0.16,
4.164,4.148,0.04,
4.132,4.164,0.16,
4.132,4.164,0.04,
4.156,4.14,0.16,
4.156,4.164,0.16,
4.076,4.14,0.04,
4.076,4.164,0.04,
4.108,4.14,0.16,
4.108,4.164,0.16,
4.084,4.148,0.04,
4.076,4.148,0.04,
4.108,4.164,0.16,
4.108,4.148,0.16,
4.076,4.164,0.04,
4.116,4.148,0.16,
4.084,4.164,0.04,
4.092,4.148,0.12,
4.116,4.164,0.04,
4.092,4.14,0.04,
4.108,4.196,0.16,
4.108,4.196,0.04,
4.076,4.18,0.16,
4.092,4.188,0.16,
4.108,4.132,0.04,
4.084,4.132,0.16,
4.164,4.164,0.04,
4.164,4.148,0.04,
4.148,4.164,0.16,
4.156,4.164,0.04,
4.076,4.14,0.16,
4.076,4.116,0.04,
4.108,4.196,0.16,
4.092,4.18,0.16,
4.108,4.196,0.04,
4.076,4.172,0.04,
4.116,4.196,0.16,
4.044,4.188,0.04,
4.164,4.164,0.16,
4.148,4.188,0.16,
4.164,4.164,0.04,
4.124,4.196,0.04,
4.156,4.164,0.16,
4.132,4.188,0.04,
4.156,4.172,0.16,
4.132,4.172,0.12,
4.164,4.196,0.04,
4.148,4.132,0.16,
4.164,4.196,0.04,
4.14,4.196,0.12,
4.164,4.172,0.04,
4.132,4.188,0.04,
4.164,4.132,0.16,
4.076,4.148,0.16,
4.164,4.196,0.04,
4.164,4.148,0.04,
4.14,4.196,0.16,
4.164,3.412,0.04,
4.076,4.204,0.16,
4.092,4.18,0.16,
4.164,4.148,0.04,
4.092,4.172,0.04,
4.164,4.148,0.16,
4.164,4.164,0.04,
2.924,4.148,0.16,
4.132,4.148,0.12,
4.092,4.164,0.04,
4.116,4.148,0.16,
4.092,4.164,0.04,
4.084,4.164,0.04,
4.116,4.148,0.12,
4.076,4.148,0.04,
4.108,4.164,0.16,
4.108,4.148,0.04,
4.092,4.164,0.16,
4.084,4.148,0.04,
4.116,4.164,0.16,
4.108,4.164,0.12,
4.076,4.148,0.04,
4.108,4.148,0.04,
4.084,4.164,0.16,
4.076,4.164,0.04,
4.116,4.148,0.16,
4.092,4.148,0.12,
4.108,4.164,0.04,
4.108,4.164,0.12,
4.084,4.132,0.04,
4.092,4.164,0.04,
4.108,4.148,0.16,
4.092,4.148,0.04,
4.116,4.164,0.16,
4.076,4.148,0.04,
4.108,4.164,0.16,
4.076,4.148,0.04,
4.116,4.164,0.16,
4.108,4.148,0.12,
4.076,4.164,0.04,
4.092,4.164,0.16,
4.108,4.148,0.04,
4.084,4.148,0.04,
4.116,4.164,0.12,
4.092,4.148,0.04,
4.108,4.164,0.12,
4.092,4.148,0.04,
4.108,4.164,0.16,
4.108,4.148,0.04,
4.076,4.196,0.16,
4.092,4.196,0.04,
4.108,4.14,0.16,
4.092,4.164,0.04,
4.108,4.132,0.16,
4.084,4.148,0.04,
4.164,4.164,0.16,
4.164,4.14,0.04,
4.076,4.164,0.16,
4.076,4.14,0.04,
4.108,4.196,0.12,
4.092,4.196,0.04,
4.108,4.172,0.16,
4.108,4.188,0.12,
4.084,4.164,0.04,
4.068,4.188,0.04,
4.164,4.164,0.16,
4.156,4.188,0.12,
4.132,4.164,0.04,
4.156,4.188,0.04,
4.132,4.164,0.16,
4.132,4.188,0.04,
4.156,4.164,0.16,
4.156,4.188,0.04,
4.132,4.132,0.16,
4.156,4.196,0.04,
4.132,4.132,0.16,
4.132,4.196,0.16,
4.156,3.42,0.04,
4.156,3.46,0.16,
4.068,4.196,0.04,
4.164,4.172,0.04,
4.084,4.148,0.12,
4.164,4.164,0.16,
2.94,4.148,0.04,
2.956,4.148,0.04,
4.14,4.196,0.16,
4.116,4.196,0.12,
4.092,4.148,0.04,
4.092,4.148,0.16,
4.116,4.164,0.04,
4.092,4.148,0.12,
4.164,4.196,0.04,
4.164,4.172,0.16,
4.076,4.196,0.04,
4.084,4.188,0.04,
4.108,4.14,0.16,
4.076,4.148,0.04,
4.164,4.196,0.16,
4.164,3.412,0.16,
4.124,4.204,0.04,
4.156,4.172,0.04,
4.076,4.156,0.16,
4.084,4.164,0.04,
4.164,4.148,0.16,
4.156,4.148,0.16,
2.908,4.212,0.04,
4.132,4.196,0.12,
4.1,4.172,0.04,
4.116,3.404,0.04,
4.076,4.228,0.16,
4.092,4.196,0.04,
4.172,4.156,0.16,
4.164,4.172,0.04,
4.124,4.148,0.16,
2.916,4.148,0.04,
4.172,4.172,0.16,
4.14,4.148,0.04,
4.1,4.196,0.16,
4.116,4.18,0.04,
4.092,4.196,0.16,
4.092,4.188,0.04,
4.116,4.172,0.16,
4.084,4.172,0.04,
4.164,4.132,0.12,
4.164,4.148,0.04,
4.14,4.164,0.16,
4.156,4.148,0.16,
4.132,4.196,0.04,
4.156,4.196,0.04,
4.076,3.436,0.16,
4.092,3.564,0.04,
4.108,4.252,0.16,
4.092,4.196,0.04,
4.164,4.156,0.16,
4.164,4.156,0.12,
2.972,4.172,0.04,
3.092,4.164,0.12,
4.196,4.148,0.04,
4.132,4.148,0.04,
4.1,4.164,0.16,
4.116,4.148,0.16,
4.092,4.164,0.04,
4.092,4.148,0.12,
4.116,4.196,0.04,
4.076,4.18,0.16,
4.116,4.196,0.04,
4.092,4.188,0.04,
4.108,4.132,0.16,
4.092,4.132,0.16,
4.164,4.164,0.04,
4.164,4.164,0.04,
4.148,4.14,0.16,
4.156,4.164,0.04,
4.076,4.148,0.16,
4.076,4.132,0.04,
4.108,4.196,0.16,
4.108,4.196,0.04,
4.076,4.148,0.16,
4.108,4.196,0.16,
4.084,3.42,0.04,
4.068,4.036,0.04,
4.164,4.204,0.16,
4.164,4.172,0.16,
4.092,4.148,0.04,
4.164,4.164,0.12,
2.924,4.148,0.04,
3.924,4.124,0.16,
4.148,4.196,0.04,
4.116,4.196,0.04,
4.084,4.172,0.16,
4.092,4.196,0.16,
4.116,4.164,0.04,
4.06,4.188,0.04,
4.164,4.132,0.16,
4.164,4.14,0.04,
4.124,4.164,0.16,
4.156,4.148,0.04,
4.132,4.164,0.16,
4.156,4.164,0.16,
4.076,4.148,0.04,
4.092,4.148,0.04,
4.108,4.164,0.16,
4.092,4.148,0.16,
4.108,4.172,0.04,
4.076,4.164,0.04,
4.108,4.148,0.16,
4.092,4.164,0.04,
4.108,4.148,0.16,
4.092,4.148,0.12,
4.116,4.164,0.04,
4.116,4.148,0.12,
4.092,4.164,0.04,
4.092,4.148,0.04,
4.116,4.196,0.16,
4.092,4.196,0.16,
4.116,4.18,0.04,
4.092,4.188,0.16,
4.116,4.172,0.04,
4.092,4.188,0.04,
4.164,4.132,0.16,
4.164,4.14,0.04,
4.132,4.164,0.16,
4.156,4.164,0.12,
4.132,4.14,0.04,
4.156,4.148,0.12,
4.076,4.164,0.04,
4.076,4.148,0.04,
4.108,4.172,0.16,
4.108,4.164,0.16,
4.076,4.148,0.04,
4.108,4.164,0.04,
4.092,4.148,0.16,
4.092,4.164,0.04,
4.116,4.148,0.16,
4.092,4.164,0.04,
4.116,4.148,0.16,
4.092,4.148,0.16,
4.116,4.164,0.04,
4.092,4.148,0.12,
4.116,4.196,0.04,
4.092,4.196,0.12,
4.116,4.172,0.04,
4.092,4.164,0.16,
4.116,4.196,0.04,
4.092,4.188,0.12,
4.164,4.132,0.04,
4.132,4.14,0.04,
4.164,4.164,0.16,
4.156,4.14,0.04,
4.132,4.164,0.16,
4.156,4.164,0.04,
4.076,4.148,0.16,
4.076,4.148,0.04,
4.108,4.164,0.16,
4.092,4.164,0.04,
4.108,4.148,0.16,
4.108,4.148,0.12,
4.076,4.164,0.04,
4.108,4.164,0.12,
4.084,4.148,0.04,
4.108,4.148,0.04,
4.084,4.164,0.12,
4.092,4.14,0.04,
4.108,4.18,0.16,
4.108,4.18,0.04,
4.084,4.196,0.16,
4.092,4.196,0.04,
4.108,4.18,0.16,
4.084,4.18,0.04,
4.148,4.196,0.16,
4.14,4.188,0.04,
4.164,4.148,0.12,
4.164,4.164,0.16,
4.148,4.148,0.04,
4.132,4.148,0.04,
4.164,4.164,0.16,
4.156,4.164,0.04,
4.092,4.148,0.16,
4.108,4.148,0.04,
4.092,4.164,0.16,
4.092,4.164,0.04,
4.116,4.148,0.16,
4.092,4.164,0.04,
4.116,4.148,0.16,
4.076,4.164,0.04,
4.108,4.148,0.16,
4.108,4.164,0.16,
4.076,4.148,0.04,
4.108,4.148,0.16,
4.076,4.196,0.04,
4.092,4.196,0.04,
4.108,4.172,0.12,
4.108,4.196,0.04,
4.092,4.172,0.16,
4.076,4.188,0.04,
4.164,4.132,0.16,
4.172,4.132,0.04,
4.14,4.164,0.16,
4.164,4.164,0.04,
4.14,4.148,0.16,
4.164,4.164,0.04,
4.084,4.148,0.16,
4.076,4.164,0.04,
