Measurements/Power Payload/Metingen 1/Payload 1 100.csv

CH1,CH2,CH3,Start,Increment,
Volt,Volt,Volt,-2.9975,0.005
4.092,4.148,0.04,
4.108,4.164,0.16,
4.076,4.148,0.04,
4.108,4.164,0.16,
4.108,4.148,0.16,
4.076,4.196,0.04,
4.108,4.148,0.04,
4.076,4.164,0.16,
4.108,4.164,0.04,
4.084,4.148,0.16,
4.092,4.164,0.04,
4.164,4.148,0.16,
4.084,4.148,0.12,
4.108,4.164,0.04,
4.108,4.164,0.16,
4.076,4.148,0.04,
4.108,4.148,0.04,
4.076,4.164,0.16,
4.092,4.148,0.16,
4.108,4.164,0.04,
4.092,4.148,0.04,
4.108,4.164,0.16,
4.076,4.148,0.04,
4.108,4.164,0.16,
4.108,4.148,0.12,
4.084,4.196,0.04,
4.092,4.18,0.04,
4.108,4.196,0.16,
4.092,4.188,0.04,
4.108,4.172,0.16,
4.084,4.188,0.04,
4.164,4.132,0.16,
4.132,4.164,0.16,
4.164,4.132,0.04,
4.156,4.148,0.16,
4.124,4.164,0.04,
4.156,4.148,0.04,
4.076,4.164,0.16,
4.108,4.148,0.12,
4.068,4.164,0.04,
4.108,4.164,0.04,
4.084,4.148,0.12,
4.084,4.164,0.04,
4.108,4.148,0.16,
4.108,4.148,0.04,
4.076,4.164,0.16,
4.108,4.148,0.04,
4.084,4.164,0.16,
4.108,4.148,0.16,
4.076,4.164,0.04,
4.092,4.148,0.12,
4.108,4.196,0.04,
4.108,4.18,0.04,
4.084,4.196,0.16,
4.092,4.188,0.12,
4.108,4.164,0.04,
4.092,4.188,0.04,
4.164,4.14,0.12,
4.164,4.164,0.04,
4.14,4.132,0.16,
4.132,4.148,0.12,
4.164,4.164,0.04,
4.156,4.148,0.04,
4.076,4.164,0.16,
4.076,4.164,0.04,
4.108,4.148,0.16,
4.092,4.164,0.04,
4.108,4.148,0.16,
4.108,4.164,0.12,
4.084,4.148,0.04,
4.108,4.148,0.04,
4.092,4.164,0.16,
4.108,4.164,0.12,
4.084,4.132,0.04,
4.108,4.148,0.04,
4.076,4.164,0.16,
4.092,4.148,0.16,
4.108,4.196,0.04,
4.108,4.18,0.04,
4.076,4.196,0.16,
4.108,4.188,0.04,
4.076,4.164,0.16,
4.084,4.188,0.04,
4.164,4.132,0.16,
4.132,4.132,0.12,
4.164,4.164,0.04,
4.132,4.164,0.04,
4.156,4.14,0.16,
4.156,4.148,0.04,
4.076,4.164,0.16,
4.108,4.164,0.04,
4.076,4.148,0.16,
4.076,4.164,0.04,
4.108,4.148,0.16,
4.108,4.148,0.04,
4.076,4.164,0.16,
4.108,4.164,0.04,
4.076,4.148,0.16,
4.108,4.148,0.04,
4.084,4.164,0.16,
4.092,4.148,0.04,
4.108,4.18,0.12,
4.076,4.196,0.16,
4.108,4.172,0.04,
4.108,4.196,0.04,
4.076,4.172,0.16,
4.092,4.188,0.04,
4.132,4.164,0.16,
4.14,4.188,0.04,
4.164,4.132,0.16,
4.164,4.148,0.12,
4.132,4.164,0.04,
4.132,4.164,0.04,
4.156,4.14,0.16,
4.14,4.148,0.04,
4.068,4.164,0.16,
4.108,4.164,0.04,
4.076,4.148,0.16,
4.108,4.164,0.04,
4.068,4.14,0.16,
4.092,4.148,0.04,
4.116,4.164,0.16,
4.108,4.164,0.16,
4.076,4.132,0.04,
4.108,4.148,0.04,
4.068,4.164,0.12,
4.108,4.148,0.04,
4.076,4.196,0.16,
4.108,4.196,0.04,
4.068,4.172,0.16,
4.092,4.188,0.16,
4.108,4.164,0.04,
4.084,4.188,0.04,
4.164,4.14,0.16,
4.164,4.132,0.16,
4.14,4.164,0.04,
4.156,4.132,0.16,
4.132,4.164,0.04,
4.156,4.164,0.04,
4.084,4.14,0.16,
4.076,4.164,0.04,
4.108,4.148,0.16,
4.076,4.148,0.16,
4.116,4.172,0.04,
4.116,4.164,0.04,
4.084,4.148,0.12,
4.116,4.148,0.04,
4.092,4.172,0.16,
4.116,4.164,0.04,
4.076,4.148,0.16,
4.092,4.148,0.16,
4.116,4.164,0.04,
4.092,4.148,0.04,
4.116,4.196,0.16,
4.084,4.196,0.12,
4.116,4.18,0.04,
4.092,4.196,0.04,
4.116,4.172,0.16,
4.092,4.188,0.04,
4.172,4.132,0.16,
4.164,4.14,0.04,
4.148,4.164,0.16,
4.164,4.148,0.04,
4.132,4.164,0.16,
4.156,4.164,0.04,
4.076,4.148,0.16,
4.084,4.164,0.04,
4.108,4.14,0.16,
4.108,4.164,0.16,
4.084,4.148,0.04,
4.108,4.148,0.04,
4.084,4.164,0.16,
4.108,4.164,0.04,
4.084,4.148,0.16,
4.108,4.148,0.12,
4.084,4.164,0.04,
4.108,4.148,0.04,
4.076,4.164,0.16,
4.108,4.132,0.04,
4.076,4.196,0.16,
4.108,4.196,0.12,
4.084,4.172,0.04,
4.076,4.188,0.04,
4.108,4.172,0.16,
4.076,4.188,0.04,
4.164,4.132,0.16,
4.164,4.132,0.04,
4.132,4.164,0.16,
4.156,4.164,0.04,
4.124,4.14,0.16,
4.156,4.148,0.04,
4.076,4.164,0.16,
4.068,4.164,0.16,
4.108,4.14,0.04,
4.108,4.164,0.12,
4.084,4.148,0.04,
4.108,4.164,0.04,
4.084,4.148,0.16,
4.108,4.148,0.04,
4.084,4.164,0.16,
4.108,4.148,0.04,
4.076,4.164,0.12,
4.108,4.164,0.12,
4.076,4.14,0.04,
4.108,4.148,0.04,
4.092,4.196,0.16,
4.092,4.196,0.04,
4.108,4.172,0.16,
4.108,4.188,0.04,
4.084,4.172,0.16,
4.092,4.188,0.04,
4.164,4.132,0.16,
4.164,4.148,0.04,
4.132,4.164,0.16,
4.156,4.164,0.04,
4.132,4.148,0.16,
4.156,4.148,0.04,
4.076,4.164,0.16,
4.108,4.148,0.16,
4.076,4.164,0.04,
4.108,4.164,0.04,
4.084,4.148,0.16,
4.108,4.148,0.04,
4.076,4.164,0.16,
4.108,4.164,0.04,
4.084,4.148,0.16,
4.108,4.164,0.12,
4.076,4.14,0.04,
4.108,4.148,0.16,
4.076,4.188,0.04,
4.108,4.196,0.04,
4.084,4.172,0.16,
4.108,4.196,0.04,
4.068,4.172,0.16,
4.084,4.188,0.16,
4.14,4.164,0.04,
4.132,4.188,0.12,
4.164,4.132,0.04,
4.156,4.164,0.04,
4.124,4.148,0.16,
4.156,4.148,0.04,
4.132,4.164,0.12,
4.14,4.164,0.04,
4.068,4.148,0.16,
4.108,4.164,0.16,
4.076,4.148,0.04,
4.092,4.148,0.16,
4.108,4.164,0.04,
4.108,4.164,0.04,
4.084,4.14,0.16,
4.092,4.148,0.16,
4.116,4.164,0.04,
4.108,4.148,0.16,
4.084,4.164,0.04,
4.108,4.148,0.04,
4.084,4.196,0.16,
4.108,4.196,0.04,
4.076,4.18,0.12,
4.108,4.196,0.04,
4.084,4.172,0.16,
4.092,4.188,0.04,
4.164,4.14,0.16,
4.164,4.132,0.04,
4.132,4.164,0.16,
4.156,4.148,0.04,
4.132,4.164,0.16,
4.156,4.164,0.04,
4.084,4.14,0.16,
4.076,4.148,0.16,
4.108,4.164,0.04,
4.092,4.164,0.16,
4.108,4.148,0.04,
4.108,4.164,0.04,
4.084,4.14,0.16,
4.108,4.164,0.04,
4.076,4.148,0.16,
4.108,4.164,0.12,
4.084,4.148,0.04,
4.108,4.148,0.16,
4.076,4.164,0.04,
4.108,4.14,0.12,
4.092,4.196,0.04,
4.092,4.196,0.04,
4.108,4.18,0.16,
4.108,4.188,0.04,
4.076,4.172,0.16,
4.06,4.188,0.04,
4.164,4.132,0.16,
4.164,4.148,0.04,
4.14,4.164,0.12,
4.156,4.164,0.04,
4.132,4.14,0.16,
4.156,4.164,0.12,
4.084,4.148,0.04,
4.084,4.164,0.04,
4.108,4.148,0.16,
4.108,4.148,0.04,
4.076,4.164,0.16,
4.092,4.164,0.12,
4.108,4.148,0.04,
4.108,4.164,0.16,
4.076,4.148,0.04,
4.108,4.164,0.04,
4.084,4.148,0.16,
4.108,4.164,0.12,
4.076,4.148,0.04,
4.108,4.148,0.04,
4.076,4.196,0.16,
4.108,4.196,0.16,
4.092,4.172,0.04,
4.092,4.188,0.04,
4.116,4.164,0.16,
4.076,4.188,0.12,
4.164,4.132,0.04,
4.164,4.164,0.16,
4.14,4.14,0.04,
4.132,4.148,0.04,
4.156,4.164,0.12,
4.148,4.164,0.16,
4.068,4.148,0.04,
4.108,4.164,0.04,
4.084,4.148,0.16,
4.108,4.164,0.04,
4.084,4.148,0.16,
4.108,4.164,0.04,
4.084,4.148,0.16,
4.108,4.148,0.04,
4.084,4.164,0.16,
4.108,4.164,0.04,
4.076,4.148,0.16,
4.108,4.148,0.04,
4.092,4.196,0.16,
4.108,4.196,0.04,
4.076,4.132,0.16,
4.092,4.148,0.04,
4.116,4.196,0.16,
4.092,4.196,0.04,
4.164,4.18,0.16,
4.164,4.196,0.04,
4.084,4.14,0.16,
4.076,4.196,0.04,
4.164,4.148,0.16,
4.164,3.42,0.04,
4.132,4.204,0.16,
4.164,4.196,0.04,
4.084,4.156,0.16,
4.164,4.148,0.16,
4.084,4.212,0.04,
4.172,4.196,0.04,
2.932,3.46,0.16,
4.14,4.188,0.04,
4.108,4.156,0.16,
4.092,4.172,0.12,
4.172,4.148,0.04,
4.164,4.148,0.04,
2.98,4.172,0.16,
4.132,4.148,0.04,
4.1,4.188,0.16,
4.116,4.18,0.04,
4.092,4.196,0.16,
4.116,4.196,0.04,
4.092,4.172,0.16,
4.092,4.188,0.16,
4.14,4.164,0.04,
4.164,4.188,0.16,
4.132,4.132,0.04,
4.156,4.164,0.04,
4.124,4.14,0.16,
4.132,4.164,0.16,
4.156,4.148,0.04,
4.156,4.164,0.04,
4.076,4.14,0.16,
4.108,4.148,0.04,
4.076,4.164,0.16,
4.108,4.164,0.12,
4.092,4.148,0.04,
4.108,4.148,0.16,
4.084,4.164,0.04,
4.108,4.164,0.04,
4.092,4.148,0.16,
4.108,4.164,0.04,
4.076,4.148,0.16,
4.108,4.148,0.12,
4.076,4.196,0.04,
4.092,4.196,0.04,
4.116,4.18,3.36,
4.108,4.196,3.44,
4.076,4.172,3.32,
4.084,4.188,3.44,
4.164,4.132,3.36,
4.164,4.132,3.44,
4.148,4.164,3.32,
4.156,4.164,3.44,
4.132,4.132,3.32,
4.156,4.148,3.44,
4.076,4.164,3.36,
4.108,4.148,3.44,
4.068,4.164,3.32,
4.108,4.164,3.36,
4.076,4.132,3.44,
4.092,4.164,3.44,
4.108,4.148,3.36,
4.108,4.164,3.44,
4.076,4.14,3.32,
4.108,4.148,3.36,
4.068,4.164,3.44,
4.092,4.164,3.44,
4.108,4.14,3.36,
4.108,4.148,3.36,
4.076,4.196,3.44,
4.092,4.196,3.36,
4.108,4.172,3.44,
4.108,4.196,3.44,
4.068,4.172,3.36,
4.076,4.188,3.36,
4.164,4.132,3.44,
4.164,4.132,3.44,
4.132,4.164,3.36,
4.164,4.148,3.44,
4.132,4.164,3.32,
4.156,4.164,3.36,
4.084,4.148,3.44,
4.076,4.164,3.36,
4.108,4.14,3.44,
4.108,4.148,3.44,
4.076,4.164,3.32,
4.108,4.148,3.36,
4.076,4.164,3.44,
4.108,4.164,3.44,
4.076,4.148,3.32,
4.092,4.164,3.44,
4.108,4.148,3.32,
4.108,4.164,3.44,
4.092,4.14,3.36,
4.108,4.164,3.36,
4.076,4.148,3.44,
4.092,4.148,3.44,
4.108,4.164,3.32,
4.108,4.164,3.36,
4.076,4.148,3.44,
4.092,4.148,3.32,
4.108,4.164,3.44,
4.108,4.164,3.36,
4.084,4.148,3.44,
4.092,4.148,3.44,
4.108,4.164,3.32,
4.108,4.148,3.36,
4.076,4.164,3.44,
4.108,4.164,3.44,
4.092,4.148,3.36,
4.076,4.164,3.44,
4.108,4.148,3.32,
4.092,4.148,3.36,
4.108,4.164,3.44,
4.108,4.148,3.36,
4.076,4.164,3.44,
4.108,4.148,3.36,
4.076,4.164,3.44,
4.108,4.148,3.44,
4.076,4.164,3.36,
4.076,4.164,3.36,
4.108,4.148,3.44,
4.108,4.164,3.36,
4.084,4.148,3.44,
4.108,4.148,3.44,
4.084,4.164,3.32,
4.108,4.164,3.44,
4.084,4.148,3.32,
4.108,4.148,3.44,
4.092,4.164,3.36,
4.076,4.148,3.36,
4.108,4.164,3.44,
4.108,4.164,3.44,
4.084,4.14,3.32,
4.092,4.148,3.36,
4.108,4.164,3.44,
4.108,4.164,3.36,
4.084,4.148,3.44,
4.108,4.148,3.44,
4.076,4.164,3.32,
4.092,4.164,3.36,
4.108,4.148,3.44,
4.108,4.148,3.44,
4.084,4.164,3.36,
4.092,4.148,3.44,
4.108,4.164,3.36,
4.108,4.164,3.36,
4.076,4.148,3.44,
4.108,4.164,3.44,
4.084,4.116,3.36,
4.092,4.164,3.44,
4.108,4.148,3.36,
4.092,4.164,3.32,
4.108,4.124,3.44,
4.108,4.108,3.36,
4.036,4.172,3.44,
4.092,4.172,3.44,
4.108,4.076,3.36,
4.108,4.14,3.44,
4.044,4.22,3.32,
4.028,4.212,3.44,
4.116,4.18,3.32,
4.116,4.196,3.36,
4.004,4.18,3.44,
4.068,4.196,3.44,
4.196,4.18,3.36,
4.188,4.196,3.32,
4.156,4.18,3.44,
4.172,4.196,3.36,
4.156,4.18,3.44,
4.156,4.196,3.36,
4.172,4.124,3.44,
4.172,4.116,3.36,
4.148,4.164,3.44,
4.172,4.148,3.36,
4.148,4.164,3.44,
4.172,4.164,3.44,
4.06,4.148,3.32,
4.044,4.084,3.36,
4.108,4.22,3.44,
4.108,4.22,3.44,
4.084,4.18,3.36,
4.108,4.196,3.36,
4.092,4.18,3.44,
3.98,4.196,3.36,
4.196,4.172,3.44,
4.188,4.196,3.44,
4.148,4.18,3.32,
4.156,4.18,3.44,
4.172,4.196,3.36,
4.172,4.18,3.36,
4.14,4.196,3.44,
4.172,4.18,3.44,
4.14,4.196,3.36,
4.164,4.18,3.36,
4.156,4.196,3.44,
4.172,4.18,3.36,
4.148,4.212,3.44,
4.172,4.212,3.36,
4.156,4.18,3.44,
4.172,4.196,3.44,
4.156,4.18,3.32,
4.172,4.18,3.36,
4.148,4.196,3.44,
4.172,4.196,3.44,
4.156,4.18,3.36,
4.172,4.196,3.44,
4.156,4.18,3.32,
4.172,4.18,3.36,
4.156,4.196,3.44,
4.172,4.196,3.36,
4.148,4.18,3.44,
4.172,4.196,3.36,
4.156,4.18,3.44,
4.172,4.196,3.36,
4.156,4.18,3.44,
4.172,4.196,3.44,
4.156,4.116,3.36,
4.156,4.108,3.36,
4.172,4.164,3.44,
4.172,4.108,3.44,
4.156,4.172,3.32,
4.172,4.148,3.36,
4.044,4.164,3.44,
4.044,4.148,3.44,
4.108,4.164,3.36,
4.028,4.164,3.36,
4.132,4.148,3.44,
4.116,4.164,3.44,
4.1,4.148,3.36,
4.092,4.148,3.44,
4.116,4.172,3.36,
4.092,4.156,3.44,
4.116,4.172,3.36,
4.092,4.14,3.36,
4.116,4.188,3.44,
4.092,4.148,3.36,
4.116,4.164,3.44,
4.1,4.164,3.36,
4.116,4.148,3.44,
4.14,4.172,3.36,
4.076,4.132,3.44,
4.116,4.164,3.36,
4.076,4.132,3.44,
4.116,4.108,3.36,
4.084,4.172,3.44,
4.116,4.172,3.36,
4.06,4.124,3.44,
4.116,4.172,3.44,
4.068,4.124,3.32,
4.036,4.172,3.36,
4.116,4.132,3.44,
4.116,4.172,3.36,
4.06,4.14,3.44,
4.116,4.14,3.44,
4.06,4.172,3.32,
4.116,4.172,3.44,
4.06,4.148,3.32,
4.116,4.172,3.36,
4.068,4.148,3.44,
4.068,4.172,3.44,
4.132,4.116,3.36,
4.092,4.124,3.44,
4.132,4.196,3.32,
4.116,4.172,3.44,
4.092,4.148,3.32,
4.116,4.172,3.36,
4.044,4.148,3.44,
4.068,4.148,3.36,
4.172,4.172,3.44,
4.116,4.172,3.44,
4.092,4.148,3.36,
4.116,4.148,3.44,
4.092,4.172,3.36,
4.116,4.164,3.44,
4.092,4.148,3.32,
4.116,4.148,3.44,
4.092,4.172,3.36,
4.1,4.148,3.36,
4.116,4.172,3.44,
4.116,4.156,3.36,
4.1,4.172,3.44,
4.116,4.156,3.44,
4.092,4.196,3.32,
4.116,4.172,3.44,
4.1,4.156,3.36,
4.116,4.156,3.44,
4.1,4.172,3.36,
4.1,4.172,3.44,
4.164,4.148,3.36,
4.132,4.172,3.44,
4.1,4.148,3.32,
4.116,4.172,3.44,
4.092,4.148,3.36,
4.116,4.172,3.44,
4.1,4.148,3.32,
4.116,4.148,3.44,
4.1,4.172,3.32,
4.116,4.172,3.44,
4.092,4.148,3.32,
4.116,4.156,3.36,
4.092,4.172,3.44,
4.116,4.148,3.36,
4.092,4.172,3.44,
4.116,4.196,3.36,
4.092,4.1,3.44,
4.116,4.116,3.36,
4.1,4.156,3.44,
4.1,4.156,3.44,
4.116,4.124,3.36,
4.148,4.156,3.44,
4.02,4.132,3.36,
4.052,4.156,3.36,
4.084,4.132,3.44,
4.084,4.156,3.36,
4.06,4.132,3.44,
4.068,4.156,3.36,
4.092,4.132,3.44,
4.068,4.156,3.44,
4.1,4.124,3.36,
4.052,4.132,3.36,
4.1,4.156,3.44,
4.084,4.132,3.44,
4.068,4.156,3.32,
4.084,4.156,3.36,
4.052,4.132,3.44,
4.068,4.156,3.36,
4.084,4.132,3.44,
4.068,4.132,3.44,
4.084,4.156,3.36,
4.084,4.132,3.44,
4.06,4.164,3.32,
4.084,4.132,3.36,
4.068,4.156,3.44,
4.084,4.132,3.36,
4.06,4.156,3.44,
4.068,4.156,3.4,
4.1,4.132,3.44,
4.068,4.196,3.4,
4.1,3.428,3.44,
4.068,3.532,3.4,
4.1,3.612,3.44,
4.092,3.596,3.44,
4.068,3.636,3.4,
4.14,3.62,3.4,
2.924,3.652,3.44,
3.028,3.628,3.4,
3.108,3.652,3.44,
3.092,3.628,3.4,
3.14,3.652,3.48,
3.14,3.652,3.4,
3.116,3.628,3.44,
3.156,3.652,3.44,
3.124,3.628,3.36,
3.132,3.652,3.36,
3.164,3.628,3.44,
3.156,3.62,3.44,
3.14,4.372,3.36,
3.14,4.268,3.36,
3.156,4.18,3.44,
3.124,4.196,3.44,
3.164,4.164,3.32,
3.124,4.156,3.44,
4.324,4.212,3.32,
4.212,4.212,3.32,
4.132,4.148,3.44,
4.14,4.148,3.44,
4.1,4.196,3.32,
4.1,4.196,3.36,
4.172,4.18,3.44,
4.164,4.196,3.4,
4.092,4.14,3.44,
4.076,4.196,3.4,
4.172,3.412,3.44,
4.164,3.468,3.44,
4.148,3.58,3.4,
4.164,3.564,3.36,
4.084,3.628,3.44,
4.164,3.636,3.44,
2.916,3.588,3.32,
2.948,3.9,3.44,
3.092,4.356,3.36,
3.06,4.228,3.36,
3.132,4.172,3.44,
3.052,4.172,3.44,
3.14,4.22,3.32,
3.612,4.196,3.36,
4.3,4.148,3.44,
4.164,4.148,3.44,
4.116,4.164,3.32,
4.1,4.132,3.36,
4.188,4.196,3.44,
4.164,4.196,3.36,
4.084,4.18,3.44,
4.108,4.18,3.44,
4.092,4.196,3.36,
4.068,4.196,3.44,
4.172,4.172,3.36,
4.172,4.172,3.32,
4.148,4.196,3.44,
4.164,4.172,3.36,
4.132,4.196,3.44,
4.164,4.188,3.36,
4.132,4.132,3.44,
4.132,4.1,3.44,
4.164,4.188,3.32,
4.132,3.404,3.44,
4.164,4.22,3.36,
4.164,4.212,3.36,
4.076,4.18,3.44,
4.028,4.196,3.44,
4.156,4.172,3.32,
2.908,4.188,3.44,
4.172,4.172,3.36,
4.18,4.172,3.44,
4.148,4.188,3.36,
4.164,4.188,3.36,
4.132,4.164,3.44,
4.156,4.172,3.44,
4.132,4.188,3.32,
4.156,4.188,3.36,
4.132,4.164,3.44,
4.132,4.188,3.36,
4.156,4.164,3.44,
4.132,4.188,3.36,
4.156,4.164,3.44,
4.156,4.188,3.44,
4.132,4.132,3.32,
4.156,4.14,3.36,
4.132,4.164,3.44,
4.156,4.148,3.44,
4.124,4.196,3.4,
4.156,4.196,3.44,
4.076,3.404,0.12,
4.076,3.436,0.16,
4.108,3.58,0.04,
4.076,3.564,0.16,
4.164,3.636,0.04,
4.164,3.604,0.12,
2.908,4.34,0.04,
2.916,4.244,0.12,
3.084,4.164,0.04,
3.044,4.188,0.04,
3.148,4.156,0.16,
3.092,4.172,0.04,
4.284,4.148,0.16,
4.196,4.148,0.12,
4.116,4.196,0.04,
4.132,4.196,0.04,
4.1,4.18,0.16,
4.116,4.164,0.04,
4.092,4.196,0.16,
4.092,4.188,0.04,
4.164,4.132,0.16,
4.164,4.14,0.04,
4.132,4.164,0.16,
4.132,4.132,0.16,
4.156,4.196,0.08,
4.156,4.196,0.04,
4.076,3.42,0.16,
4.076,3.484,0.04,
4.108,4.292,0.16,
4.076,4.3,0.04,
4.164,4.196,0.16,
4.156,4.204,0.16,
2.916,4.164,0.04,
2.972,4.172,0.16,
4.228,4.148,0.04,
4.244,4.148,0.04,
4.132,4.172,0.16,
4.148,4.148,0.12,
4.1,4.164,0.04,
4.116,4.148,0.12,
4.092,4.196,0.04,
4.092,4.196,0.04,
4.116,4.172,0.12,
4.108,4.188,0.04,
4.084,4.172,0.16,
4.084,4.188,0.04,
4.164,4.132,0.16,
4.164,4.164,0.12,
4.132,4.132,0.04,
4.156,4.148,0.04,
4.132,4.196,0.16,
4.148,4.164,0.04,
4.076,4.132,0.16,
4.108,4.164,0.04,
4.076,4.14,0.16,
4.092,4.132,0.04,
4.164,4.196,0.16,
4.108,4.196,0.04,
4.068,4.164,0.16,
4.108,4.188,0.04,
4.084,4.172,0.16,
4.06,4.188,0.12,
4.164,4.172,0.04,
4.164,4.188,0.12,
4.124,4.172,0.04,
4.156,4.164,0.12,
4.132,4.188,0.04,
4.132,4.188,0.16,
4.156,4.132,0.04,
4.156,4.132,0.04,
4.124,4.196,0.16,
4.132,3.42,0.16,
4.156,4.196,0.04,
4.156,4.156,0.04,
4.076,4.204,0.16,
4.06,4.212,0.04,
4.164,4.172,0.16,
2.924,3.404,0.12,
4.14,4.228,0.04,
4.092,4.22,0.04,
4.172,4.164,0.16,
4.172,4.172,0.04,
4.132,4.148,0.16,
2.908,4.164,0.04,
4.172,4.148,0.16,
4.164,4.148,0.04,
4.116,4.164,0.16,
4.116,4.148,0.16,
4.092,4.164,0.04,
4.084,4.148,0.12,
4.116,4.196,0.04,
4.108,4.196,0.16,
4.084,4.18,0.04,
4.084,4.188,0.04,
4.108,4.172,0.16,
4.076,4.188,0.04,
4.164,4.132,0.16,
4.164,4.132,0.04,
4.132,4.164,0.16,
4.156,4.148,0.04,
4.132,4.164,0.16,
4.156,4.148,0.16,
4.084,4.172,0.04,
4.068,4.148,0.04,
4.108,4.172,0.12,
4.092,4.164,0.04,
4.116,4.148,0.16,
4.092,4.164,0.04,
4.116,4.124,0.16,
4.092,4.148,0.12,
4.116,4.172,0.04,
4.092,4.164,0.04,
4.116,4.148,0.16,
4.116,4.148,0.04,
4.06,4.172,0.16,
4.092,4.148,0.04,
4.116,4.204,0.12,
4.116,4.196,0.12,
4.092,4.18,0.04,
4.116,4.172,0.16,
4.092,4.188,0.04,
4.092,4.188,0.04,
4.172,4.132,0.16,
4.164,4.164,0.04,
4.132,4.132,0.16,
4.132,4.148,0.16,
4.156,4.164,0.04,
4.156,4.164,0.16,
4.076,4.148,0.04,
4.076,4.148,0.04,
4.108,4.164,0.16,
4.108,4.148,0.12,
4.076,4.164,0.04,
4.108,4.148,0.04,
4.076,4.164,0.16,
4.108,4.148,0.04,
4.076,4.164,0.16,
4.108,4.148,0.12,
4.076,4.164,0.04,
4.108,4.148,0.04,
4.076,4.164,0.16,
4.092,4.148,0.16,
4.108,4.196,0.04,
4.108,4.18,0.12,
4.076,4.196,0.04,
4.108,4.188,0.16,
4.076,4.164,0.04,
4.092,4.188,0.12,
4.164,4.132,0.04,
4.164,4.14,0.04,
4.132,4.164,0.12,
4.156,4.148,0.04,
4.124,4.164,0.16,
4.156,4.148,0.04,
4.076,4.164,0.16,
4.076,4.148,0.04,
4.108,4.164,0.16,
4.108,4.148,0.04,
4.084,4.164,0.16,
4.108,4.148,0.12,
4.076,4.164,0.04,
4.108,4.148,0.04,
4.076,4.164,0.16,
4.092,4.148,0.04,
4.108,4.164,0.16,
4.108,4.148,0.16,
4.076,4.164,0.04,
4.092,4.148,0.04,
4.108,4.164,0.16,
4.108,4.148,0.16,
4.076,4.164,0.04,
4.092,4.148,0.12,
4.108,4.196,0.04,
4.092,4.196,0.04,
4.108,4.132,0.16,
4.092,4.148,0.16,
4.116,4.164,0.04,
4.092,4.148,0.04,
4.164,4.164,0.16,
4.164,4.148,0.04,
4.076,4.164,0.16,
4.108,4.148,0.04,
4.076,4.164,0.16,
4.108,4.148,0.16,
4.084,4.164,0.04,
4.108,4.148,0.04,
4.084,4.164,0.16,
4.108,4.164,0.12,
4.076,4.148,0.04,
4.108,4.148,0.16,
4.084,4.164,0.04,
4.108,4.148,0.16,
4.084,4.164,0.04,
4.108,4.148,0.04,
4.076,4.164,0.16,
4.092,4.148,0.04,
4.108,4.164,0.16,
4.108,4.148,0.04,
4.084,4.164,0.16,
4.108,4.148,0.04,
4.076,4.164,0.16,
4.108,4.148,0.04,
4.076,4.164,0.16,
4.092,4.148,0.12,
4.108,4.164,0.04,
4.076,4.148,0.04,
4.108,4.164,0.12,
4.108,4.148,0.04,
4.076,4.164,0.16,
4.108,4.148,0.12,
4.076,4.164,0.04,
4.092,4.148,0.04,
4.108,4.164,0.12,
4.092,4.148,0.12,
4.108,4.164,0.04,
4.084,4.164,0.16,
4.108,4.116,0.04,
4.108,4.148,0.04,
4.076,4.164,0.16,
4.092,4.148,0.04,
4.108,4.164,0.16,
4.108,4.148,0.04,
4.036,4.172,0.16,
4.108,4.164,0.16,
4.076,4.132,0.04,
4.076,4.164,0.04,
4.108,4.14,0.16,
4.108,4.148,0.04,
4.076,4.164,0.16,
4.108,4.148,0.04,
4.076,4.164,0.16,
4.108,4.148,0.04,
4.076,4.164,0.16,
4.108,4.164,0.12,
4.076,4.14,0.04,
4.092,4.164,0.04,
4.108,4.148,0.16,
4.108,4.148,0.12,
4.076,4.164,0.04,
4.108,4.148,0.04,
4.084,4.164,0.16,
4.108,4.164,0.04,
4.076,4.148,0.16,
4.108,4.148,0.12,
4.076,4.164,0.04,
4.092,4.148,0.12,
4.108,4.164,0.04,
4.108,4.148,0.04,
4.076,4.164,0.16,
4.108,4.148,0.04,
4.076,4.164,0.16,
4.092,4.164,0.04,
4.108,4.14,0.16,
4.076,4.164,0.04,
4.108,4.148,0.16,
4.084,4.148,0.04,
4.108,4.164,0.12,
4.108,4.14,0.16,
4.076,4.164,0.04,
4.108,4.148,0.16,
4.076,4.164,0.04,
4.092,4.148,0.16,
4.108,4.164,0.04,
4.108,4.148,0.12,
4.076,4.164,0.04,
4.084,4.148,0.12,
4.108,4.164,0.04,
4.108,4.14,0.04,
4.076,4.164,0.16,
4.092,4.148,0.04,
4.108,4.196,0.12,
4.092,4.196,0.12,
4.108,4.172,0.04,
4.084,4.188,0.12,
4.108,4.164,0.04,
4.092,4.188,0.04,
4.164,4.132,0.16,
4.164,4.132,0.04,
4.132,4.164,0.16,
4.156,4.148,0.04,
4.132,4.164,0.16,
4.156,4.148,0.16,
4.076,4.164,0.04,
4.076,4.148,0.04,
4.108,4.164,0.16,
4.092,4.148,0.16,
4.108,4.164,0.04,
4.108,4.148,0.04,
4.076,4.164,0.16,
4.092,4.148,0.12,
4.108,4.164,0.04,
4.092,4.164,0.16,
4.108,4.132,0.04,
4.108,4.164,0.12,
4.084,4.148,0.04,
4.076,4.148,0.12,
4.108,4.196,0.04,
4.068,4.172,0.04,
4.116,4.196,0.16,
4.108,4.18,0.04,
4.084,4.196,0.16,
4.084,4.196,0.04,
4.164,4.14,0.16,
4.132,4.148,0.04,
4.164,4.164,0.16,
4.132,4.148,0.16,
4.164,4.164,0.04,
4.164,4.148,0.04,
4.084,4.172,0.16,
4.084,4.148,0.04,
4.116,4.164,0.16,
4.092,4.148,0.04,
4.116,4.172,0.16,
4.092,4.148,0.04,
4.116,4.164,0.16,
4.092,4.148,0.12,
4.116,4.164,0.04,
4.092,4.164,0.12,
4.116,4.14,0.04,
4.116,4.148,0.04,
4.076,4.196,0.16,
4.116,4.18,0.04,
4.092,4.196,0.12,
4.108,4.188,0.04,
4.084,4.164,0.16,
4.084,4.188,0.04,
4.156,4.172,0.16,
4.164,4.18,0.04,
4.132,4.132,0.12,
4.124,4.132,0.04,
4.164,4.164,0.16,
4.132,4.164,0.04,
4.156,4.132,0.16,
4.148,4.164,0.04,
4.076,4.148,0.16,
4.076,4.148,0.04,
4.108,4.164,0.16,
4.108,4.148,0.04,
4.076,4.164,0.16,
4.092,4.148,0.12,
4.108,4.164,0.04,
4.108,4.148,0.04,
4.076,4.164,0.16,
4.092,4.164,0.12,
4.108,4.148,0.04,
4.108,4.148,0.16,
