Measurements/Power Payload/Metingen 1/Payload 1 160.csv

CH1,CH2,CH3,Start,Increment,
Volt,Volt,Volt,-2.9975,0.005
4.108,4.148,0.04,
4.084,4.164,0.16,
4.108,4.164,0.12,
4.092,4.14,0.04,
4.108,4.164,0.12,
4.076,4.132,0.04,
4.108,4.164,0.04,
4.092,4.148,0.16,
4.108,4.148,0.12,
4.076,4.164,0.04,
4.108,4.148,0.04,
4.084,4.164,0.16,
4.108,4.148,0.16,
4.084,4.164,0.04,
4.108,4.164,0.04,
4.084,4.148,0.16,
4.108,4.164,0.04,
4.084,4.148,0.12,
4.084,4.164,0.04,
4.108,4.148,0.16,
4.108,4.148,0.04,
4.076,4.164,0.16,
4.108,4.148,0.04,
4.076,4.164,0.16,
4.108,4.164,0.04,
4.076,4.14,0.16,
4.108,4.164,0.04,
4.076,4.148,0.16,
4.108,4.164,0.04,
4.092,4.148,0.16,
4.108,4.148,0.16,
4.068,4.164,0.04,
4.092,4.148,0.04,
4.108,4.164,0.16,
4.108,4.164,0.04,
4.084,4.148,0.16,
4.108,4.164,0.04,
4.076,4.14,0.16,
4.076,4.164,0.16,
4.108,4.148,0.04,
4.108,4.148,0.04,
4.084,4.164,0.16,
4.108,4.132,0.04,
4.076,4.164,0.16,
4.108,4.164,0.04,
4.092,4.148,0.16,
4.092,4.148,0.04,
4.108,4.164,0.16,
4.076,4.148,0.04,
4.108,4.164,0.16,
4.108,4.148,0.16,
4.084,4.164,0.04,
4.108,4.148,0.04,
4.076,4.164,0.16,
4.092,4.148,0.12,
4.108,4.164,0.04,
4.108,4.164,0.04,
4.084,4.132,0.16,
4.108,4.148,0.16,
4.076,4.164,0.04,
4.108,4.164,0.04,
4.076,4.148,0.16,
4.108,4.14,0.04,
4.084,4.164,0.16,
4.108,4.164,0.04,
4.076,4.14,0.16,
4.108,4.148,0.12,
4.092,4.164,0.04,
4.076,4.164,0.04,
4.108,4.148,0.16,
4.108,4.164,0.16,
4.068,4.14,0.04,
4.108,4.148,0.04,
4.076,4.164,0.16,
4.108,4.148,0.04,
4.084,4.164,0.16,
4.108,4.148,0.16,
4.076,4.164,0.04,
4.092,4.148,0.04,
4.108,4.164,0.16,
4.108,4.148,0.16,
4.084,4.164,0.04,
4.092,4.148,0.04,
4.108,4.164,0.16,
4.108,4.148,0.16,
4.076,4.164,0.04,
4.108,4.148,0.04,
4.076,4.164,0.16,
4.108,4.148,0.04,
4.084,4.164,0.16,
4.108,4.148,0.04,
4.076,4.164,0.16,
4.108,4.148,0.04,
4.084,4.164,0.16,
4.092,4.148,0.04,
4.108,4.164,0.16,
4.092,4.164,0.12,
4.108,4.148,0.04,
4.092,4.164,0.04,
4.108,4.148,0.16,
4.092,4.148,0.16,
4.108,4.164,0.04,
4.108,4.164,0.04,
4.084,4.148,0.16,
4.108,4.148,0.04,
4.084,4.164,0.16,
4.108,4.148,0.04,
4.084,4.164,0.16,
4.108,4.164,0.04,
4.084,4.148,0.16,
4.108,4.148,0.04,
4.076,4.164,0.16,
4.108,4.164,0.04,
4.076,4.148,0.16,
4.108,4.164,0.16,
4.092,4.148,0.04,
4.092,4.164,0.04,
4.108,4.132,0.12,
4.092,4.148,0.16,
4.108,4.164,0.04,
4.108,4.164,0.16,
4.076,4.148,0.04,
4.108,4.148,0.04,
4.076,4.164,0.16,
4.108,4.148,0.04,
4.076,4.164,0.16,
4.108,3.42,0.04,
4.084,4.204,0.16,
4.108,4.14,0.04,
4.084,4.212,0.16,
4.108,3.42,0.12,
4.076,4.22,0.04,
4.164,4.204,0.04,
2.924,3.476,0.12,
4.068,4.172,0.16,
4.172,4.148,0.04,
2.932,4.148,0.04,
4.188,4.164,0.12,
4.172,4.148,0.04,
2.98,4.164,0.16,
4.116,4.164,0.04,
4.092,4.148,0.16,
4.084,4.148,0.04,
4.116,4.164,0.16,
4.108,4.164,0.04,
4.084,4.14,0.16,
4.092,4.148,0.04,
4.108,4.164,0.16,
4.108,4.148,0.04,
4.076,4.164,0.16,
4.108,4.164,0.04,
4.068,4.1,0.16,
4.108,4.148,0.12,
4.076,4.172,0.04,
4.108,4.172,0.04,
4.084,4.14,0.16,
4.108,4.164,0.04,
4.028,4.148,0.16,
4.092,4.164,0.04,
4.116,4.148,0.16,
4.116,4.164,0.04,
4.068,4.148,0.16,
4.092,4.108,0.12,
4.116,4.196,0.04,
4.116,4.172,0.12,
4.092,4.148,0.04,
4.092,4.164,0.16,
4.116,4.124,0.04,
4.028,4.172,0.04,
4.156,4.132,0.16,
4.132,4.172,0.16,
4.084,4.148,0.04,
4.116,4.172,0.16,
4.044,4.148,0.04,
4.052,4.172,0.16,
4.132,4.124,0.04,
4.116,4.172,0.04,
4.092,4.124,0.16,
4.116,4.172,0.04,
4.092,4.148,0.16,
4.116,4.172,0.12,
4.06,4.148,0.04,
4.116,4.172,0.16,
4.052,4.14,0.04,
4.116,4.172,0.04,
4.084,4.148,0.16,
4.116,4.172,0.04,
4.084,4.116,0.12,
4.116,4.172,0.04,
4.076,4.132,0.16,
4.116,4.132,0.04,
4.076,4.196,0.12,
4.116,4.172,0.16,
4.052,4.148,0.04,
4.116,4.148,0.04,
4.068,4.172,0.16,
4.068,4.172,0.04,
4.164,4.148,0.16,
4.116,4.172,0.04,
4.084,4.14,0.16,
4.116,4.172,0.16,
4.092,4.148,0.04,
4.116,4.148,0.04,
4.092,4.172,0.16,
4.116,4.172,0.04,
4.076,4.148,0.16,
4.116,4.172,0.04,
4.092,4.14,0.16,
4.092,4.172,0.08,
4.116,4.148,0.16,
4.1,4.172,0.16,
4.116,4.148,0.04,
4.116,4.172,0.04,
4.068,4.148,0.16,
4.116,4.172,0.04,
4.1,4.132,0.16,
4.116,4.172,0.16,
4.092,4.148,0.04,
4.1,4.172,0.04,
4.116,4.148,0.12,
4.116,4.164,0.12,
4.084,4.148,0.04,
4.116,4.172,0.04,
4.092,4.14,0.16,
4.116,4.172,0.04,
4.1,4.148,0.12,
4.1,4.148,0.04,
4.116,4.172,0.16,
4.116,4.172,0.04,
4.068,4.148,0.16,
4.1,4.172,0.12,
4.116,4.14,0.04,
4.116,4.148,0.04,
4.092,4.172,3.44,
4.116,4.172,3.36,
4.1,4.148,3.44,
4.116,4.172,3.44,
4.068,4.116,3.32,
4.116,4.172,3.44,
4.092,4.14,3.32,
4.1,4.172,3.36,
4.116,4.148,3.44,
4.116,4.148,3.44,
4.036,4.172,3.36,
4.116,4.172,3.44,
4.068,4.148,3.32,
4.116,4.14,3.44,
4.1,4.172,3.36,
4.092,4.148,3.44,
4.116,4.172,3.36,
4.116,4.164,3.44,
4.1,4.148,3.36,
4.116,4.156,3.32,
4.068,4.172,3.44,
4.1,4.172,3.44,
4.116,4.14,3.36,
4.116,4.172,3.44,
4.092,4.148,3.36,
4.092,4.156,3.36,
4.116,4.172,3.44,
4.116,4.164,3.36,
4.068,4.148,3.44,
4.116,4.172,3.36,
4.092,4.14,3.44,
4.1,4.172,3.36,
4.116,4.124,3.44,
4.1,4.164,3.44,
4.116,4.148,3.32,
4.116,4.156,3.44,
4.068,4.172,3.36,
4.116,4.172,3.36,
4.06,4.132,3.44,
4.116,4.148,3.36,
4.092,4.172,3.44,
4.1,4.172,3.44,
4.116,4.148,3.36,
4.116,4.148,3.44,
4.076,4.172,3.32,
4.116,4.172,3.44,
4.092,4.132,3.36,
4.116,4.172,3.44,
4.1,4.148,3.36,
4.116,4.156,3.36,
4.092,4.172,3.44,
4.116,4.172,3.44,
4.068,4.148,3.32,
4.116,4.172,3.44,
4.092,4.14,3.32,
4.1,4.172,3.36,
4.116,4.148,3.44,
4.1,4.172,3.44,
4.116,4.148,3.36,
4.116,4.164,3.44,
4.068,4.156,3.32,
4.1,4.172,3.36,
4.116,4.148,3.44,
4.1,4.172,3.44,
4.116,4.148,3.36,
4.116,4.156,3.44,
4.092,4.172,3.32,
4.116,4.172,3.44,
4.076,4.148,3.32,
4.116,4.172,3.36,
4.092,4.14,3.44,
4.1,4.172,3.44,
4.116,4.148,3.32,
4.116,4.148,3.44,
4.1,4.172,3.32,
4.116,4.172,3.44,
4.068,4.148,3.36,
4.1,4.172,3.36,
4.116,4.132,3.44,
4.116,4.148,3.44,
4.092,4.172,3.36,
4.1,4.156,3.44,
4.116,4.172,3.32,
4.116,4.148,3.44,
4.068,4.172,3.32,
4.1,4.196,3.44,
4.116,4.14,3.36,
4.1,4.148,3.44,
4.116,4.172,3.36,
4.116,4.172,3.36,
4.092,4.148,3.44,
4.164,4.156,3.36,
4.076,4.172,3.44,
4.116,4.172,3.36,
4.092,4.14,3.44,
4.116,4.156,3.36,
4.092,4.172,3.44,
4.1,4.172,3.44,
4.116,4.148,3.36,
4.116,4.148,3.44,
4.068,4.172,3.32,
4.116,4.164,3.44,
4.1,4.14,3.36,
4.1,4.172,3.44,
4.116,4.148,3.36,
4.116,4.172,3.36,
4.092,4.148,3.44,
4.116,4.172,3.44,
4.076,4.148,3.36,
4.116,4.172,3.44,
4.092,4.14,3.36,
4.1,4.172,3.36,
4.116,4.148,3.44,
4.1,4.172,3.44,
4.116,4.148,3.36,
4.116,4.164,3.32,
4.076,4.156,3.44,
4.1,4.164,3.36,
4.116,4.132,3.44,
4.116,4.156,3.44,
4.092,4.172,3.32,
4.1,4.148,3.36,
4.116,4.172,3.44,
4.116,4.164,3.36,
4.068,4.148,3.44,
4.116,4.164,3.36,
4.092,4.116,3.44,
4.116,4.124,3.44,
4.092,4.172,3.32,
4.116,4.172,3.44,
4.092,4.148,3.36,
4.116,4.172,3.36,
4.036,4.148,3.44,
4.06,4.164,3.44,
4.116,4.124,3.32,
4.1,4.156,3.36,
4.116,4.172,3.44,
4.116,4.172,3.44,
4.1,4.148,3.36,
4.116,4.172,3.44,
4.052,4.148,3.32,
4.1,4.172,3.36,
4.124,4.14,3.44,
4.116,4.172,3.36,
4.092,4.148,3.44,
4.116,4.156,3.44,
4.092,4.172,3.36,
4.116,4.172,3.36,
4.068,4.156,3.44,
4.116,4.172,3.36,
4.1,4.132,3.44,
4.116,4.156,3.36,
4.1,4.172,3.44,
4.116,4.156,3.44,
4.1,4.172,3.32,
4.116,4.172,3.36,
4.084,4.148,3.44,
4.116,4.172,3.36,
4.1,4.132,3.44,
4.116,4.172,3.44,
4.1,4.148,3.32,
4.116,4.148,3.44,
4.1,4.172,3.32,
4.116,4.172,3.36,
4.068,4.148,3.44,
4.116,4.164,3.44,
4.084,4.14,3.32,
4.116,4.148,3.44,
4.1,4.172,3.32,
4.116,4.164,3.36,
4.092,4.156,3.44,
4.116,4.156,3.36,
4.084,4.172,3.44,
4.116,4.164,3.36,
4.092,4.14,3.44,
4.116,4.148,3.32,
4.092,4.172,3.44,
4.1,4.164,3.32,
4.116,4.124,3.44,
4.116,4.172,3.36,
4.068,4.148,3.44,
4.1,4.132,3.44,
4.116,4.172,3.32,
4.116,4.172,3.32,
4.06,4.148,3.44,
4.1,4.172,3.36,
4.116,4.148,3.44,
4.116,4.172,3.36,
4.068,4.148,3.44,
4.116,4.164,3.36,
4.092,4.132,3.44,
4.1,4.156,3.36,
4.116,4.172,3.44,
4.116,4.164,3.36,
4.092,4.148,3.44,
4.116,4.148,3.44,
4.076,4.172,3.32,
4.1,4.172,3.44,
4.116,4.14,3.36,
4.116,4.148,3.44,
4.092,4.172,3.36,
4.1,4.172,3.44,
4.116,4.148,3.32,
4.116,4.148,3.44,
4.068,4.172,3.32,
4.116,4.172,3.44,
4.092,4.14,3.36,
4.1,4.148,3.36,
4.116,4.172,3.44,
4.116,4.172,3.36,
4.092,4.148,3.44,
4.116,4.148,3.44,
4.068,4.172,3.36,
4.116,4.148,3.44,
4.092,4.188,3.32,
4.1,4.164,3.44,
4.116,4.14,3.32,
4.1,4.172,3.36,
4.116,4.124,3.44,
4.084,4.172,3.36,
4.14,4.124,3.44,
4.116,4.116,3.44,
4.076,4.172,3.36,
4.116,4.132,3.36,
4.052,4.196,3.44,
4.116,4.172,3.44,
4.06,4.132,3.36,
4.044,4.172,3.36,
4.116,4.148,3.44,
4.068,4.148,3.36,
4.164,4.172,3.44,
4.116,4.172,3.36,
4.084,4.148,3.44,
4.116,4.116,3.44,
4.1,4.172,3.32,
4.092,4.148,3.36,
4.116,4.172,3.44,
4.116,4.148,3.44,
4.1,4.172,3.36,
4.116,4.148,3.36,
4.036,4.172,3.44,
4.116,4.164,3.44,
4.092,4.132,3.36,
4.116,4.148,3.44,
4.092,4.196,3.32,
4.116,4.196,3.36,
4.092,4.148,3.44,
4.116,4.196,3.44,
4.06,4.148,3.36,
4.092,4.196,3.36,
4.172,4.148,3.44,
4.164,4.196,3.32,
4.092,4.148,3.44,
4.164,4.196,3.36,
4.092,4.148,3.44,
4.092,4.196,3.36,
4.172,4.148,3.44,
4.164,4.196,3.44,
4.092,4.1,3.36,
4.164,4.076,3.44,
4.092,4.156,3.32,
4.164,4.132,3.36,
4.092,4.156,3.44,
4.164,4.124,3.36,
4.004,4.156,3.44,
3.98,4.156,3.44,
4.084,4.132,3.32,
4.084,4.156,3.44,
4.068,4.132,3.36,
4.084,4.132,3.44,
4.06,4.156,3.32,
4.084,4.132,3.44,
4.068,4.156,3.32,
4.084,4.156,3.36,
4.068,4.132,3.44,
4.084,4.132,3.36,
4.068,4.156,3.44,
4.068,4.132,3.44,
4.084,4.156,3.36,
4.068,4.132,3.44,
4.084,4.156,3.36,
4.084,4.132,3.44,
4.068,4.156,3.36,
4.084,4.132,3.44,
4.068,4.156,3.32,
4.068,4.132,3.36,
4.084,4.156,3.44,
4.084,4.132,3.36,
4.068,4.156,3.44,
4.084,4.156,3.44,
4.068,4.132,3.32,
4.068,4.156,3.36,
4.084,4.132,3.44,
4.084,4.156,3.32,
4.068,4.132,3.44,
4.068,4.132,3.36,
4.092,4.156,3.44,
4.084,4.132,3.44,
4.068,4.156,3.32,
4.084,4.132,3.36,
4.068,4.156,3.44,
4.068,4.132,3.44,
4.084,4.156,3.36,
4.084,4.132,3.44,
4.068,4.156,3.32,
4.068,4.132,3.36,
4.084,4.156,3.44,
4.084,4.156,3.36,
4.068,4.124,3.44,
4.084,4.156,3.4,
4.068,4.132,3.44,
4.068,4.124,3.44,
4.084,4.18,3.36,
4.084,4.196,3.32,
4.044,3.412,3.44,
4.068,3.532,3.36,
4.092,3.604,3.44,
4.052,3.588,3.44,
4.132,4.34,3.36,
4.148,4.268,3.36,
2.9,4.18,3.44,
3.012,4.196,3.44,
3.084,4.156,3.36,
3.068,4.172,3.44,
4.284,4.148,3.32,
4.212,4.164,3.36,
4.132,4.148,3.44,
4.14,4.148,3.36,
4.1,4.164,3.44,
4.116,4.148,3.36,
4.092,4.164,3.44,
4.084,4.148,3.44,
4.116,4.164,3.32,
4.092,4.164,3.36,
4.116,4.132,3.44,
4.108,4.124,3.36,
4.084,4.188,3.44,
4.084,4.164,3.36,
4.116,4.132,3.44,
4.108,4.148,3.44,
4.068,4.172,3.32,
4.068,4.172,3.36,
4.14,4.14,3.44,
4.116,4.172,3.44,
4.068,4.132,3.36,
4.116,4.172,3.44,
4.084,4.132,3.32,
4.116,4.172,3.36,
4.068,4.1,3.44,
4.116,4.172,3.36,
4.06,4.124,3.44,
4.116,4.172,3.44,
4.068,4.132,3.32,
4.116,4.172,3.44,
4.036,4.132,3.36,
4.116,4.132,3.44,
4.06,4.172,3.32,
4.116,4.172,3.36,
4.06,4.116,3.44,
4.116,4.172,3.36,
4.068,4.132,3.44,
4.068,4.172,3.44,
4.116,4.132,3.36,
4.116,4.14,3.36,
4.036,4.196,3.44,
4.076,4.148,3.44,
4.124,4.172,3.32,
4.132,4.156,3.44,
4.068,4.172,3.32,
4.068,4.156,3.36,
4.164,4.172,3.44,
4.116,4.172,3.36,
4.092,4.148,3.44,
4.1,4.148,3.44,
4.116,4.164,3.32,
4.116,4.164,3.36,
4.092,4.148,3.44,
4.116,4.148,3.36,
4.1,4.172,3.44,
4.092,4.156,3.32,
4.116,4.172,3.44,
4.092,4.148,3.36,
4.116,4.172,3.44,
4.092,4.164,3.44,
4.116,4.14,3.36,
4.1,4.148,3.44,
4.116,4.188,3.32,
4.092,4.164,3.44,
4.116,4.148,3.32,
4.116,4.148,3.44,
4.084,4.164,3.36,
4.092,4.172,3.44,
4.164,4.132,0.04,
4.116,4.148,0.04,
4.092,4.164,0.16,
4.116,4.148,0.04,
4.092,4.172,0.16,
4.116,4.148,0.16,
4.084,4.172,0.04,
4.1,4.156,0.04,
4.116,4.172,0.16,
4.092,4.172,0.04,
4.116,4.148,0.12,
4.1,4.172,0.04,
4.116,4.148,0.16,
4.116,4.14,0.04,
4.1,4.188,0.16,
4.116,4.212,0.04,
4.1,4.124,0.12,
4.116,4.172,0.12,
4.1,4.1,0.04,
4.164,4.116,0.04,
4.076,4.14,0.16,
4.188,4.124,0.16,
4.06,4.156,0.04,
4.116,4.156,0.04,
4.012,4.132,0.16,
4.044,4.132,0.04,
4.076,4.156,0.12,
4.084,4.124,0.16,
4.052,4.156,0.04,
4.084,4.156,0.16,
4.06,4.132,0.04,
4.084,4.132,0.12,
4.068,4.164,0.04,
4.084,4.132,0.04,
4.052,4.156,0.16,
4.084,4.156,0.04,
4.068,4.132,0.16,
4.1,4.132,0.04,
4.068,4.156,0.16,
4.068,4.156,0.04,
4.092,4.132,0.16,
4.092,4.156,0.16,
4.068,4.132,0.04,
4.068,4.156,0.04,
4.092,4.132,0.16,
4.068,4.156,0.16,
4.1,4.124,0.12,
4.068,4.124,0.16,
4.092,4.18,0.04,
4.084,4.188,0.12,
4.068,3.42,0.04,
4.084,3.54,0.04,
4.044,3.604,0.16,
4.052,3.588,0.12,
4.132,4.34,0.16,
4.14,4.26,0.16,
2.9,4.156,0.08,
3.028,4.228,0.04,
3.084,3.412,0.16,
3.06,3.508,0.04,
4.284,3.604,0.16,
4.204,3.572,0.04,
4.1,4.356,0.16,
4.204,4.34,0.12,
2.892,4.204,0.16,
2.988,4.244,0.16,
3.084,3.428,0.08,
3.044,4.244,0.04,
4.308,3.444,0.16,
4.292,3.532,0.12,
4.156,3.612,0.16,
4.196,3.596,0.16,
2.932,4.332,0.04,
4.212,4.34,0.04,
2.948,3.516,0.16,
3.012,3.572,0.16,
3.124,3.652,0.04,
3.084,3.62,0.04,
4.276,4.34,0.16,
4.292,4.284,0.16,
3.052,4.204,0.04,
3.084,3.476,0.12,
3.18,4.228,0.04,
3.116,4.148,0.04,
4.284,4.22,0.16,
4.228,3.444,0.04,
4.132,4.212,0.16,
3.004,4.124,0.04,
4.172,4.22,0.16,
4.076,3.436,0.04,
4.172,4.228,0.16,
4.164,3.476,0.12,
2.948,4.228,0.04,
4.044,3.484,0.04,
4.172,4.22,0.12,
2.948,4.22,0.04,
4.188,3.46,0.16,
3.004,4.196,0.04,
4.196,4.156,0.16,
3.012,4.212,0.16,
4.164,3.428,0.04,
4.188,4.196,0.04,
3.012,4.156,0.16,
4.14,4.172,0.04,
4.1,4.148,0.16,
4.172,4.164,0.04,
2.932,4.14,0.16,
4.14,4.148,0.12,
4.1,4.164,0.04,
4.116,4.148,0.12,
4.092,4.164,0.04,
4.108,4.164,0.12,
4.076,4.148,0.04,
4.116,4.164,0.12,
4.076,4.14,0.04,
4.092,4.148,0.04,
4.108,4.164,0.16,
4.108,4.164,0.04,
4.076,4.148,0.16,
4.068,4.164,0.04,
4.116,4.148,0.16,
4.108,4.148,0.04,
4.076,4.164,0.16,
4.092,4.164,0.04,
4.108,4.148,0.16,
4.084,4.164,0.04,
4.116,4.148,0.16,
4.108,4.148,0.04,
4.076,4.164,0.16,
4.092,4.164,0.04,
4.108,4.124,0.16,
4.108,4.14,0.12,
4.076,4.164,0.04,
4.108,4.164,0.04,
4.084,4.148,0.16,
4.108,4.164,0.04,
4.06,4.14,0.16,
4.076,4.148,0.04,
4.108,4.164,0.16,
4.108,4.164,0.04,
4.092,4.124,0.16,
4.108,4.148,0.16,
4.076,4.172,0.04,
4.108,4.164,0.04,
4.084,4.148,0.16,
4.108,4.164,0.12,
4.044,4.14,0.04,
4.076,4.148,0.04,
4.116,4.164,0.12,
4.108,4.148,0.04,
4.084,4.164,0.16,
4.068,4.164,0.04,
4.108,4.14,0.12,
4.108,4.164,0.04,
4.084,4.148,0.16,
4.108,4.164,0.04,
4.076,4.148,0.16,
4.108,4.164,0.04,
4.084,4.148,0.16,
4.076,4.164,0.04,
4.116,4.148,0.16,
4.108,4.148,0.16,
4.084,4.164,0.04,
4.108,4.164,0.04,
4.076,4.148,0.16,
4.108,4.164,0.04,
4.084,4.148,0.16,
4.108,4.164,0.12,
4.076,4.132,0.04,
4.108,4.164,0.04,
4.076,4.148,0.16,
4.108,4.164,0.04,
4.084,4.148,0.16,
4.108,4.148,0.04,
4.076,4.164,0.16,
4.108,4.148,0.04,
4.084,4.164,0.12,
4.108,4.164,0.04,
4.092,4.148,0.16,
4.108,4.148,0.12,
4.076,4.164,0.04,
4.108,4.164,0.04,
4.084,4.132,0.16,
4.076,4.164,0.04,
4.116,4.148,0.16,
4.108,4.14,0.04,
4.084,4.164,0.12,
4.108,4.164,0.04,
4.076,4.148,0.16,
4.108,4.164,0.12,
4.084,4.14,0.04,
4.076,4.164,0.04,
4.108,4.148,0.16,
4.108,4.164,0.04,
4.084,4.148,0.16,
4.108,4.164,0.04,
4.076,4.148,0.16,
4.108,4.164,0.16,
4.084,4.148,0.04,
4.076,4.164,0.04,
4.108,4.14,0.16,
4.108,4.148,0.04,
4.076,4.164,0.16,
4.108,4.164,0.04,
4.076,4.148,0.16,
4.108,4.164,0.16,
4.084,4.148,0.04,
4.108,4.164,0.16,
4.084,4.148,0.04,
4.108,4.148,0.12,
4.092,4.164,0.04,
4.076,4.164,0.12,
4.108,4.148,0.04,
4.092,4.164,0.04,
4.108,4.148,0.16,
4.108,4.164,0.04,
4.084,4.148,0.16,
4.108,4.148,0.12,
4.076,4.164,0.04,
4.108,4.164,0.04,
4.084,4.148,0.16,
4.108,4.148,0.04,
4.076,4.164,0.16,
4.108,4.164,0.16,
4.076,4.148,0.04,
4.108,4.164,0.04,
4.084,4.132,0.16,
4.108,4.164,0.12,
4.084,4.148,0.04,
4.108,4.164,0.16,
4.084,4.148,0.04,
4.076,4.164,0.04,
4.116,4.132,0.16,
4.108,4.164,0.04,
4.084,4.132,0.16,
4.108,4.164,0.12,
4.076,4.148,0.04,
4.108,4.164,0.16,
4.068,4.148,0.04,
4.108,4.164,0.04,
4.084,4.148,0.16,
4.108,4.164,0.12,
4.084,4.148,0.04,
4.108,4.164,0.12,
4.076,4.148,0.04,
4.084,4.164,0.04,
4.116,4.148,0.16,
4.108,4.148,0.12,
4.076,4.164,0.04,
4.108,4.164,0.12,
4.084,4.148,0.04,
4.108,4.148,0.04,
4.076,4.164,0.16,
4.108,4.164,0.04,
4.084,4.148,0.16,
4.108,4.148,0.04,
4.084,4.172,0.16,
4.108,4.148,0.04,
4.076,4.164,0.16,
4.108,4.164,0.16,
4.076,4.148,0.04,
4.076,4.148,0.04,
4.116,4.172,0.16,
4.116,4.148,0.12,
4.084,4.172,0.04,
4.076,4.14,0.16,
4.116,4.172,0.04,
4.116,4.148,0.12,
4.092,4.172,0.04,
4.116,4.148,0.04,
4.076,4.164,0.16,
4.076,4.164,0.04,
4.116,4.148,0.16,
4.116,4.164,0.16,
4.076,4.148,0.04,
4.108,4.164,0.12,
4.076,4.148,0.04,
4.108,4.164,0.16,
4.092,4.148,0.04,
4.108,4.164,0.16,
4.076,4.148,0.04,
4.108,4.148,0.04,
4.084,4.172,0.16,
4.108,4.172,0.04,
4.076,4.148,0.16,
4.108,4.148,0.12,
4.076,4.172,0.04,
4.092,4.148,0.04,
4.116,4.172,0.12,
4.116,4.164,0.04,
4.092,4.148,0.16,
4.084,4.164,0.16,
4.116,4.148,0.04,
4.092,4.164,0.04,
4.116,4.148,0.16,
4.092,4.148,0.04,
4.116,4.164,0.16,
4.092,4.148,0.12,
4.116,4.164,0.04,
4.116,4.164,0.16,
4.076,4.148,0.04,
4.108,4.148,0.04,
4.076,4.164,0.16,
4.076,4.164,0.12,
4.108,4.148,0.04,
4.108,4.164,0.12,
4.084,4.14,0.04,
4.108,4.148,0.16,
4.076,4.164,0.04,
4.108,4.164,0.04,
4.084,4.148,0.16,
4.108,4.164,0.04,
4.076,4.148,0.12,
4.084,4.164,0.04,
4.108,4.148,0.16,
4.084,4.148,0.04,
4.108,4.164,0.16,
4.108,4.14,0.04,
4.076,4.172,0.16,
4.108,4.164,0.04,
4.084,4.148,0.16,
4.108,4.164,0.04,
4.084,4.148,0.16,
4.084,4.148,0.04,
4.116,4.172,0.16,
4.116,4.164,0.04,
4.092,4.148,0.16,
4.092,4.148,0.04,
4.116,4.172,0.16,
4.092,4.148,0.04,
4.116,4.164,0.16,
4.116,4.164,0.04,
4.076,4.148,0.16,
4.092,4.164,0.04,
4.116,4.148,0.16,
4.092,4.148,0.04,
4.116,4.164,0.16,
4.108,4.164,0.16,
4.076,4.14,0.04,
4.108,4.148,0.04,
4.076,4.164,0.12,
4.108,4.164,0.16,
4.084,4.148,0.04,
4.108,4.164,0.16,
4.068,4.148,0.04,
4.108,4.164,0.16,
4.076,4.14,0.04,
4.108,4.148,0.04,
4.076,4.172,0.16,
4.092,4.164,0.04,
4.116,4.148,0.16,
4.116,4.148,0.04,
4.076,4.172,0.16,
4.092,4.164,0.12,
4.116,4.148,0.04,
4.092,4.164,0.04,
4.116,4.148,0.16,
4.092,4.148,0.16,
4.116,4.164,0.04,
4.092,4.148,0.12,
4.116,4.164,0.04,
4.116,4.148,0.04,
4.076,4.164,0.16,
4.108,4.164,0.04,
4.076,4.148,0.16,
4.108,4.164,0.04,
4.084,4.148,0.16,
4.108,4.148,0.04,
4.076,4.164,0.16,
4.108,4.148,0.04,
4.092,4.172,0.16,
4.108,4.164,0.04,
4.076,4.148,0.12,
4.108,4.164,0.16,
4.092,4.148,0.04,
4.092,4.164,0.04,
4.116,4.148,0.16,
4.092,4.164,0.04,
4.116,4.14,0.16,
4.092,4.148,0.12,
4.116,4.172,0.04,
4.092,4.148,0.16,
4.116,4.172,0.04,
4.116,4.148,0.04,
4.076,4.172,0.16,
4.116,4.164,0.04,
4.076,4.148,0.16,
4.076,4.148,0.12,
4.116,4.172,0.04,
4.116,4.148,0.04,
4.092,4.164,0.16,
4.092,4.148,0.04,
4.116,4.164,0.16,
4.116,4.164,0.16,
4.084,4.148,0.04,
4.108,4.164,0.16,
4.076,4.14,0.04,
4.092,4.148,0.04,
4.116,4.164,0.16,
4.076,4.164,0.04,
4.108,4.148,0.12,
4.108,4.148,0.04,
4.076,4.164,0.16,
4.108,4.148,0.16,
4.076,4.164,0.04,
4.108,4.164,0.12,
4.076,4.148,0.04,
4.108,4.148,0.04,
4.076,4.164,0.12,
4.108,4.148,0.04,
4.076,4.164,0.16,
4.108,4.164,0.04,
4.092,4.148,0.16,
4.108,4.164,0.12,
4.076,4.148,0.04,
4.084,4.164,0.04,
4.116,4.148,0.16,
4.108,4.148,0.04,
4.076,4.164,0.16,
4.108,4.164,0.04,
4.076,4.148,0.12,
4.108,4.164,0.16,
4.076,4.148,0.04,
4.076,4.164,0.16,
4.108,4.148,0.04,
4.084,4.164,0.16,
4.108,4.14,0.04,
4.108,4.148,0.04,
4.092,4.164,0.16,
4.108,4.164,0.04,
4.084,4.14,0.16,
4.108,4.14,0.04,
4.068,4.164,0.16,
4.092,4.164,0.04,
4.108,4.148,0.16,
4.108,4.164,0.04,
4.076,4.148,0.16,
4.068,4.148,0.16,
4.108,4.164,0.04,
4.108,4.148,0.04,
4.084,4.164,0.16,
4.108,4.148,0.04,
4.076,4.164,0.16,
4.108,4.164,0.16,
4.084,4.148,0.04,
4.108,4.164,0.04,
4.084,4.132,0.16,
4.108,4.164,0.12,
4.084,4.148,0.04,
4.116,4.148,0.16,
4.076,4.164,0.04,
4.108,4.148,0.04,
4.076,4.164,0.16,
4.108,4.164,0.12,
4.076,4.148,0.04,
4.076,4.148,0.04,
4.108,4.164,0.12,
4.108,4.164,0.04,
4.076,4.148,0.16,
4.108,4.148,0.04,
4.076,4.164,0.16,
4.108,4.148,0.16,
4.076,4.164,0.04,
4.108,4.164,0.04,
4.076,4.148,0.16,
4.108,4.164,0.04,
4.076,4.132,0.12,
4.108,4.148,0.04,
4.076,4.164,0.12,
4.108,4.148,0.04,
4.076,4.164,0.16,
4.084,4.164,0.04,
4.108,4.148,0.16,
4.084,4.148,0.04,
4.108,4.164,0.16,
4.084,4.164,0.12,
4.108,4.148,0.04,
4.108,4.164,0.04,
4.076,4.148,0.16,
4.076,4.164,0.04,
4.108,4.148,0.16,
4.108,4.148,0.04,
4.076,4.164,0.16,
4.108,4.148,0.04,
4.076,4.164,0.16,
4.092,4.164,0.16,
4.108,4.14,0.04,
4.108,4.164,0.16,
4.084,4.148,0.04,
4.108,4.164,0.16,
4.076,4.132,0.04,
4.116,4.164,0.04,
4.076,4.148,0.16,
4.092,4.164,0.16,
4.116,4.148,0.04,
4.108,4.164,0.04,
