Power Payload/Metingen 6/Payload 2 170.csv

CH1,CH2,CH3,Start,Increment,
Volt,Volt,Volt,-5.995,0.01
4.156,4.196,0.04,
4.172,4.18,0.16,
4.148,4.18,0.16,
4.172,4.196,0.04,
4.156,4.196,0.16,
4.172,4.18,0.04,
4.172,4.196,0.16,
4.148,4.18,0.04,
4.156,4.196,0.04,
4.172,4.18,0.16,
4.156,4.18,0.04,
4.172,4.196,0.16,
4.172,4.18,0.12,
4.148,4.212,0.04,
4.172,4.196,0.04,
4.156,4.18,0.16,
4.172,4.196,0.04,
4.148,4.18,0.16,
4.156,4.196,0.04,
4.172,4.18,0.16,
4.172,4.196,0.04,
4.156,4.18,0.16,
4.156,4.196,0.16,
4.172,4.18,0.04,
4.172,4.196,0.04,
4.156,4.18,0.16,
4.172,4.196,0.16,
4.156,4.18,0.04,
4.172,4.196,0.04,
4.156,4.18,0.16,
4.172,4.196,0.04,
4.156,4.18,0.16,
4.172,4.196,0.04,
4.148,4.18,0.16,
4.172,4.196,0.04,
4.156,4.18,0.16,
4.172,4.18,0.04,
4.148,4.196,0.12,
4.172,4.18,0.16,
4.148,4.196,0.04,
4.172,4.18,0.04,
4.148,4.196,0.16,
4.172,4.196,0.04,
4.148,4.18,0.16,
4.172,4.196,0.04,
4.148,4.18,0.16,
4.172,4.18,0.04,
4.148,4.196,0.16,
4.172,4.18,0.04,
4.156,4.196,0.16,
4.172,4.18,0.16,
4.148,4.196,0.04,
4.172,4.196,0.04,
4.148,4.18,0.16,
4.156,4.196,0.04,
4.172,4.18,0.16,
4.172,4.196,0.04,
4.148,4.18,0.16,
4.156,4.18,0.04,
4.172,4.196,0.16,
4.172,4.18,0.16,
4.148,4.196,0.04,
4.172,4.196,0.16,
4.148,4.18,0.04,
4.156,4.196,0.04,
4.172,4.18,0.16,
4.172,4.196,0.04,
4.148,4.18,0.16,
4.156,4.18,0.04,
4.172,4.196,0.16,
4.156,4.18,0.04,
4.172,4.196,0.16,
4.172,4.196,0.04,
4.148,4.18,0.16,
4.156,4.18,0.04,
4.172,4.196,0.16,
4.156,4.196,0.04,
4.172,4.18,0.16,
4.156,4.18,0.16,
4.172,4.196,0.04,
4.172,4.18,0.04,
4.148,4.196,0.16,
4.172,4.196,0.04,
4.148,4.18,0.16,
4.156,4.18,0.12,
4.172,4.196,0.04,
4.172,4.196,0.04,
4.148,4.18,0.16,
4.172,4.196,0.04,
4.156,4.18,0.16,
4.172,4.196,0.04,
4.148,4.18,0.16,
4.156,4.196,0.16,
4.172,4.18,0.04,
4.156,4.18,0.16,
4.172,4.196,0.04,
4.172,4.196,0.04,
4.148,4.18,0.16,
4.156,4.196,0.04,
4.172,4.18,0.16,
4.156,4.196,0.04,
4.172,4.18,0.12,
4.172,4.18,0.04,
4.148,4.196,0.16,
4.172,4.196,0.04,
4.156,4.18,0.16,
4.172,4.196,0.12,
4.148,4.18,0.04,
4.172,4.196,0.04,
4.156,4.18,0.16,
4.172,4.196,0.16,
4.148,4.18,0.04,
4.148,4.196,0.04,
4.172,4.18,0.16,
4.156,4.196,0.12,
4.172,4.18,0.04,
4.172,4.196,0.12,
4.148,4.18,0.04,
4.156,4.196,0.04,
4.172,4.18,0.16,
4.156,4.196,0.04,
4.172,4.18,0.16,
4.172,4.196,0.12,
4.148,4.18,0.04,
4.156,4.18,0.04,
4.172,4.196,0.16,
4.172,4.196,0.16,
4.148,4.18,0.04,
4.156,4.196,0.04,
4.172,4.172,0.16,
4.172,4.196,0.04,
4.156,4.18,0.16,
4.172,4.18,0.16,
4.148,4.196,0.04,
4.172,4.196,0.04,
4.124,4.18,0.16,
4.172,4.196,0.04,
4.148,4.18,0.16,
4.156,4.18,0.04,
4.172,4.196,0.16,
4.172,4.196,0.16,
4.156,4.18,0.04,
4.172,4.196,0.04,
4.148,4.18,0.16,
4.156,4.196,0.12,
4.172,4.18,0.04,
4.172,4.196,0.16,
4.148,4.18,0.04,
4.172,4.196,0.04,
4.156,4.18,0.16,
4.172,4.196,0.12,
4.148,4.18,0.04,
4.172,4.196,0.04,
4.148,4.18,0.16,
4.172,4.196,0.16,
4.156,4.18,0.04,
4.172,4.196,0.04,
4.148,4.18,0.16,
4.172,4.18,0.04,
4.156,4.196,0.16,
4.172,4.196,0.12,
4.148,4.18,0.04,
4.172,4.196,0.16,
4.148,4.18,0.04,
4.156,4.18,0.12,
4.172,4.196,0.04,
4.172,4.18,0.04,
4.148,4.196,0.16,
4.156,4.196,0.12,
4.172,4.18,0.04,
4.172,4.196,0.04,
4.156,4.18,0.16,
4.172,4.196,0.12,
4.148,4.18,0.04,
4.156,4.18,0.04,
4.172,4.196,0.16,
4.172,4.196,0.04,
4.148,4.18,0.16,
4.156,4.196,0.04,
4.172,4.18,0.16,
4.172,4.18,0.04,
4.148,4.196,0.16,
4.172,4.196,0.04,
4.148,4.18,0.16,
4.156,4.18,0.04,
4.172,4.196,0.16,
4.172,4.196,0.04,
4.148,4.18,0.16,
4.156,4.18,0.04,
4.172,4.196,0.16,
4.172,4.196,0.12,
4.156,4.18,0.04,
4.172,4.196,0.16,
4.148,4.18,0.04,
4.156,4.196,0.04,
4.172,4.18,0.16,
4.172,4.196,0.04,
4.148,4.18,0.16,
4.156,4.196,0.16,
4.172,4.18,0.04,
4.172,4.196,0.04,
4.148,4.18,0.16,
4.172,4.196,0.12,
4.148,4.18,0.04,
4.172,4.196,0.12,
4.156,4.18,0.04,
4.148,4.196,0.04,
4.172,4.18,0.16,
4.156,4.196,0.16,
4.172,4.18,0.04,
4.172,4.196,0.04,
4.156,4.18,0.16,
4.172,4.18,0.04,
4.148,4.204,0.16,
4.172,4.196,0.04,
4.156,4.18,0.16,
4.172,4.18,0.04,
4.148,4.196,0.16,
4.156,4.196,0.12,
4.172,4.188,0.04,
4.172,4.196,0.04,
4.156,4.18,0.16,
4.156,4.196,0.04,
4.172,4.18,0.16,
4.172,4.18,0.04,
4.156,4.196,0.16,
4.156,4.196,0.04,
4.172,4.18,0.16,
4.172,4.196,0.04,
4.156,4.18,0.16,
4.172,4.196,0.04,
4.156,4.18,0.16,
4.172,4.196,0.04,
4.156,4.18,0.16,
4.172,4.196,0.04,
4.156,4.18,0.16,
4.172,4.196,0.04,
4.148,4.18,0.16,
4.172,4.18,0.04,
4.156,4.196,0.16,
4.156,4.196,0.16,
4.172,4.18,0.04,
4.172,4.196,0.16,
4.148,4.18,0.04,
4.156,4.196,0.04,
4.172,4.18,0.16,
4.172,4.196,0.16,
4.148,4.18,0.04,
4.156,4.196,0.04,
4.172,4.18,0.16,
4.172,4.196,0.04,
4.148,4.18,0.12,
4.172,4.196,0.04,
4.148,4.18,0.16,
4.172,4.196,0.04,
4.156,4.18,0.16,
4.172,4.196,0.04,
4.148,4.18,0.16,
4.156,4.18,0.04,
4.172,4.196,0.12,
4.172,4.18,0.16,
4.156,4.196,0.04,
4.172,4.196,0.04,
4.148,4.172,0.16,
4.156,4.18,0.04,
4.172,4.196,0.16,
4.172,4.18,0.16,
4.148,4.196,0.04,
4.172,4.196,0.04,
4.148,4.18,0.16,
4.156,4.196,0.12,
4.172,4.18,0.04,
4.172,4.196,0.16,
4.148,4.18,0.04,
4.156,4.18,0.16,
4.172,4.196,0.04,
4.172,4.196,0.16,
4.148,4.18,0.04,
4.172,4.18,0.04,
4.156,4.196,0.16,
4.156,4.18,0.04,
4.172,4.196,0.16,
4.172,4.18,0.04,
4.148,4.196,0.16,
4.172,4.18,0.04,
4.156,4.196,0.16,
4.172,4.196,0.04,
4.148,4.18,0.16,
4.156,4.196,0.04,
4.172,4.18,0.16,
4.156,4.196,0.04,
4.172,4.18,0.16,
4.172,4.196,0.12,
4.148,4.18,0.04,
4.172,4.196,0.16,
4.156,4.18,0.04,
4.172,4.196,0.16,
4.148,4.18,0.04,
4.156,4.18,0.04,
4.172,4.196,0.16,
4.172,4.18,0.04,
4.148,4.196,0.16,
4.156,4.196,0.04,
4.172,4.18,3.44,
4.156,4.196,3.44,
4.172,4.172,3.32,
4.172,4.18,3.36,
4.148,4.196,3.44,
4.156,4.18,3.36,
4.172,4.196,3.44,
4.172,4.18,3.44,
4.132,4.196,3.32,
4.172,4.196,3.36,
4.148,4.18,3.44,
4.156,4.196,3.36,
4.172,4.18,3.44,
4.172,4.196,3.44,
4.148,4.18,3.36,
4.156,4.196,3.44,
4.172,4.18,3.32,
4.172,4.18,3.36,
4.148,4.196,3.44,
4.156,4.196,3.44,
4.172,4.172,3.36,
4.156,4.196,3.44,
4.172,4.18,3.32,
4.172,4.196,3.36,
4.148,4.18,3.44,
4.132,4.196,3.44,
4.172,4.18,3.36,
4.156,4.18,3.36,
4.172,4.196,3.44,
4.172,4.18,3.44,
4.148,4.196,3.32,
4.172,4.196,3.36,
4.148,4.18,3.44,
4.172,4.196,3.36,
4.148,4.18,3.44,
4.156,4.196,3.44,
4.172,4.148,3.32,
4.172,4.196,3.36,
4.148,4.18,3.44,
4.172,4.18,3.44,
4.156,4.196,3.32,
4.172,4.196,3.44,
4.1,4.18,3.36,
4.172,4.196,3.44,
4.148,4.18,3.32,
4.172,4.18,3.44,
4.156,4.196,3.36,
4.172,4.196,3.44,
4.156,4.18,3.32,
4.156,4.196,3.32,
4.172,4.18,3.44,
4.172,4.18,3.36,
4.156,4.196,3.44,
4.172,4.18,3.44,
4.148,4.196,3.36,
4.156,4.196,3.36,
4.172,4.18,3.44,
4.172,4.18,3.36,
4.148,4.196,3.44,
4.172,4.196,3.44,
4.148,4.18,3.36,
4.172,4.18,3.44,
4.156,4.196,3.32,
4.172,4.196,3.32,
4.148,4.18,3.44,
4.172,4.196,3.36,
4.156,4.18,3.44,
4.172,4.196,3.36,
4.156,4.18,3.44,
4.172,4.196,3.36,
4.156,4.18,3.44,
4.172,4.196,3.36,
4.156,4.18,3.44,
4.172,4.18,3.44,
4.148,4.196,3.36,
4.156,4.196,3.36,
4.172,4.18,3.44,
4.156,4.196,3.36,
4.172,4.18,3.44,
4.172,4.196,3.44,
4.148,4.18,3.36,
4.156,4.18,3.36,
4.172,4.196,3.44,
4.172,4.196,3.36,
4.156,4.18,3.44,
4.156,4.196,3.44,
4.172,4.18,3.36,
4.172,4.196,3.36,
4.148,4.18,3.44,
4.156,4.196,3.36,
4.172,4.18,3.44,
4.172,4.196,3.36,
4.156,4.18,3.44,
4.172,4.18,3.36,
4.148,4.196,3.44,
4.156,4.18,3.44,
4.172,4.196,3.36,
4.172,4.18,3.32,
4.148,4.196,3.44,
4.172,4.196,3.36,
4.148,4.18,3.44,
4.156,4.18,3.44,
4.172,4.196,3.36,
4.172,4.196,3.44,
4.148,4.18,3.32,
4.156,4.18,3.44,
4.172,4.196,3.32,
4.156,4.196,3.36,
4.172,4.18,3.44,
4.172,4.18,3.36,
4.148,4.212,3.44,
4.172,4.204,3.44,
4.156,4.18,3.32,
4.172,4.196,3.44,
4.148,4.18,3.32,
4.156,4.18,3.44,
4.172,4.196,3.36,
4.172,4.18,3.44,
4.156,4.196,3.32,
4.172,4.196,3.36,
4.156,4.188,3.44,
4.172,4.196,3.36,
4.156,4.18,3.44,
4.172,4.196,3.44,
4.148,4.18,3.32,
4.172,4.196,3.36,
4.156,4.18,3.44,
4.172,4.196,3.44,
4.156,4.18,3.32,
4.172,4.196,3.44,
4.156,4.18,3.32,
4.172,4.196,3.32,
4.156,4.156,3.44,
4.172,4.196,3.36,
4.156,4.18,3.44,
4.156,4.196,3.36,
4.172,4.18,3.44,
4.172,4.196,3.44,
4.116,4.18,3.32,
4.172,4.196,3.36,
4.148,4.156,3.44,
4.156,4.196,3.36,
4.172,4.18,3.44,
4.172,4.196,3.36,
4.148,4.18,3.44,
4.172,4.196,3.44,
4.124,4.172,3.36,
4.172,4.196,3.44,
4.148,4.18,3.32,
4.172,4.18,3.36,
4.148,4.196,3.44,
4.172,4.18,3.44,
4.14,4.196,3.32,
4.172,4.196,3.36,
4.148,4.18,3.44,
4.156,4.196,3.44,
4.172,4.18,3.32,
4.172,4.18,3.44,
4.148,4.196,3.32,
4.156,4.18,3.44,
4.172,4.196,3.32,
4.172,4.196,3.36,
4.156,4.18,3.44,
4.172,4.18,3.36,
4.148,4.196,3.44,
4.156,4.18,3.44,
4.172,4.196,3.32,
4.156,4.196,3.36,
4.172,4.18,3.44,
4.172,4.196,3.36,
4.148,4.18,3.44,
4.156,4.18,3.44,
4.172,4.196,3.32,
4.172,4.18,3.36,
4.148,4.196,3.44,
4.172,4.196,3.44,
4.156,4.18,3.36,
4.156,4.196,3.36,
4.172,4.18,3.44,
4.148,4.18,3.36,
4.172,4.196,3.44,
4.172,4.196,3.44,
4.156,4.18,3.36,
4.172,4.196,3.44,
4.148,4.156,3.36,
4.156,4.172,3.44,
4.172,4.116,3.36,
4.172,4.164,3.36,
4.156,4.124,3.44,
4.172,4.132,3.36,
4.108,4.172,3.44,
4.132,4.172,3.44,
4.06,4.14,3.36,
4.116,4.124,3.44,
4.06,4.188,3.36,
4.068,4.172,3.36,
4.116,4.148,3.44,
4.116,4.164,3.36,
4.068,4.148,3.44,
4.06,4.156,3.36,
4.14,4.172,3.44,
4.116,4.172,3.36,
4.1,4.148,3.44,
4.116,4.164,3.36,
4.092,4.148,3.44,
4.1,4.172,3.44,
4.116,4.148,3.36,
4.116,4.164,3.44,
4.076,4.148,3.36,
4.092,4.172,3.44,
4.116,4.148,3.36,
4.1,4.148,3.44,
4.116,4.172,3.36,
4.116,4.172,3.44,
4.092,4.092,3.32,
4.1,4.116,3.36,
4.116,4.156,3.44,
4.1,4.156,3.44,
4.116,4.1,3.36,
4.116,4.1,3.44,
4.012,4.164,3.32,
4.084,4.14,3.36,
4.036,4.156,3.44,
4.092,4.156,3.36,
4.012,4.132,3.44,
4.02,4.132,3.4,
4.1,4.156,3.44,
4.092,4.196,3.4,
4.068,3.428,3.48,
4.092,3.476,3.4,
4.068,3.588,3.44,
4.092,3.58,3.48,
4.068,3.628,3.4,
4.148,3.62,3.4,
2.908,3.644,3.48,
2.956,3.628,3.4,
3.076,3.652,3.48,
3.06,3.652,3.4,
3.108,3.628,3.48,
3.092,3.628,3.4,
3.132,3.66,3.48,
3.116,3.644,3.44,
3.14,3.66,3.36,
3.116,3.628,3.36,
3.14,3.66,3.44,
3.14,3.628,3.36,
3.124,4.372,3.44,
3.14,4.34,3.44,
3.116,4.212,3.32,
3.14,4.22,3.44,
3.116,4.172,3.36,
3.124,4.18,3.44,
4.332,4.156,3.36,
4.3,4.148,3.44,
4.156,4.212,3.32,
4.164,4.196,3.36,
4.116,4.148,3.44,
4.132,4.148,3.44,
4.1,4.196,3.36,
4.092,4.196,3.44,
4.172,4.18,3.32,
4.172,4.196,3.4,
4.092,4.132,3.44,
4.092,4.196,3.4,
4.164,3.412,3.48,
4.164,3.436,3.4,
4.148,3.58,3.48,
4.164,3.572,3.44,
4.076,3.62,3.32,
4.164,3.612,3.32,
2.892,3.66,3.44,
2.916,3.644,3.36,
3.068,4.348,3.44,
3.044,4.244,3.36,
3.116,4.18,3.44,
3.084,4.22,3.44,
3.156,4.188,3.36,
3.132,4.196,3.44,
4.292,4.148,3.32,
4.124,4.164,3.44,
4.196,4.148,3.36,
4.196,4.148,3.32,
4.156,4.204,3.44,
4.164,4.196,3.36,
4.092,4.18,3.44,
4.092,4.18,3.44,
4.116,4.196,3.36,
4.092,4.196,3.44,
4.172,4.172,3.36,
4.164,4.196,3.36,
4.148,4.172,3.44,
4.164,4.18,3.44,
4.148,4.196,3.32,
4.164,4.188,3.36,
4.132,4.132,3.44,
4.148,4.1,3.44,
4.164,4.196,3.36,
4.164,3.428,3.36,
4.148,4.204,3.44,
4.156,4.172,3.44,
4.084,4.22,3.36,
4.028,4.196,3.44,
4.156,4.18,3.32,
2.924,4.196,3.44,
4.156,4.172,3.36,
4.108,4.188,3.36,
4.188,4.164,3.44,
4.164,4.188,3.44,
4.148,4.172,3.36,
4.164,4.172,3.44,
4.132,4.196,3.32,
4.156,4.18,3.36,
4.132,4.196,3.44,
4.156,4.172,3.44,
4.132,4.196,3.32,
4.132,4.196,3.32,
4.164,4.172,3.44,
4.148,4.196,3.36,
4.164,4.172,3.44,
4.164,4.196,3.44,
4.132,4.148,3.36,
4.164,4.164,3.44,
4.132,4.14,3.32,
4.148,4.14,3.4,
4.164,4.196,3.44,
4.164,4.196,3.4,
4.092,3.436,3.44,
4.108,3.476,3.44,
4.076,3.604,3.36,
4.084,3.596,3.44,
4.164,3.652,3.32,
4.164,3.628,3.44,
2.94,4.34,3.36,
2.964,4.252,3.36,
3.108,4.18,3.44,
3.092,4.196,3.36,
3.18,4.156,3.44,
3.124,4.172,3.44,
4.284,4.148,3.32,
4.188,4.156,3.36,
4.124,4.212,3.44,
4.14,4.18,3.44,
4.1,4.196,3.32,
4.116,4.196,3.36,
4.092,4.172,3.44,
4.1,4.196,3.36,
4.172,4.14,3.44,
4.164,4.164,3.44,
4.148,4.14,3.32,
4.164,4.148,3.44,
4.132,4.164,3.32,
4.164,4.148,3.44,
4.076,4.164,3.36,
4.108,4.148,3.36,
4.084,4.164,3.44,
4.092,4.148,3.44,
4.108,4.164,3.36,
4.092,4.164,3.44,
4.108,4.148,3.36,
4.108,4.164,3.44,
4.076,4.148,3.36,
4.108,4.164,3.36,
4.084,4.148,3.44,
4.108,4.148,3.44,
4.092,4.196,3.36,
4.108,4.196,3.36,
4.092,3.468,3.44,
4.108,3.556,3.36,
4.092,4.268,3.44,
4.092,4.252,3.44,
4.164,4.204,3.32,
4.164,4.204,3.44,
2.996,4.148,3.32,
3.076,4.172,3.44,
4.22,4.148,3.36,
4.22,4.156,3.44,
4.156,4.212,3.36,
4.172,4.196,3.36,
4.092,4.14,3.44,
4.116,4.164,3.36,
4.092,4.148,3.44,
4.1,4.148,3.36,
4.172,4.196,3.44,
4.164,4.132,3.44,
4.092,4.196,3.32,
4.092,3.444,3.36,
4.116,4.204,3.44,
4.1,4.188,3.44,
4.164,4.148,3.32,
4.076,4.172,3.44,
4.164,4.148,3.32,
4.164,4.156,3.36,
2.932,4.196,3.44,
4.132,4.196,3.36,
4.092,4.172,3.44,
4.116,4.188,3.44,
4.092,4.172,3.36,
4.1,4.188,3.32,
4.164,4.14,3.44,
4.164,4.148,3.36,
4.132,4.196,3.44,
4.132,4.204,3.36,
4.156,4.18,3.44,
4.148,4.196,3.44,
4.076,4.18,3.36,
4.092,4.18,3.44,
4.164,4.196,3.36,
4.172,4.196,3.44,
4.148,4.172,3.36,
4.164,4.196,3.44,
4.14,4.172,3.32,
4.148,4.188,3.44,
4.164,4.172,3.32,
4.164,4.188,3.36,
4.132,4.164,3.44,
4.164,4.188,3.36,
4.132,4.164,3.44,
4.132,4.188,3.44,
4.156,4.172,3.32,
4.132,4.188,3.36,
4.156,4.14,3.44,
4.132,4.148,3.44,
4.156,4.164,3.36,
4.156,4.164,3.36,
4.132,4.14,3.44,
4.156,4.14,3.44,
4.084,4.196,3.36,
4.092,4.196,3.36,
4.116,4.172,3.44,
4.116,4.18,3.44,
4.076,4.196,3.32,
4.068,4.196,3.44,
4.172,4.172,3.32,
4.164,4.18,3.36,
4.132,4.188,3.44,
4.148,4.196,3.44,
4.164,4.172,3.36,
4.164,4.188,3.44,
4.132,4.132,3.32,
4.164,4.148,3.44,
4.14,4.196,3.32,
4.148,3.452,3.36,
4.164,4.22,3.44,
4.156,4.212,3.44,
4.084,4.18,3.32,
4.092,4.18,3.44,
4.172,4.196,3.32,
2.948,4.196,3.36,
4.188,4.132,3.44,
4.172,4.148,3.36,
4.148,4.164,3.44,
4.164,4.148,3.44,
4.132,4.196,3.32,
4.164,4.196,3.44,
4.068,3.476,3.36,
4.084,4.084,3.44,
4.108,4.188,3.36,
4.092,4.172,3.36,
4.164,4.148,3.44,
4.164,4.164,3.44,
3.012,4.148,3.32,
4.004,4.164,3.36,
4.132,4.148,3.44,
4.116,4.164,3.44,
4.076,4.148,3.32,
4.092,4.164,3.36,
4.116,4.148,3.44,
4.108,4.148,3.36,
4.092,4.204,3.44,
4.108,4.196,3.36,
4.076,4.18,3.44,
4.092,4.188,3.36,
4.108,4.164,3.44,
4.092,4.188,3.36,
4.164,4.14,3.44,
4.164,4.164,3.44,
4.14,4.148,3.36,
4.132,4.148,3.44,
4.156,4.164,3.32,
4.156,4.148,3.36,
4.076,4.164,3.44,
4.092,4.164,3.44,
4.108,4.148,3.36,
4.108,4.164,3.36,
4.084,4.14,3.44,
4.108,4.164,3.36,
4.092,4.148,3.44,
4.108,4.148,3.32,
4.092,4.164,3.44,
4.108,4.164,3.36,
4.084,4.148,3.44,
4.108,4.164,3.36,
4.092,4.148,3.44,
4.116,4.148,3.36,
4.084,4.196,3.44,
4.108,4.196,3.44,
4.092,4.172,3.36,
4.116,4.188,3.36,
4.092,4.164,3.44,
4.092,4.188,3.44,
4.164,4.132,3.36,
4.164,4.148,3.36,
4.124,4.164,3.44,
4.156,4.164,3.36,
4.124,4.132,3.44,
4.156,4.164,3.44,
4.076,4.148,3.32,
4.108,4.164,3.44,
4.084,4.148,3.36,
4.108,4.164,3.36,
4.076,4.148,3.44,
4.108,4.148,3.44,
4.076,4.164,3.32,
4.116,4.164,3.44,
4.092,4.148,3.36,
4.108,4.164,3.36,
4.092,4.148,3.44,
4.092,4.164,3.36,
4.116,4.148,3.44,
4.108,4.148,3.44,
4.092,4.196,3.32,
4.108,4.196,3.36,
4.092,4.172,3.44,
4.108,4.188,3.44,
4.084,4.172,3.36,
4.092,4.188,3.44,
4.164,4.132,3.36,
4.164,4.148,3.36,
4.132,4.164,3.44,
4.156,4.148,3.44,
4.124,4.164,3.36,
4.156,4.164,3.36,
4.076,4.148,3.44,
4.108,4.164,3.44,
4.084,4.148,3.32,
4.092,4.164,3.36,
4.116,4.116,3.44,
4.108,4.164,3.44,
4.092,4.148,3.36,
4.116,4.148,3.44,
4.084,4.164,3.32,
4.108,4.164,3.36,
4.036,4.148,3.44,
4.108,4.14,3.36,
4.076,4.196,3.44,
4.116,4.196,3.36,
4.092,4.18,3.44,
4.108,4.196,3.32,
4.092,4.164,3.44,
4.084,4.188,3.36,
4.164,4.14,3.44,
4.164,4.132,3.44,
4.14,4.164,3.36,
4.156,4.164,3.44,
4.124,4.14,3.36,
4.156,4.148,3.36,
4.092,4.164,3.44,
4.076,4.148,3.44,
4.108,4.164,3.36,
4.108,4.164,3.44,
4.076,4.148,3.32,
4.092,4.164,3.44,
4.116,4.148,3.32,
4.092,4.164,3.36,
4.108,4.148,3.44,
4.108,4.164,3.44,
4.092,4.148,3.36,
4.092,4.148,3.44,
4.116,4.164,3.32,
4.108,4.148,3.36,
4.084,4.196,3.44,
4.108,4.196,3.36,
4.092,4.18,3.44,
4.116,4.196,3.44,
4.084,4.172,3.36,
4.092,4.188,3.44,
4.164,4.14,3.36,
4.164,4.164,3.36,
4.148,4.132,3.44,
4.164,4.148,3.44,
4.124,4.164,3.36,
4.156,4.164,3.36,
4.076,4.148,3.44,
4.108,4.164,3.44,
4.076,4.148,3.36,
4.092,4.148,3.44,
4.108,4.164,3.32,
4.108,4.164,3.44,
4.092,4.148,3.32,
4.116,4.164,3.44,
4.092,4.148,3.36,
4.116,4.164,3.44,
4.076,4.148,3.36,
4.116,4.164,3.44,
4.076,4.14,3.32,
4.092,4.148,3.44,
4.116,4.196,3.32,
4.108,4.196,3.36,
4.092,4.172,3.44,
4.108,4.196,3.36,
4.076,4.172,3.44,
4.092,4.188,3.36,
4.164,4.132,3.44,
4.164,4.132,3.36,
4.124,4.164,3.44,
4.156,4.148,3.36,
4.132,4.164,3.44,
4.156,4.164,3.44,
4.076,4.132,3.32,
4.108,4.164,3.32,
4.084,4.148,3.44,
4.092,4.164,3.36,
4.108,4.148,3.44,
4.108,4.164,3.36,
4.068,4.14,3.44,
4.108,4.164,3.44,
4.092,4.148,3.32,
4.108,4.164,3.44,
4.092,4.148,3.36,
4.108,4.164,3.36,
4.076,4.148,3.44,
4.116,4.148,3.44,
4.092,4.172,3.32,
4.108,4.172,3.36,
4.084,4.148,3.44,
4.092,4.172,3.36,
4.116,4.148,3.44,
4.092,4.196,3.44,
4.116,4.148,3.32,
4.116,4.164,3.36,
4.092,4.148,3.44,
4.116,4.148,3.32,
4.092,4.172,3.44,
4.164,4.148,3.36,
4.084,4.172,3.44,
4.092,4.148,3.44,
4.116,4.172,3.36,
4.116,4.164,3.44,
4.092,4.148,3.36,
4.092,4.164,3.36,
4.116,4.148,3.44,
4.116,4.164,3.44,
4.092,4.148,3.32,
4.116,4.148,3.44,
4.092,4.164,3.36,
4.116,4.164,3.44,
4.1,4.148,3.32,
4.116,4.164,3.44,
4.092,4.148,3.36,
4.108,4.164,3.36,
4.076,4.148,3.44,
4.108,4.164,3.44,
4.092,4.148,3.36,
4.108,4.164,3.36,
4.092,4.148,3.44,
4.108,4.164,3.36,
4.084,4.148,3.44,
4.092,4.164,3.44,
4.116,4.148,3.36,
4.084,4.164,3.36,
4.116,4.148,3.44,
4.116,4.164,3.36,
4.084,4.148,3.44,
4.108,4.164,3.36,
4.076,4.148,3.44,
4.108,4.164,3.36,
4.092,4.148,3.44,
4.108,4.148,3.44,
4.084,4.164,3.36,
4.108,4.164,3.44,
4.084,4.148,3.32,
4.108,4.164,3.44,
4.092,4.148,3.36,
4.108,4.164,3.44,
4.084,4.148,3.36,
4.092,4.164,3.44,
4.116,4.148,3.32,
4.092,4.164,3.44,
4.116,4.148,3.36,
4.108,4.164,3.36,
4.084,4.148,3.44,
4.108,4.164,3.36,
4.092,4.148,3.44,
4.108,4.148,3.44,
4.084,4.172,3.32,
4.092,4.164,3.44,
4.108,4.148,3.32,
4.108,4.164,3.36,
4.092,4.148,3.44,
4.092,4.164,3.44,
4.116,4.148,3.32,
4.116,4.164,3.36,
4.092,4.148,3.44,
4.108,4.164,3.44,
4.076,4.14,3.36,
4.108,4.164,3.36,
4.092,4.132,3.44,
4.092,4.164,3.36,
4.116,4.14,3.44,
4.108,4.148,3.44,
4.084,4.164,3.32,
4.076,4.148,3.36,
4.116,4.164,3.44,
4.108,4.164,3.44,
4.076,4.148,3.32,
4.108,4.148,3.36,
4.092,4.164,3.44,
4.108,4.164,3.44,
4.092,4.148,3.36,
4.108,4.148,3.36,
4.076,4.164,3.44,
4.108,4.164,3.44,
4.092,4.148,3.36,
4.108,4.164,3.44,
4.076,4.148,3.36,
4.092,4.164,3.36,
4.108,4.148,3.44,
4.108,4.164,3.44,
4.092,4.14,3.36,
4.108,4.164,3.44,
4.084,4.148,3.32,
4.108,4.164,3.36,
4.092,4.148,3.44,
4.108,4.148,3.44,
4.084,4.196,3.32,
4.092,4.196,3.36,
4.108,4.172,3.44,
4.108,4.188,3.36,
4.092,4.164,3.44,
4.092,4.188,3.44,
4.164,4.132,3.36,
4.164,4.14,3.32,
4.116,4.164,3.44,
4.156,4.164,3.44,
4.132,4.148,3.36,
4.156,4.164,3.36,
4.076,4.148,3.44,
4.108,4.164,3.36,
4.076,4.14,3.44,
4.108,4.164,3.44,
4.084,4.148,3.36,
4.108,4.164,3.36,
4.076,4.148,3.44,
4.108,4.164,3.36,
4.084,4.132,3.44,
4.108,4.164,3.44,
4.084,4.148,3.36,
4.108,4.164,3.36,
4.092,4.148,3.44,
4.108,4.156,3.36,
4.076,4.196,3.44,
4.108,4.18,3.44,
4.084,4.196,3.32,
4.108,4.188,3.44,
4.092,4.172,3.36,
4.092,4.188,3.44,
4.164,4.132,3.36,
4.164,4.164,3.36,
4.14,4.14,3.44,
4.156,4.164,3.36,
4.124,4.148,3.44,
4.156,4.148,3.44,
4.076,4.164,3.36,
4.108,4.148,3.36,
4.076,4.164,3.44,
4.108,4.164,3.44,
4.092,4.148,3.32,
4.108,4.164,3.44,
4.092,4.148,3.36,
4.108,4.164,3.36,
4.076,4.148,3.44,
4.108,4.164,3.36,
4.092,4.148,3.44,
4.116,4.164,3.36,
4.084,4.148,3.44,
4.108,4.156,3.36,
4.092,4.196,3.44,
4.092,4.196,3.44,
4.116,4.172,3.36,
4.108,4.188,3.36,
4.084,4.172,3.44,
4.1,4.188,3.36,
4.164,4.132,3.44,
4.164,4.164,3.44,
4.132,4.14,3.36,
4.156,4.164,3.44,
4.132,4.148,3.32,
4.156,4.164,3.36,
4.076,4.148,3.44,
4.108,4.164,3.36,
4.076,4.148,3.44,
4.108,4.164,3.36,
4.076,4.148,3.44,
4.108,4.164,3.36,
4.084,4.132,3.44,
4.108,4.164,3.44,
4.092,4.148,3.36,
4.108,4.164,3.44,
4.092,4.148,3.36,
4.108,4.148,3.36,
4.076,4.196,3.44,
4.108,4.196,3.36,
4.084,4.18,3.44,
4.108,4.196,3.36,
4.076,4.172,3.44,
4.092,4.188,3.36,
4.164,4.14,3.44,
4.164,4.132,3.36,
4.148,4.164,3.44,
4.164,4.148,3.44,
4.132,4.164,3.36,
4.156,4.148,3.44,
4.092,4.164,3.36,
4.108,4.164,3.32,
4.076,4.14,3.44,
4.108,4.148,3.44,
4.076,4.172,0.04,
4.108,4.164,0.16,
4.092,4.148,0.04,
4.108,4.148,0.04,
4.076,4.164,0.16,
4.108,4.132,0.04,
4.084,4.172,0.16,
4.108,4.172,0.04,
4.076,4.148,0.16,
