Power Payload/Metingen 6/Payload 2 230.csv

CH1,CH2,CH3,Start,Increment,
Volt,Volt,Volt,-5.995,0.01
4.084,4.196,0.16,
4.116,4.172,0.04,
4.116,4.196,0.16,
4.084,4.164,0.04,
4.092,4.196,0.04,
4.164,4.132,0.16,
4.164,4.148,0.04,
4.124,4.164,0.16,
4.156,4.164,0.12,
4.132,4.148,0.04,
4.156,4.172,0.04,
4.092,4.148,0.16,
4.092,4.148,0.16,
4.116,4.164,0.04,
4.116,4.148,0.16,
4.092,4.172,0.04,
4.116,4.172,0.16,
4.092,4.148,0.04,
4.116,4.148,0.16,
4.092,4.172,0.04,
4.116,4.172,0.04,
4.092,4.148,0.16,
4.116,4.172,0.04,
4.092,4.148,0.16,
4.116,4.156,0.04,
4.092,4.196,0.16,
4.116,4.196,0.04,
4.092,4.164,0.16,
4.116,4.188,0.04,
4.092,4.172,0.16,
4.1,4.188,0.16,
4.164,4.132,0.04,
4.164,4.148,0.04,
4.124,4.164,0.16,
4.156,4.164,0.04,
4.132,4.148,0.16,
4.156,4.164,0.12,
4.076,4.14,0.04,
4.108,4.164,0.04,
4.076,4.148,0.16,
4.108,4.164,0.04,
4.076,4.148,0.16,
4.108,4.164,0.12,
4.076,4.148,0.04,
4.108,4.164,0.16,
4.084,4.148,0.04,
4.092,4.164,0.16,
4.116,4.148,0.04,
4.092,4.164,0.04,
4.108,4.148,0.16,
4.108,4.164,0.16,
4.092,4.196,0.04,
4.108,4.196,0.04,
4.092,4.172,0.16,
4.092,4.188,0.04,
4.116,4.172,0.16,
4.1,4.188,0.16,
4.164,4.132,0.04,
4.164,4.148,0.04,
4.14,4.164,0.16,
4.156,4.148,0.04,
4.132,4.164,0.16,
4.148,4.148,0.04,
4.076,4.164,0.16,
4.108,4.164,0.12,
4.076,4.148,0.04,
4.108,4.164,0.16,
4.076,4.148,0.04,
4.092,4.164,0.04,
4.116,4.148,0.16,
4.108,4.164,0.04,
4.076,4.148,0.16,
4.108,4.164,0.16,
4.084,4.148,0.04,
4.108,4.148,0.12,
4.084,4.212,0.04,
4.108,4.196,0.04,
4.076,4.18,0.16,
4.092,4.196,0.12,
4.116,4.164,0.04,
4.076,4.188,0.16,
4.164,4.132,0.04,
4.164,4.132,0.16,
4.14,4.164,0.04,
4.164,4.148,0.12,
4.132,4.164,0.04,
4.156,4.164,0.16,
4.076,4.148,0.04,
4.084,4.164,0.04,
4.108,4.148,0.16,
4.108,4.164,0.04,
4.076,4.148,0.16,
4.108,4.148,0.04,
4.084,4.164,0.12,
4.108,4.164,0.04,
4.084,4.14,0.16,
4.108,4.164,0.04,
4.092,4.148,0.16,
4.116,4.164,0.12,
4.084,4.148,0.04,
4.108,4.148,0.04,
4.076,4.196,0.16,
4.108,4.18,0.04,
4.076,4.196,0.16,
4.108,4.188,0.04,
4.076,4.172,0.16,
4.092,4.188,0.16,
4.164,4.14,0.04,
4.164,4.164,0.16,
4.14,4.132,0.04,
4.164,4.148,0.12,
4.132,4.164,0.04,
4.156,4.148,0.04,
4.076,4.164,0.16,
4.108,4.164,0.04,
4.076,4.132,0.16,
4.108,4.164,0.12,
4.084,4.14,0.04,
4.108,4.148,0.04,
4.092,4.164,0.16,
4.108,4.148,0.16,
4.076,4.172,0.04,
4.108,4.164,0.04,
4.068,4.148,0.16,
4.108,4.164,0.04,
4.084,4.148,0.16,
4.116,4.148,0.04,
4.084,4.196,0.16,
4.108,4.196,0.16,
4.092,4.172,0.04,
4.108,4.196,0.04,
4.076,4.172,0.16,
4.092,4.188,0.04,
4.164,4.132,0.16,
4.164,4.1,0.04,
4.124,4.172,0.16,
4.156,4.172,0.04,
4.132,4.148,0.16,
4.156,4.172,0.16,
4.076,4.148,0.04,
4.02,4.164,0.04,
4.116,4.148,0.16,
4.116,4.172,0.04,
4.076,4.148,0.16,
4.116,4.164,0.04,
4.092,4.148,0.16,
4.116,4.1,0.04,
4.1,4.188,0.16,
4.092,4.164,0.04,
4.116,4.14,0.16,
4.116,4.172,0.04,
4.092,4.132,0.16,
4.036,4.172,0.12,
4.148,4.124,0.04,
4.116,4.116,0.16,
4.068,4.188,0.04,
4.116,4.172,0.12,
4.068,4.148,0.04,
4.116,4.172,0.04,
4.044,4.148,0.16,
4.044,4.148,0.16,
4.164,4.172,0.04,
4.116,4.172,0.04,
4.076,4.132,0.12,
4.1,4.156,0.16,
4.116,4.172,0.04,
4.1,4.156,0.16,
4.116,4.172,0.04,
4.068,4.172,0.16,
4.116,4.148,0.04,
4.1,4.172,0.04,
4.116,4.148,0.16,
4.1,4.156,0.16,
4.116,4.172,0.04,
4.116,4.156,0.04,
4.092,4.172,0.16,
4.116,4.156,0.16,
4.076,4.172,0.04,
4.1,4.116,0.04,
4.116,4.172,0.16,
4.116,4.148,0.12,
4.092,4.172,0.04,
4.1,4.148,0.04,
4.116,4.172,0.16,
4.116,4.164,0.04,
4.044,4.148,0.16,
4.116,4.172,0.04,
4.092,4.148,0.12,
4.084,4.164,0.16,
4.116,4.148,0.04,
4.1,4.172,0.16,
4.116,4.148,0.04,
4.116,4.124,0.16,
4.092,4.172,0.04,
4.116,4.14,0.16,
4.092,4.172,0.04,
4.1,4.212,0.16,
4.116,4.148,0.04,
4.044,4.196,0.04,
4.116,4.148,0.16,
4.076,4.196,0.04,
4.116,4.148,0.16,
4.172,4.148,0.04,
4.092,4.196,0.16,
4.172,4.148,0.04,
4.084,4.212,0.16,
4.172,4.148,0.12,
4.092,4.196,0.04,
4.092,4.204,0.04,
4.172,4.148,0.16,
4.1,4.148,0.16,
4.172,4.204,0.04,
4.172,4.148,0.04,
4.092,4.212,0.16,
4.172,4.196,0.12,
4.092,4.148,0.04,
4.1,4.148,0.16,
4.172,4.204,0.04,
4.1,4.148,0.04,
4.172,4.196,0.16,
4.1,4.148,0.04,
4.172,4.196,0.16,
4.1,4.148,0.04,
4.172,4.212,0.16,
4.172,4.196,0.04,
4.092,4.148,0.16,
4.1,4.148,0.04,
4.172,4.196,0.16,
4.1,4.196,0.04,
4.172,4.132,0.16,
4.164,4.148,0.16,
4.092,4.196,0.04,
4.164,4.148,0.12,
4.092,4.196,0.04,
4.164,4.196,0.16,
4.076,4.148,0.04,
4.092,4.148,0.16,
4.172,4.196,0.04,
4.092,4.148,0.12,
4.172,4.196,0.04,
4.164,4.148,0.04,
4.092,4.196,0.16,
4.172,4.084,0.04,
4.092,4.212,0.16,
4.092,4.188,0.04,
4.172,4.22,0.16,
4.164,4.204,0.04,
4.092,4.18,0.16,
4.004,4.196,0.04,
4.172,4.18,0.16,
4.156,4.196,0.16,
4.188,4.18,0.04,
4.172,4.18,0.04,
4.148,4.196,0.16,
4.172,4.18,0.04,
4.148,4.196,0.12,
4.156,4.196,0.04,
4.172,4.18,0.16,
4.172,4.196,0.04,
4.148,4.18,0.16,
4.172,4.196,0.04,
4.148,4.18,3.44,
4.172,4.196,3.44,
4.148,4.18,3.36,
4.172,4.196,3.44,
4.148,4.172,3.32,
4.156,4.196,3.36,
4.172,4.18,3.44,
4.156,4.196,3.36,
4.172,4.18,3.44,
4.172,4.196,3.36,
4.148,4.18,3.44,
4.172,4.196,3.44,
4.156,4.18,3.32,
4.172,4.18,3.36,
4.148,4.196,3.44,
4.156,4.196,3.32,
4.172,4.18,3.44,
4.172,4.18,3.44,
4.148,4.196,3.32,
4.172,4.196,3.44,
4.148,4.172,3.32,
4.172,4.196,3.36,
4.156,4.172,3.44,
4.172,4.196,3.36,
4.148,4.18,3.44,
4.172,4.196,3.44,
4.148,4.18,3.32,
4.172,4.196,3.44,
4.14,4.18,3.36,
4.156,4.196,3.36,
4.172,4.18,3.44,
4.172,4.196,3.44,
4.156,4.18,3.32,
4.156,4.196,3.36,
4.172,4.18,3.44,
4.172,4.196,3.44,
4.156,4.18,3.36,
4.172,4.196,3.44,
4.148,4.18,3.32,
4.172,4.196,3.36,
4.148,4.18,3.44,
4.156,4.196,3.44,
4.172,4.18,3.36,
4.172,4.196,3.36,
4.148,4.18,3.44,
4.156,4.196,3.36,
4.172,4.18,3.44,
4.172,4.196,3.36,
4.148,4.18,3.44,
4.172,4.196,3.36,
4.148,4.18,3.44,
4.172,4.196,3.44,
4.156,4.18,3.36,
4.172,4.196,3.36,
4.148,4.18,3.44,
4.156,4.196,3.36,
4.172,4.18,3.44,
4.172,4.196,3.36,
4.156,4.18,3.44,
4.172,4.196,3.36,
4.148,4.18,3.44,
4.172,4.196,3.36,
4.156,4.18,3.44,
4.172,4.18,3.44,
4.148,4.196,3.36,
4.156,4.196,3.44,
4.172,4.18,3.32,
4.172,4.196,3.44,
4.148,4.18,3.36,
4.172,4.196,3.36,
4.148,4.18,3.44,
4.172,4.196,3.44,
4.148,4.18,3.32,
4.172,4.196,3.44,
4.148,4.18,3.36,
4.156,4.18,3.44,
4.172,4.196,3.32,
4.172,4.196,3.36,
4.148,4.18,3.44,
4.156,4.196,3.44,
4.172,4.18,3.32,
4.156,4.18,3.36,
4.172,4.196,3.44,
4.156,4.18,3.44,
4.172,4.196,3.36,
4.156,4.196,3.44,
4.172,4.18,3.32,
4.156,4.196,3.44,
4.172,4.18,3.32,
4.172,4.18,3.36,
4.148,4.196,3.44,
4.156,4.18,3.44,
4.172,4.196,3.36,
4.172,4.196,3.44,
4.148,4.18,3.32,
4.172,4.196,3.32,
4.156,4.18,3.44,
4.172,4.196,3.36,
4.148,4.18,3.44,
4.172,4.18,3.44,
4.148,4.196,3.32,
4.172,4.196,3.36,
4.148,4.18,3.44,
4.172,4.196,3.36,
4.148,4.18,3.44,
4.156,4.196,3.36,
4.172,4.18,3.44,
4.156,4.196,3.32,
4.172,4.18,3.44,
4.172,4.196,3.36,
4.148,4.18,3.44,
4.156,4.196,3.36,
4.172,4.18,3.44,
4.156,4.18,3.44,
4.172,4.196,3.32,
4.156,4.196,3.44,
4.172,4.18,3.36,
4.172,4.18,3.36,
4.148,4.196,3.44,
4.172,4.196,3.44,
4.148,4.18,3.32,
4.172,4.196,3.36,
4.148,4.18,3.44,
4.156,4.196,3.36,
4.172,4.18,3.44,
4.156,4.196,3.44,
4.172,4.18,3.36,
4.172,4.196,3.36,
4.156,4.18,3.44,
4.172,4.196,3.44,
4.148,4.18,3.36,
4.172,4.18,3.36,
4.156,4.196,3.44,
4.172,4.196,3.44,
4.148,4.156,3.36,
4.156,4.196,3.36,
4.172,4.172,3.44,
4.172,4.196,3.36,
4.148,4.18,3.44,
4.172,4.196,3.44,
4.124,4.18,3.32,
4.172,4.196,3.32,
4.14,4.156,3.44,
4.172,4.196,3.36,
4.148,4.18,3.44,
4.156,4.196,3.36,
4.172,4.18,3.44,
4.172,4.196,3.44,
4.124,4.172,3.32,
4.172,4.18,3.36,
4.148,4.196,3.44,
4.172,4.18,3.44,
4.156,4.196,3.36,
4.172,4.196,3.36,
4.14,4.18,3.44,
4.172,4.196,3.44,
4.156,4.18,3.32,
4.156,4.196,3.44,
4.172,4.18,3.32,
4.172,4.196,3.44,
4.148,4.18,3.36,
4.172,4.196,3.36,
4.148,4.18,3.44,
4.172,4.196,3.36,
4.156,4.18,3.44,
4.172,4.18,3.36,
4.156,4.196,3.44,
4.172,4.196,3.36,
4.156,4.18,3.44,
4.172,4.18,3.44,
4.148,4.196,3.36,
4.156,4.196,3.44,
4.172,4.18,3.36,
4.14,4.196,3.36,
4.172,4.18,3.44,
4.156,4.18,3.36,
4.172,4.196,3.44,
4.172,4.196,3.44,
4.148,4.18,3.32,
4.172,4.196,3.44,
4.148,4.18,3.36,
4.172,4.18,3.36,
4.148,4.196,3.44,
4.172,4.18,3.36,
4.148,4.196,3.44,
4.156,4.196,3.36,
4.172,4.18,3.44,
4.172,4.196,3.44,
4.148,4.18,3.36,
4.172,4.196,3.44,
4.148,4.18,3.36,
4.172,4.196,3.36,
4.148,4.18,3.44,
4.172,4.196,3.36,
4.148,4.108,3.44,
4.172,4.164,3.32,
4.156,4.14,3.44,
4.156,4.132,3.36,
4.172,4.172,3.44,
4.164,4.132,3.44,
4.044,4.172,3.36,
4.116,4.132,3.44,
4.068,4.172,3.32,
4.116,4.14,3.44,
4.06,4.18,3.36,
4.068,4.148,3.44,
4.116,4.172,3.36,
4.068,4.148,3.36,
4.116,4.172,3.44,
4.068,4.164,3.36,
4.148,4.148,3.44,
4.116,4.164,3.36,
4.092,4.148,3.44,
4.116,4.148,3.44,
4.092,4.172,3.36,
4.116,4.164,3.44,
4.084,4.148,3.32,
4.116,4.164,3.36,
4.084,4.148,3.44,
4.116,4.164,3.36,
4.092,4.148,3.44,
4.116,4.172,3.36,
4.092,4.148,3.44,
4.116,4.18,3.44,
4.084,4.124,3.36,
4.092,4.164,3.36,
4.116,4.132,3.44,
4.116,4.116,3.36,
4.092,4.172,3.44,
4.06,4.172,3.44,
4.14,4.14,3.32,
4.076,4.124,3.44,
4.116,4.172,3.36,
4.116,4.172,3.36,
4.02,4.132,3.44,
4.116,4.172,3.36,
4.076,4.116,3.44,
4.116,4.116,3.44,
4.044,4.172,3.36,
4.116,4.172,3.36,
4.044,4.124,3.44,
4.116,4.172,3.44,
4.036,4.132,3.36,
4.036,4.132,3.36,
4.132,4.172,3.44,
4.116,4.172,3.36,
4.06,4.14,3.44,
4.116,4.172,3.32,
4.076,4.116,3.44,
4.068,4.124,3.44,
4.116,4.172,3.32,
4.116,4.132,3.44,
4.084,4.196,3.32,
4.036,4.172,3.36,
4.124,4.148,3.44,
4.06,4.172,3.36,
4.124,4.148,3.44,
4.068,4.172,3.36,
4.156,4.148,3.44,
4.132,4.156,3.36,
4.084,4.172,3.44,
4.116,4.156,3.36,
4.092,4.172,3.44,
4.116,4.172,3.44,
4.092,4.148,3.36,
4.1,4.172,3.44,
4.116,4.148,3.36,
4.116,4.172,3.36,
4.092,4.148,3.44,
4.116,4.172,3.36,
4.092,4.156,3.44,
4.1,4.156,3.36,
4.116,4.172,3.44,
4.116,4.18,3.36,
4.092,4.092,3.44,
4.116,4.156,3.44,
4.1,4.124,3.32,
4.116,4.156,3.36,
4.1,4.132,3.44,
4.14,4.156,3.36,
4.012,4.132,3.44,
4.084,4.156,3.36,
4.052,4.132,3.44,
4.084,4.164,3.36,
4.06,4.132,3.44,
4.076,4.132,3.36,
4.092,4.156,3.44,
4.092,4.132,3.44,
4.068,4.164,3.36,
4.092,4.156,3.44,
4.068,4.132,3.36,
4.1,4.156,3.36,
4.068,4.132,3.44,
4.1,4.132,3.36,
4.068,4.156,3.44,
4.068,4.156,3.36,
4.1,4.132,3.44,
4.068,4.156,3.44,
4.1,4.132,3.36,
4.092,4.156,3.36,
4.068,4.132,3.44,
4.092,4.156,3.44,
4.068,4.132,3.32,
4.092,4.156,3.44,
4.068,4.132,3.32,
4.092,4.132,3.36,
4.068,4.156,3.44,
4.1,4.132,3.36,
4.068,4.156,3.44,
4.1,4.156,3.36,
4.068,4.132,3.44,
4.092,4.156,3.44,
4.06,4.132,3.32,
4.068,4.156,3.36,
4.092,4.132,3.44,
4.068,4.156,3.36,
4.092,4.132,3.44,
4.068,4.132,3.44,
4.092,4.156,3.32,
4.092,4.156,3.36,
4.06,4.116,3.44,
4.068,4.132,3.36,
4.1,4.164,3.44,
4.068,4.156,3.36,
4.084,4.132,3.44,
4.1,4.156,3.4,
4.044,4.132,3.44,
4.06,4.156,3.4,
4.1,4.132,3.48,
4.092,4.196,3.4,
4.068,3.436,3.48,
4.1,3.484,3.4,
4.06,3.588,3.44,
4.084,3.588,3.4,
4.068,3.628,3.48,
4.156,3.62,3.4,
2.932,3.652,3.48,
2.964,3.628,3.4,
3.076,3.652,3.48,
3.06,3.652,3.4,
3.108,3.628,3.44,
3.1,3.628,3.48,
3.132,3.66,3.36,
3.108,3.66,3.36,
3.14,3.628,3.44,
3.124,3.644,3.32,
3.14,3.66,3.44,
3.14,3.644,3.36,
3.124,4.372,3.44,
3.124,4.332,3.36,
3.14,4.244,3.44,
3.124,4.252,3.44,
3.156,4.204,3.32,
3.124,4.212,3.44,
4.324,4.18,3.36,
4.284,4.18,3.36,
4.212,4.148,3.44,
4.22,4.148,3.44,
4.172,4.196,3.32,
4.18,4.196,3.44,
4.156,4.148,3.32,
4.148,4.148,3.36,
4.092,4.172,3.44,
4.092,4.18,3.36,
4.164,4.196,3.44,
4.164,4.196,3.4,
4.092,4.14,3.44,
4.092,4.124,3.4,
4.132,4.196,3.44,
4.164,4.196,3.48,
4.14,3.412,3.32,
4.164,3.532,3.44,
4.076,3.628,3.32,
4.052,3.588,3.32,
4.172,3.644,3.44,
4.172,3.612,3.44,
2.908,4.364,3.36,
2.98,4.3,3.44,
3.124,4.212,3.36,
3.06,4.22,3.44,
3.14,4.156,3.32,
3.084,4.164,3.44,
4.308,4.148,3.32,
4.268,4.148,3.36,
4.18,4.204,3.44,
4.196,4.196,3.36,
4.1,4.132,3.44,
4.108,4.148,3.32,
4.092,4.164,3.44,
4.092,4.148,3.36,
4.172,4.164,3.44,
4.164,4.14,3.36,
4.084,4.204,3.44,
4.084,4.196,3.44,
4.116,4.164,3.32,
4.092,4.196,3.36,
4.108,4.172,3.44,
4.068,4.188,3.36,
4.164,4.172,3.44,
4.164,4.18,3.44,
4.132,4.196,3.32,
4.164,4.188,3.44,
4.14,4.172,3.36,
4.164,4.18,3.44,
4.14,4.132,3.36,
4.148,3.428,3.36,
4.164,4.212,3.44,
4.164,4.212,3.4,
4.132,4.156,3.48,
4.132,4.164,3.4,
4.068,4.212,3.48,
4.156,4.196,3.44,
2.932,3.436,3.36,
4.156,3.492,3.44,
4.1,3.612,3.36,
4.1,3.612,3.36,
4.172,3.66,3.44,
4.172,3.644,3.44,
2.948,4.34,3.32,
2.996,4.244,3.44,
3.132,4.164,3.32,
3.092,4.188,3.44,
3.188,4.156,3.36,
3.148,4.172,3.36,
4.3,4.148,3.44,
4.188,4.148,3.36,
4.116,4.212,3.44,
4.132,4.196,3.36,
4.092,4.172,3.44,
4.116,4.188,3.36,
4.092,4.172,3.44,
4.092,4.188,3.44,
4.164,4.14,3.36,
4.164,4.148,3.4,
4.132,4.164,3.44,
4.156,4.148,3.44,
4.132,4.196,3.4,
4.156,4.196,3.44,
4.084,3.444,3.32,
4.076,3.508,3.44,
4.116,3.636,3.32,
4.092,3.62,3.44,
4.172,3.668,3.32,
4.164,3.652,3.44,
2.956,4.34,3.36,
3.012,4.228,3.36,
3.14,4.172,3.44,
3.108,4.188,3.44,
3.196,4.156,3.32,
3.156,4.172,3.44,
4.284,4.148,3.36,
4.172,4.148,3.36,
4.108,4.196,3.44,
4.132,4.196,3.36,
4.092,4.164,3.44,
4.116,4.196,3.44,
4.092,4.172,3.36,
4.092,4.188,3.36,
4.164,4.132,3.44,
4.164,4.148,3.44,
4.132,4.164,3.36,
4.132,4.148,3.44,
4.164,4.196,3.36,
4.164,3.476,3.36,
4.084,4.22,3.44,
4.092,4.244,3.44,
4.116,4.172,3.36,
4.092,4.188,3.44,
4.172,4.156,3.32,
4.164,4.172,3.36,
3.004,4.148,3.44,
4.188,4.172,3.44,
4.124,4.148,3.36,
4.132,4.164,3.36,
4.092,4.148,3.44,
4.116,4.164,3.44,
4.092,4.148,3.36,
4.116,4.156,3.36,
4.092,4.196,3.44,
4.116,4.196,3.44,
4.084,4.172,3.36,
4.116,4.188,3.36,
4.092,4.172,3.44,
4.1,4.172,3.36,
4.164,4.132,3.44,
4.164,4.14,3.36,
4.132,4.196,3.44,
4.132,4.196,3.44,
4.156,4.14,3.36,
4.14,4.148,3.36,
4.068,4.164,3.44,
4.068,4.148,3.36,
4.164,4.164,3.44,
4.164,4.164,3.36,
4.076,4.148,3.44,
4.092,4.148,3.44,
4.108,4.164,3.32,
4.092,4.124,3.36,
4.108,4.196,3.44,
4.108,4.196,3.44,
4.084,4.18,3.36,
4.092,4.196,3.44,
4.108,4.164,3.32,
4.052,4.188,3.44,
4.164,4.172,3.36,
4.164,4.188,3.36,
4.132,4.132,3.44,
4.164,4.196,3.44,
4.124,3.452,3.36,
4.156,3.5,3.32,
4.124,4.204,3.44,
4.156,4.156,3.44,
4.076,4.204,3.36,
4.164,4.196,3.36,
2.972,4.172,3.44,
3.004,3.492,3.44,
4.148,4.188,3.32,
4.092,4.172,3.36,
4.172,4.148,3.44,
4.164,4.148,3.44,
4.116,4.172,3.36,
4.148,4.164,3.44,
3.028,4.148,3.32,
4.092,4.164,3.36,
4.116,4.132,3.44,
4.092,4.148,3.44,
4.116,4.164,3.36,
4.108,4.148,3.36,
4.092,4.196,3.44,
4.068,4.196,3.44,
4.116,4.18,3.36,
4.084,4.188,3.36,
4.116,4.164,3.44,
4.084,4.188,3.44,
4.164,4.14,3.32,
4.164,4.148,3.44,
4.14,4.164,3.32,
4.164,4.164,3.44,
4.132,4.14,3.36,
4.156,4.164,3.36,
4.084,4.148,3.44,
4.108,4.164,3.44,
4.084,4.148,3.36,
4.108,4.164,3.32,
4.076,4.148,3.44,
4.108,4.164,3.36,
4.076,4.148,3.44,
4.108,4.164,3.44,
4.092,4.148,3.36,
4.108,4.164,3.36,
4.084,4.148,3.44,
4.108,4.148,3.44,
4.084,4.164,3.36,
4.108,4.148,3.36,
4.084,4.196,3.44,
4.092,4.18,3.36,
4.108,4.196,3.44,
4.108,4.188,3.36,
4.076,4.164,3.44,
4.092,4.188,3.36,
4.164,4.14,3.44,
4.164,4.148,3.44,
4.14,4.164,3.36,
4.156,4.164,3.44,
4.124,4.132,3.36,
4.156,4.164,3.36,
4.076,4.14,3.44,
4.108,4.164,3.44,
4.084,4.148,3.36,
4.108,4.164,3.44,
4.084,4.148,3.32,
4.108,4.164,3.36,
4.076,4.148,3.44,
4.108,4.164,3.36,
4.076,4.148,3.44,
4.092,4.164,3.36,
4.116,4.148,3.44,
4.108,4.164,3.44,
4.084,4.148,3.32,
4.108,4.156,3.36,
4.076,4.196,3.44,
4.092,4.196,3.36,
4.116,4.172,3.44,
4.108,4.188,3.44,
4.076,4.164,3.36,
4.092,4.188,3.44,
4.164,4.14,3.32,
4.156,4.164,3.36,
4.132,4.132,3.44,
4.124,4.148,3.36,
4.156,4.164,3.44,
4.148,4.164,3.36,
4.076,4.148,3.44,
4.084,4.164,3.36,
4.108,4.148,3.44,
4.092,4.164,3.36,
4.108,4.148,3.44,
4.092,4.164,3.36,
4.108,4.148,3.44,
4.108,4.164,3.44,
4.076,4.148,3.36,
4.092,4.148,3.36,
4.116,4.164,3.44,
4.108,4.148,3.36,
4.076,4.172,3.44,
4.108,4.156,3.44,
4.092,4.196,3.32,
4.092,4.196,3.36,
4.108,4.172,3.44,
4.084,4.188,3.44,
4.116,4.164,3.36,
4.1,4.188,3.44,
4.164,4.132,3.32,
4.164,4.164,3.36,
4.124,4.148,3.44,
4.156,4.148,3.44,
4.132,4.164,3.36,
4.14,4.164,3.44,
4.076,4.148,3.36,
4.108,4.164,3.36,
4.076,4.14,3.44,
4.092,4.164,3.36,
4.108,4.148,3.44,
4.108,4.164,3.44,
4.092,4.148,3.32,
4.108,4.164,3.44,
4.076,4.148,3.36,
4.108,4.148,3.44,
4.092,4.164,3.36,
4.108,4.148,3.36,
4.076,4.196,3.44,
4.092,4.196,3.36,
4.116,4.172,3.44,
4.108,4.164,3.36,
4.084,4.196,3.44,
4.092,4.188,3.44,
4.164,4.14,3.36,
4.164,4.132,3.36,
4.132,4.164,3.44,
4.132,4.164,3.44,
4.164,4.148,3.36,
4.156,4.164,3.44,
4.084,4.148,3.36,
4.076,4.164,3.36,
4.108,4.148,3.44,
4.092,4.164,3.44,
4.108,4.148,3.32,
4.108,4.164,3.36,
4.076,4.14,3.44,
4.084,4.164,3.36,
4.116,4.148,3.44,
4.084,4.164,3.44,
4.116,4.148,3.32,
4.108,4.148,3.36,
4.076,4.164,3.44,
4.092,4.148,3.36,
4.116,4.172,3.44,
4.108,4.148,3.36,
4.076,4.172,3.44,
4.108,4.148,3.32,
4.076,4.196,3.44,
4.092,4.204,3.36,
4.116,4.148,3.44,
4.116,4.164,3.36,
4.092,4.14,3.44,
4.092,4.164,3.36,
4.164,4.148,3.44,
4.164,4.148,3.44,
4.084,4.172,3.32,
4.084,4.148,3.44,
4.116,4.172,3.36,
4.092,4.172,3.44,
4.116,4.148,3.36,
4.116,4.164,3.44,
4.092,4.148,3.32,
4.092,4.172,3.44,
4.116,4.148,3.36,
4.116,4.164,3.36,
4.092,4.148,3.44,
4.084,4.148,3.44,
4.116,4.164,3.32,
4.116,4.148,3.44,
4.092,4.164,3.36,
4.108,4.164,3.44,
4.084,4.148,3.36,
4.108,4.164,3.44,
4.092,4.148,3.36,
4.108,4.164,3.44,
4.092,4.132,3.36,
4.108,4.164,3.36,
4.076,4.148,3.44,
4.084,4.164,3.44,
4.116,4.148,3.36,
4.108,4.148,3.36,
4.076,4.164,3.44,
4.108,4.164,3.36,
4.092,4.148,3.44,
4.108,4.164,3.44,
4.076,4.148,3.36,
4.092,4.164,3.44,
4.116,4.148,3.32,
4.108,4.164,3.44,
4.092,4.148,3.36,
4.108,4.164,3.44,
4.084,4.148,3.36,
4.108,4.164,3.36,
4.092,4.148,3.44,
4.108,4.164,3.44,
4.076,4.148,3.36,
4.108,4.164,3.36,
4.084,4.148,3.44,
4.108,4.164,3.44,
4.092,4.148,3.36,
4.108,4.148,3.44,
4.092,4.164,3.32,
4.108,4.164,3.36,
4.092,4.148,3.44,
4.108,4.148,3.36,
4.084,4.164,3.44,
4.092,4.164,3.44,
4.116,4.148,3.36,
4.092,4.164,3.36,
4.108,4.148,3.44,
4.108,4.164,3.44,
4.084,4.148,3.36,
4.108,4.164,3.44,
4.092,4.148,3.32,
4.092,4.148,3.32,
4.116,4.164,3.44,
4.108,4.164,3.36,
4.092,4.148,3.44,
4.076,4.164,3.44,
4.116,4.148,3.36,
4.108,4.164,3.36,
4.076,4.148,3.44,
4.108,4.164,3.36,
4.092,4.148,3.44,
4.092,4.164,3.36,
4.108,4.148,3.44,
4.076,4.164,3.44,
4.116,4.148,3.32,
4.108,4.148,3.36,
4.092,4.164,3.44,
4.108,4.164,3.44,
4.092,4.148,3.36,
4.092,4.164,3.36,
4.116,4.148,3.44,
4.108,4.164,3.44,
4.084,4.148,3.36,
4.076,4.164,3.36,
4.116,4.148,3.44,
4.092,4.164,3.44,
4.116,4.148,3.32,
4.092,4.164,3.44,
4.116,4.148,3.36,
4.116,4.148,3.36,
4.084,4.164,3.44,
4.108,4.148,3.44,
4.092,4.196,3.36,
4.108,4.196,3.44,
4.092,4.18,3.32,
4.092,4.196,3.36,
4.116,4.172,3.44,
4.092,4.196,3.44,
4.164,4.132,3.36,
4.164,4.132,3.36,
4.148,4.164,3.44,
4.164,4.164,3.44,
4.132,4.148,3.32,
4.156,4.164,3.36,
4.084,4.148,3.44,
4.076,4.164,3.36,
4.108,4.148,3.44,
4.108,4.164,3.44,
4.076,4.132,3.36,
4.108,4.164,3.44,
4.092,4.148,3.32,
4.116,4.164,3.36,
4.092,4.148,3.44,
4.108,4.164,3.36,
4.084,4.148,3.44,
4.092,4.148,3.44,
4.116,4.164,3.32,
4.108,4.148,3.36,
4.076,4.196,3.44,
4.108,4.196,3.36,
4.092,4.18,3.44,
4.092,4.188,3.36,
4.116,4.172,3.44,
4.092,4.188,3.36,
4.164,4.132,3.44,
4.164,4.148,3.36,
4.148,4.164,3.44,
4.156,4.164,3.44,
4.132,4.148,3.32,
4.156,4.148,3.44,
4.076,4.164,3.32,
4.108,4.164,3.36,
4.084,4.148,3.44,
4.108,4.164,3.36,
4.076,4.148,3.44,
4.092,4.148,3.44,
4.116,4.164,3.32,
4.108,4.164,3.36,
4.092,4.148,3.44,
4.108,4.164,3.36,
4.092,4.14,3.44,
4.092,4.164,3.44,
4.116,4.148,3.36,
4.084,4.148,3.44,
4.116,4.196,3.32,
4.068,4.196,3.32,
4.116,4.172,3.44,
4.108,4.188,3.44,
4.084,4.172,3.36,
4.092,4.188,3.36,
4.164,4.132,3.44,
4.164,4.164,3.44,
4.132,4.132,3.36,
4.156,4.148,3.36,
4.132,4.164,3.44,
4.148,4.148,3.44,
4.076,4.164,0.12,
4.108,4.164,0.04,
4.076,4.148,0.16,
4.092,4.164,0.12,
4.108,4.148,0.04,
4.092,4.148,0.16,
4.116,4.164,0.04,
4.092,4.164,0.04,
4.116,4.14,0.16,
4.092,4.164,0.04,
4.116,4.148,0.16,
4.116,4.164,0.12,
4.076,4.148,0.04,
4.108,4.148,0.04,
4.076,4.196,0.16,
4.116,4.196,0.16,
4.076,4.172,0.04,
4.108,4.188,0.16,
4.084,4.172,0.04,
4.092,4.188,0.16,
4.164,4.132,0.04,
4.164,4.132,0.12,
4.108,4.164,0.04,
4.156,4.164,0.16,
4.132,4.14,0.04,
4.156,4.164,0.04,
4.076,4.148,0.16,
4.076,4.148,0.04,
4.108,4.172,0.16,
4.084,4.164,0.04,
4.116,4.148,0.16,
4.108,4.164,0.04,
4.076,4.148,0.16,
4.092,4.14,0.16,
4.116,4.172,0.04,
4.108,4.172,0.04,
4.084,4.148,0.16,
4.084,4.172,0.16,
4.116,4.148,0.04,
4.116,4.148,0.04,
4.076,4.196,0.16,
