Power Payload/Metingen 6/Payload 2 390.csv

CH1,CH2,CH3,Start,Increment,
Volt,Volt,Volt,-5.995,0.01
4.172,4.196,0.04,
4.148,4.18,0.16,
4.156,4.196,0.04,
4.172,4.18,0.16,
4.172,4.18,0.04,
4.148,4.196,0.16,
4.172,4.196,0.04,
4.148,4.18,0.16,
4.172,4.196,0.04,
4.156,4.18,0.16,
4.156,4.196,0.04,
4.172,4.18,0.16,
4.172,4.196,0.12,
4.156,4.18,0.04,
4.156,4.196,0.04,
4.172,4.18,0.16,
4.156,4.196,0.04,
4.172,4.18,0.16,
4.172,4.196,0.04,
4.156,4.18,0.16,
4.172,4.196,0.04,
4.148,4.18,0.16,
4.156,4.196,0.16,
4.172,4.18,0.04,
4.172,4.196,0.04,
4.148,4.18,0.16,
4.156,4.196,0.04,
4.172,4.18,0.12,
4.172,4.196,0.04,
4.156,4.18,0.16,
4.172,4.196,0.04,
4.148,4.18,0.16,
4.172,4.18,0.04,
4.156,4.196,0.16,
4.172,4.18,0.04,
4.148,4.196,0.16,
4.172,4.196,0.04,
4.148,4.18,0.16,
4.172,4.196,0.16,
4.148,4.18,0.04,
4.156,4.18,0.04,
4.172,4.196,0.12,
4.156,4.196,0.12,
4.172,4.18,0.04,
4.172,4.196,0.16,
4.148,4.18,0.04,
4.172,4.18,0.16,
4.148,4.196,0.04,
4.172,4.196,0.04,
4.156,4.18,0.16,
4.172,4.196,0.12,
4.148,4.18,0.04,
4.148,4.196,0.04,
4.172,4.18,0.16,
4.172,4.196,0.04,
4.148,4.18,0.16,
4.172,4.196,0.12,
4.148,4.18,0.04,
4.172,4.196,0.04,
4.156,4.172,0.16,
4.172,4.196,0.04,
4.148,4.18,0.16,
4.172,4.196,0.04,
4.156,4.18,0.16,
4.172,4.196,0.04,
4.148,4.18,0.16,
4.156,4.196,0.16,
4.172,4.18,0.04,
4.156,4.196,0.04,
4.172,4.18,0.16,
4.148,4.18,0.04,
4.172,4.196,0.16,
4.156,4.196,0.04,
4.172,4.18,0.16,
4.172,4.196,0.16,
4.148,4.18,0.04,
4.156,4.196,0.04,
4.172,4.18,0.16,
4.156,4.196,0.04,
4.172,4.18,0.16,
4.148,4.196,0.04,
4.172,4.18,0.12,
4.156,4.196,0.04,
4.172,4.18,0.16,
4.172,4.196,0.16,
4.148,4.18,0.04,
4.172,4.18,0.04,
4.156,4.196,0.16,
4.156,4.196,0.16,
4.172,4.18,0.04,
4.172,4.196,0.16,
4.148,4.18,0.04,
4.156,4.18,0.04,
4.172,4.196,0.16,
4.172,4.18,0.04,
4.148,4.196,0.16,
4.172,4.196,0.04,
4.148,4.18,0.16,
4.156,4.18,0.16,
4.172,4.196,0.04,
4.148,4.18,0.12,
4.172,4.196,0.04,
4.172,4.196,0.04,
4.156,4.18,0.16,
4.172,4.196,0.16,
4.148,4.18,0.04,
4.156,4.196,0.04,
4.172,4.18,0.16,
4.172,4.212,0.04,
4.156,4.18,0.16,
4.172,4.196,0.16,
4.148,4.18,0.04,
4.156,4.196,0.04,
4.172,4.18,0.16,
4.172,4.196,0.16,
4.156,4.18,0.04,
4.172,4.196,0.12,
4.156,4.18,0.04,
4.172,4.18,0.04,
4.156,4.196,0.16,
4.172,4.196,0.04,
4.156,4.18,0.16,
4.172,4.196,0.12,
4.156,4.18,0.04,
4.156,4.196,0.12,
4.172,4.18,0.04,
4.172,4.196,0.04,
4.156,4.18,0.16,
4.172,4.196,0.04,
4.156,4.18,0.16,
4.172,4.196,0.04,
4.148,4.18,0.16,
4.172,4.196,0.04,
4.148,4.18,0.16,
4.156,4.196,0.12,
4.172,4.18,0.04,
4.172,4.196,0.04,
4.148,4.18,0.16,
4.156,4.196,0.12,
4.172,4.18,0.04,
4.148,4.18,0.04,
4.172,4.196,0.16,
4.172,4.18,0.04,
4.156,4.196,0.16,
4.172,4.18,0.04,
4.148,4.196,0.16,
4.172,4.172,0.12,
4.148,4.196,0.04,
4.156,4.196,0.16,
4.172,4.18,0.04,
4.172,4.196,0.04,
4.148,4.18,0.16,
4.124,4.196,0.04,
4.172,4.18,0.16,
4.172,4.196,0.16,
4.148,4.18,0.04,
4.156,4.18,0.04,
4.172,4.196,0.16,
4.172,4.196,0.04,
4.156,4.18,0.16,
4.172,4.196,0.16,
4.148,4.18,0.04,
4.156,4.18,0.16,
4.172,4.196,0.04,
4.172,4.196,0.04,
4.148,4.18,0.16,
4.172,4.196,0.04,
4.148,4.18,0.12,
4.172,4.196,0.16,
4.156,4.18,0.04,
4.148,4.196,0.04,
4.172,4.18,0.16,
4.156,4.18,0.04,
4.172,4.196,3.44,
4.172,4.196,3.44,
4.148,4.18,3.32,
4.156,4.196,3.36,
4.172,4.18,3.44,
4.156,4.196,3.36,
4.172,4.172,3.44,
4.156,4.196,3.36,
4.172,4.172,3.44,
4.172,4.18,3.36,
4.156,4.196,3.44,
4.172,4.18,3.44,
4.14,4.196,3.32,
4.172,4.18,3.36,
4.148,4.196,3.44,
4.156,4.196,3.44,
4.172,4.18,3.32,
4.148,4.18,3.36,
4.172,4.196,3.44,
4.156,4.18,3.44,
4.172,4.196,3.32,
4.172,4.196,3.44,
4.148,4.172,3.36,
4.172,4.18,3.44,
4.156,4.196,3.32,
4.156,4.196,3.36,
4.172,4.18,3.44,
4.172,4.196,3.44,
4.132,4.18,3.32,
4.156,4.196,3.36,
4.172,4.18,3.44,
4.172,4.18,3.44,
4.148,4.196,3.32,
4.156,4.18,3.44,
4.172,4.196,3.36,
4.172,4.18,3.36,
4.148,4.196,3.44,
4.172,4.18,3.32,
4.148,4.196,3.44,
4.156,4.18,3.36,
4.172,4.196,3.44,
4.172,4.196,3.44,
4.148,4.18,3.36,
4.172,4.196,3.44,
4.148,4.18,3.32,
4.156,4.196,3.44,
4.172,4.18,3.36,
4.172,4.196,3.36,
4.148,4.18,3.44,
4.156,4.196,3.44,
4.172,4.18,3.36,
4.172,4.196,3.44,
4.148,4.18,3.32,
4.172,4.18,3.36,
4.156,4.196,3.44,
4.156,4.196,3.36,
4.172,4.18,3.44,
4.172,4.18,3.44,
4.148,4.196,3.32,
4.156,4.196,3.36,
4.172,4.172,3.44,
4.172,4.18,3.36,
4.148,4.196,3.44,
4.172,4.196,3.44,
4.148,4.18,3.36,
4.172,4.196,3.44,
4.148,4.18,3.32,
4.172,4.196,3.36,
4.148,4.18,3.44,
4.156,4.196,3.44,
4.172,4.18,3.36,
4.172,4.18,3.32,
4.148,4.196,3.44,
4.172,4.18,3.44,
4.156,4.196,3.36,
4.172,4.196,3.36,
4.156,4.18,3.44,
4.172,4.196,3.44,
4.148,4.18,3.36,
4.148,4.196,3.44,
4.172,4.164,3.36,
4.172,4.18,3.36,
4.156,4.196,3.44,
4.172,4.18,3.36,
4.148,4.196,3.44,
4.172,4.196,3.36,
4.108,4.18,3.44,
4.148,4.18,3.36,
4.172,4.196,3.44,
4.148,4.196,3.36,
4.172,4.18,3.44,
4.172,4.18,3.44,
4.148,4.196,3.32,
4.172,4.18,3.44,
4.148,4.196,3.32,
4.156,4.18,3.36,
4.172,4.196,3.44,
4.148,4.196,3.36,
4.172,4.18,3.44,
4.148,4.196,3.44,
4.172,4.18,3.32,
4.172,4.196,3.44,
4.148,4.18,3.36,
4.156,4.196,3.44,
4.172,4.18,3.36,
4.172,4.196,3.44,
4.156,4.18,3.36,
4.172,4.18,3.36,
4.148,4.196,3.44,
4.148,4.18,3.36,
4.172,4.196,3.44,
4.172,4.196,3.36,
4.148,4.18,3.44,
4.172,4.196,3.44,
4.148,4.18,3.32,
4.156,4.18,3.36,
4.172,4.196,3.44,
4.148,4.196,3.44,
4.172,4.18,3.32,
4.172,4.18,3.32,
4.156,4.196,3.44,
4.172,4.18,3.44,
4.148,4.196,3.36,
4.156,4.196,3.36,
4.172,4.18,3.44,
4.156,4.196,3.36,
4.172,4.18,3.44,
4.156,4.196,3.44,
4.172,4.18,3.36,
4.172,4.196,3.36,
4.156,4.18,3.44,
4.172,4.196,3.44,
4.148,4.18,3.36,
4.172,4.204,3.36,
4.148,4.172,3.44,
4.156,4.156,3.44,
4.172,4.204,3.32,
4.156,4.212,3.36,
4.172,4.18,3.44,
4.172,4.196,3.44,
4.14,4.18,3.32,
4.124,4.196,3.36,
4.18,4.156,3.44,
4.172,4.164,3.36,
4.156,4.196,3.44,
4.172,4.196,3.44,
4.156,4.18,3.32,
4.172,4.196,3.44,
4.124,4.18,3.32,
4.124,4.196,3.44,
4.172,4.18,3.36,
4.172,4.196,3.44,
4.156,4.18,3.32,
4.172,4.196,3.36,
4.156,4.18,3.44,
4.172,4.196,3.36,
4.148,4.18,3.44,
4.172,4.196,3.36,
4.148,4.18,3.44,
4.172,4.196,3.44,
4.148,4.18,3.32,
4.148,4.196,3.44,
4.172,4.18,3.36,
4.172,4.196,3.44,
4.148,4.18,3.36,
4.172,4.18,3.44,
4.156,4.196,3.36,
4.172,4.196,3.44,
4.148,4.18,3.32,
4.172,4.18,3.44,
4.156,4.196,3.36,
4.172,4.196,3.36,
4.148,4.18,3.44,
4.172,4.196,3.44,
4.148,4.18,3.32,
4.156,4.196,3.44,
4.172,4.18,3.36,
4.172,4.18,3.36,
4.148,4.196,3.44,
4.148,4.196,3.44,
4.172,4.18,3.32,
4.172,4.196,3.36,
4.148,4.18,3.44,
4.172,4.18,3.36,
4.148,4.196,3.44,
4.172,4.196,3.44,
4.156,4.18,3.36,
4.156,4.196,3.44,
4.172,4.18,3.32,
4.172,4.196,3.44,
4.156,4.18,3.36,
4.172,4.18,3.36,
4.148,4.196,3.44,
4.172,4.196,3.44,
4.148,4.18,3.32,
4.156,4.18,3.44,
4.172,4.196,3.32,
4.148,4.196,3.36,
4.172,4.18,3.44,
4.172,4.196,3.44,
4.148,4.18,3.32,
4.156,4.196,3.36,
4.172,4.116,3.44,
4.172,4.164,3.44,
4.148,4.132,3.36,
4.172,4.116,3.36,
4.148,4.172,3.44,
4.172,4.124,3.44,
4.044,4.196,3.36,
4.076,4.148,3.44,
4.116,4.164,3.36,
4.116,4.092,3.36,
4.06,4.172,3.44,
4.06,4.148,3.44,
4.148,4.172,3.36,
4.1,4.172,3.36,
4.116,4.148,3.44,
4.012,4.148,3.36,
4.116,4.172,3.44,
4.116,4.148,3.44,
4.076,4.164,3.36,
4.116,4.148,3.36,
4.092,4.164,3.44,
4.116,4.148,3.36,
4.092,4.172,3.44,
4.092,4.148,3.44,
4.116,4.172,3.36,
4.092,4.172,3.44,
4.116,4.132,3.36,
4.092,4.204,3.36,
4.116,4.124,3.44,
4.116,4.164,3.44,
4.092,4.1,3.36,
4.06,4.124,3.44,
4.14,4.148,3.32,
4.172,4.156,3.36,
4.052,4.124,3.44,
4.116,4.132,3.44,
4.012,4.156,3.36,
4.044,4.132,3.36,
4.076,4.156,3.44,
4.084,4.156,3.44,
4.06,4.116,3.32,
4.084,4.156,3.36,
4.06,4.132,3.48,
4.084,4.1,3.4,
4.068,4.156,3.44,
4.084,4.116,3.4,
4.036,4.18,3.48,
4.068,4.196,3.4,
4.084,3.452,3.44,
4.084,3.572,3.4,
4.02,3.636,3.48,
4.036,3.62,3.4,
4.124,3.66,3.48,
4.14,3.644,3.4,
2.948,3.66,3.48,
3.06,3.668,3.4,
3.132,3.644,3.48,
3.124,3.652,3.4,
3.156,3.668,3.48,
3.14,3.652,3.44,
3.164,3.668,3.36,
3.164,3.652,3.44,
3.14,3.668,3.36,
3.164,3.668,3.36,
3.148,3.652,3.44,
3.148,3.652,3.44,
3.172,4.38,3.32,
3.148,4.244,3.44,
3.172,4.18,3.32,
3.18,4.188,3.36,
3.148,4.156,3.44,
3.156,4.156,3.36,
4.332,4.204,3.44,
4.18,4.196,3.44,
4.124,4.148,3.32,
4.132,4.148,3.36,
4.1,4.172,3.44,
4.092,4.18,3.44,
4.164,4.196,3.36,
4.172,4.196,3.4,
4.092,4.14,3.48,
4.084,4.124,3.4,
4.124,4.196,3.48,
4.148,4.196,3.48,
4.164,3.428,3.36,
4.164,3.54,3.44,
4.076,3.628,3.36,
4.052,3.596,3.44,
4.164,3.652,3.32,
4.164,3.62,3.36,
2.924,4.356,3.44,
3.02,4.26,3.36,
3.132,4.188,3.44,
3.076,4.18,3.44,
3.156,4.228,3.32,
3.084,4.196,3.44,
4.3,4.14,3.36,
4.212,4.164,3.44,
4.132,4.148,3.32,
4.124,4.164,3.44,
4.196,4.148,3.36,
4.172,4.148,3.44,
4.084,4.164,3.32,
4.084,4.148,3.44,
4.116,4.164,3.36,
4.108,4.148,3.36,
4.084,4.196,3.44,
4.092,4.196,3.36,
4.116,4.18,3.44,
4.092,4.18,3.44,
4.108,4.196,3.36,
4.092,4.188,3.36,
4.164,4.172,3.44,
4.148,4.172,3.44,
4.164,4.108,3.32,
4.14,3.428,3.44,
4.164,4.204,3.36,
4.148,4.196,3.36,
4.164,4.156,3.44,
4.14,4.148,3.4,
4.02,4.204,3.48,
4.156,4.196,3.44,
2.932,4.172,3.36,
4.14,4.188,3.36,
4.1,3.42,3.44,
4.092,3.564,3.36,
4.172,3.636,3.44,
4.164,3.62,3.36,
4.132,4.34,3.44,
4.148,4.268,3.44,
2.916,4.18,3.36,
3.036,4.196,3.44,
3.132,4.164,3.36,
3.108,4.172,3.44,
4.284,4.156,3.36,
4.212,4.148,3.44,
4.124,4.204,3.32,
4.14,4.18,3.36,
4.1,4.212,3.44,
4.124,4.18,3.36,
4.1,4.196,3.44,
4.1,4.188,3.36,
4.172,4.14,3.44,
4.148,4.148,3.4,
4.164,4.164,3.48,
4.164,4.148,3.4,
4.14,4.196,3.48,
4.164,4.196,3.44,
4.092,3.42,3.36,
4.092,3.46,3.44,
4.108,3.596,3.32,
4.092,3.588,3.44,
4.164,3.644,3.32,
4.164,3.628,3.36,
2.932,4.34,3.44,
2.956,4.244,3.44,
3.108,4.18,3.36,
3.084,4.188,3.44,
3.164,4.156,3.36,
3.124,4.172,3.44,
4.284,4.156,3.32,
4.188,4.148,3.44,
4.124,4.204,3.32,
4.132,4.196,3.36,
4.108,4.18,3.44,
4.1,4.196,3.36,
4.116,4.18,3.44,
4.092,4.188,3.44,
4.172,4.132,3.36,
4.164,4.164,3.44,
4.14,4.14,3.36,
4.164,4.148,3.44,
4.132,4.196,3.36,
4.164,4.196,3.36,
4.076,3.476,3.44,
4.108,3.548,3.44,
4.084,4.276,3.36,
4.092,4.22,3.32,
4.164,4.172,3.44,
4.164,4.188,3.44,
2.98,4.156,3.36,
3.052,4.172,3.44,
4.22,4.148,3.32,
4.164,4.164,3.36,
4.116,4.14,3.44,
4.124,4.164,3.44,
4.1,4.148,3.36,
4.116,4.148,3.36,
4.084,4.196,3.44,
4.108,4.172,3.44,
4.084,4.196,3.32,
4.108,4.188,3.44,
4.076,4.172,3.32,
4.092,4.188,3.36,
4.164,4.132,3.44,
4.164,4.148,3.36,
4.132,4.164,3.44,
4.156,4.148,3.36,
4.132,4.196,3.44,
4.156,3.46,3.36,
4.076,4.236,3.44,
4.092,4.22,3.44,
4.116,4.172,3.36,
4.092,4.188,3.44,
4.164,4.156,3.32,
2.98,4.172,3.36,
4.188,4.148,3.44,
4.172,4.172,3.44,
4.124,4.148,3.36,
4.132,4.164,3.44,
4.1,4.148,3.36,
4.116,4.148,3.44,
4.092,4.196,3.36,
4.116,4.196,3.36,
4.092,4.18,3.44,
4.092,4.196,3.44,
4.108,4.172,3.32,
4.092,4.188,3.36,
4.156,4.148,3.44,
4.164,4.132,3.32,
4.132,4.164,3.44,
4.156,4.148,3.36,
4.132,4.196,3.44,
4.156,4.196,3.44,
4.092,4.164,3.32,
4.076,3.436,3.44,
4.108,4.268,3.36,
4.092,4.244,3.44,
4.172,4.18,3.36,
4.164,4.188,3.44,
4.108,4.156,3.36,
2.972,4.172,3.36,
4.204,4.148,3.44,
4.188,4.164,3.44,
4.116,4.148,3.36,
4.132,4.148,3.44,
4.1,4.164,3.32,
4.116,4.148,3.44,
4.092,4.196,3.36,
4.092,4.196,3.44,
4.108,4.18,3.36,
4.092,4.164,3.36,
4.108,4.196,3.44,
4.092,4.188,3.44,
4.164,4.132,3.32,
4.148,4.132,3.44,
4.164,4.164,3.36,
4.164,4.148,3.36,
4.132,4.212,3.44,
4.156,4.196,3.44,
4.076,4.148,3.36,
4.076,4.148,3.36,
4.116,4.164,3.44,
4.092,4.164,3.44,
4.172,4.148,3.36,
4.164,4.148,3.44,
4.092,4.196,3.36,
4.092,4.18,3.44,
4.108,4.196,3.32,
4.092,4.196,3.44,
4.116,4.172,3.36,
4.084,4.172,3.44,
4.164,4.196,3.36,
4.148,4.188,3.44,
4.164,4.164,3.32,
4.164,4.188,3.44,
4.14,4.14,3.32,
4.132,4.132,3.44,
4.164,4.164,3.36,
4.164,3.428,3.36,
4.132,4.204,3.44,
4.156,4.188,3.44,
4.084,4.156,3.32,
4.076,4.156,3.36,
4.108,4.204,3.44,
4.164,4.196,3.44,
2.924,3.484,3.36,
4.14,4.108,3.44,
4.1,4.188,3.36,
4.1,4.164,3.44,
4.164,4.148,3.36,
4.164,4.164,3.36,
3.004,4.148,3.44,
4.028,4.164,3.44,
4.132,4.148,3.32,
4.092,4.148,3.32,
4.116,4.164,3.44,
4.108,4.164,3.44,
4.092,4.148,3.36,
4.108,4.148,3.36,
4.092,4.196,3.44,
4.108,4.18,3.36,
4.084,4.196,3.44,
4.092,4.196,3.36,
4.108,4.172,3.44,
4.092,4.188,3.44,
4.164,4.132,3.36,
4.148,4.148,3.44,
4.164,4.164,3.36,
4.132,4.148,3.44,
4.156,4.164,3.36,
4.156,4.148,3.44,
4.076,4.164,3.36,
4.108,4.148,3.36,
4.084,4.164,3.44,
4.076,4.148,3.44,
4.108,4.164,3.36,
4.108,4.148,3.36,
4.084,4.164,3.44,
4.092,4.148,3.44,
4.108,4.164,3.36,
4.108,4.164,3.44,
4.076,4.148,3.32,
4.084,4.148,3.44,
4.108,4.164,3.32,
4.092,4.148,3.36,
4.108,4.196,3.44,
4.108,4.196,3.36,
4.076,4.164,3.44,
4.108,4.188,3.44,
4.084,4.172,3.32,
4.092,4.188,3.44,
4.164,4.14,3.36,
4.164,4.148,3.44,
4.132,4.164,3.36,
4.156,4.148,3.44,
4.124,4.164,3.36,
4.156,4.148,3.44,
4.076,4.164,3.36,
4.092,4.148,3.44,
4.108,4.164,3.36,
4.092,4.164,3.44,
4.108,4.148,3.32,
4.108,4.164,3.36,
4.084,4.148,3.44,
4.092,4.164,3.36,
4.108,4.148,3.44,
4.092,4.164,3.36,
4.108,4.148,3.44,
4.108,4.148,3.36,
4.092,4.188,3.44,
4.092,4.18,3.36,
4.108,4.196,3.44,
4.092,4.188,3.36,
4.108,4.172,3.44,
4.092,4.188,3.44,
4.148,4.148,3.32,
4.164,4.132,3.36,
4.132,4.164,3.44,
4.164,4.148,3.36,
4.132,4.164,3.44,
4.156,4.164,3.44,
4.092,4.148,3.32,
4.076,4.164,3.36,
4.108,4.148,3.44,
4.092,4.148,3.32,
4.108,4.164,3.44,
4.108,4.148,3.44,
4.076,4.164,3.36,
4.116,4.164,3.44,
4.084,4.148,3.36,
4.092,4.148,3.44,
4.108,4.164,3.32,
4.092,4.164,3.36,
4.116,4.148,3.44,
4.108,4.148,3.44,
4.092,4.196,3.32,
4.108,4.196,3.36,
4.076,4.18,3.44,
4.108,4.188,3.44,
4.076,4.164,3.36,
4.092,4.188,3.36,
4.164,4.132,3.44,
4.164,4.132,3.36,
4.132,4.164,3.44,
4.132,4.148,3.44,
4.164,4.164,3.36,
4.156,4.164,3.36,
4.084,4.116,3.44,
4.076,4.164,3.44,
4.108,4.148,3.32,
4.092,4.164,3.44,
4.108,4.148,3.36,
4.108,4.148,3.44,
4.036,4.164,3.36,
4.108,4.148,3.44,
4.092,4.164,3.36,
4.108,4.148,3.44,
4.076,4.164,3.32,
4.092,4.164,3.44,
4.108,4.148,3.32,
4.108,4.148,3.44,
4.084,4.196,3.36,
4.092,4.196,3.36,
4.108,4.172,3.44,
4.108,4.196,3.36,
4.092,4.172,3.44,
4.084,4.188,3.36,
4.164,4.132,3.44,
4.164,4.14,3.44,
4.132,4.164,3.36,
4.156,4.148,3.44,
4.124,4.164,3.32,
4.156,4.148,3.44,
4.076,4.164,3.36,
4.084,4.148,3.44,
4.108,4.164,3.36,
4.092,4.148,3.36,
4.108,4.164,3.44,
4.092,4.164,3.44,
4.108,4.148,3.36,
4.092,4.148,3.36,
4.108,4.164,3.44,
4.092,4.164,3.36,
4.108,4.148,3.44,
4.092,4.164,3.36,
4.108,4.132,3.44,
4.092,4.148,3.44,
4.116,4.196,3.36,
4.108,4.196,3.44,
4.092,4.172,3.36,
4.108,4.188,3.44,
4.076,4.172,3.36,
4.092,4.188,3.36,
4.164,4.132,3.44,
4.164,4.148,3.44,
4.14,4.164,3.36,
4.156,4.148,3.44,
4.132,4.164,3.32,
4.156,4.164,3.36,
4.068,4.148,3.44,
4.108,4.164,3.44,
4.076,4.14,3.36,
4.092,4.164,3.44,
4.108,4.148,3.36,
4.108,4.164,3.44,
4.092,4.148,3.36,
4.108,4.148,3.36,
4.068,4.164,3.44,
4.092,4.164,3.36,
4.108,4.148,3.44,
4.108,4.148,3.44,
4.084,4.164,3.32,
4.092,4.164,3.36,
4.108,4.148,3.44,
4.108,4.148,3.44,
4.092,4.172,3.32,
4.092,4.172,3.44,
4.116,4.148,3.32,
4.108,4.148,3.36,
4.076,4.172,3.44,
4.076,4.172,3.36,
4.116,4.148,3.44,
4.116,4.164,3.44,
4.092,4.148,3.36,
4.116,4.172,3.44,
4.092,4.148,3.32,
4.116,4.148,3.36,
4.092,4.164,3.44,
4.116,4.148,3.36,
4.092,4.172,3.44,
4.116,4.148,3.44,
4.092,4.172,3.32,
4.092,4.172,3.44,
4.116,4.148,3.36,
4.116,4.148,3.44,
4.092,4.164,3.36,
4.116,4.148,3.44,
4.084,4.164,3.32,
4.116,4.148,3.36,
4.092,4.164,3.44,
4.092,4.164,3.36,
4.108,4.148,3.44,
4.092,4.164,3.44,
4.108,4.148,3.36,
4.092,4.164,3.36,
4.108,4.148,3.44,
4.108,4.148,3.36,
4.084,4.164,3.44,
4.108,4.164,3.36,
4.084,4.148,3.44,
4.108,4.148,3.44,
4.076,4.164,3.32,
4.084,4.164,3.36,
4.108,4.148,3.44,
4.108,4.164,3.32,
4.076,4.148,3.44,
4.108,4.148,3.44,
4.076,4.164,3.36,
4.108,4.148,3.44,
4.076,4.164,3.32,
4.092,4.148,3.44,
4.108,4.164,3.32,
4.092,4.148,3.36,
4.108,4.164,3.44,
4.092,4.164,3.36,
4.108,4.148,3.44,
4.108,4.164,3.32,
4.076,4.148,3.44,
4.092,4.148,3.44,
4.108,4.164,3.36,
4.108,4.164,3.36,
4.092,4.132,3.44,
4.084,4.148,3.44,
4.108,4.164,3.32,
4.108,4.164,3.44,
4.092,4.148,3.36,
4.108,4.164,3.36,
4.076,4.148,3.44,
4.108,4.148,3.44,
4.092,4.164,3.36,
4.108,4.164,3.44,
4.092,4.148,3.36,
4.108,4.164,3.36,
4.092,4.148,3.44,
4.092,4.148,3.44,
4.108,4.164,3.32,
4.108,4.164,3.36,
4.084,4.148,3.44,
4.108,4.148,3.36,
4.084,4.164,3.44,
4.092,4.148,3.36,
4.108,4.164,3.44,
4.108,4.164,3.36,
4.076,4.148,3.44,
4.108,4.148,3.44,
4.092,4.196,3.32,
4.108,4.164,3.44,
4.076,4.148,3.36,
4.092,4.164,3.36,
4.108,4.148,3.44,
4.092,4.164,3.44,
4.164,4.148,3.32,
4.076,4.148,3.44,
4.108,4.164,3.36,
4.108,4.148,3.36,
4.092,4.164,3.44,
4.108,4.164,3.44,
4.092,4.148,3.32,
4.092,4.148,3.44,
4.108,4.164,3.36,
4.108,4.164,3.36,
4.084,4.148,3.44,
4.108,4.164,3.44,
4.092,4.148,3.32,
4.092,4.148,3.44,
4.108,4.196,3.32,
4.108,4.18,3.36,
4.092,4.196,3.44,
4.108,4.188,3.36,
4.092,4.164,3.44,
4.092,4.188,3.44,
4.164,4.14,3.32,
4.164,4.164,3.44,
4.132,4.14,3.36,
4.132,4.148,3.36,
4.156,4.164,3.44,
4.156,4.148,3.36,
4.068,4.164,3.44,
4.108,4.148,3.44,
4.076,4.164,3.36,
4.092,4.164,3.36,
4.108,4.148,3.44,
4.076,4.164,3.44,
4.108,4.148,3.36,
4.092,4.164,3.36,
4.108,4.148,3.44,
4.108,4.164,3.44,
4.092,4.148,3.36,
4.108,4.148,3.44,
4.092,4.164,3.36,
4.092,4.148,3.44,
4.108,4.196,3.36,
4.108,4.196,3.44,
4.092,4.172,3.32,
4.108,4.188,3.36,
4.092,4.172,3.44,
4.092,4.188,3.36,
4.164,4.132,3.44,
4.164,4.148,3.36,
4.132,4.164,3.44,
4.156,4.164,3.36,
4.132,4.148,3.44,
4.156,4.148,3.44,
4.076,4.164,3.36,
4.108,4.164,3.44,
4.084,4.148,3.32,
4.092,4.148,3.36,
4.108,4.164,3.44,
4.092,4.164,3.44,
4.108,4.148,3.36,
4.108,4.164,3.44,
4.092,4.148,3.36,
4.108,4.148,3.36,
4.084,4.164,3.44,
4.108,4.148,3.36,
4.092,4.188,3.44,
4.108,4.196,3.36,
4.092,4.18,3.44,
4.108,4.188,3.36,
4.076,4.172,3.44,
4.092,4.188,3.44,
4.148,4.148,3.36,
4.164,4.132,3.36,
4.132,4.164,3.44,
4.156,4.148,3.44,
4.132,4.164,3.36,
4.156,4.164,3.36,
4.108,4.148,3.44,
4.108,4.164,3.36,
4.076,4.148,3.44,
4.092,4.148,3.44,
4.108,4.164,3.36,
4.108,4.164,3.44,
4.084,4.148,3.36,
4.108,4.164,3.36,
4.092,4.148,3.44,
4.092,4.164,3.36,
4.108,4.148,3.44,
4.108,4.148,3.44,
4.092,4.164,3.32,
4.108,4.148,3.36,
4.092,4.196,3.44,
4.108,4.196,3.36,
4.092,4.18,3.44,
4.108,4.188,3.44,
4.084,4.172,3.36,
4.092,4.188,3.44,
4.164,4.14,3.36,
4.164,4.132,3.44,
4.132,4.164,3.36,
4.156,4.148,3.44,
4.132,4.164,3.36,
4.156,4.148,3.44,
4.076,4.164,3.32,
4.076,4.148,3.44,
4.108,4.164,3.36,
4.108,4.164,3.44,
4.076,4.148,0.04,
4.108,4.164,0.16,
4.084,4.148,0.04,
4.092,4.148,0.16,
4.108,4.164,0.04,
4.092,4.148,0.04,
4.108,4.164,0.16,
4.092,4.148,0.16,
4.108,4.172,0.04,
4.108,4.148,0.04,
4.092,4.204,0.16,
4.092,4.18,0.16,
4.108,4.196,0.04,
4.116,4.18,0.04,
4.084,4.196,0.16,
4.092,4.196,0.16,
4.172,4.132,0.04,
4.164,4.164,0.12,
4.148,4.148,0.04,
4.164,4.164,0.04,
4.132,4.148,0.16,
4.164,4.164,0.04,
4.076,4.148,0.16,
4.108,4.164,0.16,
4.092,4.148,0.04,
4.092,4.148,0.16,
4.116,4.172,0.04,
4.092,4.164,0.16,
4.116,4.148,0.04,
4.116,4.148,0.04,
4.092,4.164,0.16,
4.116,4.164,0.16,
4.092,4.148,0.04,
4.108,4.164,0.04,
4.092,4.132,0.16,
4.092,4.148,0.16,
4.108,4.196,0.04,
4.108,4.18,0.16,
4.076,4.196,0.04,
4.108,4.188,0.16,
4.06,4.164,0.04,
4.092,4.188,0.16,
4.164,4.132,0.04,
4.164,4.148,0.16,
4.14,4.164,0.04,
4.156,4.148,0.16,
4.132,4.164,0.04,
4.156,4.164,0.04,
4.076,4.148,0.16,
4.108,4.148,0.04,
4.084,4.164,0.16,
4.108,4.164,0.16,
4.076,4.148,0.04,
4.108,4.164,0.04,
4.092,4.148,0.16,
4.108,4.148,0.04,
4.092,4.164,0.16,
4.092,4.148,0.16,
4.108,4.164,0.04,
4.108,4.164,0.16,
4.076,4.148,0.04,
4.108,4.148,0.16,
4.076,4.196,0.04,
4.092,4.196,0.04,
4.108,4.172,0.16,
4.092,4.188,0.04,
4.108,4.172,0.16,
4.092,4.188,0.04,
4.164,4.132,0.16,
4.164,4.148,0.16,
4.132,4.164,0.04,
4.156,4.148,0.12,
4.132,4.164,0.04,
4.148,4.164,0.04,
4.076,4.148,0.16,
4.108,4.148,0.16,
4.076,4.164,0.04,
4.092,4.164,0.04,
4.108,4.148,0.16,
4.108,4.148,0.16,
4.092,4.164,0.04,
4.108,4.164,0.04,
4.076,4.148,0.16,
4.092,4.164,0.16,
4.108,4.148,0.04,
4.108,4.148,0.04,
4.084,4.196,0.16,
4.108,4.196,0.04,
4.092,4.18,0.16,
4.108,4.196,0.16,
4.084,4.164,0.04,
4.076,4.188,0.04,
4.156,4.148,0.16,
4.164,4.132,0.04,
4.132,4.164,0.16,
4.164,4.148,0.04,
4.132,4.164,0.16,
4.156,4.148,0.04,
4.092,4.164,0.16,
4.108,4.164,0.04,
4.076,4.148,0.16,
4.108,4.148,0.04,
4.076,4.164,0.16,
4.108,4.148,0.16,
4.092,4.164,0.04,
4.108,4.164,0.16,
4.092,4.148,0.04,
4.092,4.148,0.04,
4.108,4.164,0.16,
4.108,4.164,0.04,
4.084,4.148,0.16,
