Measurements/Power Payload/Metingen 2/Payload 1 280.csv

CH1,CH2,CH3,Start,Increment,
Volt,Volt,Volt,-5.995,0.01
4.108,4.164,0.04,
4.076,4.148,0.16,
4.108,4.164,0.04,
4.076,4.148,0.12,
4.108,4.164,0.04,
4.076,4.148,0.16,
4.108,4.164,0.04,
4.076,4.148,0.12,
4.108,4.148,0.12,
4.084,4.188,0.04,
4.108,4.196,0.16,
4.076,4.18,0.04,
4.108,4.188,0.04,
4.092,4.172,0.16,
4.084,4.188,0.04,
4.148,4.156,0.16,
4.164,4.156,0.04,
4.132,4.132,0.12,
4.156,4.148,0.04,
4.124,4.164,0.16,
4.156,4.164,0.04,
4.1,4.148,0.16,
4.108,4.148,0.04,
4.076,4.164,0.16,
4.108,4.164,0.04,
4.076,4.14,0.16,
4.108,4.164,0.04,
4.076,4.14,0.16,
4.108,4.148,0.04,
4.084,4.164,0.16,
4.108,4.148,0.12,
4.076,4.164,0.04,
4.108,4.164,0.04,
4.076,4.148,0.16,
4.108,4.148,0.04,
4.092,4.196,0.16,
4.108,4.196,0.04,
4.084,4.18,0.16,
4.108,4.188,0.16,
4.076,4.172,0.04,
4.092,4.188,0.04,
4.164,4.132,0.12,
4.164,4.132,0.04,
4.14,4.164,0.16,
4.156,4.148,0.04,
4.132,4.164,0.16,
4.156,4.148,0.04,
4.076,4.164,0.12,
4.076,4.164,0.04,
4.108,4.148,0.16,
4.108,4.164,0.04,
4.076,4.148,0.16,
4.108,4.148,0.04,
4.092,4.164,0.16,
4.108,4.148,0.04,
4.084,4.164,0.16,
4.092,4.164,0.04,
4.108,4.148,0.16,
4.092,4.148,0.04,
4.108,4.164,0.16,
4.108,4.148,0.04,
4.084,4.196,0.16,
4.108,4.196,0.16,
4.084,4.172,0.04,
4.108,4.188,0.04,
4.076,4.164,0.16,
4.084,4.188,0.04,
4.164,4.132,0.12,
4.164,4.14,0.16,
4.14,4.164,0.04,
4.156,4.164,0.04,
4.132,4.116,0.16,
4.156,4.148,0.16,
4.076,4.164,0.04,
4.108,4.164,0.04,
4.076,4.14,0.16,
4.108,4.148,0.04,
4.036,4.164,0.16,
4.108,4.164,0.16,
4.084,4.148,0.04,
4.108,4.148,0.12,
4.076,4.164,0.04,
4.108,4.164,0.04,
4.084,4.148,0.16,
4.092,4.164,0.12,
4.108,4.132,0.04,
4.108,4.148,0.04,
4.076,4.196,0.16,
4.108,4.196,0.04,
4.084,4.172,0.16,
4.108,4.188,0.04,
4.076,4.172,0.16,
4.092,4.188,0.16,
4.164,4.132,0.04,
4.164,4.132,0.04,
4.132,4.164,0.16,
4.156,4.148,0.16,
4.132,4.196,0.04,
4.156,4.196,0.04,
4.068,4.14,0.16,
4.076,4.148,0.04,
4.108,4.196,0.16,
4.084,4.196,0.04,
4.164,4.172,0.16,
4.164,4.172,0.04,
4.076,4.196,0.16,
4.084,4.188,0.16,
4.172,4.132,0.04,
4.164,4.196,0.04,
4.148,3.428,0.16,
4.164,4.204,0.04,
4.14,4.156,0.16,
4.156,4.156,0.04,
4.084,4.212,0.16,
4.164,4.196,0.04,
2.94,4.172,0.16,
4.148,4.196,0.12,
4.1,4.172,0.04,
4.1,4.188,0.04,
4.172,4.132,0.16,
4.164,4.132,0.04,
4.124,4.164,0.16,
4.164,4.196,0.04,
4.132,4.156,0.16,
4.156,3.42,0.04,
4.068,4.228,0.16,
4.076,4.22,0.04,
4.108,4.164,0.16,
4.164,4.172,0.04,
4.116,4.156,0.16,
2.924,4.164,0.04,
4.172,4.14,0.16,
4.164,4.148,0.04,
4.108,4.164,0.16,
4.124,4.148,0.04,
4.092,4.164,0.16,
4.108,4.148,0.04,
4.084,4.196,0.16,
4.108,4.196,0.04,
4.076,4.172,0.16,
4.108,4.196,0.04,
4.076,4.164,0.16,
4.092,4.188,0.04,
4.164,4.156,0.16,
4.164,4.132,0.04,
4.132,4.164,0.16,
4.156,4.14,0.12,
4.132,4.164,0.04,
4.156,4.148,0.04,
4.108,4.164,0.16,
4.068,4.164,0.04,
4.1,4.148,0.16,
4.092,4.148,0.04,
4.108,4.164,0.16,
4.108,4.164,0.04,
4.076,4.132,0.16,
4.108,4.164,0.04,
4.076,4.132,0.16,
4.108,4.164,0.04,
4.084,4.132,0.16,
4.108,4.148,0.04,
4.068,4.164,0.16,
4.108,4.148,0.04,
4.068,4.196,0.16,
4.108,4.196,0.04,
4.076,4.172,0.16,
4.108,4.188,0.04,
4.068,4.172,0.16,
4.092,4.188,0.16,
4.164,4.132,0.04,
4.164,4.132,0.16,
4.132,4.164,0.04,
4.132,4.164,0.16,
4.156,4.14,0.04,
4.156,4.164,0.04,
4.076,4.14,0.16,
4.068,4.148,0.04,
4.108,4.164,0.16,
4.108,4.148,0.04,
4.076,4.164,0.16,
4.108,4.164,0.04,
4.068,4.14,0.16,
4.092,4.148,0.04,
4.108,4.164,0.16,
4.108,4.164,0.08,
4.076,4.14,3.44,
4.076,4.164,3.36,
4.108,4.148,3.44,
4.092,4.132,3.44,
4.108,4.196,3.32,
4.108,4.196,3.44,
4.076,4.172,3.32,
4.108,4.188,3.36,
4.092,4.172,3.44,
4.068,4.188,3.44,
4.172,4.124,3.36,
4.164,4.14,3.36,
4.124,4.164,3.44,
4.156,4.164,3.32,
4.132,4.132,3.44,
4.156,4.164,3.36,
4.052,4.148,3.44,
4.076,4.148,3.44,
4.108,4.164,3.32,
4.108,4.164,3.36,
4.068,4.14,3.44,
4.108,4.164,3.36,
4.084,4.124,3.44,
4.108,4.148,3.44,
4.084,4.164,3.32,
4.108,4.164,3.36,
4.084,4.132,3.44,
4.108,4.164,3.36,
4.06,4.148,3.44,
4.108,4.148,3.36,
4.076,4.196,3.44,
4.108,4.196,3.36,
4.076,4.164,3.44,
4.108,4.188,3.36,
4.076,4.164,3.44,
4.076,4.188,3.44,
4.164,4.132,3.36,
4.164,4.164,3.44,
4.132,4.132,3.32,
4.132,4.148,3.44,
4.156,4.164,3.36,
4.156,4.148,3.36,
4.076,4.164,3.44,
4.108,4.164,3.44,
4.076,4.148,3.36,
4.108,4.164,3.44,
4.084,4.14,3.32,
4.092,4.164,3.44,
4.108,4.148,3.36,
4.108,4.164,3.36,
4.084,4.132,3.44,
4.108,4.148,3.44,
4.076,4.164,3.32,
4.108,4.164,3.36,
4.076,4.148,3.44,
4.108,4.148,3.36,
4.068,4.196,3.44,
4.092,4.196,3.36,
4.108,4.172,3.44,
4.108,4.188,3.36,
4.076,4.164,3.44,
4.092,4.188,3.36,
4.164,4.132,3.44,
4.132,4.132,3.44,
4.164,4.164,3.36,
4.132,4.148,3.44,
4.156,4.164,3.32,
4.156,4.164,3.44,
4.076,4.148,3.36,
4.076,4.148,3.36,
4.108,4.164,3.44,
4.076,4.148,3.44,
4.108,4.164,3.36,
4.108,4.148,3.44,
4.084,4.164,3.36,
4.076,4.164,3.44,
4.108,4.14,3.36,
4.108,4.148,3.44,
4.092,4.164,3.32,
4.092,4.148,3.32,
4.108,4.196,3.44,
4.108,4.196,3.36,
4.068,4.18,3.44,
4.108,4.188,3.36,
4.076,4.172,3.44,
4.092,4.188,3.44,
4.148,4.156,3.32,
4.148,4.156,3.36,
4.164,4.124,3.44,
4.156,4.1,3.44,
4.132,4.172,3.36,
4.156,4.148,3.44,
4.1,4.172,3.32,
4.1,4.164,3.36,
4.06,4.148,3.44,
4.012,4.164,3.36,
4.116,4.148,3.44,
4.116,4.164,3.36,
4.092,4.148,3.44,
4.092,4.1,3.44,
4.116,4.188,3.32,
4.092,4.188,3.36,
4.116,4.148,3.44,
4.092,4.164,3.36,
4.116,4.132,3.44,
4.02,4.164,3.36,
4.14,4.132,3.44,
4.14,4.164,3.44,
4.092,4.148,3.36,
4.116,4.148,3.36,
4.068,4.172,3.44,
4.116,4.148,3.36,
4.068,4.164,3.44,
4.116,4.172,3.36,
4.092,4.148,3.44,
4.116,4.172,3.44,
4.084,4.14,3.36,
4.116,4.172,3.44,
4.084,4.14,3.36,
4.116,4.116,3.44,
4.092,4.204,3.32,
4.116,4.172,3.44,
4.084,4.148,3.36,
4.116,4.172,3.44,
4.076,4.14,3.32,
4.052,4.148,3.36,
4.164,4.172,3.44,
4.076,4.156,3.36,
4.132,4.172,3.44,
4.116,4.148,3.36,
4.076,4.172,3.44,
4.116,4.172,3.36,
4.1,4.14,3.44,
4.116,4.116,3.44,
4.1,4.172,3.32,
4.116,4.172,3.44,
4.1,4.148,3.36,
4.116,4.148,3.36,
4.068,4.172,3.44,
4.116,4.164,3.36,
4.044,4.14,3.44,
4.116,4.172,3.36,
4.1,4.124,3.44,
4.092,4.148,3.44,
4.116,4.164,3.36,
4.116,4.164,3.36,
4.068,4.148,3.44,
4.116,4.116,3.44,
4.06,4.172,3.36,
4.116,4.172,3.44,
4.092,4.132,3.32,
4.092,4.164,3.44,
4.116,4.148,3.36,
4.116,4.164,3.44,
4.036,4.148,3.36,
4.076,4.164,3.44,
4.116,4.148,3.36,
4.092,4.164,3.36,
4.116,4.148,3.44,
4.116,4.148,3.44,
4.084,4.172,3.36,
4.092,4.148,3.36,
4.116,4.172,3.44,
4.092,4.148,3.36,
4.116,4.172,3.44,
4.092,4.164,3.36,
4.116,4.148,3.44,
4.092,4.148,3.44,
4.116,4.172,3.32,
4.092,4.164,3.36,
4.116,4.148,3.44,
4.116,4.164,3.44,
4.092,4.132,3.36,
4.084,4.148,3.44,
4.116,4.196,3.32,
4.092,4.18,3.36,
4.116,4.196,3.44,
4.116,4.196,3.44,
4.06,4.172,3.36,
4.092,4.188,3.36,
4.172,4.164,3.44,
4.164,4.132,3.44,
4.148,4.196,3.32,
4.164,4.196,3.44,
4.14,4.148,3.36,
4.164,4.196,3.44,
4.132,4.132,3.36,
4.076,4.196,3.44,
4.164,4.148,3.32,
4.164,4.196,3.44,
4.092,4.148,3.32,
4.164,4.196,3.36,
4.084,4.148,3.44,
4.092,4.196,3.36,
4.172,4.148,3.44,
4.164,4.196,3.36,
4.092,4.092,3.44,
4.092,4.076,3.36,
4.172,4.212,3.44,
4.084,4.164,3.36,
4.172,4.124,3.44,
4.164,4.164,3.44,
4.012,4.092,3.36,
3.996,4.124,3.36,
4.188,4.156,3.44,
4.14,4.132,3.36,
4.052,4.156,3.44,
4.108,4.156,3.36,
3.996,4.116,3.44,
4.084,4.132,3.36,
4.052,4.156,3.44,
4.084,4.156,3.32,
4.06,4.108,3.44,
4.084,4.132,3.44,
4.036,4.156,3.36,
4.068,4.132,3.44,
4.1,4.156,3.36,
4.028,4.156,3.44,
4.1,4.132,3.36,
4.06,4.156,3.36,
4.1,4.132,3.44,
4.084,4.132,3.36,
4.06,4.156,3.44,
4.084,4.156,3.44,
4.068,4.132,3.32,
4.084,4.156,3.36,
4.068,4.132,3.44,
4.084,4.132,3.36,
4.068,4.156,3.44,
4.084,4.132,3.36,
4.068,4.156,3.44,
4.068,4.132,3.36,
4.084,4.156,3.44,
4.084,4.132,3.44,
4.068,4.156,3.36,
4.084,4.156,3.36,
4.068,4.132,3.44,
4.084,4.156,3.44,
4.068,4.132,3.32,
4.084,4.156,3.44,
4.068,4.132,3.36,
4.084,4.132,3.44,
4.068,4.156,3.36,
4.084,4.156,3.36,
4.068,4.132,3.44,
4.084,4.156,3.36,
4.06,4.132,3.44,
4.068,4.132,3.36,
4.084,4.156,3.44,
4.084,4.132,3.44,
4.068,4.156,3.32,
4.084,4.156,3.36,
4.068,4.132,3.48,
4.084,4.156,3.4,
4.068,4.124,3.48,
4.084,4.156,3.4,
4.06,4.132,3.44,
4.084,4.196,3.4,
4.068,3.404,3.44,
4.084,3.516,3.4,
4.068,3.588,3.44,
4.084,3.572,3.4,
4.068,3.612,3.48,
4.148,3.596,3.44,
2.892,3.62,3.4,
2.988,3.628,3.4,
3.068,3.604,3.48,
3.06,3.628,3.44,
3.1,3.604,3.4,
3.108,3.628,3.48,
3.068,3.604,3.32,
3.108,3.628,3.44,
3.084,3.596,3.32,
3.092,3.636,3.36,
3.124,3.612,3.44,
3.092,3.612,3.44,
3.124,4.38,3.36,
3.124,4.252,3.36,
3.076,4.18,3.44,
3.124,4.196,3.36,
3.092,4.156,3.44,
3.092,4.172,3.44,
4.316,4.148,3.36,
4.212,4.148,3.44,
4.124,4.164,3.32,
4.14,4.148,3.36,
4.1,4.204,3.44,
4.116,4.196,3.36,
4.092,4.148,3.44,
4.116,4.132,3.36,
4.076,4.196,3.44,
4.092,4.18,3.44,
4.172,4.196,3.4,
4.164,4.188,3.4,
4.084,4.132,3.48,
4.076,4.196,3.48,
4.172,3.396,3.36,
4.164,3.468,3.44,
4.132,3.58,3.32,
4.164,3.564,3.36,
4.076,3.612,3.44,
4.164,3.588,3.36,
2.884,4.356,3.44,
2.948,4.348,3.44,
3.06,4.244,3.32,
3.028,4.252,3.36,
3.108,4.188,3.44,
3.06,4.212,3.36,
4.3,4.148,3.44,
4.3,4.164,3.36,
4.204,4.148,3.44,
4.22,4.148,3.36,
4.172,4.204,3.44,
4.172,4.196,3.36,
4.092,4.148,3.44,
4.108,4.164,3.44,
4.076,4.148,3.36,
4.092,4.148,3.44,
4.172,4.196,3.32,
4.172,4.212,3.44,
4.092,4.18,3.32,
4.092,4.196,3.36,
4.116,4.18,3.44,
4.092,4.196,3.36,
4.164,4.164,3.44,
4.172,4.196,3.44,
4.148,4.164,3.36,
4.164,4.188,3.44,
4.148,4.164,3.36,
4.164,4.188,3.36,
4.132,4.132,3.44,
4.164,4.108,3.44,
4.132,4.196,3.32,
4.132,3.404,3.44,
4.164,4.212,3.36,
4.156,4.22,3.44,
4.076,4.148,3.32,
4.02,4.164,3.44,
4.148,4.148,3.36,
4.156,4.148,3.4,
2.916,4.196,3.48,
4.188,4.196,3.48,
4.092,4.172,3.36,
4.092,4.188,3.44,
4.116,3.42,3.36,
4.092,3.532,3.44,
4.164,3.628,3.32,
4.164,3.588,3.36,
4.124,4.34,3.44,
4.164,4.268,3.44,
2.916,4.18,3.36,
3.02,4.196,3.44,
3.14,4.156,3.32,
3.068,4.172,3.36,
4.3,4.148,3.44,
4.22,4.148,3.44,
4.116,4.196,3.36,
4.14,4.196,3.44,
4.1,4.172,3.32,
4.116,4.188,3.36,
4.084,4.164,3.44,
4.084,4.188,3.36,
4.164,4.132,3.44,
4.164,4.132,3.4,
4.132,4.164,3.44,
4.156,4.148,3.4,
4.132,4.196,3.44,
4.156,4.196,3.44,
4.068,3.42,3.36,
4.076,3.468,3.36,
4.108,3.588,3.44,
4.076,3.588,3.44,
4.164,3.644,3.32,
4.164,3.62,3.44,
2.924,4.34,3.32,
2.972,4.244,3.36,
3.116,4.18,3.44,
3.084,4.196,3.36,
3.172,4.156,3.44,
3.132,4.172,3.36,
4.284,4.148,3.44,
4.188,4.148,3.36,
4.124,4.204,3.44,
4.14,4.196,3.44,
4.108,4.18,3.36,
4.116,4.196,3.36,
4.092,4.156,3.44,
4.092,4.196,3.44,
4.172,4.132,3.36,
4.164,4.132,3.48,
4.148,4.164,3.36,
4.164,4.148,3.44,
4.1,4.196,3.32,
4.164,4.196,3.36,
4.068,3.436,3.44,
4.068,3.532,3.36,
4.108,4.284,3.44,
4.092,4.252,3.36,
4.164,4.18,3.44,
4.164,4.188,3.44,
2.972,4.156,3.32,
3.052,4.172,3.44,
4.228,4.148,3.36,
4.196,4.164,3.36,
4.116,4.148,3.44,
4.132,4.164,3.44,
4.092,4.148,3.32,
4.116,4.156,3.44,
4.092,4.196,3.36,
4.116,4.196,3.36,
4.092,4.172,3.44,
4.092,4.196,3.36,
4.116,4.164,3.44,
4.1,4.188,3.44,
4.172,4.132,3.32,
4.164,4.132,3.44,
4.132,4.164,3.36,
4.164,4.196,3.36,
4.132,4.148,3.44,
4.148,4.14,3.36,
4.076,4.164,3.44,
4.076,4.164,3.44,
4.108,4.148,3.32,
4.164,4.132,3.36,
4.092,4.196,3.44,
4.1,4.196,3.44,
4.068,4.18,3.36,
4.108,4.196,3.32,
4.076,4.172,3.44,
4.06,4.196,3.36,
4.164,4.164,3.44,
4.164,4.196,3.44,
4.132,4.172,3.36,
4.164,4.188,3.44,
4.132,4.164,3.36,
4.164,4.188,3.32,
4.132,4.132,3.44,
4.164,4.196,3.36,
4.14,3.428,3.44,
4.132,3.452,3.36,
4.164,4.212,3.44,
4.156,4.156,3.36,
4.076,4.212,3.44,
4.164,4.204,3.44,
2.948,4.172,3.36,
2.972,4.196,3.36,
4.148,4.172,3.44,
4.1,4.188,3.36,
4.172,3.476,3.44,
4.172,4.172,3.36,
4.132,4.148,3.44,
4.164,4.164,3.44,
4.124,4.132,3.32,
4.156,4.164,3.36,
3.028,4.148,3.44,
4.116,4.148,3.44,
4.092,4.164,3.32,
4.108,4.148,3.36,
4.076,4.196,3.44,
4.108,4.196,3.44,
4.076,4.172,3.36,
4.108,4.188,3.32,
4.084,4.164,3.44,
4.084,4.188,3.36,
4.164,4.132,3.44,
4.164,4.132,3.36,
4.132,4.164,3.44,
4.156,4.148,3.44,
4.132,4.164,3.36,
4.156,4.148,3.44,
4.076,4.164,3.32,
4.076,4.148,3.44,
4.108,4.164,3.32,
4.108,4.148,3.44,
4.084,4.164,3.32,
4.108,4.164,3.44,
4.076,4.148,3.32,
4.108,4.148,3.36,
4.084,4.164,3.44,
4.108,4.148,3.36,
4.076,4.164,3.44,
4.084,4.148,3.44,
4.108,4.164,3.32,
4.108,4.148,3.36,
4.076,4.196,3.44,
4.108,4.196,3.36,
4.076,4.172,3.44,
4.108,4.196,3.44,
4.076,4.172,3.36,
4.076,4.188,3.44,
4.164,4.124,3.32,
4.164,4.132,3.36,
4.124,4.164,3.44,
4.156,4.148,3.44,
4.132,4.164,3.36,
4.156,4.164,3.44,
4.068,4.14,3.32,
4.108,4.164,3.44,
4.068,4.148,3.36,
4.108,4.164,3.36,
4.076,4.14,3.44,
4.108,4.164,3.44,
4.076,4.148,3.32,
4.108,4.164,3.36,
4.076,4.148,3.44,
4.108,4.164,3.36,
4.068,4.148,3.44,
4.108,4.148,3.36,
4.076,4.164,3.44,
4.108,4.148,3.44,
4.076,4.196,3.32,
4.108,4.196,3.36,
4.076,4.172,3.44,
4.108,4.188,3.32,
4.076,4.164,3.44,
4.084,4.188,3.44,
4.164,4.132,3.32,
4.164,4.132,3.36,
4.132,4.164,3.44,
4.156,4.164,3.36,
4.132,4.148,3.44,
4.156,4.148,3.44,
4.076,4.164,3.32,
4.084,4.164,3.32,
4.108,4.148,3.44,
4.108,4.164,3.44,
4.076,4.14,3.36,
4.108,4.164,3.44,
4.076,4.148,3.36,
4.108,4.148,3.32,
4.076,4.164,3.44,
4.108,4.164,3.36,
4.076,4.132,3.44,
4.108,4.148,3.36,
4.076,4.164,3.44,
4.108,4.148,3.44,
4.076,4.196,3.32,
4.108,4.196,3.44,
4.068,4.164,3.36,
4.108,4.188,3.44,
4.084,4.172,3.36,
4.092,4.188,3.44,
4.164,4.132,3.36,
4.164,4.164,3.44,
4.132,4.132,3.32,
4.156,4.148,3.36,
4.132,4.164,3.44,
4.156,4.164,3.44,
4.076,4.148,3.36,
4.108,4.148,3.36,
4.076,4.164,3.44,
4.108,4.148,3.36,
4.076,4.164,3.44,
4.108,4.164,3.36,
4.084,4.148,3.44,
4.108,4.164,3.36,
4.076,4.148,3.44,
4.108,4.164,3.44,
4.084,4.148,3.36,
4.108,4.148,3.36,
4.076,4.196,3.44,
4.108,4.196,3.44,
4.076,4.18,3.36,
4.108,4.188,3.44,
4.076,4.172,3.36,
4.084,4.188,3.36,
4.156,4.148,3.44,
4.164,4.132,3.44,
4.148,4.164,3.36,
4.164,4.14,3.44,
4.132,4.164,3.32,
4.156,4.164,3.44,
4.1,4.124,3.32,
4.068,4.148,3.44,
4.108,4.164,3.36,
4.108,4.164,3.44,
4.076,4.148,3.36,
4.108,4.164,3.44,
4.06,4.148,3.32,
4.108,4.164,3.44,
4.084,4.14,3.36,
4.108,4.164,3.44,
4.076,4.148,3.36,
4.108,4.164,3.32,
4.092,4.14,3.44,
4.108,4.132,3.36,
4.076,4.196,3.44,
4.108,4.18,3.36,
4.076,4.196,3.44,
4.108,4.188,3.44,
4.076,4.164,3.36,
4.076,4.188,3.36,
4.164,4.132,3.44,
4.164,4.156,3.44,
4.132,4.132,3.32,
4.156,4.148,3.44,
4.124,4.164,3.36,
4.156,4.148,3.44,
4.076,4.164,3.36,
4.076,4.164,3.44,
4.108,4.14,3.32,
4.084,4.164,3.36,
4.108,4.148,3.44,
4.108,4.164,3.44,
4.092,4.148,3.36,
4.108,4.164,3.44,
4.068,4.14,3.32,
4.108,4.164,0.04,
4.084,4.148,0.16,
4.108,4.164,0.04,
4.076,4.14,0.16,
4.108,4.148,0.04,
4.084,4.196,0.16,
4.108,4.196,0.04,
4.092,4.164,0.16,
4.108,4.172,0.16,
4.076,4.188,0.04,
4.084,4.188,0.04,
4.164,4.132,0.16,
4.164,4.132,0.16,
4.124,4.164,0.04,
4.156,4.164,0.04,
4.132,4.14,0.16,
4.156,4.148,0.04,
4.068,4.164,0.16,
4.068,4.148,0.12,
4.108,4.172,0.04,
4.108,4.148,0.04,
4.076,4.172,0.16,
4.108,4.148,0.04,
4.076,4.172,0.16,
4.092,4.148,0.04,
4.116,4.164,0.16,
4.116,4.164,0.04,
4.092,4.148,0.16,
4.084,4.164,0.04,
4.116,4.148,0.16,
4.092,4.148,0.16,
4.116,4.196,0.04,
4.076,4.18,0.04,
4.116,4.196,0.16,
4.092,4.18,0.04,
4.116,4.196,0.16,
4.092,4.188,0.16,
4.172,4.132,0.04,
4.164,4.164,0.16,
4.132,4.132,0.04,
4.14,4.164,0.04,
4.164,4.14,0.16,
4.164,4.164,0.12,
4.076,4.132,0.04,
4.108,4.148,0.16,
4.076,4.164,0.04,
4.108,4.164,0.16,
4.084,4.148,0.04,
4.108,4.148,0.12,
4.084,4.164,0.04,
4.108,4.148,0.04,
4.076,4.164,0.16,
4.108,4.164,0.04,
4.076,4.148,0.16,
4.108,4.148,0.16,
4.076,4.164,0.04,
4.108,4.148,0.04,
4.084,4.196,0.12,
4.108,4.196,0.16,
4.076,4.164,0.04,
4.108,4.188,0.04,
4.076,4.172,0.16,
4.092,4.188,0.04,
4.164,4.132,0.16,
4.164,4.132,0.12,
4.132,4.164,0.04,
4.156,4.164,0.16,
4.132,4.148,0.04,
4.148,4.148,0.04,
4.076,4.164,0.16,
4.108,4.164,0.04,
4.076,4.148,0.16,
4.108,4.148,0.04,
4.084,4.164,0.16,
4.108,4.148,0.04,
4.084,4.164,0.16,
4.108,4.164,0.12,
4.076,4.148,0.04,
4.108,4.148,0.04,
4.084,4.164,0.16,
4.076,4.148,0.04,
4.108,4.196,0.16,
4.108,4.196,0.16,
4.084,4.172,0.04,
4.076,4.196,0.04,
4.108,4.172,0.16,
4.076,4.188,0.04,
4.156,4.148,0.12,
4.164,4.156,0.04,
4.132,4.132,0.16,
4.156,4.148,0.04,
4.132,4.164,0.16,
4.156,4.164,0.04,
4.108,4.132,0.16,
4.068,4.148,0.04,
4.108,4.164,0.16,
4.076,4.148,0.16,
4.108,4.164,0.04,
4.108,4.164,0.16,
4.068,4.148,0.04,
4.092,4.164,0.12,
4.108,4.148,0.04,
4.108,4.148,0.04,
4.084,4.164,0.16,
4.108,4.164,0.04,
4.076,4.148,0.16,
4.108,4.164,0.16,
4.084,4.148,0.04,
4.108,4.164,0.04,
4.076,4.148,0.16,
4.108,4.164,0.16,
4.076,4.148,0.04,
4.108,4.148,0.16,
4.084,4.196,0.04,
4.108,4.148,0.16,
4.076,4.164,0.04,
4.108,4.164,0.04,
4.092,4.148,0.16,
4.084,4.164,0.04,
4.164,4.148,0.16,
4.108,4.148,0.12,
4.084,4.164,0.04,
4.108,4.148,0.12,
4.084,4.164,0.04,
4.108,4.164,0.04,
4.076,4.14,0.16,
4.108,4.164,0.16,
4.076,4.148,0.04,
4.108,4.164,0.04,
4.084,4.14,0.16,
4.108,4.164,0.04,
4.068,4.148,0.16,
4.108,4.148,0.16,
4.084,4.164,0.04,
4.084,4.148,0.04,
4.116,4.164,0.12,
4.108,4.164,0.04,
4.084,4.148,0.16,
4.108,4.164,0.04,
4.076,4.148,0.16,
4.108,4.164,0.12,
4.076,4.148,0.04,
4.108,4.164,0.04,
4.076,4.148,0.16,
4.108,4.164,0.04,
4.076,4.148,0.16,
4.108,4.148,0.16,
4.076,4.164,0.04,
4.108,4.164,0.04,
4.076,4.148,0.16,
4.108,4.148,0.04,
4.084,4.164,0.16,
4.108,4.164,0.04,
4.076,4.14,0.16,
4.108,4.148,0.16,
4.076,4.164,0.04,
4.108,4.164,0.04,
4.084,4.148,0.16,
4.108,4.148,0.04,
4.076,4.164,0.16,
4.108,4.148,0.16,
4.076,4.164,0.04,
4.108,4.164,0.04,
4.084,4.148,0.16,
4.108,4.164,0.16,
4.076,4.132,0.04,
4.108,4.164,0.12,
4.076,4.148,0.04,
4.108,4.164,0.12,
4.084,4.148,0.04,
4.108,4.164,0.16,
4.076,4.148,0.04,
4.108,4.148,0.04,
4.076,4.164,0.16,
4.108,4.148,0.04,
4.076,4.164,0.16,
4.108,4.148,0.04,
4.076,4.164,0.16,
4.108,4.148,0.04,
4.084,4.164,0.16,
4.108,4.164,0.16,
4.084,4.148,0.04,
4.108,4.148,0.12,
4.084,4.164,0.04,
4.108,4.164,0.04,
4.084,4.148,0.16,
4.108,4.164,0.04,
4.076,4.148,0.16,
4.108,4.164,0.04,
4.076,4.148,0.16,
4.108,4.164,0.16,
4.076,4.14,0.04,
4.108,4.164,0.04,
4.084,4.132,0.16,
4.108,4.148,0.16,
4.076,4.164,0.04,
4.108,4.164,0.04,
4.084,4.148,0.16,
4.108,4.148,0.04,
4.068,4.164,0.16,
4.108,4.148,0.04,
4.076,4.164,0.16,
4.108,4.164,0.04,
4.076,4.14,0.16,
4.108,4.164,0.12,
4.084,4.14,0.04,
4.108,4.164,0.04,
4.076,4.148,0.16,
4.108,4.14,0.04,
4.076,4.196,0.16,
4.108,4.18,0.16,
4.076,4.196,0.04,
4.108,4.196,0.16,
4.076,4.164,0.04,
4.076,4.188,0.16,
4.164,4.156,0.04,
4.164,4.156,0.12,
4.132,4.132,0.04,
4.156,4.14,0.16,
4.132,4.164,0.04,
4.156,4.164,0.08,
4.1,4.148,0.16,
4.108,4.148,0.04,
4.076,4.172,0.16,
4.076,4.148,0.16,
4.116,4.164,0.04,
4.092,4.164,0.04,
4.116,4.148,0.16,
4.084,4.148,0.16,
4.116,4.172,0.04,
4.092,4.164,0.04,
4.116,4.148,0.16,
4.092,4.148,0.04,
4.116,4.164,0.16,
4.092,4.148,0.04,
4.116,4.196,0.16,
4.092,4.196,0.04,
4.116,4.18,0.16,
4.116,4.188,0.04,
4.076,4.172,0.16,
4.092,4.188,0.04,
4.172,4.132,0.16,
4.164,4.132,0.04,
4.132,4.164,0.16,
4.164,4.164,0.12,
4.124,4.132,0.04,
4.156,4.148,0.04,
4.076,4.164,0.16,
4.068,4.164,0.04,
4.108,4.148,0.16,
4.108,4.164,0.04,
4.076,4.148,0.16,
4.108,4.164,0.16,
4.084,4.148,0.04,
4.108,4.148,0.04,
4.076,4.164,0.16,
4.108,4.148,0.04,
4.084,4.164,0.16,
4.108,4.164,0.04,
4.076,4.14,0.16,
4.108,4.148,0.04,
4.076,4.196,0.12,
4.108,4.196,0.04,
4.076,4.172,0.16,
4.108,4.188,0.04,
4.084,4.156,0.16,
4.076,4.188,0.04,
4.164,4.14,0.16,
4.164,4.132,0.04,
4.132,4.164,0.16,
4.156,4.164,0.12,
4.1,4.14,0.04,
4.156,4.164,0.12,
4.068,4.14,0.04,
4.076,4.148,0.12,
4.108,4.164,0.04,
4.108,4.148,0.16,
4.076,4.164,0.04,
4.108,4.164,0.04,
4.084,4.124,0.16,
4.108,4.14,0.12,
4.076,4.164,0.04,
4.108,4.164,0.04,
4.076,4.14,0.16,
4.108,4.148,0.04,
4.036,4.164,0.16,
4.076,4.148,0.04,
4.108,4.196,0.16,
4.108,4.196,0.04,
4.084,4.18,0.16,
4.108,4.188,0.04,
4.076,4.164,0.16,
4.084,4.188,0.04,
4.164,4.132,0.16,
4.164,4.14,0.04,
4.132,4.164,0.16,
4.156,4.148,0.16,
4.132,4.164,0.04,
4.148,4.148,0.04,
4.068,4.164,0.16,
4.076,4.148,0.04,
4.108,4.164,0.16,
4.108,4.164,0.04,
4.084,4.132,0.16,
4.108,4.164,0.04,
4.076,4.148,0.16,
4.076,4.164,0.04,
4.108,4.148,0.16,
4.108,4.164,0.04,
4.076,4.132,0.16,
4.108,4.148,0.16,
4.084,4.164,0.04,
4.108,4.148,0.04,
4.076,4.196,0.16,
4.108,4.196,0.04,
4.076,4.172,0.16,
4.108,4.188,0.12,
4.076,4.172,0.04,
4.092,4.188,0.04,
4.164,4.132,0.16,
4.164,4.164,0.04,
4.132,4.14,0.16,
4.156,4.164,0.04,
4.132,4.14,0.16,
4.156,4.164,0.04,
4.076,4.132,0.16,
