Measurements/Power Payload/Metingen 2/Payload 1 320.csv

CH1,CH2,CH3,Start,Increment,
Volt,Volt,Volt,-5.995,0.01
4.172,4.18,0.04,
4.148,4.196,0.16,
4.172,4.196,0.04,
4.148,4.18,0.16,
4.172,4.18,0.12,
4.156,4.196,0.04,
4.172,4.18,0.16,
4.148,4.196,0.04,
4.148,4.18,0.04,
4.172,4.196,0.16,
4.156,4.196,0.04,
4.172,4.18,0.16,
4.172,4.18,0.04,
4.148,4.196,0.16,
4.172,4.18,0.12,
4.156,4.196,0.04,
4.156,4.18,0.12,
4.172,4.196,0.04,
4.148,4.196,0.04,
4.172,4.18,0.16,
4.172,4.196,0.12,
4.156,4.18,0.04,
4.172,4.18,0.16,
4.148,4.196,0.04,
4.172,4.196,0.16,
4.156,4.18,0.04,
4.172,4.196,0.12,
4.148,4.18,0.04,
4.148,4.196,0.12,
4.172,4.18,0.04,
4.172,4.196,0.04,
4.156,4.172,0.16,
4.172,4.196,0.04,
4.148,4.18,0.16,
4.172,4.196,0.12,
4.132,4.18,0.04,
4.172,4.196,0.04,
4.148,4.18,0.16,
4.148,4.18,0.12,
4.172,4.196,0.04,
4.148,4.196,0.04,
4.172,4.18,0.16,
4.172,4.196,0.04,
4.148,4.18,0.16,
4.156,4.196,0.04,
4.172,4.18,0.16,
4.172,4.196,0.04,
4.148,4.18,0.16,
4.172,4.196,0.04,
4.148,4.18,0.16,
4.172,4.196,0.04,
4.148,4.18,0.16,
4.172,4.18,0.16,
4.148,4.196,0.04,
4.156,4.172,0.04,
4.172,4.196,0.16,
4.172,4.196,0.12,
4.148,4.18,0.04,
4.172,4.196,0.16,
4.124,4.18,0.04,
4.172,4.18,0.16,
4.156,4.196,0.04,
4.172,4.18,0.12,
4.148,4.196,0.04,
4.156,4.18,0.04,
4.172,4.196,0.16,
4.156,4.196,0.04,
4.172,4.18,0.16,
4.148,4.18,0.12,
4.172,4.196,0.04,
4.172,4.18,0.04,
4.148,4.196,0.16,
4.172,4.196,0.04,
4.148,4.18,0.16,
4.156,4.18,0.16,
4.172,4.196,0.04,
4.172,4.196,0.04,
4.148,4.18,0.16,
4.148,4.18,0.12,
4.172,4.196,0.04,
4.172,4.196,0.04,
4.148,4.18,0.16,
4.172,4.18,0.04,
4.148,4.196,0.16,
4.172,4.18,0.04,
4.156,4.196,0.16,
4.156,4.196,0.04,
4.172,4.18,0.16,
4.148,4.18,0.04,
4.172,4.196,0.16,
4.156,4.18,0.04,
4.172,4.196,0.16,
4.156,4.18,0.04,
4.172,4.196,0.16,
4.172,4.18,0.12,
4.156,4.196,0.04,
4.172,4.196,0.04,
4.156,4.18,0.16,
4.172,4.18,0.04,
4.156,4.196,0.16,
4.156,4.196,0.12,
4.172,4.18,0.04,
4.156,4.18,0.04,
4.172,4.196,0.12,
4.172,4.18,0.16,
4.156,4.196,0.04,
4.156,4.196,0.04,
4.172,4.18,0.16,
4.156,4.18,0.04,
4.172,4.196,0.16,
4.172,4.18,0.04,
4.148,4.196,0.16,
4.148,4.18,0.04,
4.172,4.196,0.16,
4.156,4.18,0.04,
4.172,4.196,0.16,
4.172,4.196,0.16,
4.148,4.18,0.04,
4.148,4.18,0.04,
4.172,4.196,0.16,
4.172,4.18,0.16,
4.156,4.196,0.04,
4.172,4.196,0.12,
4.148,4.18,0.04,
4.156,4.18,0.16,
4.172,4.196,0.04,
4.172,4.18,0.12,
4.148,4.196,0.04,
4.148,4.18,0.12,
4.172,4.196,0.04,
4.156,4.18,0.12,
4.172,4.196,0.04,
4.172,4.196,0.04,
4.148,4.18,0.12,
4.156,4.18,0.04,
4.172,4.196,0.16,
4.156,4.196,0.04,
4.172,4.18,0.16,
4.148,4.18,0.04,
4.172,4.196,0.12,
4.148,4.196,0.04,
4.172,4.18,0.16,
4.148,4.196,0.04,
4.172,4.18,0.16,
4.156,4.196,0.04,
4.172,4.18,0.12,
4.156,4.196,0.04,
4.172,4.18,0.16,
4.148,4.18,0.04,
4.172,4.196,0.16,
4.156,4.196,0.04,
4.172,4.18,0.12,
4.172,4.18,0.04,
4.148,4.196,0.12,
4.172,4.196,0.04,
4.156,4.18,0.16,
4.156,4.18,0.16,
4.172,4.196,0.04,
4.148,4.18,0.04,
4.172,4.196,0.16,
4.156,4.18,0.04,
4.172,4.196,0.16,
4.148,4.196,0.04,
4.172,4.18,0.16,
4.156,4.18,0.04,
4.172,4.196,0.16,
4.172,4.18,0.04,
4.156,4.196,0.16,
4.156,4.196,0.16,
4.172,4.18,0.04,
4.172,4.196,0.16,
4.156,4.18,0.04,
4.172,4.18,0.04,
4.148,4.196,0.16,
4.172,4.18,0.16,
4.148,4.196,0.04,
4.172,4.196,0.16,
4.148,4.18,0.04,
4.148,4.196,0.04,
4.172,4.18,0.12,
4.172,4.196,0.16,
4.156,4.18,0.04,
4.172,4.196,0.04,
4.148,4.172,0.16,
4.172,4.18,0.04,
4.156,4.196,0.16,
4.172,4.196,0.04,
4.148,4.18,0.16,
4.148,4.196,0.12,
4.172,4.18,0.04,
4.156,4.18,0.08,
4.172,4.196,3.44,
4.172,4.18,3.44,
4.148,4.196,3.36,
4.156,4.196,3.36,
4.172,4.164,3.44,
4.172,4.196,3.44,
4.148,4.172,3.36,
4.172,4.196,3.44,
4.132,4.18,3.32,
4.172,4.18,3.44,
4.148,4.196,3.36,
4.148,4.196,3.44,
4.172,4.18,3.36,
4.156,4.196,3.44,
4.172,4.18,3.32,
4.172,4.18,3.44,
4.156,4.196,3.36,
4.172,4.196,3.44,
4.14,4.18,3.36,
4.156,4.18,3.44,
4.172,4.196,3.32,
4.172,4.18,3.32,
4.148,4.196,3.44,
4.156,4.18,3.36,
4.172,4.196,3.44,
4.148,4.196,3.36,
4.172,4.18,3.44,
4.148,4.18,3.44,
4.172,4.196,3.32,
4.156,4.196,3.36,
4.172,4.18,3.44,
4.172,4.196,3.44,
4.148,4.18,3.36,
4.156,4.18,3.44,
4.172,4.196,3.32,
4.172,4.196,3.44,
4.156,4.18,3.32,
4.148,4.18,3.44,
4.172,4.196,3.32,
4.156,4.196,3.44,
4.172,4.18,3.36,
4.156,4.196,3.36,
4.172,4.18,3.44,
4.172,4.18,3.44,
4.156,4.196,3.36,
4.172,4.196,3.36,
4.148,4.18,3.44,
4.148,4.196,3.44,
4.172,4.18,3.36,
4.172,4.196,3.44,
4.148,4.18,3.32,
4.172,4.18,3.36,
4.148,4.196,3.44,
4.172,4.196,3.44,
4.156,4.18,3.36,
4.172,4.196,3.36,
4.148,4.18,3.44,
4.148,4.196,3.36,
4.172,4.18,3.44,
4.172,4.196,3.36,
4.156,4.18,3.44,
4.172,4.18,3.44,
4.148,4.196,3.36,
4.172,4.196,3.44,
4.156,4.18,3.36,
4.156,4.196,3.36,
4.172,4.18,3.44,
4.148,4.18,3.44,
4.172,4.196,3.32,
4.156,4.196,3.44,
4.172,4.18,3.32,
4.172,4.196,3.36,
4.148,4.18,3.44,
4.156,4.196,3.36,
4.172,4.18,3.44,
4.172,4.18,3.44,
4.148,4.196,3.32,
4.148,4.18,3.36,
4.172,4.196,3.44,
4.156,4.196,3.44,
4.172,4.164,3.36,
4.172,4.18,3.44,
4.148,4.196,3.32,
4.172,4.196,3.44,
4.108,4.18,3.36,
4.172,4.196,3.44,
4.156,4.18,3.32,
4.148,4.196,3.36,
4.172,4.18,3.44,
4.172,4.196,3.32,
4.156,4.18,3.44,
4.172,4.18,3.44,
4.148,4.196,3.32,
4.172,4.18,3.36,
4.156,4.196,3.44,
4.172,4.18,3.36,
4.148,4.212,3.44,
4.148,4.196,3.44,
4.172,4.18,3.32,
4.172,4.196,3.36,
4.148,4.18,3.44,
4.172,4.196,3.36,
4.156,4.18,3.44,
4.172,4.18,3.44,
4.156,4.196,3.32,
4.172,4.196,3.36,
4.156,4.18,3.44,
4.156,4.196,3.36,
4.172,4.18,3.44,
4.172,4.196,3.36,
4.156,4.18,3.44,
4.172,4.196,3.44,
4.156,4.18,3.36,
4.172,4.196,3.44,
4.156,4.18,3.32,
4.172,4.18,3.44,
4.156,4.196,3.32,
4.172,4.18,3.44,
4.156,4.196,3.36,
4.172,4.196,3.36,
4.148,4.18,3.44,
4.148,4.18,3.36,
4.172,4.196,3.44,
4.172,4.196,3.36,
4.156,4.18,3.44,
4.172,4.196,3.36,
4.148,4.18,3.44,
4.156,4.196,3.36,
4.172,4.18,3.44,
4.172,4.196,3.44,
4.156,4.18,3.32,
4.148,4.196,3.44,
4.172,4.18,3.36,
4.172,4.196,3.36,
4.156,4.156,3.44,
4.172,4.196,3.36,
4.148,4.18,3.44,
4.172,4.18,3.32,
4.116,4.196,3.44,
4.156,4.196,3.36,
4.172,4.18,3.44,
4.172,4.196,3.36,
4.148,4.156,3.44,
4.172,4.196,3.44,
4.156,4.18,3.32,
4.172,4.18,3.36,
4.124,4.196,3.44,
4.148,4.196,3.44,
4.172,4.172,3.32,
4.132,4.196,3.36,
4.172,4.18,3.44,
4.172,4.18,3.44,
4.14,4.196,3.32,
4.156,4.196,3.36,
4.172,4.18,3.44,
4.172,4.18,3.36,
4.148,4.196,3.44,
4.148,4.196,3.44,
4.172,4.18,3.36,
4.156,4.18,3.44,
4.172,4.196,3.36,
4.172,4.196,3.36,
4.148,4.18,3.44,
4.156,4.18,3.36,
4.172,4.196,3.44,
4.172,4.196,3.36,
4.148,4.172,3.44,
4.164,4.18,3.36,
4.148,4.196,3.44,
4.172,4.18,3.44,
4.148,4.196,3.36,
4.172,4.196,3.36,
4.148,4.18,3.44,
4.156,4.18,3.36,
4.172,4.196,3.44,
4.156,4.18,3.32,
4.172,4.196,3.44,
4.172,4.196,3.44,
4.148,4.18,3.32,
4.156,4.196,3.36,
4.172,4.18,3.44,
4.172,4.196,3.36,
4.148,4.18,3.44,
4.172,4.18,3.44,
4.148,4.196,3.32,
4.172,4.196,3.32,
4.148,4.18,3.44,
4.148,4.18,3.36,
4.172,4.196,3.44,
4.156,4.18,3.36,
4.172,4.196,3.44,
4.172,4.196,3.44,
4.148,4.18,3.32,
4.156,4.18,3.44,
4.172,4.196,3.36,
4.172,4.18,3.36,
4.148,4.196,3.44,
4.148,4.196,3.44,
4.172,4.172,3.32,
4.156,4.196,3.36,
4.172,4.18,3.44,
4.172,4.196,3.36,
4.148,4.14,3.44,
4.172,4.116,3.44,
4.156,4.164,3.36,
4.172,4.164,3.36,
4.076,4.124,3.44,
4.036,4.116,3.44,
4.116,4.172,3.36,
4.116,4.164,3.44,
4.06,4.148,3.36,
4.06,4.164,3.44,
4.14,4.124,3.36,
4.116,4.148,3.44,
4.092,4.164,3.32,
4.116,4.164,3.44,
4.06,4.108,3.36,
4.092,4.164,3.44,
4.116,4.148,3.32,
4.116,4.148,3.44,
4.044,4.164,3.36,
4.116,4.164,3.44,
4.084,4.148,3.36,
4.092,4.164,3.44,
4.116,4.148,3.36,
4.092,4.148,3.44,
4.116,4.164,3.32,
4.092,4.164,3.36,
4.116,4.148,3.44,
4.092,4.132,3.36,
4.116,4.172,3.44,
4.092,4.164,3.36,
4.116,4.132,3.44,
4.052,4.164,3.44,
4.132,4.132,3.36,
4.116,4.164,3.44,
4.068,4.132,3.32,
4.068,4.164,3.44,
4.116,4.132,3.36,
4.116,4.164,3.44,
4.06,4.116,3.32,
4.06,4.1,3.36,
4.116,4.172,3.44,
4.116,4.172,3.36,
4.036,4.124,3.44,
4.02,4.172,3.44,
4.124,4.124,3.32,
4.06,4.172,3.36,
4.116,4.124,3.44,
4.116,4.172,3.36,
4.06,4.148,3.44,
4.116,4.172,3.36,
4.044,4.124,3.44,
4.116,4.124,3.36,
4.068,4.172,3.44,
4.116,4.172,3.36,
4.06,4.132,3.44,
4.06,4.14,3.36,
4.116,4.188,3.44,
4.116,4.164,3.44,
4.068,4.148,3.32,
4.068,4.164,3.44,
4.156,4.148,3.36,
4.116,4.172,3.36,
4.092,4.148,3.44,
4.116,4.164,3.44,
4.084,4.148,3.32,
4.116,4.164,3.44,
4.092,4.148,3.32,
4.116,4.164,3.36,
4.1,4.148,3.44,
4.116,4.164,3.36,
4.092,4.148,3.44,
4.1,4.148,3.44,
4.116,4.172,3.32,
4.1,4.164,3.44,
4.116,4.148,3.36,
4.116,4.18,3.36,
4.092,4.124,3.44,
4.1,4.1,3.36,
4.116,4.14,3.44,
4.148,4.156,3.36,
4.06,4.124,3.44,
4.012,4.124,3.36,
4.076,4.156,3.44,
4.06,4.156,3.44,
4.084,4.132,3.32,
4.044,4.156,3.36,
4.084,4.132,3.44,
4.068,4.156,3.36,
4.084,4.132,3.44,
4.084,4.132,3.44,
4.06,4.156,3.36,
4.068,4.132,3.36,
4.084,4.156,3.44,
4.084,4.132,3.44,
4.068,4.156,3.32,
4.052,4.132,3.36,
4.084,4.156,3.44,
4.068,4.132,3.36,
4.1,4.156,3.44,
4.092,4.156,3.44,
4.068,4.132,3.32,
4.068,4.132,3.4,
4.092,4.156,3.44,
4.068,4.156,3.4,
4.092,4.132,3.48,
4.068,4.156,3.44,
4.1,4.124,3.4,
4.068,4.196,3.4,
4.092,3.436,3.48,
4.084,3.556,3.4,
4.06,3.628,3.44,
4.14,3.596,3.4,
2.948,3.644,3.44,
3.06,3.628,3.4,
3.132,3.66,3.44,
3.108,3.66,3.4,
3.156,3.636,3.44,
3.14,3.644,3.4,
3.164,3.66,3.48,
3.148,3.644,3.44,
3.172,3.66,3.36,
3.18,3.644,3.32,
3.148,3.66,3.44,
3.156,3.644,3.36,
3.18,3.668,3.44,
3.18,3.652,3.44,
3.156,4.372,3.32,
3.188,4.252,3.44,
3.156,4.188,3.32,
3.156,4.196,3.36,
4.332,4.156,3.44,
4.204,4.156,3.44,
4.132,4.212,3.32,
4.14,4.196,3.36,
4.1,4.14,3.44,
4.092,4.148,3.44,
4.172,4.196,3.36,
4.164,4.196,3.4,
4.076,4.18,3.48,
4.076,4.188,3.4,
4.164,4.132,3.44,
4.164,4.196,3.44,
4.148,3.404,3.4,
4.164,3.5,3.36,
4.092,3.596,3.44,
4.164,3.58,3.44,
2.916,3.636,3.32,
2.996,3.596,3.36,
3.116,4.356,3.44,
3.06,4.356,3.44,
3.148,4.204,3.32,
3.084,4.22,3.36,
4.3,4.164,3.44,
4.3,4.172,3.32,
4.14,4.22,3.44,
4.164,4.188,3.44,
4.1,4.148,3.32,
4.116,4.148,3.36,
4.188,4.172,3.44,
4.14,4.148,3.44,
4.076,4.212,3.32,
4.116,4.196,3.44,
4.092,4.18,3.36,
4.092,4.196,3.36,
4.172,4.18,3.44,
4.172,4.196,3.36,
4.148,4.172,3.44,
4.164,4.196,3.36,
4.148,4.172,3.44,
4.148,4.188,3.44,
4.164,4.172,3.36,
4.164,4.188,3.36,
4.124,4.132,3.44,
4.156,4.188,3.44,
4.132,3.604,3.36,
4.156,3.396,3.44,
4.076,4.22,3.32,
4.156,4.172,3.36,
3.172,4.148,3.44,
2.892,4.148,3.4,
4.188,4.196,3.48,
4.116,4.196,3.44,
4.092,4.172,3.36,
4.092,4.196,3.44,
4.164,3.412,3.32,
4.164,3.516,3.36,
4.124,3.604,3.44,
4.164,3.58,3.36,
2.908,4.34,3.44,
3.012,4.284,3.36,
3.116,4.188,3.44,
3.06,4.204,3.44,
4.292,4.164,3.36,
4.228,4.172,3.44,
4.132,4.148,3.32,
4.156,4.148,3.44,
4.108,4.196,3.36,
4.132,4.196,3.44,
4.092,4.172,3.32,
4.084,4.196,3.36,
4.164,4.164,3.44,
4.164,4.188,3.36,
4.14,4.132,3.44,
4.156,4.164,3.4,
4.132,4.132,3.44,
4.156,4.132,3.4,
4.076,4.196,3.44,
4.076,4.196,3.44,
4.108,4.164,3.32,
4.084,4.164,3.44,
4.172,3.42,3.36,
4.164,3.564,3.44,
4.124,3.628,3.36,
4.124,3.604,3.44,
2.924,4.34,3.32,
3.06,4.268,3.36,
3.164,4.188,3.44,
3.1,4.196,3.44,
4.3,4.164,3.36,
4.204,4.172,3.44,
4.124,4.148,3.36,
4.14,4.148,3.36,
4.108,4.204,3.44,
4.124,4.196,3.44,
4.092,4.18,3.36,
4.092,4.196,3.44,
4.172,4.172,3.36,
4.164,4.188,3.44,
4.148,4.132,3.32,
4.164,4.132,3.44,
4.124,4.164,3.32,
4.156,4.132,3.44,
4.076,4.196,3.36,
4.108,4.196,3.36,
4.076,3.42,3.44,
4.076,3.5,3.36,
4.164,4.276,3.44,
4.164,4.228,3.36,
2.932,4.172,3.44,
3.012,4.188,3.36,
4.22,4.148,3.44,
4.188,4.148,3.44,
4.116,4.172,3.36,
4.132,4.164,3.36,
4.092,4.148,3.44,
4.092,4.148,3.44,
4.116,4.164,3.36,
4.108,4.148,3.36,
4.092,4.196,3.44,
4.108,4.196,3.32,
4.084,4.18,3.44,
4.092,4.188,3.44,
4.164,4.172,3.36,
4.164,4.188,3.36,
4.132,4.132,3.44,
4.156,4.164,3.44,
4.132,4.132,3.36,
4.156,4.148,3.44,
4.076,4.196,3.36,
4.108,4.196,3.36,
4.068,3.452,3.44,
4.092,4.172,3.36,
4.164,4.148,3.44,
4.164,4.164,3.44,
2.996,4.148,3.36,
4.116,4.164,3.44,
4.076,4.132,3.36,
4.092,4.164,3.36,
4.116,4.148,3.44,
4.108,4.148,3.32,
4.076,4.164,3.44,
4.108,4.148,3.36,
4.092,4.164,3.44,
4.092,4.148,3.44,
4.108,4.196,3.32,
4.076,4.188,3.44,
4.108,4.164,3.32,
4.092,4.188,3.36,
4.164,4.172,3.44,
4.156,4.188,3.36,
4.124,4.132,3.44,
4.132,4.14,3.44,
4.156,4.196,3.36,
4.156,4.196,3.44,
4.076,4.148,3.32,
4.076,4.132,3.36,
4.164,4.164,3.44,
4.164,4.148,3.36,
4.092,4.164,3.44,
4.108,4.124,3.44,
4.076,4.196,3.32,
4.092,4.196,3.36,
4.108,4.172,3.44,
4.06,4.188,3.36,
4.164,4.164,3.44,
4.164,4.188,3.44,
4.132,4.164,3.32,
4.156,4.188,3.44,
4.124,4.172,3.32,
4.156,4.188,3.44,
4.124,4.164,3.36,
4.156,4.188,3.44,
4.132,4.132,3.32,
4.132,4.196,3.36,
4.156,3.42,3.44,
4.156,3.46,3.36,
4.076,4.196,3.44,
4.164,4.148,3.36,
2.908,4.212,3.44,
2.972,4.196,3.44,
4.14,4.156,3.32,
4.092,4.196,3.36,
4.172,3.46,3.44,
4.164,4.172,3.44,
4.124,4.148,3.32,
4.164,4.164,3.36,
2.988,4.14,3.44,
4.116,4.164,3.44,
4.092,4.148,3.32,
4.108,4.148,3.36,
4.076,4.164,3.44,
4.108,4.148,3.44,
4.092,4.164,3.36,
4.108,4.148,3.44,
4.092,4.196,3.32,
4.108,4.196,3.36,
4.076,4.172,3.44,
4.092,4.196,3.36,
4.164,4.172,3.44,
4.164,4.188,3.44,
4.132,4.132,3.32,
4.164,4.132,3.36,
4.132,4.164,3.44,
4.156,4.164,3.44,
4.076,4.132,3.32,
4.076,4.164,3.36,
4.108,4.14,3.44,
4.084,4.148,3.36,
4.108,4.164,3.44,
4.108,4.148,3.44,
4.076,4.164,3.36,
4.108,4.164,3.36,
4.092,4.14,3.44,
4.092,4.164,3.36,
4.108,4.148,3.44,
4.108,4.164,3.32,
4.076,4.148,3.44,
4.108,4.164,3.36,
4.092,4.148,3.44,
4.108,4.148,3.36,
4.084,4.196,3.44,
4.108,4.196,3.36,
4.092,4.172,3.44,
4.076,4.188,3.36,
4.164,4.172,3.44,
4.156,4.188,3.36,
4.132,4.132,3.44,
4.156,4.132,3.44,
4.132,4.164,3.32,
4.156,4.148,3.36,
4.076,4.164,3.44,
4.108,4.148,3.36,
4.076,4.164,3.44,
4.108,4.164,3.44,
4.084,4.148,3.32,
4.108,4.148,3.44,
4.076,4.164,3.32,
4.108,4.164,3.36,
4.084,4.148,3.44,
4.108,4.164,3.36,
4.076,4.148,3.44,
4.108,4.148,3.44,
4.092,4.164,3.32,
4.108,4.164,3.36,
4.084,4.14,3.44,
4.108,4.164,3.36,
4.084,4.132,3.44,
4.108,4.164,3.44,
4.076,4.116,3.32,
4.108,4.164,3.36,
4.068,4.148,3.44,
4.108,4.164,3.36,
4.044,4.14,3.44,
4.108,4.164,3.36,
4.092,4.148,3.44,
4.108,4.164,3.36,
4.068,4.132,3.44,
4.108,4.164,3.36,
4.076,4.148,3.44,
4.108,4.148,3.36,
4.068,4.164,3.44,
4.108,4.164,3.44,
4.084,4.132,3.32,
4.092,4.148,3.36,
4.108,4.164,3.44,
4.108,4.148,3.44,
4.076,4.164,3.36,
4.092,4.164,3.44,
4.108,4.148,3.36,
4.108,4.148,3.36,
4.084,4.164,3.44,
4.108,4.164,3.44,
4.092,4.14,3.36,
4.108,4.164,3.36,
4.092,4.148,3.44,
4.108,4.164,3.44,
4.068,4.132,3.32,
4.108,4.172,3.44,
4.092,4.148,0.12,
4.108,4.164,0.12,
4.076,4.148,0.04,
4.116,4.148,0.16,
4.092,4.172,0.04,
4.116,4.164,0.04,
4.092,4.148,0.16,
4.092,4.164,0.16,
4.116,4.132,0.04,
4.092,4.164,0.16,
4.116,4.148,0.04,
4.116,4.164,0.04,
4.068,4.148,0.16,
4.116,4.164,0.04,
4.092,4.148,0.16,
4.116,4.164,0.04,
4.092,4.148,0.16,
4.116,4.164,0.16,
4.084,4.132,0.04,
4.116,4.164,0.04,
4.076,4.148,0.16,
4.108,4.164,0.04,
4.068,4.148,0.16,
4.108,4.164,0.16,
4.092,4.132,0.04,
4.108,4.148,0.04,
4.092,4.164,0.16,
4.108,4.164,0.04,
4.076,4.148,0.16,
4.108,4.164,0.04,
4.092,4.148,0.16,
4.108,4.164,0.16,
4.084,4.148,0.04,
4.108,4.164,0.04,
4.076,4.148,0.16,
4.108,4.148,0.04,
4.092,4.164,0.16,
4.108,4.148,0.04,
4.076,4.164,0.16,
4.108,4.164,0.16,
4.076,4.148,0.04,
4.108,4.164,0.04,
4.076,4.148,0.16,
4.108,4.164,0.16,
4.092,4.148,0.04,
4.092,4.164,0.04,
4.108,4.148,0.16,
4.108,4.164,0.04,
4.084,4.14,0.16,
4.108,4.148,0.16,
4.084,4.196,0.04,
4.108,4.164,0.16,
4.084,4.148,0.04,
4.076,4.164,0.04,
4.164,4.132,0.16,
4.108,4.164,0.04,
4.084,4.148,0.16,
4.108,4.164,0.16,
4.076,4.14,0.04,
4.108,4.148,0.04,
4.076,4.164,0.16,
4.108,4.164,0.16,
4.068,4.148,0.04,
4.108,4.164,0.04,
4.076,4.14,0.16,
4.092,4.164,0.16,
4.108,4.148,0.04,
4.108,4.164,0.04,
4.068,4.148,0.16,
4.108,4.148,0.04,
4.092,4.196,0.16,
4.108,4.196,0.04,
4.076,4.172,0.16,
4.092,4.188,0.04,
4.164,4.172,0.16,
4.164,4.188,0.04,
4.132,4.14,0.16,
4.132,4.164,0.04,
4.156,4.132,0.16,
4.156,4.148,0.04,
4.076,4.164,0.16,
4.108,4.164,0.04,
4.068,4.148,0.16,
4.108,4.148,0.12,
4.076,4.164,0.04,
4.108,4.164,0.16,
4.084,4.148,0.04,
4.108,4.164,0.04,
4.084,4.148,0.16,
4.108,4.164,0.04,
4.076,4.148,0.16,
4.108,4.164,0.16,
4.076,4.148,0.04,
4.108,4.164,0.04,
4.092,4.14,0.16,
4.108,4.148,0.04,
4.092,4.196,0.16,
4.108,4.196,0.04,
4.076,4.172,0.16,
4.092,4.188,0.16,
4.164,4.164,0.04,
4.164,4.188,0.04,
4.132,4.132,0.16,
4.156,4.164,0.12,
4.132,4.132,0.04,
4.156,4.164,0.04,
4.076,4.148,0.16,
4.068,4.164,0.04,
4.108,4.148,0.16,
4.108,4.164,0.12,
4.092,4.148,0.04,
4.108,4.148,0.04,
4.084,4.164,0.16,
4.108,4.164,0.04,
4.084,4.148,0.16,
4.108,4.164,0.04,
4.084,4.148,0.16,
4.108,4.164,0.12,
4.076,4.148,0.04,
4.108,4.164,0.12,
4.092,4.148,0.04,
4.108,4.148,0.04,
4.092,4.196,0.16,
4.108,4.188,0.04,
4.084,4.164,0.16,
4.092,4.188,0.04,
4.164,4.172,0.16,
4.156,4.188,0.04,
4.132,4.132,0.16,
4.156,4.148,0.04,
4.132,4.164,0.12,
4.156,4.164,0.12,
4.068,4.148,0.04,
4.108,4.164,0.16,
4.076,4.14,0.04,
4.092,4.164,0.04,
4.108,4.148,0.16,
4.108,4.148,0.04,
4.076,4.164,0.16,
4.108,4.164,0.04,
4.092,4.148,0.16,
4.108,4.164,0.04,
4.076,4.148,0.16,
4.108,4.164,0.16,
4.084,4.148,0.04,
4.108,4.148,0.12,
4.092,4.196,0.04,
4.108,4.196,0.12,
4.076,4.172,0.04,
4.084,4.196,0.12,
4.164,4.172,0.04,
4.164,4.188,0.04,
4.132,4.148,0.12,
4.156,4.156,0.04,
4.132,4.124,0.16,
4.156,4.148,0.04,
4.092,4.164,0.16,
4.108,4.164,0.16,
4.052,4.14,0.04,
4.108,4.164,0.04,
4.084,4.148,0.16,
4.108,4.164,0.04,
4.068,4.148,0.16,
4.108,4.164,0.04,
4.076,4.14,0.16,
4.092,4.164,0.04,
4.108,4.132,0.16,
4.108,4.164,0.16,
4.076,4.132,0.04,
4.108,4.148,0.04,
4.076,4.164,0.16,
4.108,4.148,0.16,
4.076,4.196,0.04,
4.108,4.18,0.04,
4.084,4.196,0.16,
4.092,4.196,0.12,
4.164,4.172,0.04,
4.164,4.188,0.12,
4.132,4.132,0.04,
4.156,4.164,0.04,
4.132,4.132,0.16,
4.156,4.148,0.16,
4.068,4.164,0.04,
4.108,4.148,0.04,
4.076,4.164,0.16,
4.092,4.164,0.04,
4.108,4.148,0.16,
4.108,4.164,0.16,
4.076,4.14,0.04,
4.108,4.148,0.12,
4.092,4.164,0.04,
4.108,4.164,0.04,
4.076,4.148,0.16,
4.108,4.148,0.04,
4.084,4.164,0.16,
4.108,4.164,0.12,
4.076,4.148,0.04,
4.076,4.148,0.04,
4.108,4.196,0.16,
4.108,4.196,0.04,
4.092,4.18,0.16,
4.092,4.18,0.04,
4.164,4.196,0.16,
4.172,4.196,0.04,
4.14,4.132,0.16,
4.164,4.164,0.04,
4.148,4.14,0.16,
4.164,4.164,0.04,
4.084,4.148,0.16,
4.108,4.148,0.04,
4.076,4.164,0.16,
4.116,4.164,0.04,
4.076,4.148,0.16,
4.116,4.164,0.04,
4.092,4.148,0.16,
4.116,4.164,0.16,
4.092,4.148,0.04,
4.084,4.148,0.12,
4.116,4.164,0.04,
4.116,4.164,0.16,
4.092,4.148,0.04,
4.116,4.164,0.12,
4.068,4.148,0.04,
4.108,4.14,0.04,
4.084,4.196,0.16,
4.108,4.196,0.04,
4.092,4.172,0.16,
4.084,4.188,0.16,
4.164,4.164,0.04,
4.164,4.188,0.12,
4.132,4.132,0.04,
4.156,4.148,0.04,
4.124,4.164,0.16,
4.156,4.164,0.16,
4.06,4.14,0.04,
4.108,4.164,0.04,
4.076,4.148,0.16,
4.108,4.164,0.16,
4.068,4.14,0.04,
4.108,4.164,0.04,
4.076,4.148,0.12,
4.108,4.148,0.04,
4.076,4.164,0.16,
4.108,4.164,0.04,
4.084,4.148,0.16,
4.108,4.164,0.04,
4.084,4.14,0.16,
4.108,4.164,0.04,
4.076,4.14,0.16,
4.108,4.148,0.12,
4.076,4.196,0.04,
4.108,4.196,0.04,
4.076,4.164,0.16,
4.092,4.188,0.04,
4.164,4.172,0.16,
4.164,4.188,0.16,
4.132,4.132,0.04,
4.156,4.164,0.04,
4.124,4.132,0.16,
4.156,4.148,0.04,
4.076,4.164,0.16,
4.108,4.164,0.04,
4.068,4.148,0.16,
4.108,4.164,0.04,
4.084,4.132,0.16,
4.108,4.164,0.04,
4.092,4.148,0.16,
4.108,4.164,0.16,
4.068,4.14,0.04,
4.108,4.164,0.04,
4.076,4.148,0.16,
4.108,4.148,0.12,
4.084,4.164,0.04,
4.108,4.148,0.04,
4.084,4.196,0.16,
4.092,4.196,0.04,
4.108,4.18,0.16,
4.084,4.188,0.04,
4.164,4.172,0.16,
4.164,4.188,0.04,
4.132,4.14,0.16,
4.156,4.132,0.04,
4.132,4.164,0.16,
4.156,4.132,0.16,
4.092,4.164,0.04,
4.076,4.164,0.04,
4.108,4.14,0.16,
4.076,4.164,0.04,
4.108,4.148,0.16,
4.108,4.164,0.04,
4.076,4.148,0.16,
4.108,4.164,0.04,
4.076,4.148,0.16,
4.092,4.148,0.16,
4.108,4.164,0.04,
4.108,4.148,0.04,
4.076,4.164,0.16,
4.108,4.148,0.16,
4.076,4.164,0.04,
4.108,4.148,0.12,
4.092,4.196,0.04,
4.108,4.196,0.12,
4.076,4.18,0.04,
4.092,4.188,0.04,
4.164,4.164,0.16,
4.164,4.188,0.12,
4.132,4.132,0.04,
4.156,4.132,0.04,
4.132,4.164,0.16,
4.156,4.148,0.04,
4.076,4.164,0.16,
4.108,4.164,0.16,
4.076,4.148,0.04,
4.108,4.164,0.12,
4.084,4.148,0.04,
4.108,4.164,0.04,
4.092,4.148,0.16,
4.092,4.164,0.16,
4.108,4.148,0.04,
4.108,4.164,0.04,
4.092,4.148,0.16,
4.108,4.164,0.16,
4.076,4.148,0.04,
4.108,4.164,0.04,
4.092,4.14,0.16,
