Measurements/Power Payload/Metingen 2/Payload 1 120.csv

CH1,CH2,CH3,Start,Increment,
Volt,Volt,Volt,-5.995,0.01
4.068,4.148,0.12,
4.108,4.164,0.04,
4.108,4.164,0.04,
4.076,4.14,0.16,
4.108,4.148,0.04,
4.076,4.164,0.16,
4.092,4.148,0.04,
4.108,4.164,0.16,
4.108,4.164,0.16,
4.084,4.132,0.04,
4.092,4.148,0.12,
4.108,4.164,0.04,
4.092,4.148,0.12,
4.108,4.196,0.04,
4.108,4.196,0.16,
4.076,4.172,0.04,
4.092,4.188,0.12,
4.108,4.172,0.04,
4.092,4.188,0.04,
4.164,4.132,0.16,
4.164,4.132,0.04,
4.132,4.164,0.16,
4.156,4.164,0.04,
4.124,4.14,0.16,
4.156,4.148,0.12,
4.068,4.164,0.04,
4.108,4.148,0.04,
4.076,4.164,0.16,
4.108,4.164,0.04,
4.076,4.148,0.16,
4.092,4.14,0.04,
4.108,4.164,0.16,
4.092,4.164,0.04,
4.108,4.148,0.16,
4.108,4.164,0.04,
4.076,4.14,0.16,
4.084,4.148,0.04,
4.108,4.164,0.16,
4.092,4.14,0.04,
4.108,4.196,0.16,
4.108,4.18,0.04,
4.084,4.196,0.16,
4.092,4.164,0.04,
4.108,4.188,0.16,
4.084,4.188,0.04,
4.164,4.132,0.16,
4.132,4.148,0.16,
4.164,4.164,0.04,
4.132,4.164,0.16,
4.156,4.14,0.04,
4.156,4.164,0.12,
4.076,4.14,0.04,
4.108,4.148,0.04,
4.076,4.164,0.16,
4.108,4.164,0.04,
4.076,4.132,0.16,
4.084,4.148,0.04,
4.108,4.164,0.16,
4.108,4.164,0.04,
4.084,4.14,0.16,
4.108,4.14,0.16,
4.084,4.164,0.04,
4.108,4.132,0.04,
4.076,4.196,0.16,
4.108,4.196,0.04,
4.076,3.596,0.16,
4.084,3.436,0.04,
4.108,4.22,0.16,
4.068,4.212,0.04,
4.164,4.18,0.16,
4.164,4.196,0.04,
3.18,4.132,0.16,
2.956,4.164,0.04,
4.188,4.132,0.16,
4.172,4.148,0.04,
4.148,4.196,0.16,
4.164,4.188,0.16,
4.076,4.172,0.04,
4.076,4.188,0.04,
4.108,4.172,0.16,
4.092,4.188,0.04,
4.164,3.428,0.16,
4.164,3.484,0.16,
4.132,4.276,0.04,
4.156,4.228,0.04,
4.124,4.172,0.16,
4.156,4.188,0.04,
2.956,4.156,0.16,
2.996,4.148,0.04,
4.212,4.188,0.16,
4.188,4.18,0.04,
4.116,4.196,0.16,
4.132,4.188,0.04,
4.092,4.172,0.16,
4.092,4.188,0.04,
4.14,4.164,0.16,
4.164,4.188,0.04,
4.132,4.132,0.16,
4.156,4.164,0.12,
4.132,4.132,0.04,
4.156,4.148,0.04,
4.132,4.164,0.16,
4.156,4.164,0.04,
4.068,4.148,0.16,
4.108,4.164,0.04,
4.068,4.148,0.16,
4.076,4.164,0.04,
4.108,4.148,0.16,
4.108,4.148,0.16,
4.076,4.164,0.04,
4.108,4.164,0.16,
4.092,4.148,0.04,
4.108,4.148,0.04,
4.092,4.164,0.16,
4.108,4.148,0.12,
4.076,4.196,0.04,
4.092,4.196,0.04,
4.108,4.18,0.16,
4.108,4.196,0.04,
4.084,4.172,0.16,
4.092,4.196,0.04,
4.164,4.148,0.16,
4.164,4.14,0.04,
4.14,4.164,0.16,
4.124,4.148,0.16,
4.164,4.164,0.04,
4.164,4.164,0.16,
4.092,4.148,0.04,
4.108,4.164,0.04,
4.084,4.148,0.16,
4.092,4.164,0.04,
4.116,4.148,0.16,
4.092,4.164,0.04,
4.116,4.148,0.16,
4.092,4.148,0.12,
4.116,4.172,0.04,
4.092,4.164,0.04,
4.116,4.148,0.16,
4.116,4.164,0.16,
4.092,4.14,0.04,
4.092,4.148,0.04,
4.116,4.196,0.16,
4.092,4.196,0.04,
4.116,4.172,0.16,
4.108,4.188,0.04,
4.084,4.172,0.16,
4.092,4.188,0.12,
4.164,4.132,0.04,
4.164,4.132,0.04,
4.132,4.164,0.16,
4.156,4.148,0.04,
4.124,4.164,0.16,
4.156,4.164,0.04,
4.076,4.148,0.16,
4.076,4.164,0.12,
4.108,4.148,0.04,
4.084,4.164,0.04,
4.108,4.148,0.16,
4.108,4.148,0.04,
4.076,4.164,0.12,
4.108,4.148,0.04,
4.076,4.164,0.16,
4.108,4.148,0.04,
4.092,4.164,0.16,
4.108,4.164,0.16,
4.076,4.148,0.04,
4.092,4.148,0.04,
4.108,4.196,0.16,
4.108,4.196,0.04,
4.076,4.172,0.16,
4.108,4.188,0.16,
4.084,4.172,0.04,
4.092,4.188,0.12,
4.164,4.132,0.04,
4.164,4.132,0.12,
4.14,4.164,0.04,
4.156,4.148,0.04,
4.132,4.164,0.16,
4.156,4.164,0.04,
4.076,4.124,0.12,
4.076,4.164,0.04,
4.108,4.148,0.16,
4.108,4.164,0.04,
4.076,4.148,0.16,
4.108,4.148,0.04,
4.068,4.164,0.16,
4.092,4.164,0.04,
4.108,4.148,0.12,
4.108,4.164,0.04,
4.084,4.148,0.16,
4.108,4.148,0.04,
4.076,4.164,0.16,
4.108,4.148,0.12,
4.092,4.196,0.04,
4.108,4.188,0.04,
4.076,4.172,0.16,
4.108,4.188,0.16,
4.092,4.164,0.04,
4.092,4.188,0.16,
4.164,4.132,0.04,
4.156,4.132,0.04,
4.132,4.164,0.16,
4.156,4.164,0.04,
4.132,4.14,0.16,
4.156,4.164,0.04,
4.076,4.148,0.16,
4.076,4.164,0.16,
4.108,4.148,0.04,
4.108,4.148,0.04,
4.084,4.164,0.16,
4.108,4.148,0.04,
4.084,4.164,0.16,
4.108,4.164,0.04,
4.092,4.14,0.16,
4.108,4.164,0.12,
4.084,4.148,0.04,
4.108,4.148,0.04,
4.076,4.172,0.16,
4.108,4.196,0.04,
4.084,4.164,0.16,
4.108,4.196,0.04,
4.076,4.172,0.16,
4.076,4.188,0.04,
4.132,4.164,3.44,
4.164,4.188,3.44,
4.124,4.124,3.36,
4.164,4.1,3.44,
4.132,4.172,3.36,
4.156,4.164,3.36,
4.132,4.148,3.44,
4.148,4.164,3.44,
4.06,4.148,3.36,
4.028,4.164,3.44,
4.116,4.148,3.36,
4.116,4.148,3.36,
4.084,4.164,3.44,
4.116,4.164,3.36,
4.084,4.148,3.44,
4.108,4.164,3.32,
4.076,4.14,3.44,
4.116,4.164,3.44,
4.084,4.148,3.36,
4.108,4.164,3.36,
4.092,4.092,3.44,
4.108,4.196,3.44,
4.068,4.132,3.36,
4.116,4.164,3.44,
4.092,4.14,3.36,
4.116,4.124,3.44,
4.02,4.172,3.32,
4.156,4.172,3.44,
4.052,4.116,3.36,
4.116,4.172,3.44,
4.068,4.132,3.36,
4.116,4.172,3.44,
4.06,4.132,3.32,
4.116,4.124,3.44,
4.044,4.196,3.32,
4.116,4.172,3.36,
4.068,4.132,3.44,
4.116,4.148,3.36,
4.06,4.172,3.44,
4.052,4.172,3.44,
4.164,4.148,3.32,
4.116,4.148,3.36,
4.076,4.172,3.44,
4.116,4.172,3.36,
4.092,4.14,3.44,
4.116,4.148,3.44,
4.092,4.172,3.32,
4.116,4.164,3.36,
4.1,4.148,3.44,
4.116,4.172,3.36,
4.084,4.148,3.44,
4.116,4.164,3.44,
4.092,4.14,3.32,
4.116,4.164,3.32,
4.092,4.148,3.44,
4.116,4.164,3.44,
4.092,4.148,3.32,
4.116,4.164,3.44,
4.084,4.148,3.32,
4.116,4.172,3.36,
4.092,4.132,3.44,
4.116,4.172,3.36,
4.092,4.148,3.44,
4.116,4.172,3.36,
4.092,4.148,3.44,
4.116,4.164,3.44,
4.068,4.124,3.32,
4.1,4.172,3.36,
4.116,4.132,3.44,
4.116,4.148,3.36,
4.1,4.172,3.44,
4.116,4.164,3.36,
4.06,4.148,3.44,
4.116,4.148,3.44,
4.084,4.172,3.36,
4.116,4.164,3.44,
4.092,4.116,3.32,
4.116,4.132,3.44,
4.092,4.164,3.32,
4.1,4.164,3.36,
4.116,4.148,3.44,
4.116,4.148,3.36,
4.044,4.172,3.44,
4.076,4.164,3.36,
4.116,4.148,3.44,
4.116,4.148,3.44,
4.092,4.172,3.32,
4.116,4.164,3.36,
4.092,4.148,3.44,
4.116,4.164,3.44,
4.092,4.148,3.36,
4.116,4.164,3.44,
4.092,4.132,3.32,
4.116,4.148,3.32,
4.092,4.204,3.44,
4.116,4.196,3.44,
4.092,4.18,3.36,
4.116,4.18,3.36,
4.068,4.196,3.44,
4.092,4.18,3.44,
4.172,4.196,3.32,
4.148,4.196,3.44,
4.172,4.132,3.36,
4.164,4.148,3.44,
4.148,4.196,3.36,
4.164,4.196,3.44,
4.148,4.148,3.36,
4.164,4.196,3.44,
4.084,4.148,3.32,
4.172,4.204,3.44,
4.092,4.148,3.32,
4.172,4.196,3.44,
4.092,4.148,3.32,
4.172,4.196,3.36,
4.092,4.148,3.44,
4.172,4.196,3.36,
4.092,4.148,3.44,
4.172,4.076,3.44,
4.092,4.212,3.32,
4.172,4.22,3.44,
4.092,4.18,3.32,
4.172,4.196,3.44,
4.092,4.18,3.36,
3.988,4.18,3.36,
4.188,4.196,3.44,
4.188,4.196,3.44,
4.156,4.172,3.32,
4.172,4.196,3.44,
4.148,4.18,3.32,
4.172,4.196,3.36,
4.156,4.18,3.44,
4.172,4.196,3.36,
4.148,4.18,3.44,
4.172,4.196,3.36,
4.148,4.172,3.44,
4.172,4.156,3.36,
4.148,4.196,3.44,
4.156,4.196,3.36,
4.172,4.18,3.44,
4.172,4.196,3.44,
4.132,4.18,3.32,
4.116,4.196,3.44,
4.172,4.164,3.32,
4.172,4.156,3.44,
4.148,4.196,3.36,
4.172,4.18,3.44,
4.148,4.196,3.32,
4.172,4.196,3.44,
4.132,4.18,3.32,
4.116,4.196,3.44,
4.172,4.172,3.32,
4.172,4.18,3.36,
4.148,4.196,3.44,
4.156,4.196,3.44,
4.172,4.18,3.36,
4.172,4.196,3.44,
4.14,4.18,3.32,
4.172,4.196,3.36,
4.148,4.18,3.44,
4.156,4.18,3.36,
4.172,4.196,3.44,
4.172,4.196,3.32,
4.148,4.18,3.44,
4.172,4.196,3.36,
4.148,4.18,3.44,
4.172,4.196,3.36,
4.148,4.18,3.44,
4.172,4.18,3.44,
4.148,4.196,3.32,
4.156,4.18,3.44,
4.172,4.196,3.32,
4.172,4.18,3.44,
4.148,4.196,3.36,
4.172,4.196,3.44,
4.148,4.18,3.32,
4.172,4.196,3.44,
4.148,4.18,3.32,
4.156,4.196,3.36,
4.172,4.18,3.44,
4.156,4.196,3.44,
4.172,4.18,3.36,
4.172,4.196,3.36,
4.148,4.18,3.44,
4.172,4.172,3.44,
4.148,4.108,3.36,
4.172,4.164,3.36,
4.148,4.124,3.44,
4.172,4.172,3.44,
4.148,4.132,3.32,
4.132,4.148,3.44,
4.044,4.164,3.32,
4.116,4.164,3.44,
4.06,4.124,3.36,
4.06,4.148,3.36,
4.132,4.164,3.44,
4.076,4.164,3.36,
4.116,4.116,3.44,
4.116,4.164,3.36,
4.06,4.148,3.44,
4.092,4.164,3.36,
4.116,4.148,3.44,
4.052,4.164,3.44,
4.116,4.148,3.32,
4.116,4.164,3.44,
4.092,4.148,3.36,
4.116,4.164,3.44,
4.076,4.148,3.36,
4.116,4.164,3.44,
4.092,4.148,3.32,
4.1,4.132,3.44,
4.116,4.172,3.32,
4.116,4.164,3.36,
4.092,4.132,3.44,
4.116,4.164,3.36,
4.092,4.132,3.44,
4.06,4.164,3.36,
4.124,4.132,3.44,
4.116,4.164,3.44,
4.068,4.132,3.36,
4.116,4.164,3.44,
4.068,4.132,3.36,
4.116,4.164,3.36,
4.068,4.132,3.44,
4.116,4.132,3.44,
4.068,4.172,3.36,
4.116,4.1,3.44,
4.068,4.172,3.32,
4.116,4.172,3.44,
4.052,4.132,3.32,
4.116,4.172,3.32,
4.068,4.132,3.44,
4.02,4.172,3.44,
4.132,4.124,3.36,
4.132,4.172,3.44,
4.068,4.132,3.32,
4.116,4.172,3.36,
4.068,4.132,3.44,
4.116,4.108,3.44,
4.06,4.188,3.36,
4.116,4.188,3.36,
4.076,4.148,3.44,
4.116,4.156,3.36,
4.068,4.172,3.44,
4.036,4.148,3.44,
4.148,4.172,3.32,
4.14,4.164,3.36,
4.092,4.148,3.44,
4.1,4.164,3.36,
4.116,4.148,3.44,
4.1,4.164,3.44,
4.116,4.148,3.36,
4.116,4.164,3.44,
4.092,4.148,3.36,
4.1,4.148,3.44,
4.116,4.172,3.36,
4.116,4.164,3.44,
4.092,4.14,3.36,
4.116,4.164,3.44,
4.092,4.148,3.36,
4.116,4.188,3.36,
4.1,4.092,3.44,
4.068,4.156,3.36,
4.116,4.124,3.44,
4.1,4.156,3.44,
4.116,4.132,3.32,
4.148,4.132,3.36,
4.012,4.156,3.44,
4.084,4.156,3.36,
4.06,4.132,3.44,
4.084,4.132,3.36,
4.068,4.156,3.44,
4.084,4.156,3.36,
4.068,4.132,3.44,
4.084,4.156,3.36,
4.068,4.132,3.44,
4.084,4.132,3.44,
4.06,4.156,3.36,
4.084,4.156,3.44,
4.068,4.132,3.32,
4.084,4.132,3.36,
4.068,4.156,3.44,
4.084,4.132,3.36,
4.06,4.156,3.44,
4.084,4.156,3.44,
4.068,4.132,3.36,
4.084,4.156,3.44,
4.068,4.132,3.36,
4.084,4.132,3.36,
4.06,4.156,3.44,
4.068,4.156,3.44,
4.084,4.132,3.32,
4.084,4.156,3.44,
4.068,4.132,3.32,
4.084,4.132,3.36,
4.052,4.156,3.44,
4.084,4.132,3.36,
4.068,4.164,3.44,
4.084,4.164,3.32,
4.068,4.14,3.44,
4.068,4.156,3.44,
4.084,4.132,3.32,
4.068,4.132,3.4,
4.092,4.156,3.44,
4.1,4.156,3.4,
4.068,4.132,3.48,
4.092,4.196,3.4,
4.068,3.396,3.48,
4.076,3.484,3.44,
4.1,3.572,3.4,
4.068,3.564,3.44,
4.1,3.604,3.4,
4.148,3.596,3.4,
2.892,3.612,3.44,
2.964,3.628,3.4,
3.052,3.596,3.48,
3.044,3.628,3.4,
3.084,3.604,3.48,
3.1,3.604,3.44,
3.076,3.628,3.36,
3.092,3.628,3.36,
3.108,3.604,3.44,
3.108,3.612,3.44,
3.084,3.636,3.36,
3.092,3.612,3.44,
3.116,4.372,3.32,
3.124,4.3,3.36,
3.092,4.236,3.44,
3.124,4.244,3.36,
3.092,4.196,3.44,
3.092,4.212,3.36,
4.332,4.148,3.44,
4.204,4.148,3.44,
4.268,4.164,3.32,
4.204,4.148,3.36,
4.164,4.196,3.44,
4.172,4.196,3.36,
4.092,4.148,3.44,
4.116,4.148,3.44,
4.084,4.196,3.32,
4.092,4.196,3.4,
4.172,4.172,3.44,
4.164,4.196,3.4,
4.092,4.132,3.44,
4.076,4.196,3.4,
4.164,3.5,3.48,
4.164,3.396,3.44,
4.14,3.556,3.32,
4.164,3.54,3.36,
4.076,3.612,3.44,
4.164,3.628,3.36,
3.036,3.572,3.44,
2.884,3.604,3.44,
3.044,4.356,3.32,
3.028,4.268,3.44,
3.108,4.204,3.36,
3.116,4.22,3.36,
3.052,4.148,3.44,
3.108,4.148,3.44,
4.3,4.164,3.32,
4.236,4.148,3.32,
4.172,4.196,3.44,
4.188,4.196,3.36,
4.092,4.148,3.44,
4.108,4.148,3.36,
4.092,4.164,3.44,
4.092,4.148,3.36,
4.172,4.164,3.44,
4.172,4.148,3.36,
4.092,4.196,3.44,
4.092,4.196,3.44,
4.116,4.18,3.36,
4.116,4.196,3.44,
4.076,4.164,3.36,
4.092,4.188,3.36,
4.172,4.172,3.44,
4.164,4.188,3.44,
4.14,4.172,3.36,
4.164,4.188,3.44,
4.132,4.148,3.36,
4.132,4.164,3.36,
4.164,4.1,3.44,
4.132,3.412,3.44,
4.164,4.204,3.32,
4.164,4.188,3.4,
4.092,4.156,3.48,
4.108,4.148,3.4,
4.02,4.204,3.44,
4.156,4.196,3.44,
2.916,3.42,3.36,
4.14,3.5,3.36,
4.1,3.604,3.44,
4.084,3.596,3.36,
4.172,3.644,3.44,
4.164,3.62,3.44,
2.908,4.34,3.32,
2.996,4.228,3.44,
3.116,4.172,3.36,
3.084,4.18,3.36,
3.164,4.156,3.44,
3.116,4.164,3.44,
4.3,4.148,3.32,
4.172,4.156,3.36,
4.116,4.204,3.44,
4.132,4.196,3.44,
4.092,4.172,3.36,
4.116,4.188,3.44,
4.092,4.164,3.32,
4.092,4.188,3.44,
4.172,4.132,3.32,
4.164,4.148,3.44,
4.14,4.164,3.36,
4.156,4.148,3.44,
4.132,4.196,3.32,
4.156,4.196,3.44,
4.076,3.42,3.32,
4.092,3.516,3.36,
4.116,4.308,3.44,
4.092,4.276,3.36,
4.172,4.188,3.44,
4.164,4.196,3.44,
2.924,4.156,3.32,
3.012,4.172,3.44,
4.252,4.148,3.36,
4.228,4.172,3.44,
4.132,4.148,3.36,
4.148,4.148,3.44,
4.092,4.188,3.32,
4.132,4.18,3.36,
4.092,4.196,3.44,
4.116,4.188,3.44,
4.092,4.172,3.36,
4.092,4.188,3.44,
4.14,4.172,3.36,
4.164,4.188,3.44,
4.132,4.132,3.32,
4.156,4.14,3.36,
4.132,4.18,3.44,
4.156,4.196,3.36,
4.132,4.14,3.44,
4.148,4.132,3.36,
4.076,4.164,3.44,
4.076,4.148,3.36,
4.14,4.164,3.44,
4.164,4.132,3.36,
4.092,4.196,3.44,
4.076,4.196,3.36,
4.108,4.172,3.44,
4.092,4.188,3.36,
4.108,4.164,3.44,
4.076,4.172,3.32,
4.164,4.188,3.44,
4.164,4.188,3.44,
4.132,4.172,3.36,
4.156,4.188,3.44,
4.132,4.164,3.36,
4.156,4.188,3.44,
4.132,4.132,3.36,
4.156,4.196,3.44,
4.132,3.428,3.36,
4.156,3.476,3.36,
4.132,4.196,3.44,
4.148,4.156,3.36,
4.068,4.204,3.44,
4.164,4.196,3.36,
2.94,4.172,3.44,
2.988,3.428,3.36,
4.14,4.196,3.44,
4.1,4.172,3.44,
4.172,4.148,3.32,
4.164,4.172,3.44,
4.124,4.148,3.32,
4.156,4.164,3.36,
2.948,4.148,3.44,
4.124,4.148,3.44,
4.092,4.164,3.32,
4.116,4.164,3.44,
4.076,4.148,3.32,
4.108,4.148,3.44,
4.092,4.196,3.36,
4.108,4.196,3.36,
4.076,4.164,3.44,
4.108,4.188,3.44,
4.076,4.172,3.32,
4.092,4.188,3.44,
4.164,4.132,3.36,
4.164,4.132,3.36,
4.132,4.164,3.44,
4.156,4.148,3.44,
4.132,4.164,3.32,
4.156,4.164,3.44,
4.076,4.148,3.32,
4.076,4.148,3.44,
4.108,4.164,3.32,
4.092,4.164,3.36,
4.108,4.132,3.44,
4.108,4.132,3.32,
4.076,4.164,3.44,
4.108,4.164,3.36,
4.092,4.148,3.44,
4.108,4.164,3.44,
4.068,4.132,3.36,
4.068,4.164,3.44,
4.108,4.148,3.32,
4.108,4.148,3.36,
4.076,4.196,3.44,
4.108,4.196,3.36,
4.068,4.172,3.44,
4.092,4.188,3.36,
4.108,4.164,3.44,
4.084,4.188,3.44,
4.164,4.132,3.36,
4.164,4.132,3.44,
4.132,4.164,3.36,
4.156,4.164,3.36,
4.124,4.132,3.44,
4.156,4.148,3.36,
4.076,4.164,3.44,
4.108,4.164,3.44,
4.076,4.148,3.36,
4.108,4.148,3.36,
4.076,4.164,3.44,
4.108,4.148,3.44,
4.076,4.164,3.32,
4.108,4.148,3.44,
4.092,4.164,3.32,
4.108,4.164,3.44,
4.084,4.148,3.36,
4.092,4.148,3.44,
4.108,4.164,3.32,
4.108,4.148,3.36,
4.084,4.196,3.44,
4.108,4.196,3.44,
4.076,4.172,3.32,
4.092,4.188,3.36,
4.108,4.172,3.44,
4.092,4.188,3.36,
4.164,4.132,3.44,
4.164,4.164,3.36,
4.132,4.132,3.44,
4.156,4.164,3.36,
4.124,4.14,3.44,
4.148,4.164,3.36,
4.076,4.132,3.44,
4.108,4.164,3.36,
4.084,4.148,3.44,
4.108,4.164,3.44,
4.068,4.148,3.36,
4.108,4.164,3.36,
4.084,4.132,3.44,
4.108,4.164,3.44,
4.084,4.148,3.32,
4.108,4.164,3.36,
4.084,4.148,3.44,
4.108,4.148,3.36,
4.084,4.172,3.44,
4.108,4.196,3.44,
4.084,4.164,3.32,
4.108,4.188,3.44,
4.076,4.164,3.32,
4.092,4.188,3.36,
4.132,4.164,3.44,
4.164,4.18,3.36,
4.108,4.132,3.44,
4.164,4.164,3.44,
4.124,4.132,3.32,
4.156,4.164,3.44,
4.124,4.124,3.36,
4.148,4.116,3.36,
4.076,4.164,3.44,
4.108,4.164,3.44,
4.084,4.14,3.32,
4.108,4.148,3.44,
4.06,4.164,3.36,
4.036,4.164,3.36,
4.108,4.148,3.44,
4.108,4.164,3.44,
4.076,4.14,3.32,
4.108,4.164,3.36,
4.076,4.14,3.44,
4.108,4.148,3.44,
4.076,4.196,3.36,
4.108,4.196,3.36,
4.076,4.18,3.44,
4.108,4.188,3.44,
4.084,4.164,3.36,
4.092,4.188,3.36,
4.156,4.14,3.44,
4.148,4.132,3.36,
4.164,4.156,3.44,
4.164,4.164,3.44,
4.132,4.14,3.32,
4.156,4.164,3.4,
4.076,4.148,0.04,
4.076,4.164,0.04,
4.108,4.148,0.16,
4.108,4.164,0.04,
4.076,4.148,0.16,
4.108,4.164,0.04,
4.092,4.132,0.16,
4.108,4.148,0.04,
4.092,4.164,0.16,
4.108,4.164,0.12,
4.092,4.148,0.04,
4.108,4.164,0.04,
4.076,4.132,0.16,
4.108,4.132,0.12,
4.084,4.196,0.04,
4.108,4.196,0.04,
4.092,4.172,0.16,
4.108,4.18,0.16,
4.076,4.196,0.04,
4.076,4.188,0.04,
4.164,4.148,0.16,
4.164,4.148,0.04,
4.132,4.164,0.16,
4.164,4.164,0.12,
4.14,4.148,0.04,
4.164,4.164,0.16,
4.092,4.148,0.04,
4.108,4.164,0.04,
4.092,4.148,0.12,
4.092,4.172,0.16,
4.116,4.148,0.04,
4.116,4.164,0.04,
4.092,4.132,0.16,
4.116,4.172,0.04,
4.076,4.148,0.12,
4.116,4.164,0.04,
4.092,4.148,0.12,
4.116,4.148,0.04,
4.084,4.164,0.16,
4.116,4.148,0.16,
4.092,4.164,0.04,
4.116,4.148,0.16,
4.092,4.164,0.04,
4.108,4.148,0.16,
4.084,4.196,0.04,
4.108,4.196,0.04,
4.092,4.132,0.16,
4.108,4.164,0.16,
4.076,4.14,0.04,
4.092,4.148,0.04,
4.164,4.164,0.16,
4.164,4.148,0.04,
4.076,4.164,0.16,
4.108,4.148,0.04,
4.076,4.164,0.12,
4.092,4.148,0.12,
4.108,4.164,0.04,
4.108,4.148,0.04,
4.084,4.164,0.16,
4.108,4.148,0.16,
4.084,4.164,0.04,
4.108,4.148,0.04,
4.076,4.164,0.16,
4.108,4.164,0.16,
4.084,4.148,0.04,
4.108,4.148,0.16,
4.092,4.164,0.04,
4.108,4.164,0.04,
4.084,4.132,0.16,
4.108,4.164,0.04,
4.084,4.148,0.16,
4.108,4.164,0.04,
4.076,4.132,0.16,
4.108,4.148,0.16,
4.068,4.164,0.04,
4.108,4.148,0.04,
4.092,4.164,0.16,
4.108,4.164,0.04,
4.068,4.14,0.16,
4.108,4.148,0.04,
4.076,4.164,0.16,
4.108,4.164,0.16,
4.084,4.148,0.04,
4.108,4.148,0.04,
4.076,4.164,0.16,
4.108,4.148,0.04,
4.092,4.164,0.16,
4.108,4.164,0.04,
4.076,4.148,0.16,
4.108,4.164,0.04,
4.084,4.148,0.16,
4.108,4.148,0.04,
4.084,4.164,0.16,
4.108,4.164,0.04,
4.076,4.14,0.16,
4.108,4.164,0.04,
4.092,4.148,0.16,
4.108,4.164,0.04,
4.084,4.148,0.16,
4.108,4.164,0.04,
4.076,4.148,0.16,
4.108,4.148,0.04,
4.084,4.164,0.16,
4.108,4.164,0.04,
4.084,4.148,0.16,
4.108,4.164,0.04,
4.092,4.148,0.16,
4.092,4.164,0.04,
4.108,4.132,0.12,
4.108,4.148,0.12,
4.084,4.164,0.04,
4.108,4.164,0.04,
4.092,4.132,0.16,
4.108,4.164,0.16,
4.076,4.148,0.04,
4.108,4.148,0.04,
4.084,4.164,0.16,
4.108,4.148,0.16,
4.084,4.164,0.04,
4.108,4.164,0.16,
4.076,4.148,0.04,
4.092,4.148,0.04,
4.108,4.164,0.12,
4.108,4.164,0.04,
4.076,4.148,0.16,
4.108,4.164,0.04,
4.092,4.148,0.16,
4.108,4.164,0.04,
4.092,4.148,0.12,
4.108,4.164,0.04,
4.092,4.148,0.16,
4.108,4.148,0.04,
4.092,4.164,0.16,
4.092,4.148,0.12,
4.108,4.164,0.04,
4.108,4.164,0.04,
4.092,4.148,0.16,
4.108,4.164,0.04,
4.092,4.148,0.16,
4.108,4.148,0.04,
4.076,4.164,0.16,
4.108,4.148,0.12,
4.092,4.196,0.04,
4.108,4.196,0.04,
4.092,4.172,0.16,
4.092,4.172,0.12,
4.108,4.196,0.04,
4.084,4.188,0.16,
4.164,4.132,0.04,
4.164,4.164,0.04,
4.132,4.14,0.16,
4.132,4.164,0.12,
4.156,4.14,0.04,
4.156,4.164,0.12,
4.06,4.148,0.04,
4.108,4.148,0.04,
4.084,4.164,0.16,
4.108,4.164,0.04,
4.076,4.14,0.16,
4.108,4.164,0.04,
4.084,4.148,0.12,
4.108,4.164,0.16,
4.076,4.148,0.04,
4.108,4.164,0.04,
4.076,4.148,0.16,
4.092,4.148,0.04,
4.108,4.164,0.16,
4.108,4.148,0.04,
4.076,4.196,0.16,
4.108,4.196,0.04,
4.084,4.164,0.16,
4.108,4.188,0.04,
4.092,4.172,0.16,
4.084,4.188,0.12,
4.164,4.132,0.04,
4.164,4.132,0.04,
4.132,4.164,0.12,
4.156,4.148,0.16,
4.132,4.196,0.04,
4.156,4.196,0.16,
4.076,4.132,0.04,
4.076,4.164,0.16,
4.108,4.14,0.04,
4.076,4.148,0.12,
4.164,4.164,0.04,
4.164,4.14,0.16,
4.084,4.196,0.04,
4.108,4.196,0.04,
4.076,4.172,0.16,
4.108,4.196,0.04,
4.076,4.172,0.12,
4.068,4.188,0.04,
4.164,4.172,0.16,
4.164,4.188,0.04,
4.124,4.164,0.16,
4.132,4.188,0.04,
4.156,4.172,0.16,
4.156,4.188,0.04,
4.132,4.164,0.16,
4.132,4.188,0.04,
4.156,4.132,0.16,
4.132,4.132,0.04,
4.156,4.188,0.16,
4.156,3.42,0.12,
4.132,4.204,0.04,
4.156,4.188,0.04,
4.076,4.148,0.16,
4.076,4.156,0.04,
4.14,4.212,0.16,
4.164,4.196,0.16,
2.916,4.132,0.04,
4.14,4.148,0.04,
4.076,4.164,0.16,
4.092,4.164,0.04,
4.164,4.14,0.16,
4.164,4.132,0.04,
4.076,4.196,0.16,
4.108,4.18,0.04,
4.076,4.196,0.16,
4.108,4.18,0.04,
4.076,4.196,0.16,
4.068,4.188,0.12,
4.164,4.164,0.04,
4.164,4.172,0.16,
4.132,4.196,0.04,
4.164,4.172,0.16,
4.148,4.196,0.04,
4.164,4.188,0.04,
4.132,4.172,0.12,
4.164,4.188,0.04,
4.132,4.132,0.16,
4.164,4.132,0.04,
4.14,4.164,0.16,
4.164,4.196,0.04,
4.124,3.42,0.16,
4.164,4.204,0.04,
4.076,4.156,0.16,
4.108,4.156,0.12,
4.076,4.204,0.04,
4.164,4.196,0.04,
2.924,4.132,0.16,
4.156,4.148,0.04,
4.1,4.164,0.16,
4.092,4.156,0.16,
4.172,4.196,0.04,
4.164,4.196,0.16,
4.076,4.172,0.04,
4.108,4.188,0.16,
4.076,4.132,0.04,
4.092,4.196,0.04,
4.164,3.508,0.16,
4.156,3.428,0.12,
4.132,4.196,0.04,
4.156,4.148,0.04,
4.076,4.204,0.16,
4.164,4.196,0.04,
3.068,4.172,0.16,
2.948,4.188,0.16,
4.148,3.452,0.04,
4.092,4.172,0.04,
4.172,4.148,0.16,
4.164,4.164,0.04,
4.132,4.148,0.16,
4.148,4.164,0.16,
2.988,4.132,0.04,
4.116,4.164,0.04,
4.092,4.148,0.16,
4.108,4.164,0.12,
4.092,4.132,0.04,
4.116,4.148,0.04,
4.06,4.196,0.12,
4.116,4.196,0.04,
4.076,4.172,0.16,
4.108,4.188,0.04,
4.076,4.172,0.16,
4.092,4.188,0.12,
4.164,4.132,0.04,
4.164,4.132,0.16,
4.132,4.164,0.04,
4.132,4.148,0.12,
4.156,4.196,0.04,
4.156,4.196,0.16,
4.076,3.436,0.04,
4.076,3.476,0.16,
4.108,4.212,0.04,
4.092,4.188,0.04,
4.164,4.148,0.12,
4.164,4.172,0.16,
2.956,4.148,0.04,
3.004,4.164,0.04,
4.156,4.148,0.16,
4.132,4.148,0.04,
4.084,4.164,0.16,
4.116,4.148,0.04,
4.092,4.164,0.16,
4.092,4.148,0.04,
4.116,4.196,0.16,
4.108,4.196,0.16,
4.076,4.164,0.04,
4.108,4.188,0.04,
4.084,4.164,0.16,
4.084,4.188,0.04,
4.164,4.132,0.16,
