Measurements/Power Payload/Metingen 7/Payload 0 400.csv

CH1,CH2,CH3,Start,Increment,
Volt,Volt,Volt,-5.995,0.01
4.012,4.004,0.12,
4.028,3.988,0.04,
4.012,4.004,0.04,
4.028,3.98,0.12,
4.012,4.004,0.12,
4.028,3.988,0.04,
4.028,4.004,0.12,
4.004,3.988,0.04,
4.028,3.988,0.12,
4.012,4.012,0.04,
4.012,3.988,0.04,
4.028,4.004,0.12,
4.012,4.004,0.04,
4.028,3.98,0.12,
4.028,4.004,0.12,
4.004,3.988,0.04,
4.028,4.02,0.12,
4.004,3.98,0.04,
4.028,3.98,0.08,
3.996,4.02,0.12,
4.028,3.988,0.12,
4.004,4.012,0.04,
4.028,3.988,0.12,
4.004,4.004,0.04,
4.012,3.988,0.08,
4.028,4.004,0.12,
4.012,4.004,0.08,
4.028,3.988,0.12,
4.012,4.004,0.04,
4.028,3.988,0.12,
4.028,4.004,0.12,
4.012,3.988,0.04,
4.012,4.004,0.08,
4.028,3.98,0.12,
4.028,4.004,0.08,
4.012,3.988,0.12,
4.028,4.004,0.08,
3.988,3.988,0.12,
4.028,3.988,0.08,
4.012,4.004,0.12,
4.012,4.004,0.12,
4.028,3.988,0.04,
4.012,4.004,0.12,
4.028,3.988,0.04,
4.012,4.004,0.08,
4.028,3.988,0.12,
4.012,3.988,0.12,
4.028,4.004,0.04,
4.028,4.004,0.04,
4.004,3.988,0.12,
4.012,3.988,0.08,
4.028,4.004,0.12,
4.012,4.004,0.08,
4.028,3.98,0.12,
4.012,3.988,0.04,
4.028,4.004,0.12,
4.028,4.004,0.12,
3.996,3.988,0.08,
4.012,4.004,0.08,
4.028,3.988,0.12,
4.012,4.004,0.08,
4.028,3.988,0.12,
4.028,3.988,0.12,
4.012,4.004,0.04,
4.012,3.988,0.12,
4.028,4.004,0.04,
4.012,4.004,0.12,
4.028,3.988,0.04,
4.012,4.004,0.04,
4.028,3.988,0.12,
4.012,4.004,0,
4.028,3.988,0.12,
4.012,4.004,0.12,
4.028,3.988,0.04,
4.012,3.988,0.12,
4.028,4.004,0.04,
4.028,4.004,0.08,
4.004,3.98,0.12,
4.012,4.02,0.12,
4.028,3.988,0.04,
4.004,4.004,0.12,
4.028,3.98,0,
4.044,3.988,0.12,
4.004,4.004,0.04,
4.028,4.004,0.12,
4.004,3.988,0.04,
4.004,4.02,0.08,
4.028,3.988,0.12,
4.004,4.004,0.12,
4.028,3.988,0.04,
4.012,3.988,0.04,
4.028,4.004,0.12,
4.004,4.004,0.12,
4.028,3.988,0.04,
4.012,4.004,0.12,
4.028,3.988,0.04,
4.028,4.004,0.04,
4.012,3.988,0.12,
4.012,3.988,0.12,
4.028,4.004,0.04,
4.028,3.988,0.12,
4.012,4.004,0.04,
4.012,3.988,0.12,
4.028,4.004,0.04,
4.012,4.004,0.08,
4.028,3.988,0.12,
4.012,3.988,0.12,
4.028,4.004,0.04,
4.012,3.988,0.12,
4.028,4.004,0,
4.012,4.004,0.04,
4.028,3.988,0.12,
4.012,4.004,0.12,
4.028,3.988,0.08,
4.028,4.004,0.12,
4.012,3.988,0.04,
4.012,3.988,0.12,
4.028,4.012,0.04,
4.012,3.988,0.12,
4.028,4.004,0,
4.012,4.004,0.12,
4.028,3.988,0.04,
4.012,3.988,0.12,
4.028,4.004,0.04,
4.012,3.988,0.12,
4.028,4.004,0.04,
4.012,4.004,0.08,
4.028,3.988,0.12,
4.012,3.988,0.12,
4.028,4.004,0.04,
4.028,4.004,0.12,
4.004,3.988,0.04,
4.012,4.004,0.04,
4.028,3.988,0.12,
4.028,4.004,0.12,
4.012,3.988,0.04,
4.028,4.004,0.12,
3.996,3.988,0.04,
4.028,4.004,0.12,
4.012,3.988,0.04,
4.028,4.004,0.12,
4.012,3.988,0.04,
4.012,4.004,0.12,
4.028,3.988,0.04,
4.028,3.988,0.12,
4.012,4.004,0.04,
4.028,4.012,0.12,
4.012,3.98,0.04,
4.028,3.988,0.12,
3.996,4.012,0.04,
4.028,4.004,0.12,
3.996,3.988,0.04,
4.004,4.004,0.08,
4.028,3.98,0.12,
4.028,4.02,0.12,
4.004,3.988,0.04,
4.028,3.988,0.08,
3.996,4.02,0.12,
4.028,4.004,0.12,
4.004,3.988,0.04,
4.028,4.004,0.12,
4.012,3.988,0.08,
4.012,4.004,0.12,
4.028,3.988,0.04,
4.028,3.988,0.08,
4.012,4.004,0.12,
4.012,4.004,0.08,
4.028,3.988,0.12,
4.012,4.004,0.12,
4.028,3.988,0.04,
4.012,4.004,0.12,
4.028,3.988,0.04,
4.012,4.012,0.12,
4.028,3.988,0.04,
4.012,3.988,0.04,
4.028,4.02,0.12,
4.028,4.004,0.12,
4.012,3.988,0.04,
4.028,3.988,0.12,
3.996,4.02,0.04,
4.028,4.004,0.08,
4.004,3.988,0.12,
4.012,3.988,0.04,
4.036,4.004,0.12,
4.012,4.004,0.12,
4.028,3.988,0.04,
4.012,4.004,0.12,
4.028,3.988,0,
4.012,4.004,0.08,
4.028,3.988,0.12,
4.012,4.004,0.08,
4.028,3.988,0.12,
4.028,3.988,0.12,
4.012,4.004,0.04,
4.012,4.012,0.08,
4.028,3.988,0.12,
4.012,4.004,0.04,
4.028,3.988,0.12,
4.012,3.988,0.04,
4.028,4.004,0.12,
4.012,4.004,0.12,
4.028,3.988,0.04,
4.012,4.004,0.12,
4.028,3.988,0.04,
4.012,4.004,0.12,
4.028,3.988,0.04,
4.028,3.988,0.12,
4.012,4.004,0,
4.028,3.988,0.12,
4.012,4.004,0.04,
4.012,4.02,0.08,
4.028,3.98,0.12,
4.012,3.988,0.12,
4.028,4.004,0.04,
4.036,3.988,0.12,
4.004,4.02,0.04,
4.012,4.004,0.12,
4.028,3.98,0.04,
4.012,3.988,0.12,
4.028,4.004,0.04,
4.028,4.004,0.12,
3.996,3.988,0.04,
4.028,4.004,0.12,
4.004,3.988,0.04,
4.028,3.988,0.08,
3.996,4.004,0.12,
4.012,4.004,0.08,
4.028,3.988,0.12,
4.028,4.004,0.12,
4.012,3.988,0.04,
4.012,4.004,0.12,
4.028,3.988,0.04,
4.012,3.988,0.12,
4.028,4.004,0.04,
4.012,4.004,0,
4.028,3.988,0.12,
4.012,4.004,0.08,
4.028,3.988,0.12,
4.012,4.004,0.04,
4.028,3.988,0.12,
4.028,4.004,0.12,
4.012,3.988,0,
4.012,4.004,0.12,
4.028,3.988,0.04,
4.028,4.004,0.12,
4.012,3.988,0.08,
4.012,4.004,0.12,
4.028,3.98,0.04,
4.028,3.988,0.12,
4.012,4.004,0.08,
4.028,4.004,0.12,
3.996,3.988,0.04,
4.012,3.988,0.12,
4.028,4.004,0.04,
4.012,4.004,0.12,
4.028,3.988,0.04,
4.028,3.988,0.08,
4.004,4.004,0.12,
4.012,3.988,0.12,
4.028,4.02,0.04,
4.012,4.004,0.12,
4.028,3.98,0.04,
4.028,4.004,0.12,
4.012,3.988,0,
4.028,4.004,0.12,
4.004,3.988,0.04,
4.012,3.988,0.12,
4.028,4.004,0.08,
4.028,3.988,0.04,
4.012,4.004,0.12,
4.012,4.004,0.08,
4.028,3.988,0.12,
4.012,4.004,0.12,
4.028,3.988,0.04,
4.012,4.004,0.12,
4.028,3.98,0.04,
4.028,3.988,0.12,
4.012,4.012,0.04,
4.028,4.004,0.12,
3.996,3.988,-3.12,
4.012,4.004,-3.04,
4.028,3.988,-3.12,
4.012,3.98,-3.04,
4.028,4.02,-3.12,
4.012,4.02,-3.04,
4.028,3.988,-3.12,
4.012,4.004,-3.12,
4.028,3.988,-3.04,
4.028,3.988,-3.04,
4.004,4.004,-3.12,
4.028,3.988,-3.04,
3.996,4.012,-3.12,
3.996,4.004,-3.04,
4.028,3.98,-3.12,
4.012,4.004,-3.04,
4.028,3.988,-3.12,
4.012,4.004,-3.08,
4.028,3.988,-3.04,
4.028,3.988,-3.08,
4.004,4.004,-3.04,
4.028,4.004,-3.04,
4.012,3.98,-3.12,
4.012,4.004,-3.04,
4.028,3.988,-3.08,
4.012,4.004,-3.04,
4.028,3.988,-3.08,
4.012,4.004,-3.04,
4.028,3.98,-3.12,
4.012,3.988,-3.04,
4.028,4.004,-3.12,
4.028,4.004,-3.08,
4.004,3.988,-3.04,
4.012,4.004,-3.04,
4.028,3.988,-3.08,
4.012,4.004,-3.12,
4.028,3.98,-3.04,
4.012,4.004,-3.04,
4.028,3.988,-3.08,
4.028,4.004,-3.04,
4.004,3.988,-3.12,
4.028,3.988,-3.04,
4.004,4.004,-3.12,
4.012,4.004,-3.04,
4.028,3.988,-3.12,
4.012,4.004,-3.04,
4.028,3.988,-3.08,
4.028,4.004,-3.04,
4.004,3.988,-3.12,
4.012,4.004,-3.04,
4.028,3.98,-3.12,
4.012,4.004,-3.04,
4.028,3.988,-3.12,
4.028,4.004,-3.04,
4.004,3.948,-3.12,
4.012,3.988,-3.04,
4.028,4.004,-3.08,
4.028,4.004,-3.04,
3.988,3.98,-3.12,
4.012,4.004,-3.08,
4.028,3.988,-3.04,
4.028,4.004,-3.08,
4.004,3.988,-3.04,
4.028,3.988,-3.04,
4.004,4.004,-3.08,
4.028,4.004,-3.04,
4.012,3.988,-3.12,
4.004,4.004,-3.04,
4.028,3.988,-3.08,
4.012,4.004,-3.04,
4.028,3.988,-3.08,
4.028,4.004,-3.04,
4.012,3.988,-3.12,
4.012,3.98,-3.12,
4.028,4.012,-3.04,
4.028,3.988,-3.08,
4.004,4.004,-3.04,
4.028,3.988,-3.04,
4.004,4.02,-3.08,
4.012,4.004,-3.04,
4.028,3.98,-3.12,
4.028,4.02,-3.04,
4.004,3.98,-3.08,
4.028,4.02,-3.04,
4.004,3.988,-3.08,
4.012,4.02,-3.04,
4.028,3.988,-3.12,
4.028,3.988,-3.04,
3.996,4.004,-3.12,
4.028,3.988,-3.04,
4.004,4.004,-3.12,
4.012,4.004,-3.04,
4.028,3.988,-3.08,
4.012,4.004,-3.04,
4.028,3.988,-3.12,
4.028,4.004,-3.04,
4.012,3.988,-3.12,
4.012,4.004,-3.04,
4.028,3.98,-3.12,
4.012,4.004,-3.04,
4.028,3.98,-3.12,
4.028,4.004,-3.04,
3.996,3.988,-3.12,
4.004,3.988,-3.04,
4.028,4.004,-3.08,
4.012,4.004,-3.04,
4.028,3.988,-3.12,
4.028,4.004,-3.04,
3.996,3.988,-3.12,
4.012,3.988,-3.04,
4.028,4.004,-3.08,
4.028,4.004,-3.04,
4.004,3.988,-3.12,
4.028,4.004,-3.04,
4.004,3.98,-3.12,
4.012,3.988,-3.04,
4.028,4.004,-3.12,
4.028,4.004,-3.08,
4.004,3.988,-3.04,
4.012,3.988,-3.04,
4.028,4.004,-3.12,
4.012,4.004,-3.04,
4.028,3.988,-3.08,
4.012,4.004,-3.04,
4.028,3.98,-3.08,
4.028,4.004,-3.04,
4.004,3.988,-3.12,
4.012,4.004,-3.08,
4.028,3.988,-3.04,
4.012,4.004,-3.08,
4.028,3.988,-3.04,
4.012,3.988,-3.04,
4.028,4.004,-3.12,
4.012,4.004,-3.12,
4.028,3.964,-3.04,
4.012,3.956,-3.04,
4.028,4.004,-3.08,
4.028,4.004,-3.04,
4.004,3.988,-3.12,
3.996,3.988,-3.04,
4.028,4.004,-3.12,
4.012,3.964,-3.04,
4.028,4.02,-3.12,
4.028,4.004,-3.04,
4.004,3.98,-3.08,
4.004,4.004,-3.08,
4.028,3.98,-3.04,
4.028,4.004,-3.04,
4.004,3.964,-3.12,
4.028,3.988,-3.04,
4.004,4.012,-3.12,
4.028,4.004,-3.08,
4.004,3.98,-3.04,
4.028,3.988,-3.04,
3.996,4.004,-3.12,
4.012,3.988,-3.04,
4.028,4.004,-3.08,
3.996,3.988,-3.04,
4.028,4.004,-3.08,
4.012,4.004,-3.04,
4.028,3.988,-3.08,
4.012,3.988,-3.04,
4.028,4.004,-3.12,
4.028,4.004,-3.04,
4.012,3.98,-3.12,
4.012,3.988,-3.04,
4.028,4.004,-3.12,
4.028,4.004,-3.04,
4.004,3.98,-3.12,
4.012,3.988,-3.04,
4.028,4.004,-3.12,
4.012,3.988,-3.12,
4.028,4.004,-3.04,
4.012,3.988,-3.04,
4.028,4.004,-3.08,
4.012,4.004,-3.04,
4.028,3.988,-3.12,
4.012,3.988,-3.04,
4.028,4.004,-3.12,
4.012,3.988,-3.04,
4.028,4.004,-3.12,
4.012,4.004,-3.04,
4.028,3.988,-3.08,
4.012,4.004,-3.04,
4.028,3.98,-3.12,
4.012,3.988,-3.04,
4.028,4.004,-3.08,
4.028,4.004,-3.08,
4.004,3.988,-3.04,
4.012,3.98,-3.04,
4.028,4.004,-3.12,
4.012,4.004,-3.04,
4.028,3.988,-3.12,
4.012,3.988,-3.04,
4.028,4.004,-3.08,
4.012,3.988,-3.04,
4.028,4.004,-3.08,
4.012,4.004,-3.04,
4.028,3.988,-3.12,
4.012,4.004,-3.04,
4.028,3.988,-3.12,
4.012,3.988,-3.08,
4.028,4.004,-3.04,
4.012,4.004,-3.04,
4.028,3.98,-3.08,
4.012,3.988,-3.04,
4.028,4.004,-3.12,
4.012,4.004,-3.04,
4.028,3.988,-3.08,
4.012,4.004,-3.04,
4.028,3.988,-3.12,
4.012,3.988,-3.04,
4.028,4.02,-3.12,
4.012,3.988,-3.04,
4.028,4.004,-3.12,
4.004,4.004,-3.12,
4.028,3.932,-3.04,
4.02,3.884,-3.04,
4.004,3.964,-3.08,
4.028,3.98,-3.04,
3.98,3.932,-3.12,
3.956,3.924,-3.04,
4.004,3.98,-3.12,
4.02,3.972,-3.04,
3.988,3.924,-3.12,
4.02,3.964,-3.08,
3.988,3.932,-3.04,
4.012,3.972,-3.04,
3.98,3.932,-3.08,
3.988,3.916,-3.04,
4.012,3.972,-3.08,
3.996,3.972,-3.12,
4.02,3.892,-3.04,
3.98,3.972,-3.04,
4.02,3.908,-3.12,
4.02,3.908,-3.04,
3.972,3.972,-3.12,
4.02,3.908,-3.04,
3.98,3.972,-3.12,
3.98,3.916,-3.04,
4.02,3.972,-3.12,
3.98,3.932,-3.04,
4.02,3.988,-3.12,
3.98,3.972,-3.04,
4.02,3.884,-3.12,
3.988,3.988,-3.04,
4.028,3.932,-3.12,
4.02,3.972,-3.04,
3.956,3.908,-3.12,
4.02,3.932,-3.04,
3.988,4.004,-3.12,
4.02,3.972,-3.04,
3.98,3.908,-3.12,
3.988,3.972,-3.04,
4.036,3.948,-3.12,
4.02,3.948,-3.08,
3.98,3.98,-3.04,
4.02,4.004,-3.08,
3.996,3.948,-3.04,
3.996,3.972,-3.04,
4.028,3.948,-3.08,
4.036,3.972,-3.04,
3.996,3.948,-3.12,
4.02,3.972,-3.04,
3.996,3.948,-3.12,
3.996,3.948,-3.04,
4.02,3.98,-3.08,
4.02,3.996,-3.04,
3.988,3.94,-3.12,
3.988,3.972,-3.08,
4.02,3.948,-3.04,
4.028,3.948,-3.04,
3.988,3.972,-3.12,
3.988,3.972,-3.04,
4.02,3.948,-3.08,
3.996,3.972,-3.04,
4.02,3.948,-3.12,
4.02,3.972,-3.04,
3.996,3.948,-3.08,
3.996,4.004,-3.04,
4.02,3.932,-3.08,
4.02,3.94,-3.04,
3.996,3.876,-3.12,
4.036,3.948,-3.04,
3.988,3.908,-3.08,
3.996,3.924,-3.04,
3.956,3.948,-3.08,
3.98,3.924,-3.04,
4.004,3.948,-3.08,
4.004,3.948,-3.04,
3.988,3.924,-3.12,
4.004,3.924,-3.12,
3.988,3.948,-3.04,
3.988,3.948,-3.04,
4.004,3.924,-3.12,
3.988,3.996,-3.04,
4.004,3.724,-3.08,
4.004,3.756,-3.04,
3.988,4.044,-3.08,
4.044,3.956,-3.04,
3.876,4.036,-3.12,
3.9,4.028,-3.04,
4.084,3.7,-3.08,
4.076,3.996,-3.04,
4.012,3.948,-3.12,
4.06,4.02,-3.04,
3.868,3.684,-3.12,
4.036,3.564,-3.12,
4.004,4.036,-3.04,
4.052,4.028,-3.04,
3.86,3.668,-3.12,
4.06,4.028,-3.04,
3.788,3.66,-3.12,
4.06,3.676,-3.04,
3.852,4.036,-3.12,
4.052,3.676,-3.04,
3.844,4.044,-3.12,
4.06,3.94,-3.04,
3.852,4.028,-3.12,
3.868,3.692,-3.04,
4.076,3.98,-3.12,
4.004,4.028,-3.04,
4.06,3.684,-3.12,
3.852,4.028,-3.08,
4.028,3.652,-3.04,
4.06,4.02,-3.04,
3.852,3.652,-3.12,
4.06,3.932,-3.08,
3.844,4.028,-3.04,
4.036,4.02,-3.08,
3.844,3.676,-3.04,
3.996,3.972,-3.04,
4.052,3.94,-3.12,
4.052,3.932,-3.04,
3.844,3.972,-3.08,
4.02,3.972,-3.04,
3.996,3.932,-3.08,
3.988,3.972,-3.04,
4.02,3.94,-3.12,
4.02,3.964,-3.04,
3.988,3.932,-3.08,
4.02,3.964,-3.04,
3.988,3.932,-3.12,
4.02,3.932,-3.04,
3.988,3.972,-3.08,
3.988,3.932,-3.04,
4.012,3.972,-3.12,
4.02,3.972,-3.04,
3.988,3.932,-3.12,
3.988,3.932,-3.04,
4.02,3.972,-3.08,
4.02,3.94,-3.04,
3.988,3.972,-3.12,
3.988,3.972,-3.04,
4.02,3.932,-3.08,
4.02,3.972,-3.04,
3.988,3.932,-3.12,
4.02,3.948,-3.04,
3.988,3.972,-3.08,
3.988,3.948,-3.04,
4.02,3.972,-3.08,
4.02,3.972,-3.08,
3.988,3.94,-3.04,
4.02,3.932,-3.04,
3.988,3.972,-3.12,
4.02,3.932,-3.04,
3.988,3.964,-3.12,
4.02,3.964,-3.04,
3.988,3.932,-3.12,
3.988,3.964,-3.04,
4.02,3.94,-3.12,
4.02,3.94,-3.08,
3.988,3.972,-3.04,
3.988,3.964,-3.04,
4.02,3.932,-3.12,
4.02,3.972,-3.04,
3.988,3.932,-3.08,
4.02,3.94,-3.04,
3.988,3.972,-3.08,
3.996,3.972,-3.04,
4.02,3.932,-3.12,
4.02,3.94,-3.04,
3.988,3.972,-3.12,
3.988,3.972,-3.04,
4.02,3.932,-3.12,
4.02,3.932,-3.04,
3.988,3.964,-3.08,
3.988,3.964,-3.04,
4.02,3.932,-3.08,
3.988,3.972,-3.04,
4.02,3.932,-3.12,
3.988,3.972,-3.04,
4.02,3.94,-3.12,
4.02,3.972,-3.04,
3.988,3.94,-3.12,
3.996,3.972,-3.04,
4.02,3.94,-3.12,
4.02,3.932,-3.04,
3.988,3.972,-3.12,
3.996,3.94,-3.04,
4.02,3.972,-3.12,
3.988,3.972,-3.04,
4.02,3.94,-3.08,
4.02,3.932,-3.04,
3.988,3.972,-3.08,
4.02,3.932,-3.04,
3.988,3.972,-3.12,
3.988,3.964,-3.04,
4.02,3.932,-3.08,
3.996,3.932,-3.04,
4.02,3.972,-3.12,
4.02,3.972,-3.04,
3.988,3.94,-3.12,
3.988,3.94,-3.04,
4.02,3.972,-3.12,
3.996,3.932,-3.08,
4.02,3.972,-3.04,
3.988,3.972,-3.04,
4.02,3.94,-3.12,
3.988,3.94,-3.04,
4.02,3.972,-3.12,
4.02,3.94,-3.04,
3.988,3.972,-3.12,
4.02,3.972,-3.04,
3.988,3.94,-3.08,
3.988,3.932,-3.04,
4.02,3.98,-3.12,
4.02,3.972,-3.04,
3.988,3.932,-3.08,
3.988,3.924,-3.08,
4.028,3.972,-3.04,
4.02,3.94,-3.04,
3.988,3.972,-3.08,
3.988,3.972,-3.04,
4.02,3.932,-3.12,
4.012,3.94,-3.08,
3.988,3.964,-3.04,
4.02,3.932,-3.08,
3.988,3.972,-3.04,
3.988,3.932,-3.04,
4.02,3.972,-3.08,
3.988,3.972,-3.04,
4.02,3.948,-3.08,
4.02,3.948,-3.04,
3.988,3.972,-3.08,
3.996,3.932,-3.04,
4.02,3.972,-3.12,
3.988,3.972,-3.04,
4.02,3.932,-3.12,
4.02,3.932,-3.04,
3.988,3.972,-3.12,
3.988,3.972,-3.04,
4.02,3.94,-3.12,
4.02,3.932,-3.04,
3.98,3.972,-3.12,
4.02,3.94,-3.04,
3.988,3.972,-3.12,
4.02,3.972,-3.08,
3.988,3.94,-3.04,
3.988,3.94,-3.04,
4.02,3.964,-3.08,
3.996,3.964,-3.08,
4.02,3.924,-3.04,
3.988,3.964,-3.04,
4.02,3.94,-3.12,
3.988,3.964,-3.04,
4.02,3.932,-3.12,
4.02,3.948,-3.04,
3.988,3.972,-3.12,
3.988,3.932,-3.08,
4.02,3.972,-3.04,
4.02,3.964,-3.04,
3.988,3.932,-3.12,
3.988,3.972,-3.04,
4.02,3.932,-3.12,
4.02,3.94,-3.04,
3.988,3.972,-3.12,
3.988,3.972,-3.04,
4.02,3.932,-3.12,
3.988,3.94,-3.12,
4.02,3.972,-3.04,
4.02,3.94,-3.04,
3.988,3.964,-3.12,
3.988,3.964,-3.08,
4.02,3.932,-3.04,
3.988,3.932,-3.04,
4.02,3.972,-3.12,
3.988,3.972,-3.04,
4.02,3.932,-3.12,
3.988,3.964,-3.08,
4.02,3.932,-3.04,
4.02,3.932,-3.04,
3.988,3.972,-3.12,
3.988,3.964,-3.12,
4.02,3.932,-3.04,
4.02,3.932,-3.04,
3.988,3.972,-3.12,
4.012,3.972,-3.04,
3.988,3.94,-3.12,
4.02,3.932,-3.04,
3.988,3.972,-3.12,
4.02,3.94,-3.04,
3.988,3.964,-3.12,
3.988,3.964,-3.08,
4.02,3.94,-3.04,
3.996,3.932,-3.04,
4.02,3.972,-3.12,
3.988,3.964,-3.04,
4.02,3.932,-3.12,
3.988,3.932,-3.04,
4.02,3.972,-3.12,
3.988,3.94,-3.04,
4.02,3.972,-3.08,
3.988,3.964,-3.04,
4.02,3.932,-3.12,
4.02,3.964,-3.04,
3.988,3.932,-3.12,
4.02,3.964,-3.04,
3.988,3.932,-3.08,
3.988,3.932,-3.04,
4.02,3.972,-3.12,
4.02,3.972,-3.08,
3.988,3.94,-3.04,
3.988,3.964,-3.04,
4.02,3.932,-3.12,
4.02,3.924,-3.04,
3.988,3.964,-3.08,
3.988,3.94,-3.04,
4.02,3.964,-3.12,
3.988,3.94,-3.04,
4.02,3.972,-3.12,
3.988,3.932,-3.04,
4.02,3.972,-3.12,
4.02,3.964,-3.04,
3.988,3.932,-3.12,
3.988,3.94,-3.04,
4.02,3.972,-3.12,
4.02,3.972,-3.08,
3.988,3.924,-3.04,
4.02,3.932,-3.04,
3.988,3.964,-3.12,
4.02,3.972,-3.04,
3.988,3.932,-3.08,
3.988,3.964,-3.04,
4.02,3.932,-3.12,
4.02,3.932,-3.08,
3.988,3.964,-3.04,
3.996,3.932,-3.12,
4.02,3.972,-3.04,
3.988,3.932,-3.04,
4.02,3.964,-3.12,
4.02,3.972,-3.04,
3.988,3.94,-3.08,
3.988,3.94,-3.04,
4.02,3.972,-3.08,
4.02,3.916,-3.04,
3.988,3.972,-3.12,
3.988,3.972,-3.08,
4.02,3.932,-3.04,
3.98,3.932,-3.04,
4.02,3.972,-3.12,
4.02,3.932,-3.04,
3.988,3.972,-3.12,
3.988,3.94,-3.04,
4.02,3.972,-3.12,
3.988,3.932,-3.08,
4.02,3.972,-3.04,
3.988,3.964,-3.04,
4.02,3.932,-3.08,
3.988,3.964,-3.04,
4.02,3.932,-3.12,
4.02,3.964,-3.04,
3.988,3.94,-3.12,
3.988,3.964,-3.04,
4.02,3.932,-3.12,
4.02,3.94,-3.04,
3.996,3.972,-3.08,
3.988,3.972,-3.04,
4.02,3.94,-3.08,
3.996,3.94,-3.04,
4.02,3.972,-3.12,
4.02,3.972,-3.04,
3.988,3.932,-3.12,
3.988,3.94,-3.04,
4.02,3.972,-3.12,
3.988,3.932,-3.04,
4.02,3.964,-3.12,
3.996,3.964,-3.04,
4.02,3.94,-3.08,
3.988,3.932,-3.08,
4.02,3.972,-3.04,
4.02,3.972,-3.04,
3.996,3.932,-3.08,
3.988,3.964,-3.08,
4.02,3.932,-3.04,
4.02,3.932,-3.04,
3.988,3.972,-3.12,
3.988,3.94,-3.04,
4.02,3.972,-3.12,
3.988,3.972,-3.04,
4.02,3.932,-3.12,
3.988,3.964,-3.04,
4.02,3.94,-3.12,
3.996,3.932,-3.04,
4.02,3.972,-3.12,
4.02,3.932,-3.04,
3.988,3.964,-3.12,
3.988,3.972,-3.04,
4.02,3.94,-3.12,
3.988,3.94,-3.04,
4.02,3.972,-3.08,
4.02,3.972,-3.04,
3.996,3.94,-3.12,
4.02,3.964,-3.04,
3.988,3.932,-3.08,
3.996,3.98,-3.04,
4.02,3.94,-3.12,
4.02,3.964,-3.08,
3.988,3.94,-3.04,
3.996,3.94,-3.04,
4.028,3.972,-3.12,
3.996,3.964,-3.04,
4.02,3.94,-3.12,
3.988,3.964,-3.04,
4.02,3.932,-3.12,
4.02,3.932,-3.04,
3.996,3.972,-3.12,
3.996,3.94,-3.04,
4.02,3.972,-3.12,
3.988,3.964,-3.04,
4.02,3.932,-3.12,
3.996,3.964,-3.04,
4.02,3.94,-3.12,
4.02,3.972,-3.04,
3.988,3.932,-3.08,
3.988,3.972,-3.04,
4.02,3.932,-3.12,
4.02,3.964,-3.04,
3.988,3.932,-3.12,
4.02,3.94,-3.08,
3.988,3.972,-3.04,
3.988,3.972,-3.04,
4.02,3.948,-3.12,
3.988,3.972,-3.04,
4.028,3.94,-3.12,
4.02,3.932,-3.04,
3.996,3.964,-3.08,
3.996,3.972,-3.04,
4.02,3.932,-3.08,
3.988,3.932,-3.04,
4.02,3.972,-3.12,
3.996,3.972,-3.04,
4.02,3.94,-3.08,
3.988,3.964,-3.04,
4.02,3.932,-3.08,
4.02,3.964,-3.04,
3.996,3.94,-3.12,
4.02,3.972,-3.04,
3.988,3.94,-3.08,
4.02,3.964,-3.04,
3.988,3.932,-3.12,
3.996,3.932,-3.04,
4.02,3.964,-3.12,
3.988,3.964,-3.04,
4.02,3.932,-3.12,
3.988,3.94,-3.08,
4.012,3.964,-3.04,
4.012,3.964,-3.04,
3.988,3.94,-3.08,
3.988,3.972,-3.04,
4.02,3.932,-3.12,
3.988,3.964,-3.08,
4.02,3.932,-3.04,
3.988,3.94,-3.04,
4.02,3.964,-3.08,
4.02,3.972,-3.04,
3.988,3.932,-3.12,
4.02,3.94,-3.04,
3.988,3.964,-3.08,
4.02,3.964,-3.04,
3.996,3.932,-3.12,
4.02,3.932,-3.04,
3.988,3.972,-3.08,
4.02,3.964,-3.08,
3.988,3.932,-3.04,
3.988,3.964,-3.04,
4.02,3.932,-3.12,
4.02,3.972,-3.04,
3.988,3.932,-3.12,
3.988,3.94,-3.04,
4.02,3.972,-3.12,
4.02,3.972,-3.04,
3.988,3.932,-3.08,
3.988,3.94,-3.04,
4.02,3.972,-3.12,
4.02,3.972,-3.04,
3.988,3.932,-3.12,
3.988,3.964,-3.04,
4.02,3.932,-3.12,
4.02,3.972,-3.04,
3.988,3.932,-3.12,
4.012,3.932,-3.04,
3.988,3.972,-3.12,
4.02,3.964,-3.04,
3.988,3.932,-3.12,
3.988,3.924,-3.04,
4.02,3.972,-3.12,
4.012,3.972,-3.04,
3.988,3.932,-3.08,
3.988,3.964,-3.08,
4.02,3.932,-3.04,
4.02,3.964,-3.04,
3.996,3.94,-3.08,
3.988,3.972,-3.04,
4.02,3.94,-3.12,
3.996,3.964,-3.04,
4.02,3.932,-3.12,
4.02,3.964,-3.04,
3.988,3.932,-3.12,
4.02,3.932,-3.04,
3.988,3.964,-3.12,
3.988,3.964,-3.04,
4.012,3.94,-3.12,
3.988,3.972,-3.04,
4.02,3.932,-3.08,
4.02,3.924,-3.04,
3.988,3.972,-3.12,
4.028,3.972,-3.12,
3.988,3.94,-3.04,
3.988,3.964,-3.04,
4.02,3.932,-3.12,
4.02,3.94,-3.04,
3.996,3.972,-3.12,
3.988,3.932,-3.04,
4.02,3.964,-3.12,
3.996,3.972,-3.04,
4.02,3.932,-3.12,
4.02,3.964,-3.04,
3.988,3.94,-3.08,
4.02,3.964,-3.04,
3.988,3.932,-3.08,
4.012,3.948,-3.04,
3.996,3.972,-3.12,
3.988,3.972,-3.04,
4.02,3.932,-3.12,
4.02,3.932,-3.04,
3.988,3.972,-3.12,
3.988,3.964,-3.04,
4.02,3.94,-3.12,
3.988,3.932,-3.04,
4.02,3.972,-3.08,
4.004,3.972,-3.04,
3.996,3.932,-3.12,
3.988,3.964,-3.08,
4.02,3.932,-3.04,
4.02,3.964,-3.04,
3.988,3.932,-3.12,
4.02,3.964,-3.04,
3.988,3.94,-3.12,
3.988,3.932,-3.04,
4.02,3.972,-3.12,
4.02,3.964,-3.04,
3.988,3.932,-3.12,
3.988,3.964,-3.04,
4.02,3.932,-3.12,
4.02,3.924,-3.04,
3.988,3.972,-3.08,
4.02,3.932,-3.04,
3.988,3.972,-3.12,
3.988,3.94,-3.04,
4.02,3.972,-3.12,
3.988,3.964,-3.04,
4.02,3.932,-3.08,
3.996,3.972,-3.04,
4.02,3.932,-3.12,
3.996,3.964,-3.04,
4.02,3.94,-3.08,
4.02,3.972,-3.04,
3.988,3.94,-3.12,
3.996,3.964,-3.04,
4.02,3.932,-3.12,
4.012,3.932,-3.04,
3.988,3.964,-3.08,
3.988,3.964,-3.04,
4.02,3.932,-3.08,
3.988,3.932,-3.04,
4.02,3.972,-3.12,
4.02,3.964,-3.04,
3.988,3.94,-3.12,
3.988,3.932,-3.04,
4.02,3.964,-3.12,
4.02,3.964,-3.04,
3.988,3.94,-3.12,
3.988,3.932,-3.04,
4.02,3.972,-3.12,
3.996,3.932,-3.04,
4.02,3.972,-3.12,
3.988,3.964,-3.04,
4.02,3.932,-3.12,
4.02,3.932,-3.04,
3.988,3.964,-3.08,
4.02,3.94,-3.04,
3.988,3.972,-3.08,
3.988,3.964,-3.04,
4.02,3.94,-3.12,
4.02,3.932,-3.04,
3.996,3.972,-3.12,
3.988,3.964,-3.04,
4.02,3.94,-3.12,
