Measurements/Power Payload/Metingen 7/Payload 0 1440.csv

CH1,CH2,CH3,Start,Increment,
Volt,Volt,Volt,-5.995,0.01
4.02,3.972,0.12,
3.996,3.94,0,
4.028,3.972,0,
3.996,3.948,0.12,
4.02,3.972,0.12,
3.996,3.94,0,
4.02,3.972,0.12,
4.004,3.948,0,
4.02,3.972,0.12,
3.996,3.948,0,
4.02,3.972,0.12,
3.996,3.948,0,
4.02,3.972,0.12,
4.004,3.94,0,
4.02,3.972,0,
4.004,3.94,0.12,
3.996,3.972,0.12,
4.028,3.948,0,
4.004,3.956,0.04,
4.028,3.98,0.12,
4.028,3.948,0.12,
3.996,3.98,0,
4.02,3.98,0.12,
4.004,3.948,0,
4.004,3.956,0.12,
4.028,3.988,0,
4.028,3.972,0.04,
3.996,3.956,0.12,
4.028,3.948,0.12,
4.004,3.972,0,
4.028,3.972,0.12,
4.004,3.948,0,
4.02,3.948,0.04,
3.996,3.972,0.12,
4.004,3.972,0.12,
4.028,3.94,0,
4.028,3.98,0,
3.996,3.948,0.12,
4.02,3.98,0.12,
3.996,3.94,0,
3.996,3.972,0.12,
4.028,3.94,0,
4.004,3.972,0.12,
4.028,3.948,0,
4.02,3.948,0,
3.996,3.972,0.12,
3.996,3.972,0.12,
4.028,3.94,0,
3.996,3.972,0.12,
4.028,3.94,0,
4.028,3.972,0.12,
3.996,3.932,0,
4.02,3.972,0,
3.996,3.94,0.12,
4.004,3.972,0.12,
4.028,3.94,0,
4.02,3.956,0.04,
3.996,3.972,0.12,
4.02,3.972,0.12,
3.996,3.948,0,
4.004,3.972,0.04,
4.028,3.94,0.12,
4.028,3.972,0.12,
3.996,3.948,0,
4.004,3.972,0,
4.02,3.948,0.12,
4.02,3.972,0.12,
3.996,3.948,0,
4.028,3.932,0.12,
4.004,3.972,0,
4.028,3.972,0.04,
3.996,3.948,0.12,
3.996,3.972,0.12,
4.02,3.94,0,
4.02,3.972,0.12,
3.996,3.94,0,
4.028,3.972,0.04,
3.996,3.948,0.12,
4.02,3.972,0.04,
4.004,3.956,0.12,
4.028,3.972,0,
3.996,3.94,0.12,
4.028,3.972,0,
3.996,3.948,0.12,
4.02,3.98,0.12,
4.004,3.948,0,
4.02,3.972,0.12,
3.996,3.948,0,
4.028,3.972,0.12,
3.996,3.948,0,
4.028,3.972,0.12,
3.996,3.94,0,
4.028,3.972,0.04,
3.996,3.94,0.12,
4.028,3.972,0,
3.996,3.948,0.12,
3.996,3.956,0,
4.028,3.98,0.12,
4.028,3.948,0.04,
3.996,3.98,0.12,
4.004,3.972,0.12,
4.02,3.94,0,
3.996,3.972,0.04,
4.028,3.948,0.12,
4.004,3.98,0.12,
4.028,3.948,0,
3.996,3.972,0.12,
4.02,3.94,0,
4.028,3.972,0.04,
3.996,3.948,0.12,
4.028,3.94,0.12,
3.996,3.988,0.04,
4.02,3.972,0.04,
3.996,3.948,0.12,
4.02,3.972,0.12,
3.996,3.932,0,
4.028,3.972,0.12,
3.988,3.94,0,
4.028,3.972,0.04,
3.996,3.948,0.12,
4.02,3.972,0.04,
3.988,3.94,0.12,
4.028,3.972,0.12,
3.996,3.948,0,
4.02,3.972,0.12,
3.996,3.94,0.04,
4.028,3.972,0.04,
3.996,3.948,0.12,
4.02,3.948,0,
3.996,3.972,0.12,
4.004,3.972,0.12,
4.02,3.948,-3.12,
4.028,3.972,-3.12,
4.004,3.948,-3.04,
4.02,3.972,-3.12,
3.996,3.932,-3.04,
3.996,3.972,-3.12,
4.028,3.932,-3.04,
4.028,3.948,-3.08,
3.996,3.972,-3.12,
4.028,3.948,-3.12,
3.996,3.972,-3.04,
4.02,3.972,-3.12,
3.988,3.948,-3.04,
4.004,3.972,-3.12,
4.028,3.94,-3.04,
4.02,3.972,-3.12,
3.996,3.948,-3.08,
4.028,3.94,-3.08,
3.996,3.972,-3.12,
4.028,3.972,-3.12,
3.996,3.948,-3.04,
3.996,3.972,-3.12,
4.028,3.932,-3.04,
3.996,3.972,-3.12,
4.028,3.94,-3.04,
4.02,3.972,-3.12,
3.996,3.948,-3.04,
4.02,3.972,-3.12,
3.996,3.948,-3.04,
4.02,3.972,-3.12,
3.996,3.948,-3.08,
4.02,3.972,-3.12,
4.004,3.948,-3.04,
4.004,3.972,-3.12,
4.028,3.948,-3.04,
4.028,3.972,-3.12,
4.004,3.948,-3.04,
4.02,3.972,-3.12,
3.996,3.94,-3.04,
4.02,3.972,-3.12,
4.004,3.94,-3.08,
4.028,3.972,-3.12,
3.996,3.948,-3.08,
3.996,3.988,-3.12,
4.028,3.94,-3.04,
4.02,3.972,-3.08,
3.996,3.948,-3.12,
3.996,3.972,-3.12,
4.028,3.948,-3.04,
4.028,3.948,-3.08,
3.996,3.98,-3.12,
3.996,3.948,-3.08,
4.02,3.98,-3.12,
4.028,3.972,-3.12,
3.996,3.948,-3.04,
4.028,3.972,-3.12,
3.996,3.948,-3.04,
4.028,3.948,-3.12,
3.996,3.972,-3.08,
4.028,3.972,-3.08,
3.996,3.948,-3.12,
3.996,3.972,-3.04,
4.028,3.956,-3.12,
3.996,3.972,-3.12,
4.028,3.932,-3.08,
4.02,3.972,-3.12,
4.004,3.948,-3.04,
4.004,3.972,-3.12,
4.028,3.948,-3.04,
4.028,3.972,-3.12,
3.988,3.94,-3.04,
3.996,3.972,-3.12,
4.028,3.948,-3.04,
3.996,3.948,-3.12,
4.02,3.972,-3.04,
4.028,3.972,-3.12,
3.996,3.94,-3.04,
4.02,3.972,-3.12,
3.996,3.948,-3.04,
4.004,3.972,-3.12,
4.028,3.948,-3.04,
4.02,3.972,-3.12,
3.996,3.94,-3.04,
3.996,3.972,-3.12,
4.028,3.94,-3.04,
3.996,3.972,-3.08,
4.028,3.94,-3.12,
4.028,3.948,-3.12,
3.996,3.98,-3.04,
4.028,3.956,-3.08,
3.996,3.98,-3.12,
4.028,3.972,-3.12,
3.996,3.948,-3.04,
4.004,3.956,-3.12,
4.028,3.98,-3.04,
4.004,3.956,-3.08,
4.028,3.98,-3.12,
4.028,3.956,-3.12,
3.996,3.972,-3.04,
4.004,3.956,-3.08,
4.028,3.98,-3.12,
4.004,3.972,-3.08,
4.028,3.956,-3.12,
4.004,3.988,-3.12,
4.028,3.948,-3.04,
4.028,3.956,-3.08,
3.996,3.988,-3.12,
4.028,3.98,-3.12,
3.996,3.948,-3.08,
3.996,3.972,-3.04,
4.028,3.948,-3.12,
4.028,3.988,-3.12,
3.996,3.94,-3.04,
4.02,3.948,-3.08,
4.004,3.98,-3.12,
3.996,3.972,-3.12,
4.028,3.948,-3.04,
4.028,3.94,-3.12,
3.988,3.988,-3.04,
4.028,3.98,-3.12,
3.996,3.948,-3.04,
4.004,3.972,-3.12,
4.028,3.948,-3.08,
3.996,3.988,-3.12,
4.028,3.948,-3.04,
3.996,3.956,-3.12,
4.028,3.972,-3.04,
4.028,3.972,-3.12,
3.996,3.94,-3.04,
4.02,3.948,-3.12,
3.988,3.972,-3.04,
4.02,3.972,-3.12,
3.996,3.948,-3.04,
4.02,3.972,-3.12,
3.996,3.924,-3.04,
4.004,3.924,-3.12,
4.028,3.98,-3.04,
4.02,3.972,-3.12,
3.996,3.956,-3.04,
4.02,3.972,-3.12,
3.988,3.94,-3.04,
3.98,3.972,-3.04,
4.028,3.924,-3.12,
4.028,3.972,-3.08,
4.004,3.932,-3.12,
4.028,3.988,-3.12,
3.996,3.94,-3.04,
4.028,3.916,-3.08,
3.988,3.972,-3.12,
4.028,3.948,-3.08,
3.996,3.972,-3.12,
4.028,3.972,-3.12,
4.004,3.94,-3.04,
3.98,3.972,-3.12,
4.028,3.932,-3.04,
3.996,3.972,-3.12,
4.028,3.948,-3.04,
4.028,3.972,-3.12,
3.996,3.94,-3.04,
4.02,3.972,-3.08,
3.996,3.948,-3.12,
4.02,3.972,-3.12,
3.996,3.94,-3.04,
4.028,3.972,-3.12,
4.004,3.948,-3.08,
4.02,3.972,-3.12,
3.996,3.94,-3.04,
4.02,3.972,-3.12,
3.996,3.94,-3.04,
4.028,3.972,-3.12,
3.996,3.94,-3.04,
4.02,3.972,-3.12,
4.004,3.948,-3.04,
4.028,3.972,-3.12,
3.996,3.94,-3.04,
4.02,3.972,-3.12,
4.004,3.948,-3.04,
4.02,3.948,-3.12,
3.996,3.972,-3.04,
4.02,3.972,-3.12,
3.996,3.948,-3.04,
4.02,3.972,-3.08,
3.996,3.948,-3.12,
4.02,3.972,-3.12,
3.996,3.932,-3.04,
4.028,3.988,-3.12,
3.996,3.948,-3.08,
4.028,3.972,-3.12,
3.996,3.94,-3.04,
4.02,3.94,-3.12,
3.988,3.98,-3.04,
4.028,3.948,-3.08,
3.996,3.972,-3.12,
4.028,3.972,-3.12,
4.004,3.94,-3.04,
4.004,3.972,-3.12,
4.028,3.948,-3.08,
3.996,3.932,-3.12,
4.028,3.972,-3.08,
4.02,3.972,-3.12,
3.988,3.932,-3.04,
4.02,3.972,-3.12,
4.004,3.94,-3.08,
4.02,3.972,-3.12,
3.996,3.948,-3.04,
4.004,3.972,-3.12,
4.02,3.948,-3.04,
4.004,3.972,-3.12,
4.02,3.94,-3.04,
4.02,3.972,-3.12,
3.996,3.94,-3.04,
3.996,3.972,-3.04,
4.028,3.948,-3.12,
4.02,3.972,-3.08,
3.996,3.94,-3.12,
4.028,3.972,-3.12,
3.996,3.948,-3.04,
4.02,3.972,-3.12,
3.996,3.948,-3.08,
4.02,3.972,-3.12,
3.996,3.948,-3.08,
4.02,3.972,-3.12,
3.996,3.932,-3.04,
4.02,3.972,-3.12,
3.996,3.94,-3.04,
3.996,4.036,-3.12,
4.028,3.676,-3.04,
4.02,3.948,-3.12,
3.988,4.036,-3.04,
4.028,3.684,-3.12,
3.996,4.028,-3.04,
4.06,4.028,-3.12,
3.844,3.484,-3.04,
4.004,3.972,-3.12,
4.068,3.948,-3.08,
3.844,3.972,-3.12,
4.06,3.948,-3.04,
4.06,3.972,-3.12,
3.756,3.94,-3.04,
4.028,3.972,-3.12,
3.996,3.924,-3.04,
4.028,3.98,-3.12,
4.004,3.884,-3.08,
4.028,3.892,-3.12,
3.996,4.052,-3.04,
4.02,4.036,-3.12,
3.98,4.004,-3.04,
4.028,4.02,-3.08,
3.964,3.988,-3.12,
3.964,4.028,-3.12,
4.076,3.996,-3.04,
4.06,4.02,-3.12,
4.028,3.996,-3.08,
4.02,4.02,-3.12,
4.044,3.996,-3.04,
4.012,4.02,-3.12,
4.044,3.996,-3.04,
4.036,4.02,-3.12,
4.012,3.996,-3.04,
4.012,4.028,-3.12,
4.036,3.988,-3.04,
4.02,4.02,-3.08,
4.044,3.996,-3.12,
4.02,4.02,-3.12,
4.044,3.996,-3.04,
4.052,3.996,-3.12,
4.012,4.02,-3.08,
4.028,4.02,-3.12,
4.012,3.996,-3.04,
4.02,4.02,-3.12,
4.044,3.996,-3.04,
4.036,4.02,-3.12,
4.02,3.988,-3.08,
4.02,4.02,-3.08,
4.036,3.988,-3.12,
4.036,4.02,-3.12,
4.012,3.996,-3.04,
4.044,3.996,-3.12,
4.012,4.02,-3.08,
4.012,4.02,-3.12,
4.036,3.996,-3.04,
4.02,4.028,-3.12,
4.044,3.996,-3.04,
4.036,4.02,-3.12,
4.012,3.988,-3.04,
4.02,4.02,-3.12,
4.044,3.996,-3.08,
4.044,3.996,-3.12,
4.012,4.02,-3.04,
4.036,4.02,-3.12,
4.012,3.996,-3.04,
4.036,4.02,-3.12,
4.012,3.996,-3.04,
4.02,3.996,-3.12,
4.044,4.02,-3.04,
4.02,4.02,-3.12,
4.044,3.996,-3.04,
4.02,4.02,-3.12,
4.044,3.996,-3.04,
4.036,4.02,-3.12,
4.012,3.996,-3.04,
4.02,4.02,-3.12,
4.044,3.996,-3.08,
4.02,4.02,-3.12,
4.044,3.996,-3.08,
4.02,4.02,-3.12,
4.036,3.988,-3.04,
4.02,4.02,-3.12,
4.044,3.996,-3.08,
4.036,4.02,-3.12,
4.012,3.988,-3.04,
4.044,4.02,-3.12,
4.012,3.996,-3.08,
4.036,4.02,-3.12,
4.012,3.996,-3.04,
4.036,4.02,-3.08,
4.012,3.996,-3.12,
4.036,3.996,-3.12,
4.02,4.02,-3.04,
4.044,4.02,-3.12,
4.012,3.956,-3.08,
4.036,3.98,-3.12,
4.012,3.9,-3.04,
4.02,3.924,-3.12,
4.044,3.988,-3.04,
4.036,3.932,-3.12,
4.004,3.996,-3.04,
4.02,3.988,-3.12,
3.956,3.948,-3.08,
3.988,3.932,-3.12,
4.028,3.996,-3.04,
4.028,3.924,-3.12,
3.996,3.972,-3.04,
4.028,3.972,-3.08,
3.996,3.94,-3.12,
4.028,3.972,-3.12,
3.996,3.94,-3.04,
4.02,3.972,-3.08,
3.996,3.908,-3.12,
4.02,3.9,-3.12,
3.996,3.988,-3.04,
4.02,3.988,-3.12,
3.996,3.924,-3.04,
4.02,3.924,-3.12,
3.98,3.98,-3.04,
3.98,3.972,-3.12,
4.028,3.924,-3.04,
4.028,3.948,-3.12,
3.98,3.996,-3.04,
4.028,3.924,-3.12,
3.988,3.988,-3.08,
4.028,3.908,-3.12,
3.988,3.988,-3.04,
4.004,3.988,-3.12,
4.036,3.924,-3.04,
4.028,3.932,-3.12,
3.98,4.028,-3.08,
3.98,3.988,-3.12,
4.036,3.916,-3.04,
4.028,3.988,-3.12,
3.988,3.956,-3.08,
3.988,3.988,-3.12,
4.052,3.956,-3.04,
4.028,3.956,-3.12,
3.98,4.012,-3.04,
4.028,3.996,-3.12,
4.004,3.956,-3.08,
4.028,3.972,-3.12,
4.004,3.948,-3.08,
3.996,3.956,-3.12,
4.036,3.988,-3.04,
4.036,3.988,-3.08,
4.004,3.948,-3.12,
4.02,3.956,-3.08,
3.996,3.972,-3.12,
4.004,3.956,-3.12,
4.036,3.98,-3.04,
4.028,3.996,-3.12,
3.996,3.892,-3.08,
3.996,3.924,-3.08,
4.02,3.948,-3.12,
4.004,3.932,-3.12,
4.028,3.948,-3.04,
4.044,3.932,-3.08,
3.956,3.956,-3.12,
3.98,3.932,-3.12,
4.004,3.964,-3.04,
4.012,3.956,-3.12,
3.988,3.932,-3.04,
3.996,3.932,-3.12,
4.02,3.948,-3.08,
3.988,3.964,-3.12,
4.02,3.932,-3.04,
4.02,3.932,-3.12,
3.988,3.964,-3.04,
4.02,3.924,-3.08,
3.988,3.964,-3.12,
4.02,3.924,-3.12,
3.988,3.956,-3.04,
4.02,3.924,-3.12,
3.988,3.964,-3.08,
3.988,3.932,-3.12,
4.02,3.948,-3.04,
3.996,3.948,-3.12,
4.02,3.932,-3.04,
4.02,3.932,-3.08,
3.988,3.956,-3.12,
4.02,3.948,-3.08,
3.996,3.932,-3.12,
3.996,3.948,-3.08,
4.02,3.932,-3.12,
4.02,3.932,-3.12,
3.996,3.964,-3.04,
4.02,3.948,-3.12,
3.996,3.924,-3.04,
4.02,3.932,-3.08,
3.996,3.964,-3.12,
4.02,3.924,-3.12,
3.996,3.964,-3.08,
4.02,3.924,-3.12,
3.988,3.964,-3.04,
4.02,3.932,-3.12,
3.996,3.964,-3.04,
3.996,3.964,-3.12,
4.02,3.924,-3.04,
3.996,3.932,-3.12,
4.02,3.964,-3.04,
3.996,3.948,-3.12,
4.028,3.924,-3.08,
4.02,3.924,-3.12,
3.996,4.004,-3.04,
4.02,4.004,-3.12,
3.996,3.724,-3.08,
4.02,3.756,-3.12,
3.988,4.06,-3.08,
3.988,4.06,-3.12,
4.052,3.676,-3.08,
4.052,4.012,-3.12,
3.876,3.964,-3.04,
3.924,4.028,-3.08,
4.1,3.724,-3.12,
4.084,4.036,-3.12,
3.852,3.588,-3.04,
4.06,3.508,-3.12,
4.02,4.06,-3.04,
4.06,3.516,-3.12,
3.892,4.068,-3.08,
4.06,3.516,-3.12,
3.812,4.068,-3.04,
3.756,3.516,-3.12,
4.084,4.068,-3.04,
3.772,3.532,-3.12,
4.092,4.068,-3.04,
3.78,4.044,-3.12,
4.092,3.532,-3.04,
3.78,4.06,-3.12,
4.108,3.532,-3.04,
3.788,4.06,-3.12,
4.108,3.532,-3.04,
4.084,4.06,-3.12,
3.78,3.524,-3.04,
4.092,4.06,-3.12,
3.78,3.404,-3.04,
4.1,4.06,-3.12,
3.78,3.396,-3.04,
4.1,3.412,-3.12,
3.772,4.052,-3.04,
4.084,4.044,-3.12,
3.724,3.452,-3.04,
4.092,4.044,-3.12,
3.708,3.684,-3.04,
3.716,3.676,-3.12,
4.084,4.044,-3.04,
4.068,4.028,-3.08,
3.732,3.676,-3.12,
4.06,4.036,-3.12,
3.844,3.66,-3.04,
3.852,4.044,-3.12,
4.076,3.46,-3.04,
4.052,3.46,-3.12,
3.844,4.036,-3.04,
4.06,4.02,-3.12,
3.844,3.556,-3.04,
4.06,4.028,-3.12,
3.756,3.676,-3.08,
3.74,3.956,-3.08,
4.068,3.98,-3.12,
4.052,3.948,-3.12,
3.796,3.98,-3.04,
4.06,3.972,-3.12,
3.844,3.948,-3.08,
4.028,3.948,-3.12,
3.996,3.972,-3.04,
4.004,3.972,-3.04,
4.028,3.956,-3.12,
4.028,3.972,-3.12,
4.004,3.948,-3.04,
3.996,3.972,-3.04,
4.028,3.948,-3.12,
4.028,3.972,-3.12,
3.996,3.932,-3.04,
4.028,3.972,-3.12,
4.004,3.94,-3.04,
3.996,3.94,-3.12,
4.028,3.972,-3.04,
4.02,3.972,-3.08,
3.988,3.94,-3.12,
4.02,3.948,-3.12,
3.988,3.972,-3.04,
3.996,3.972,-3.12,
4.02,3.94,-3.08,
4.02,3.948,-3.08,
3.996,3.98,-3.12,
4.028,3.98,-3.12,
3.996,3.94,-3.04,
4.028,3.98,-3.12,
3.996,3.948,-3.04,
4.004,3.972,-3.12,
4.028,3.956,-3.04,
4.028,3.972,-3.08,
3.996,3.932,-3.12,
3.996,3.972,-3.12,
4.028,3.94,-3.04,
4.02,3.948,-3.12,
3.996,3.98,-3.08,
4.02,3.972,-3.12,
3.996,3.932,-3.04,
4.028,3.948,-3.12,
3.996,3.972,-3.08,
3.996,3.972,-3.12,
4.028,3.94,-3.04,
4.02,3.988,-3.12,
3.996,3.94,-3.08,
4.02,3.94,-3.12,
3.996,3.972,-3.08,
4.02,3.94,-3.12,
3.996,3.972,-3.04,
4.028,3.972,-3.12,
3.996,3.94,-3.04,
4.028,3.972,-3.12,
3.996,3.948,-3.04,
3.996,3.972,-3.12,
4.02,3.948,-3.08,
3.996,3.972,-3.08,
4.028,3.94,-3.12,
4.02,3.948,-3.12,
4.004,3.972,-3.04,
4.028,3.948,-3.12,
3.996,3.972,-3.04,
3.996,3.94,-3.12,
4.02,3.98,-3.08,
4.02,3.98,-3.12,
3.996,3.948,-3.08,
4.004,3.98,-3.12,
4.028,3.948,-3.04,
3.996,3.948,-3.08,
4.028,3.98,-3.12,
4.004,3.972,-3.12,
4.028,3.956,-3.04,
4.028,3.972,-3.12,
3.996,3.94,-3.08,
3.996,3.988,-3.04,
4.028,3.94,-3.12,
4.02,3.94,-3.12,
3.996,3.972,-3.04,
3.988,3.98,-3.12,
4.028,3.94,-3.08,
3.996,3.972,-3.12,
4.028,3.948,-3.08,
4.02,3.972,-3.08,
3.996,3.94,-3.12,
3.996,3.972,-3.12,
4.028,3.948,-3.08,
4.02,3.972,-3.12,
3.996,3.948,-3.04,
4.02,3.956,-3.12,
4.004,3.98,-3.04,
4.028,3.956,-3.12,
3.996,3.98,-3.04,
3.996,3.972,-3.12,
4.028,3.94,-3.08,
4.028,3.956,-3.12,
4.004,3.98,-3.04,
4.004,3.94,-3.08,
4.028,3.98,-3.12,
4.02,3.956,-3.12,
3.996,3.98,-3.08,
4.028,3.972,-3.12,
4.012,3.948,-3.04,
3.996,3.972,-3.08,
4.02,3.948,-3.12,
4.004,3.972,-3.08,
4.028,3.948,-3.12,
4.02,3.98,-3.12,
4.004,3.932,-3.04,
4.02,3.948,-3.12,
3.996,3.972,-3.04,
3.996,3.972,-3.04,
4.02,3.94,-3.12,
4.028,3.932,-3.12,
3.996,3.988,-3.04,
4.02,3.956,-3.12,
3.996,3.988,-3.08,
3.996,3.98,-3.12,
4.028,3.948,-3.08,
3.996,3.972,-3.12,
4.028,3.932,-3.04,
4.028,3.972,-3.12,
3.996,3.948,-3.08,
4.028,3.956,-3.12,
3.996,3.98,-3.04,
4.004,3.972,-3.12,
4.028,3.948,-3.04,
4.028,3.972,-3.08,
4.004,3.948,-3.12,
4.028,3.98,-3.12,
3.996,3.948,-3.04,
4.028,3.972,-3.12,
3.996,3.948,-3.04,
4.004,3.972,-3.12,
4.028,3.948,-3.04,
4.028,3.972,-3.12,
4.004,3.948,-3.08,
3.996,3.94,-3.12,
4.028,3.972,-3.08,
3.996,3.956,-3.04,
4.02,3.972,-3.12,
4.028,3.972,-3.12,
3.996,3.948,-3.04,
4.02,3.972,-3.12,
3.996,3.948,-3.04,
3.996,3.972,-3.12,
4.028,3.932,-3.04,
4.004,3.972,-3.12,
4.02,3.94,-3.04,
4.02,3.972,-3.12,
3.996,3.948,-3.04,
4.02,3.972,-3.12,
3.996,3.948,-3.04,
4.028,3.972,-3.12,
3.996,3.932,-3.04,
4.02,3.948,-3.12,
3.996,3.972,-3.04,
4.02,3.972,-3.12,
4.004,3.94,-3.04,
3.996,3.972,-3.04,
4.028,3.956,-3.12,
4.02,3.908,-3.12,
3.996,3.972,-3.04,
4.02,3.972,-3.12,
3.988,3.948,-3.04,
4.02,3.956,-3.12,
3.996,3.972,-3.08,
4.02,3.988,-3.12,
3.98,3.94,-3.08,
4.004,3.948,-3.12,
4.028,3.972,-3.08,
4.02,3.948,-3.12,
3.996,3.988,-3.08,
3.996,3.972,-3.12,
4.028,3.94,-3.04,
4.02,3.948,-3.12,
3.996,3.98,-3.08,
4.028,3.94,-3.08,
3.996,3.972,-3.12,
3.996,3.972,-3.12,
4.02,3.94,-3.04,
3.996,3.972,-3.08,
4.028,3.94,-3.12,
4.02,3.972,-3.12,
3.996,3.94,-3.04,
4.02,3.94,-3.12,
3.996,3.972,-3.04,
4.028,3.94,-3.12,
3.988,3.98,-3.08,
4.004,3.948,-3.12,
4.028,3.972,-3.08,
4.028,3.972,-3.12,
3.996,3.94,-3.04,
4.036,3.972,-3.12,
3.996,3.932,-3.04,
3.996,3.972,-3.12,
4.02,3.94,-3.08,
4.028,3.972,-3.12,
3.996,3.94,-3.08,
4.02,3.972,-3.08,
3.996,3.948,-3.12,
4.028,3.948,-3.12,
3.996,3.972,-3.08,
4.028,3.972,-3.12,
3.996,3.94,-3.04,
4.028,3.972,-3.12,
3.996,3.94,-3.04,
3.996,3.972,-3.12,
4.02,3.948,-3.04,
4.004,3.948,-3.12,
4.02,3.972,-3.08,
4.028,3.94,-3.12,
3.996,3.972,-3.08,
3.996,3.98,-3.12,
4.028,3.94,-3.04,
4.02,3.972,-3.12,
4.004,3.94,-3.04,
4.02,3.972,-3.12,
3.996,3.94,-3.04,
4.028,3.972,-3.12,
3.996,3.948,-3.04,
3.996,3.972,-3.12,
4.028,3.948,-3.08,
4.02,3.972,-3.12,
3.988,3.94,-3.04,
4.02,3.972,-3.12,
3.996,3.948,-3.04,
4.028,3.972,-3.12,
3.996,3.94,-3.04,
4.02,3.972,-3.12,
4.004,3.94,-3.08,
4.02,3.972,-3.08,
3.996,3.948,-3.12,
3.996,3.932,-3.12,
4.028,3.972,-3.04,
4.02,3.972,-3.12,
3.996,3.948,-3.04,
4.02,3.948,-3.12,
3.996,3.972,-3.04,
4.02,3.972,-3.12,
3.996,3.948,-3.04,
4.02,3.972,-3.12,
3.996,3.948,-3.04,
4.02,3.972,-3.12,
4.004,3.94,-3.04,
4.004,3.948,-3.12,
4.028,3.98,-3.08,
4.02,3.972,-3.08,
4.004,3.94,-3.12,
4.02,3.94,-3.12,
3.996,3.972,-3.04,
4.028,3.948,-3.12,
3.996,3.972,-3.08,
3.996,3.948,-3.08,
4.02,3.988,-3.12,
4.004,3.98,-3.12,
4.028,3.948,-3.04,
3.988,3.948,-3.12,
4.028,3.972,-3.04,
3.996,3.972,-3.12,
4.028,3.948,-3.04,
3.996,3.972,-3.12,
4.028,3.932,-3.08,
4.02,3.972,-3.12,
3.996,3.948,-3.08,
4.028,3.972,-3.12,
3.996,3.948,-3.04,
4.028,3.972,-3.12,
3.988,3.94,-3.08,
4.02,3.948,-3.12,
3.996,3.972,-3.08,
4.02,3.972,-3.12,
3.996,3.948,-3.04,
4.02,3.972,-3.12,
3.996,3.94,-3.04,
4.02,3.948,-3.08,
3.996,3.972,-3.12,
4.02,3.948,-3.12,
4.004,3.972,-3.08,
3.988,3.972,-3.08,
4.028,3.948,-3.12,
4.02,3.972,-3.12,
3.996,3.948,-3.04,
4.02,3.948,-3.12,
4.004,3.972,-3.08,
4.02,3.948,-3.12,
4.004,3.972,-3.04,
4.02,3.972,-3.12,
3.996,3.94,-3.08,
4.02,3.948,-3.12,
3.996,3.972,-3.04,
4.028,3.972,-3.08,
3.996,3.948,-3.12,
4.02,3.972,-3.12,
3.996,3.94,-3.08,
3.996,3.972,-3.12,
4.028,3.94,-3.04,
4.004,3.972,-3.12,
4.028,3.948,-3.08,
4.02,3.948,-3.12,
4.004,3.972,-3.04,
4.02,3.972,-3.08,
3.996,3.94,-3.12,
4.02,3.972,-3.12,
3.996,3.94,-3.04,
3.996,3.956,-3.12,
4.02,3.972,-3.04,
3.996,3.948,-3.08,
4.02,3.972,-3.12,
4.02,3.948,-3.12,
3.996,3.972,-3.04,
4.004,3.972,-3.12,
4.028,3.94,-3.04,
4.02,3.932,-3.08,
3.996,3.996,-3.12,
4.004,3.972,-3.12,
4.028,3.94,-3.04,
4.02,3.98,-3.12,
3.996,3.948,-3.08,
4.004,3.98,-3.12,
4.028,3.948,-3.08,
4.004,3.988,-3.12,
4.028,3.948,-3.08,
4.028,3.948,-3.08,
3.996,3.98,-3.12,
4.028,3.948,-3.12,
3.996,3.98,-3.04,
4.028,3.956,-3.12,
3.996,3.972,-3.04,
3.988,3.956,-3.08,
4.02,3.98,-3.12,
4.004,3.972,-3.12,
4.028,3.94,-3.08,
4.02,3.972,-3.12,
3.996,3.948,-3.04,
4.02,3.972,-3.12,
3.996,3.948,-3.04,
4.028,3.972,-3.08,
3.996,3.94,-3.12,
4.004,3.972,-3.08,
4.02,3.948,-3.12,
3.996,3.972,-3.12,
4.02,3.932,-3.04,
4.02,3.972,-3.12,
3.996,3.948,-3.08,
4.004,3.972,-3.12,
4.028,3.948,-3.04,
4.02,3.972,-3.12,
3.996,3.948,-3.04,
4.028,3.948,-3.08,
3.996,3.972,-3.12,
3.996,3.972,-3.08,
4.028,3.948,-3.12,
4.02,3.972,-3.12,
3.996,3.94,-3.04,
3.996,3.972,-3.12,
4.028,3.948,-3.08,
4.02,3.972,-3.12,
3.996,3.932,-3.08,
3.996,3.972,-3.12,
4.028,3.94,-3.04,
4.02,3.972,-3.12,
3.996,3.948,-3.04,
4.02,3.988,-3.12,
3.996,3.94,-3.04,
4.02,3.972,-3.12,
3.996,3.94,-3.08,
4.02,3.972,-3.08,
3.996,3.948,-3.12,
4.028,3.972,-3.12,
3.996,3.948,-3.04,
3.996,3.972,-3.12,
4.028,3.948,-3.04,
4.02,3.948,-3.12,
3.996,3.988,-3.08,
4.004,3.972,-3.08,
4.028,3.94,-3.12,
4.02,3.972,-3.12,
3.988,3.948,-3.04,
3.996,3.972,-3.08,
4.028,3.948,-3.12,
4.02,3.94,-3.12,
3.996,3.972,-3.04,
3.996,3.972,-3.12,
4.028,3.94,-3.08,
4.02,3.948,-3.12,
3.996,3.972,-3.08,
4.02,3.948,-3.12,
3.996,3.972,-3.08,
4.028,3.972,-3.08,
3.996,3.94,-3.12,
3.996,3.972,-3.12,
4.028,3.948,-3.08,
3.996,3.972,-3.12,
4.028,3.932,-3.04,
3.988,3.972,-3.12,
4.02,3.948,-3.08,
3.996,3.972,-3.12,
4.028,3.94,-3.08,
3.996,3.988,-3.12,
4.028,3.948,-3.04,
4.02,3.972,-3.12,
3.996,3.948,-3.08,
3.996,3.972,-3.08,
4.02,3.94,-3.12,
4.004,3.948,-3.12,
4.028,3.972,-3.04,
4.02,3.972,-3.08,
4.004,3.94,-3.12,
4.02,3.948,-3.08,
4.004,3.972,-3.12,
4.004,3.948,-3.12,
4.02,3.972,-3.08,
4.028,3.972,-3.12,
3.996,3.94,-3.04,
4.004,3.972,-3.08,
4.02,3.948,-3.12,
4.004,3.948,-3.08,
4.02,3.972,-3.12,
4.004,3.972,-3.12,
4.02,3.932,-3.04,
4.02,3.972,-3.12,
3.996,3.948,-3.04,
3.996,3.972,-3.08,
4.02,3.94,-3.12,
4.02,3.972,-3.12,
3.996,3.948,-3.04,
4.02,3.948,-3.12,
4.004,3.972,-3.04,
4.028,3.948,-3.12,
3.996,3.972,-3.04,
4.02,3.972,-3.12,
4.004,3.94,-3.08,
3.996,3.972,-3.12,
4.02,3.94,-3.04,
4.004,3.972,-3.12,
4.028,3.948,-3.08,
4.02,3.972,-3.12,
3.996,3.94,-3.04,
3.996,3.972,-3.12,
4.028,3.94,-3.04,
4.004,3.948,-3.12,
4.028,3.972,-3.04,
4.02,3.972,-3.08,
3.996,3.948,-3.12,
3.996,3.972,-3.12,
4.02,3.948,-3.08,
3.996,3.972,-3.12,
4.02,3.948,-3.04,
4.004,3.972,-3.12,
4.02,3.948,-3.04,
3.996,3.948,-3.08,
4.028,3.972,-3.12,
4.02,3.948,-3.12,
3.996,3.972,-3.08,
4.004,3.972,-3.12,
4.02,3.932,-3.04,
4.028,3.972,-3.12,
3.996,3.94,-3.04,
4.02,3.98,-3.12,
3.996,3.948,-3.04,
3.988,3.94,-3.12,
4.028,3.98,-3.08,
4.02,3.948,-3.12,
3.996,3.972,-3.04,
4.028,3.94,-3.12,
4.004,3.972,0.08,
4.028,3.972,0.12,
3.996,3.932,0,
4.02,3.948,0.04,
4.004,3.972,0.12,
4.02,3.972,0.12,
3.996,3.94,0,
4.02,3.932,0.12,
3.996,3.972,0,
