Measurements/Power Payload/Metingen 7/Payload 2 550.csv

CH1,CH2,CH3,Start,Increment,
Volt,Volt,Volt,-5.995,0.01
3.908,3.956,0.08,
3.94,3.988,0.12,
3.924,3.956,0.08,
3.94,3.988,0.12,
3.94,3.956,0.12,
3.908,3.98,0.04,
3.94,3.948,0.12,
3.908,3.988,0,
3.948,3.956,0.12,
3.908,3.988,0.04,
3.924,3.956,0.12,
3.94,4.044,0.04,
3.94,4.004,0.12,
3.916,3.988,0.04,
3.908,3.988,0.12,
3.948,4.004,0.04,
3.924,4.004,0.04,
3.996,3.932,0.12,
3.972,3.948,0.12,
3.948,3.972,0,
3.948,3.972,0.04,
3.964,3.948,0.12,
3.964,3.98,0.12,
3.9,3.956,0.04,
3.908,3.956,0.12,
3.932,3.988,0.04,
3.94,3.988,0.12,
3.908,3.948,0.04,
3.924,3.956,0.12,
3.94,3.988,0.04,
3.924,3.956,0.04,
3.94,3.988,0.12,
3.94,3.98,0.08,
3.908,3.956,0.12,
3.924,3.956,0.12,
3.94,3.988,0.08,
3.924,3.956,0.12,
3.94,4.028,0.04,
3.94,4.012,0.12,
3.924,3.988,0.04,
3.924,4.004,0.12,
3.948,3.988,0,
3.924,3.996,0.12,
3.988,3.932,0.04,
3.972,3.948,0.12,
3.948,3.972,0.08,
3.964,3.98,0.12,
3.948,3.948,0.04,
3.948,3.956,0.12,
3.9,3.98,0,
3.908,3.956,0.12,
3.94,3.988,0.04,
3.94,3.956,0.12,
3.908,3.988,0.04,
3.924,3.956,0.08,
3.94,3.98,0.12,
3.94,3.98,0.12,
3.916,3.956,0.04,
3.924,3.956,0.12,
3.94,3.98,0.04,
3.924,3.956,0.12,
3.94,4.028,0,
3.94,4.028,0.12,
3.916,3.996,0.04,
3.94,4.004,0.12,
3.916,3.988,0.04,
3.924,4.004,0.12,
3.988,3.948,0.04,
3.988,3.932,0.08,
3.956,3.972,0.12,
3.956,3.956,0.12,
3.972,3.972,0.04,
3.964,3.956,0.12,
3.908,3.98,0,
3.9,3.956,0.12,
3.932,3.988,0.04,
3.908,3.956,0.08,
3.94,3.988,0.12,
3.908,3.948,0.12,
3.94,3.988,0.04,
3.908,3.956,0.04,
3.948,3.988,0.12,
3.948,3.956,0.12,
3.908,3.98,0.04,
3.908,3.956,0.04,
3.94,3.988,0.12,
3.94,3.956,0.12,
3.924,4.028,0.04,
3.94,4.02,0.08,
3.916,3.988,0.12,
3.924,3.988,0.12,
3.94,4.004,0.04,
3.924,4.004,0.12,
3.988,3.94,0.04,
3.972,3.94,0.12,
3.956,3.98,0.04,
3.94,3.956,0.12,
3.972,3.98,0.04,
3.972,3.956,0.12,
3.9,3.988,0.04,
3.9,3.964,0.12,
3.94,3.98,0.04,
3.94,3.988,0.08,
3.916,3.956,0.12,
3.94,3.956,0.04,
3.924,3.988,0.12,
3.94,3.988,0.12,
3.924,3.956,0.08,
3.94,3.956,0.12,
3.916,3.988,0.04,
3.924,3.98,0.12,
3.948,3.956,0.08,
3.948,3.94,0.12,
3.916,3.98,0.04,
3.924,3.956,0.12,
3.948,3.98,0,
3.908,3.956,0.12,
3.948,3.988,0,
3.94,3.956,0.08,
3.916,3.988,0.12,
3.908,3.956,0.12,
3.948,3.98,0.04,
3.94,3.98,0.12,
3.908,3.948,0.08,
3.924,3.98,0.12,
3.94,3.956,0.04,
3.924,3.988,0.12,
3.948,3.956,0.04,
3.94,3.956,0.08,
3.916,3.98,0.12,
3.94,3.964,0.12,
3.916,3.988,0.04,
3.924,3.956,0.08,
3.948,3.988,0.12,
3.94,3.94,0.08,
3.908,3.988,0.12,
3.908,3.956,0.12,
3.948,3.988,0.04,
3.94,3.98,0.12,
3.908,3.948,0.08,
3.908,3.956,0.12,
3.94,3.98,0,
3.94,3.948,0.12,
3.916,3.988,0,
3.916,3.956,0.08,
3.948,3.98,0.12,
3.908,3.956,0.12,
3.948,3.98,0.04,
3.908,3.956,0.04,
3.94,3.98,0.12,
3.94,3.988,0.12,
3.916,3.956,0.04,
3.94,3.988,0.04,
3.916,3.956,0.12,
3.94,3.956,0.12,
3.908,3.98,0.04,
3.924,3.956,0.12,
3.94,3.98,0,
3.94,3.956,0.12,
3.916,3.98,0.04,
3.924,3.988,0.12,
3.94,3.956,-3.2,
3.94,3.988,-3.2,
3.908,3.956,-3.16,
3.94,3.98,-3.2,
3.908,3.94,-3.12,
3.94,3.956,-3.2,
3.924,3.988,-3.12,
3.94,3.98,-3.2,
3.916,3.948,-3.16,
3.948,3.956,-3.2,
3.908,3.988,-3.16,
3.924,3.948,-3.2,
3.94,3.988,-3.16,
3.94,3.956,-3.2,
3.9,3.988,-3.16,
3.94,3.956,-3.2,
3.916,3.98,-3.12,
3.94,3.956,-3.2,
3.908,3.98,-3.2,
3.924,3.988,-3.2,
3.94,3.956,-3.16,
3.94,3.988,-3.2,
3.908,3.948,-3.16,
3.916,3.956,-3.2,
3.948,3.988,-3.16,
3.94,3.956,-3.2,
3.916,3.988,-3.16,
3.94,3.956,-3.2,
3.908,3.98,-3.16,
3.94,3.956,-3.2,
3.916,3.988,-3.16,
3.94,3.956,-3.2,
3.908,3.98,-3.16,
3.924,3.956,-3.2,
3.94,4.028,-3.12,
3.924,3.948,-3.2,
3.948,3.972,-3.16,
3.94,3.972,-3.2,
3.908,3.956,-3.12,
3.924,3.956,-3.2,
3.996,3.988,-3.12,
3.908,3.956,-3.2,
3.94,3.98,-3.12,
3.908,3.988,-3.2,
3.94,3.956,-3.16,
3.924,3.956,-3.2,
3.94,3.98,-3.12,
3.94,3.956,-3.2,
3.908,3.988,-3.16,
3.924,3.956,-3.2,
3.948,3.988,-3.12,
3.924,3.98,-3.2,
3.948,3.948,-3.16,
3.924,3.956,-3.2,
3.948,3.988,-3.12,
3.948,3.956,-3.2,
3.908,4.028,-3.12,
3.94,4.02,-3.2,
3.908,3.988,-3.12,
3.916,4.004,-3.2,
3.94,3.94,-3.16,
3.924,3.94,-3.2,
3.996,3.972,-3.12,
3.972,3.956,-3.2,
3.956,3.972,-3.16,
3.972,3.948,-3.2,
3.9,3.988,-3.16,
3.908,3.98,-3.2,
3.932,3.956,-3.12,
3.94,3.956,-3.2,
3.908,3.988,-3.12,
3.94,3.956,-3.2,
3.916,3.996,-3.16,
3.94,3.948,-3.2,
3.908,3.988,-3.12,
3.94,3.948,-3.2,
3.924,3.988,-3.16,
3.924,3.956,-3.2,
3.948,3.988,-3.16,
3.916,3.98,-3.2,
3.948,3.956,-3.12,
3.94,3.972,-3.2,
3.908,4.028,-3.16,
3.94,4.004,-3.2,
3.916,3.988,-3.12,
3.924,4.004,-3.2,
3.94,3.94,-3.12,
3.932,3.948,-3.2,
3.988,3.98,-3.12,
3.972,3.956,-3.2,
3.948,3.98,-3.16,
3.964,3.956,-3.2,
3.9,3.98,-3.12,
3.908,3.956,-3.2,
3.94,3.996,-3.16,
3.924,3.98,-3.2,
3.948,3.956,-3.16,
3.924,3.98,-3.2,
3.94,3.948,-3.16,
3.924,3.956,-3.2,
3.948,3.988,-3.16,
3.924,3.98,-3.2,
3.94,3.956,-3.16,
3.94,3.956,-3.2,
3.908,3.996,-3.12,
3.924,3.948,-3.2,
3.94,4.028,-3.2,
3.924,4.028,-3.2,
3.94,3.988,-3.16,
3.924,3.988,-3.2,
3.948,4.02,-3.16,
3.908,4.004,-3.2,
3.98,3.932,-3.12,
3.988,3.948,-3.2,
3.956,3.972,-3.12,
3.94,3.972,-3.2,
3.98,3.956,-3.12,
3.972,3.98,-3.2,
3.9,3.956,-3.16,
3.908,3.988,-3.2,
3.94,3.956,-3.16,
3.94,3.98,-3.2,
3.916,3.956,-3.16,
3.908,3.956,-3.2,
3.94,3.988,-3.16,
3.924,3.98,-3.2,
3.94,3.956,-3.16,
3.94,3.956,-3.2,
3.916,3.988,-3.16,
3.908,3.956,-3.2,
3.94,3.988,-3.12,
3.924,3.964,-3.2,
3.94,4.028,-3.16,
3.924,4.012,-3.2,
3.94,3.98,-3.12,
3.924,3.972,-3.2,
3.948,4.004,-3.16,
3.924,3.996,-3.2,
3.996,3.94,-3.16,
3.972,3.956,-3.2,
3.932,3.98,-3.12,
3.932,3.988,-3.16,
3.972,3.932,-3.2,
3.948,3.956,-3.2,
3.9,3.98,-3.16,
3.916,3.988,-3.2,
3.94,3.956,-3.12,
3.94,3.956,-3.2,
3.892,3.988,-3.16,
3.924,3.988,-3.2,
3.948,3.956,-3.16,
3.94,3.956,-3.2,
3.924,3.98,-3.16,
3.94,3.956,-3.2,
3.908,3.98,-3.16,
3.924,3.948,-3.12,
3.94,4.028,-3.2,
3.94,4.02,-3.2,
3.908,3.988,-3.16,
3.924,4.004,-3.2,
3.94,3.988,-3.16,
3.908,4.004,-3.2,
3.996,3.948,-3.16,
3.988,3.932,-3.2,
3.956,3.972,-3.16,
3.972,3.956,-3.2,
3.948,3.98,-3.12,
3.972,3.956,-3.2,
3.9,3.98,-3.16,
3.9,3.956,-3.2,
3.932,3.988,-3.12,
3.916,3.956,-3.2,
3.94,3.988,-3.12,
3.94,3.956,-3.2,
3.908,3.98,-3.12,
3.94,3.956,-3.2,
3.908,3.98,-3.16,
3.94,3.98,-3.2,
3.908,3.956,-3.16,
3.908,3.996,-3.16,
3.94,3.948,-3.2,
3.924,3.956,-3.2,
3.948,4.028,-3.16,
3.916,4.02,-3.2,
3.948,3.988,-3.16,
3.948,4.004,-3.2,
3.908,3.988,-3.12,
3.924,4.004,-3.2,
3.98,3.932,-3.12,
3.98,3.94,-3.2,
3.956,3.972,-3.16,
3.972,3.956,-3.2,
3.948,3.972,-3.12,
3.964,3.956,-3.2,
3.9,3.98,-3.12,
3.9,3.956,-3.2,
3.932,3.98,-3.16,
3.908,3.956,-3.2,
3.94,3.98,-3.16,
3.924,3.956,-3.2,
3.94,3.98,-3.16,
3.94,3.988,-3.2,
3.916,3.956,-3.12,
3.94,3.956,-3.2,
3.908,3.988,-3.16,
3.924,3.956,-3.2,
3.94,3.98,-3.12,
3.94,3.956,-3.2,
3.916,4.028,-3.12,
3.94,4.02,-3.2,
3.908,3.988,-3.12,
3.924,4.004,-3.2,
3.94,3.98,-3.16,
3.924,4.004,-3.2,
3.988,3.94,-3.16,
3.98,3.94,-3.2,
3.956,3.972,-3.2,
3.964,3.972,-3.2,
3.94,3.94,-3.12,
3.964,3.98,-3.2,
3.9,3.956,-3.12,
3.908,3.956,-3.16,
3.94,3.988,-3.2,
3.94,3.956,-3.2,
3.908,3.988,-3.16,
3.924,3.924,-3.2,
3.94,3.988,-3.12,
3.94,3.948,-3.2,
3.908,3.988,-3.12,
3.908,3.956,-3.2,
3.94,3.988,-3.2,
3.94,3.956,-3.2,
3.884,3.988,-3.12,
3.94,3.956,-3.2,
3.908,4.028,-3.16,
3.94,3.988,-3.2,
3.924,4.012,-3.16,
3.94,4.02,-3.2,
3.924,3.98,-3.2,
3.924,4.004,-3.2,
3.996,3.932,-3.12,
3.956,3.948,-3.2,
3.972,3.972,-3.16,
3.972,3.948,-3.2,
3.94,3.98,-3.12,
3.964,3.956,-3.2,
3.9,3.98,-3.12,
3.908,3.956,-3.2,
3.94,3.98,-3.16,
3.908,3.988,-3.2,
3.94,3.94,-3.12,
3.94,3.988,-3.2,
3.924,3.956,-3.16,
3.94,3.956,-3.2,
3.916,3.988,-3.12,
3.94,3.988,-3.2,
3.908,3.94,-3.12,
3.94,3.956,-3.2,
3.908,3.988,-3.12,
3.924,3.964,-3.2,
3.948,4.02,-3.12,
3.94,4.02,-3.2,
3.9,3.98,-3.12,
3.94,4.004,-3.2,
3.908,3.98,-3.16,
3.924,3.988,-3.2,
3.988,3.932,-3.12,
3.972,3.972,-3.2,
3.94,3.948,-3.12,
3.94,3.98,-3.2,
3.972,3.956,-3.16,
3.948,3.956,-3.2,
3.9,3.988,-3.16,
3.908,3.956,-3.2,
3.94,3.988,-3.12,
3.924,3.94,-3.2,
3.94,3.988,-3.12,
3.94,3.956,-3.2,
3.916,3.988,-3.16,
3.908,3.988,-3.2,
3.94,3.956,-3.16,
3.9,3.956,-3.2,
3.948,3.988,-3.12,
3.924,3.956,-3.2,
3.94,4.028,-3.16,
3.924,4.028,-3.2,
3.948,3.996,-3.12,
3.924,4.004,-3.2,
3.94,3.988,-3.16,
3.924,4.004,-3.2,
3.988,3.948,-3.12,
3.988,3.94,-3.2,
3.956,3.972,-3.2,
3.972,3.956,-3.2,
3.948,3.972,-3.16,
3.964,3.956,-3.2,
3.9,3.988,-3.12,
3.9,3.956,-3.2,
3.94,3.988,-3.16,
3.908,3.956,-3.2,
3.94,3.988,-3.12,
3.94,3.956,-3.2,
3.924,3.988,-3.16,
3.94,3.956,-3.2,
3.916,3.988,-3.16,
3.94,3.956,-3.2,
3.924,3.988,-3.16,
3.94,3.98,-3.2,
3.916,3.956,-3.16,
3.924,3.932,-3.2,
3.94,4.028,-3.12,
3.908,4.028,-3.2,
3.948,3.98,-3.12,
3.948,3.988,-3.2,
3.908,4.02,-3.16,
3.9,4.004,-3.2,
3.996,3.94,-3.12,
3.988,3.94,-3.2,
3.948,3.972,-3.16,
3.972,4.028,-3.2,
3.94,3.292,-3.16,
3.964,3.348,-3.2,
3.9,3.468,-3.12,
3.9,3.46,-3.2,
3.932,3.524,-3.12,
3.988,3.492,-3.2,
3.26,3.54,-3.12,
3.316,3.516,-3.2,
3.436,3.548,-3.16,
3.428,3.524,-3.2,
3.484,3.556,-3.16,
3.46,3.532,-3.2,
3.5,3.556,-3.12,
3.484,3.532,-3.2,
3.508,3.556,-3.12,
3.516,3.556,-3.2,
3.484,3.532,-3.12,
3.492,3.532,-3.2,
3.524,4.204,-3.12,
3.516,4.164,-3.2,
3.492,4.02,-3.16,
3.524,4.036,-3.16,
3.492,3.964,-3.2,
3.492,3.964,-3.2,
4.156,4.028,-3.16,
4.116,4.028,-3.2,
3.98,3.972,-3.12,
3.996,3.972,-3.2,
3.932,3.94,-3.16,
3.924,3.956,-3.2,
3.98,4.028,-3.12,
3.996,4.02,-3.2,
3.94,3.988,-3.16,
3.94,3.98,-3.2,
3.9,4.004,-3.12,
3.916,3.988,-3.2,
3.988,4.02,-3.12,
3.972,4.004,-3.2,
3.94,3.964,-3.12,
3.932,3.972,-3.2,
3.972,3.94,-3.12,
3.948,4.02,-3.2,
3.98,3.292,-3.12,
3.972,3.372,-3.2,
3.932,3.492,-3.16,
3.9,3.476,-3.2,
3.94,3.548,-3.16,
3.988,3.5,-3.2,
3.26,4.188,-3.12,
3.348,4.156,-3.2,
3.452,4.02,-3.16,
3.436,4.028,-3.2,
3.516,3.972,-3.16,
3.468,3.996,-3.2,
4.14,3.964,-3.16,
4.116,3.964,-3.2,
3.98,4.036,-3.16,
3.98,4.012,-3.2,
3.932,3.284,-3.12,
3.924,3.396,-3.2,
3.964,3.5,-3.16,
3.932,3.484,-3.2,
3.996,3.548,-3.12,
3.972,3.492,-3.2,
3.252,3.556,-3.2,
3.364,3.508,-3.2,
3.468,4.188,-3.12,
3.452,4.116,-3.2,
3.508,4.036,-3.12,
3.46,4.052,-3.2,
3.524,4.004,-3.12,
3.46,4.02,-3.2,
4.14,3.988,-3.12,
4.084,3.996,-3.2,
3.996,3.948,-3.12,
4.004,3.948,-3.2,
3.964,4.028,-3.16,
3.972,4.02,-3.2,
3.948,3.26,-3.12,
3.948,3.42,-3.2,
3.908,3.524,-3.12,
3.908,3.484,-3.2,
3.988,3.548,-3.16,
3.98,3.5,-3.2,
3.236,3.564,-3.12,
3.388,3.492,-3.2,
3.476,4.188,-3.12,
3.452,4.06,-3.2,
3.508,3.332,-3.16,
3.468,3.348,-3.2,
3.524,3.508,-3.12,
3.46,3.476,-3.2,
4.14,3.54,-3.12,
4.028,3.5,-3.2,
3.292,3.564,-3.12,
3.316,3.508,-3.2,
3.468,4.172,-3.16,
3.436,4.18,-3.2,
3.508,4.028,-3.12,
3.46,4.036,-3.2,
3.54,3.98,-3.12,
3.476,4.028,-3.12,
4.132,3.476,-3.2,
4.14,3.284,-3.2,
3.988,3.5,-3.12,
3.996,3.46,-3.2,
3.932,3.532,-3.12,
3.996,3.5,-3.2,
3.436,3.556,-3.12,
3.252,3.5,-3.2,
3.468,4.02,-3.12,
3.428,4.188,-3.2,
3.5,4.02,-3.16,
3.46,4.044,-3.2,
3.516,3.98,-3.12,
3.468,3.996,-3.12,
3.98,3.964,-3.2,
4.14,3.956,-3.2,
3.988,4.028,-3.16,
4.004,4.028,-3.2,
3.948,3.988,-3.16,
3.964,4.02,-3.2,
3.924,3.98,-3.12,
3.924,4.012,-3.12,
3.996,3.932,-3.2,
3.996,3.948,-3.2,
3.956,3.98,-3.12,
3.972,3.956,-3.2,
3.948,3.98,-3.12,
3.972,3.988,-3.2,
3.9,3.956,-3.16,
3.908,3.956,-3.2,
3.94,3.98,-3.16,
3.94,3.956,-3.2,
3.908,3.988,-3.12,
3.924,3.956,-3.2,
3.948,3.988,-3.16,
3.94,3.948,-3.2,
3.908,3.988,-3.12,
3.924,3.988,-3.2,
3.948,3.956,-3.12,
3.94,3.988,-3.2,
3.924,3.956,-3.12,
3.916,3.948,-3.2,
3.948,3.98,-3.12,
3.94,3.956,-3.2,
3.924,3.988,-3.12,
3.924,3.948,-3.2,
3.948,3.988,-3.16,
3.908,3.956,-3.2,
3.94,3.988,-3.12,
3.924,3.988,-3.2,
3.94,3.948,-3.12,
3.94,4.028,-3.2,
3.908,3.284,-3.12,
3.924,3.404,-3.2,
3.94,3.492,-3.12,
3.948,3.46,-3.2,
3.908,3.548,-3.12,
3.996,3.5,-3.2,
3.252,3.548,-3.12,
3.364,3.508,-3.2,
3.46,4.188,-3.12,
3.428,4.092,-3.2,
3.516,4.004,-3.12,
3.468,4.012,-3.2,
3.524,3.972,-3.12,
3.476,3.996,-3.2,
4.14,3.956,-3.12,
4.06,3.964,-3.2,
3.964,3.996,-3.16,
3.972,3.98,-3.2,
3.94,3.948,-3.16,
3.948,3.956,-3.2,
3.924,3.988,-3.12,
3.924,3.988,-3.2,
3.948,3.956,-3.16,
3.94,3.94,-3.2,
3.908,3.988,-3.12,
3.924,3.956,-3.2,
3.94,4.036,-3.12,
3.94,4.028,-3.2,
3.924,3.98,-3.16,
3.94,3.988,-3.2,
3.908,4.012,-3.12,
3.908,3.964,-3.2,
3.988,4.012,-3.12,
3.988,4.004,-3.2,
3.932,3.98,-3.12,
3.972,4.004,-3.2,
3.94,3.98,-3.16,
3.972,4.004,-3.2,
3.932,3.98,-3.16,
3.972,3.98,-3.2,
3.932,4.004,-3.16,
3.94,3.988,-3.2,
3.964,4.004,-3.16,
3.972,3.988,-3.2,
3.94,4.004,-3.12,
3.964,3.988,-3.2,
3.94,4.004,-3.16,
3.964,4.004,-3.2,
3.94,3.988,-3.12,
3.964,4.004,-3.2,
3.94,3.94,-3.12,
3.94,3.948,-3.2,
3.964,4.02,-3.12,
3.964,4.004,-3.2,
3.94,3.988,-3.12,
3.964,4.004,-3.2,
3.9,3.988,-3.12,
3.908,4.004,-3.2,
3.972,3.94,-3.12,
3.948,3.932,-3.2,
3.972,4.028,-3.12,
3.948,3.948,-3.2,
3.964,4.004,-3.16,
3.964,4.028,-3.2,
3.9,3.284,-3.12,
3.892,4.02,-3.2,
3.98,3.972,-3.12,
3.9,3.948,-3.2,
3.964,4.028,-3.12,
3.98,4.012,-3.2,
3.252,3.284,-3.2,
3.972,3.452,-3.2,
3.932,3.516,-3.12,
3.9,3.5,-3.2,
3.996,3.54,-3.12,
3.98,3.572,-3.2,
3.26,3.508,-3.12,
3.42,3.532,-3.2,
3.476,4.188,-3.12,
3.516,4.044,-3.2,
3.46,3.972,-3.16,
3.532,4.052,-3.2,
3.468,3.324,-3.16,
3.5,3.428,-3.2,
4.14,3.516,-3.12,
4.004,3.476,-3.2,
3.932,3.54,-3.16,
4.004,3.5,-3.2,
3.3,3.572,-3.16,
3.396,3.508,-3.2,
3.476,4.188,-3.12,
3.444,4.06,-3.2,
3.508,4.012,-3.12,
3.46,4.044,-3.16,
3.532,4.004,-3.2,
3.476,4.02,-3.2,
4.14,3.988,-3.12,
4.028,4.02,-3.2,
3.964,3.932,-3.16,
4.004,3.932,-3.2,
3.964,3.972,-3.12,
3.972,4.028,-3.2,
3.948,3.292,-3.16,
3.98,3.364,-3.2,
3.9,3.5,-3.12,
3.9,3.476,-3.2,
3.94,3.54,-3.12,
3.98,3.5,-3.2,
3.26,4.164,-3.12,
3.324,4.172,-3.2,
3.468,4.02,-3.12,
3.444,4.044,-3.2,
3.492,3.98,-3.12,
3.46,3.996,-3.2,
4.116,3.964,-3.12,
4.124,3.988,-3.2,
3.988,3.948,-3.16,
3.996,3.964,-3.2,
3.932,4.028,-3.16,
3.956,4.02,-3.2,
3.924,3.98,-3.16,
3.948,3.988,-3.2,
3.916,4.02,-3.12,
3.924,4.004,-3.2,
3.996,3.932,-3.16,
3.972,3.948,-3.2,
3.948,3.98,-3.16,
3.948,3.98,-3.2,
3.98,3.932,-3.16,
3.964,4.028,-3.2,
3.892,3.956,-3.16,
3.908,3.948,-3.2,
3.94,4.02,-3.2,
3.94,3.276,-3.2,
3.9,4.02,-3.12,
3.988,3.996,-3.2,
3.908,3.964,-3.16,
3.908,3.988,-3.2,
3.988,3.956,-3.12,
3.972,3.956,-3.2,
3.236,3.988,-3.12,
3.964,3.98,-3.2,
3.924,3.956,-3.16,
3.948,3.964,-3.2,
3.908,4.028,-3.12,
3.924,4.012,-3.2,
3.94,3.988,-3.16,
3.924,3.988,-3.2,
3.948,4.004,-3.16,
3.924,4.004,-3.2,
3.988,3.94,-3.16,
3.972,3.972,-3.2,
3.956,3.94,-3.16,
3.964,4.02,-3.2,
3.94,3.284,-3.12,
3.964,3.396,-3.2,
3.9,4.092,-3.12,
3.908,4.028,-3.2,
3.94,3.964,-3.12,
3.988,3.964,-3.2,
3.244,3.996,-3.12,
3.372,3.988,-3.2,
4.06,3.948,-3.12,
3.988,3.988,-3.2,
3.94,3.948,-3.16,
3.948,3.996,-3.2,
3.924,3.956,-3.16,
3.948,3.956,-3.2,
3.908,3.988,-3.16,
3.948,3.972,-3.2,
3.908,4.028,-3.12,
3.948,3.988,-3.2,
3.908,4.02,-3.16,
3.94,4.004,-3.2,
3.916,3.98,-3.12,
3.932,3.98,-3.2,
3.996,3.948,-3.12,
3.956,3.948,-3.2,
3.972,4.02,-3.16,
3.948,4.02,-3.2,
3.972,3.276,-3.12,
3.94,4.092,-3.2,
3.9,4.004,-3.12,
3.9,4.004,-3.2,
3.972,3.964,-3.12,
3.972,3.988,-3.2,
3.244,3.964,-3.16,
4.06,3.964,-3.2,
3.964,3.988,-3.16,
3.972,3.956,-3.2,
3.932,3.988,-3.12,
3.948,3.98,-3.2,
3.924,3.956,-3.16,
3.94,3.956,-3.2,
3.924,4.028,-3.12,
3.94,4.028,-3.2,
3.916,3.988,-3.12,
3.94,3.988,-3.2,
3.916,4.02,-3.12,
3.908,4.004,-3.2,
3.996,3.948,-3.12,
3.956,3.948,-3.2,
3.996,3.972,-3.16,
3.98,4.028,-3.2,
3.948,3.428,-3.12,
3.972,3.284,-3.2,
3.908,4.044,-3.16,
3.9,4.004,-3.2,
3.94,3.964,-3.12,
3.98,3.956,-3.2,
3.396,3.988,-3.16,
3.252,3.964,-3.2,
4.004,3.98,-3.2,
3.972,3.988,-3.2,
3.932,3.956,-3.12,
3.924,3.98,-3.2,
3.948,3.956,-3.16,
3.94,3.956,-3.2,
3.924,3.988,-3.16,
3.94,3.956,-3.2,
3.908,4.028,-3.16,
3.924,4.02,-3.2,
3.94,3.996,-3.16,
3.924,4.004,-3.2,
3.94,3.98,-3.16,
3.924,4.004,-3.12,
3.988,3.94,-3.2,
3.972,3.948,-3.2,
3.956,3.972,-3.12,
3.972,4.02,-3.2,
3.948,3.284,-3.12,
3.972,3.364,-3.2,
3.9,4.052,-3.12,
3.908,4.004,-3.2,
3.932,3.964,-3.12,
3.988,3.964,-3.2,
3.252,3.996,-3.16,
3.324,3.988,-3.2,
4.004,3.956,-3.16,
3.972,3.956,-3.2,
3.924,3.988,-3.12,
3.924,3.964,-3.2,
3.948,3.988,-3.12,
3.94,3.988,-3.2,
3.924,3.948,-3.12,
3.916,3.964,-3.2,
3.948,4.028,-3.12,
3.924,4.012,-3.2,
3.948,3.988,-3.16,
3.94,4.004,-3.2,
3.9,3.98,-3.12,
3.924,4.004,-3.2,
3.988,3.94,-3.12,
3.972,3.948,-3.2,
3.948,3.972,-3.16,
3.94,3.948,-3.2,
3.964,3.996,-3.12,
3.964,4.036,-3.2,
3.9,3.948,-3.12,
3.908,3.948,-3.2,
3.932,4.028,-3.2,
3.916,3.276,-3.2,
3.948,4.02,-3.16,
3.996,3.996,-3.2,
3.908,3.956,-3.16,
3.9,3.964,-3.2,
3.98,3.988,-3.2,
3.972,3.964,-3.2,
3.236,3.988,-3.16,
3.948,3.948,-3.2,
3.924,3.988,-3.16,
3.948,3.964,-3.2,
3.924,4.028,-3.12,
3.924,4.02,-3.2,
3.948,3.988,-3.12,
3.916,3.988,-3.2,
3.94,4.004,-3.16,
3.924,4.004,-3.2,
3.988,3.932,-3.12,
3.972,3.932,-3.2,
3.948,3.972,-3.12,
3.964,3.956,-3.2,
3.94,3.996,-3.12,
3.964,3.956,-3.2,
3.9,3.988,-3.16,
3.9,3.988,-3.2,
3.94,3.956,-3.12,
3.916,3.988,-3.2,
3.948,3.956,-3.12,
3.94,3.948,-3.2,
3.924,3.988,-3.12,
3.924,3.988,-3.2,
3.94,3.956,-3.16,
3.94,3.988,-3.2,
3.924,3.956,-3.12,
3.908,3.988,-3.2,
3.948,3.956,-3.12,
3.948,3.964,-3.2,
3.916,4.028,-3.12,
3.94,3.988,-3.2,
3.924,4.004,-3.12,
3.924,4.004,-3.2,
3.948,3.98,-3.2,
3.932,3.972,-3.2,
3.996,3.94,-3.16,
3.972,3.956,-3.2,
3.948,3.972,-3.2,
3.948,3.956,-3.16,
3.964,3.972,-3.2,
3.932,3.956,-3.2,
3.9,3.98,-3.12,
3.908,3.956,-3.2,
3.94,3.988,-3.16,
3.94,3.98,-3.2,
3.908,3.956,-3.12,
3.916,3.956,-3.12,
3.94,3.98,-3.2,
3.94,3.98,-3.2,
3.908,3.956,-3.12,
3.924,3.956,-3.2,
3.94,3.98,-3.12,
3.94,3.956,-3.2,
3.924,4.028,-3.16,
3.94,4.02,-3.2,
3.924,3.988,-3.16,
3.924,4.004,-3.2,
3.94,3.98,-3.16,
3.924,4.004,-3.2,
3.98,3.932,-3.12,
3.988,3.932,-3.2,
3.948,3.972,-3.12,
3.972,3.956,-3.2,
3.948,3.98,-3.12,
3.972,3.956,-3.2,
3.9,3.98,-3.16,
3.9,3.988,-3.2,
3.94,3.932,-3.12,
3.908,3.956,-3.2,
3.94,3.98,-3.16,
3.94,3.956,-3.2,
3.908,3.98,-3.12,
3.94,3.956,-3.2,
3.9,3.988,-3.12,
3.94,3.972,-3.2,
3.908,3.956,-3.12,
3.908,3.956,-3.2,
3.948,3.98,-3.12,
3.94,3.964,-3.2,
3.924,4.028,-3.12,
3.924,4.02,-3.2,
3.94,3.988,-3.12,
3.924,4.004,-3.2,
3.94,3.98,-3.16,
3.924,4.004,-3.2,
3.988,3.94,-3.12,
3.972,3.94,-3.2,
3.956,3.972,-3.12,
3.964,3.98,-3.2,
3.948,3.948,-3.16,
3.964,3.956,-3.2,
3.9,3.972,-3.12,
3.9,3.956,-3.2,
3.932,3.988,-3.16,
3.94,3.956,-3.2,
3.908,3.98,-3.12,
3.94,3.956,-3.2,
3.908,3.988,-3.12,
3.924,3.972,-3.2,
3.948,3.956,-3.16,
3.94,3.956,-3.2,
3.908,3.988,-3.2,
3.924,3.956,-3.2,
3.948,3.98,-3.16,
3.916,3.956,-3.2,
3.94,4.028,-3.16,
3.94,4.02,-3.2,
3.916,3.988,-3.16,
3.94,3.988,-3.2,
3.924,4.004,-3.12,
3.924,4.004,-3.2,
3.988,3.932,0.12,
3.972,3.94,0.08,
3.948,3.972,0.12,
3.964,3.972,0.08,
3.94,3.948,0.12,
3.964,3.972,0.04,
3.9,3.94,0.12,
3.9,3.98,0.12,
3.94,3.94,0.04,
3.94,3.948,0.08,
3.908,3.972,0.12,
3.908,3.98,0.12,
3.94,3.956,0.04,
3.94,3.98,0.12,
3.908,3.94,0.04,
3.908,3.956,0.12,
3.94,3.988,0.04,
3.94,3.956,0.12,
3.916,3.988,0,
3.94,3.956,0.12,
3.908,4.028,0.04,
3.94,4.012,0.12,
3.916,3.988,0.04,
3.924,4.004,0.12,
3.948,3.98,0.04,
3.908,4.004,0.12,
3.988,3.932,0.04,
3.972,3.94,0.12,
3.948,3.972,0,
3.964,3.948,0.12,
3.94,3.98,0,
3.964,3.972,0.08,
3.9,3.956,0.12,
3.908,3.956,0.12,
3.94,3.98,0.04,
3.908,3.988,0.12,
3.94,3.956,0.04,
3.94,3.948,0.08,
3.924,3.988,0.12,
3.924,3.956,0.12,
3.94,3.98,0.04,
3.94,3.98,0.12,
3.916,3.956,0.04,
3.94,3.988,0.12,
3.916,3.956,0.04,
3.94,3.964,0.08,
3.908,4.028,0.12,
3.94,4.02,0.12,
3.924,3.988,0.04,
3.94,3.988,0.12,
3.924,4.004,0.04,
3.924,3.98,0.12,
3.988,3.924,0,
3.972,3.972,0.12,
3.948,3.94,0.04,
3.972,3.972,0.08,
3.94,3.956,0.12,
3.948,3.956,0.08,
3.892,3.98,0.12,
3.908,3.956,0.04,
3.94,3.98,0.12,
3.94,3.98,0.04,
3.916,3.956,0.12,
3.94,3.988,0.12,
3.924,3.956,0.04,
3.924,3.956,0.12,
3.94,3.98,0.04,
3.948,3.988,0.12,
3.916,3.956,0,
3.94,3.956,0.12,
3.916,4.028,0.04,
3.94,4.028,0.12,
3.924,3.988,0.04,
3.94,4.004,0.12,
3.924,3.988,0.04,
3.924,4.004,0.12,
3.988,3.948,0.04,
3.98,3.932,0.12,
3.956,3.972,0.04,
3.972,3.948,0.08,
3.948,3.98,0.12,
3.964,3.956,0.12,
3.9,3.98,0.04,
3.9,3.956,0.12,
3.932,3.98,0,
3.916,3.956,0.08,
3.94,3.988,0.12,
3.924,3.956,0.08,
3.94,3.98,0.12,
3.94,3.956,0.12,
3.908,3.988,0.08,
3.94,3.98,0.08,
3.924,3.956,0.12,
3.94,3.98,0.12,
3.924,3.956,0.08,
3.924,3.956,0,
3.94,4.028,0.12,
3.948,4.02,0.08,
3.916,3.988,0.12,
3.94,4.004,0.12,
3.916,3.964,0.04,
3.924,4.004,0.12,
3.988,3.94,0,
3.988,3.94,0.12,
3.956,3.972,0.04,
3.932,3.956,0.12,
3.972,3.98,0.04,
3.964,3.988,0.12,
3.908,3.956,0.04,
3.908,3.956,0.12,
3.94,3.98,0.04,
