Measurements/Power Payload/Metingen 7/Payload 0 620.csv

CH1,CH2,CH3,Start,Increment,
Volt,Volt,Volt,-5.995,0.01
3.996,3.972,0.08,
4.02,3.94,0.12,
4.02,3.972,0.12,
3.988,3.948,0.04,
4.02,3.972,0.12,
3.988,3.932,0.08,
4.02,3.972,0.08,
3.988,3.932,0.12,
4.02,3.972,0.12,
3.988,3.932,0.04,
4.012,3.932,0.08,
3.988,3.964,0.12,
3.988,3.964,0.12,
4.02,3.94,0.08,
4.02,3.964,0.08,
3.988,3.932,0.12,
3.988,3.932,0.12,
4.02,3.972,0.04,
4.02,3.932,0.12,
3.988,3.972,0.04,
3.988,3.964,0.12,
4.012,3.932,0,
3.988,3.964,0.08,
4.02,3.932,0.12,
3.988,3.964,0.08,
4.02,3.932,0.12,
4.02,3.964,0.12,
3.988,3.94,0.04,
3.988,3.964,0.12,
4.02,3.932,0,
4.02,3.94,0.08,
3.988,3.964,0.12,
3.988,3.932,0.08,
4.02,3.972,0.12,
4.02,3.932,0.12,
3.988,3.988,0,
3.988,3.94,0.08,
4.02,3.972,0.12,
4.02,3.964,0.12,
3.988,3.924,0,
4.02,3.932,0.12,
3.988,3.972,0.04,
3.988,3.964,0.12,
4.02,3.94,0.04,
3.988,3.932,0.08,
4.012,3.964,0.12,
3.988,3.972,0.12,
4.02,3.94,0.04,
3.988,3.964,0.04,
4.02,3.932,0.12,
3.988,3.964,0.08,
4.012,3.932,0.12,
3.996,3.932,0.12,
4.02,3.964,0.04,
3.988,3.964,0.04,
4.02,3.94,0.12,
4.02,3.964,0.08,
3.988,3.932,0.12,
3.988,3.964,0.12,
4.02,3.932,0.04,
3.988,3.972,0.08,
4.02,3.932,0.12,
4.02,3.94,0.12,
3.988,3.972,0.04,
3.988,3.972,0.08,
4.02,3.932,0.12,
3.988,3.94,0.12,
4.02,3.972,0.04,
3.988,3.972,0.12,
4.02,3.932,0.04,
4.02,3.94,0.08,
3.988,3.964,0.12,
4.02,3.964,0.12,
3.988,3.94,0.04,
4.02,3.964,0.12,
3.988,3.94,0.04,
3.996,3.964,0.12,
4.02,3.94,0.04,
4.02,3.964,0.12,
3.988,3.932,0.08,
4.02,3.94,0.12,
3.988,3.964,0.04,
3.988,3.972,0.08,
4.02,3.94,0.12,
4.02,3.924,0.08,
3.988,3.972,0.12,
3.988,3.964,0.08,
4.02,3.94,0.12,
3.996,3.972,0.08,
4.02,3.932,0.12,
3.98,3.948,0.12,
4.02,3.964,0.04,
4.02,3.964,0.04,
3.988,3.94,0.12,
3.988,3.964,0.12,
4.02,3.932,0.08,
4.012,3.964,0.08,
3.988,3.94,0.12,
3.996,3.964,0.08,
4.02,3.932,0.12,
4.02,3.94,0.08,
3.988,3.964,0.12,
4.02,3.964,0.04,
3.988,3.94,0.12,
4.02,3.94,0.12,
3.988,3.964,0.04,
3.988,3.964,0.08,
4.02,3.94,0.12,
3.988,3.964,0.08,
4.02,3.94,0.12,
4.02,3.94,0.04,
3.988,3.964,0.12,
4.02,3.94,0.08,
3.988,3.972,0.12,
4.02,3.972,0.08,
3.988,3.932,0.12,
3.988,3.94,0.08,
4.012,3.972,0.12,
3.988,3.964,0.08,
4.02,3.932,0.12,
3.988,3.932,0.08,
4.02,3.972,0.12,
3.988,3.964,0.12,
4.02,3.94,0,
4.02,3.964,0.08,
3.988,3.932,0.12,
3.988,3.964,0.12,
4.02,3.94,0.04,
4.02,3.932,0.12,
3.988,3.964,0.04,
4.02,3.916,0,
3.988,3.972,0.12,
3.996,3.94,0.12,
4.02,3.972,0.04,
3.988,3.932,0.12,
4.02,3.964,0.04,
4.02,3.932,0.12,
3.988,3.964,0.04,
4.02,3.964,0.08,
3.988,3.932,0.12,
3.988,3.94,0.12,
4.02,3.972,0.04,
3.988,3.964,0.12,
4.02,3.94,0.04,
4.02,3.932,0.12,
3.988,3.972,0.08,
3.988,3.964,0.04,
4.02,3.932,0.12,
3.988,3.94,0.04,
4.02,3.964,0.12,
3.988,3.964,0.08,
4.02,3.94,0.12,
3.988,3.94,0.12,
4.02,3.972,0.04,
3.988,3.964,0.12,
4.02,3.932,0.04,
4.02,3.964,0.08,
3.988,3.94,0.12,
3.988,3.964,0.12,
4.02,3.932,0.04,
4.02,3.932,0.12,
3.988,3.964,0.04,
3.996,3.964,0.08,
4.02,3.94,0.12,
4.02,3.964,0.08,
3.988,3.94,0.12,
3.988,3.964,0.12,
4.02,3.94,0.04,
4.02,3.94,0.12,
3.996,3.964,0.04,
3.988,3.964,0.08,
4.02,3.94,0.12,
3.996,3.948,0.08,
4.012,3.972,0.12,
3.988,3.932,0.04,
4.02,3.972,0.12,
3.996,3.932,0.08,
4.02,3.964,0.12,
3.988,3.964,0.08,
4.02,3.932,0.12,
4.02,3.964,0.08,
3.988,3.94,0.12,
3.988,3.964,0.08,
4.02,3.94,0.12,
4.02,3.932,0.12,
3.988,3.972,0.04,
3.988,3.94,0.12,
4.02,3.972,0.04,
4.02,3.972,0.12,
3.988,3.932,0.04,
4.02,3.972,0.12,
3.996,3.94,0.04,
3.988,3.932,0.12,
4.02,3.972,0.04,
4.02,3.932,0.12,
3.98,3.972,0.08,
4.02,3.964,0.12,
3.988,3.94,0.04,
3.988,3.964,0.08,
4.02,3.932,0.12,
3.988,4.02,0.12,
4.02,3.684,0.04,
4.02,3.708,0.08,
3.988,3.972,0.12,
3.988,3.932,0.12,
4.02,4.02,0.08,
4.044,4.02,0.08,
3.852,3.628,0.12,
3.876,3.972,0.12,
4.028,3.932,0.04,
3.988,3.964,0.12,
4.052,3.932,0.04,
4.052,3.964,0.12,
3.828,3.94,0.04,
4.02,3.964,0.12,
3.988,3.908,0.04,
3.988,3.876,0.08,
4.02,3.98,0.12,
3.988,3.964,0.12,
4.02,4.044,0.04,
4.02,4.02,0.12,
3.98,3.988,0.04,
4.02,3.988,0.12,
3.956,4.012,0.04,
4.02,4.004,0.12,
4.06,3.988,0.04,
4.036,3.988,0.08,
4.012,4.004,0.12,
4.028,4.004,0.08,
4.012,3.988,0.12,
4.028,3.98,0.12,
4.012,4.012,0.08,
4.012,4.004,0.12,
4.028,3.988,0.04,
4.012,4.004,0.08,
4.028,3.988,0.12,
4.012,4.004,0.12,
4.028,3.988,-3.12,
4.028,3.988,-3.04,
4.004,4.004,-3.08,
4.012,3.98,-3.04,
4.028,4.004,-3.12,
4.028,4.004,-3.04,
4.012,3.988,-3.08,
4.012,4.004,-3.04,
4.028,3.98,-3.08,
4.004,4.004,-3.04,
4.028,3.988,-3.12,
4.012,4.004,-3.04,
4.028,3.988,-3.12,
4.012,4.004,-3.04,
4.028,3.98,-3.12,
4.028,4.004,-3.04,
4.012,3.98,-3.08,
4.028,3.98,-3.04,
4.004,4.004,-3.12,
4.012,4.02,-3.08,
4.028,3.98,-3.04,
4.028,3.988,-3.04,
4.004,4.004,-3.08,
4.004,4.004,-3.04,
4.028,3.98,-3.12,
4.028,4.02,-3.04,
4.004,3.98,-3.12,
3.996,3.988,-3.04,
4.028,4.004,-3.08,
4.028,4.004,-3.04,
4.004,3.988,-3.12,
4.028,4.004,-3.04,
4.004,3.988,-3.12,
4.012,3.988,-3.04,
4.028,4.004,-3.12,
4.012,3.988,-3.04,
4.028,4.004,-3.12,
4.012,4.004,-3.04,
4.028,3.988,-3.12,
4.012,4.004,-3.08,
4.028,3.988,-3.04,
4.012,3.988,-3.04,
4.028,4.004,-3.12,
4.012,4.004,-3.04,
4.028,3.988,-3.12,
4.028,3.988,-3.04,
4.012,4.02,-3.12,
4.012,3.988,-3.04,
4.028,4.004,-3.12,
4.028,4.004,-3.04,
4.012,3.98,-3.12,
4.012,4.004,-3.04,
4.028,3.98,-3.12,
4.012,3.988,-3.04,
4.028,4.004,-3.12,
4.028,4.004,-3.04,
4.012,3.988,-3.12,
4.028,3.988,-3.04,
4.004,4.004,-3.08,
4.012,4.004,-3.04,
4.028,3.98,-3.12,
4.028,3.988,-3.04,
4.012,4.004,-3.12,
4.012,4.004,-3.04,
4.028,3.98,-3.12,
4.028,3.988,-3.08,
4.004,4.004,-3.04,
4.028,4.004,-3.04,
3.996,3.98,-3.12,
4.028,4.004,-3.04,
3.988,3.98,-3.12,
4.012,4.012,-3.04,
4.028,3.988,-3.12,
4.012,4.004,-3.04,
4.028,3.98,-3.12,
4.028,3.988,-3.04,
3.996,4.004,-3.12,
4.044,4.004,-3.04,
4.012,3.98,-3.12,
4.004,3.988,-3.04,
4.028,4.02,-3.12,
4.012,3.988,-3.04,
4.028,4.004,-3.12,
4.028,3.988,-3.04,
4.004,4.004,-3.12,
4.012,4.004,-3.04,
4.028,3.988,-3.12,
4.012,4.004,-3.12,
4.028,3.98,-3.04,
4.004,4.004,-3.04,
4.028,3.988,-3.12,
4.028,4.004,-3.08,
3.996,3.988,-3.04,
4.028,4.004,-3.04,
3.996,3.988,-3.12,
4.028,4.004,-3.04,
3.996,3.988,-3.12,
4.012,3.988,-3.08,
4.028,4.004,-3.04,
4.012,4.004,-3.04,
4.028,3.988,-3.12,
4.028,4.004,-3.08,
4.012,3.98,-3.04,
4.012,3.988,-3.04,
4.028,4.004,-3.12,
4.012,3.988,-3.04,
4.028,4.004,-3.12,
4.028,3.988,-3.04,
3.996,4.004,-3.12,
4.012,4.004,-3.04,
4.028,3.98,-3.12,
4.012,3.988,-3.04,
4.028,4.02,-3.12,
4.028,4.004,-3.04,
4.004,3.98,-3.12,
4.012,4.004,-3.04,
4.028,3.988,-3.12,
4.028,3.988,-3.04,
4.012,4.004,-3.08,
4.004,4.02,-3.04,
4.028,3.988,-3.12,
4.028,3.988,-3.04,
4.004,4.004,-3.12,
4.028,3.988,-3.04,
4.004,4.004,-3.08,
4.012,4.004,-3.04,
4.028,3.98,-3.08,
4.012,3.988,-3.04,
4.028,4.004,-3.12,
4.012,3.988,-3.04,
4.028,4.012,-3.12,
4.028,4.004,-3.04,
4.004,3.98,-3.08,
4.012,4.004,-3.04,
4.028,3.964,-3.12,
4.012,4.004,-3.04,
4.028,3.988,-3.12,
4.028,3.988,-3.04,
3.996,4.004,-3.12,
4.028,4.004,-3.04,
3.996,3.988,-3.12,
4.012,4.004,-3.04,
4.028,3.956,-3.12,
4.012,3.988,-3.04,
4.028,4.012,-3.12,
4.012,4.004,-3.04,
4.028,3.98,-3.08,
4.028,4.004,-3.04,
3.988,3.98,-3.12,
4.012,4.004,-3.04,
4.028,3.98,-3.12,
4.028,3.988,-3.04,
4.004,4.004,-3.12,
4.028,3.988,-3.04,
3.996,4.02,-3.08,
4.028,4.02,-3.04,
4.004,3.988,-3.12,
4.028,4.004,-3.04,
4.004,3.98,-3.12,
4.036,4.004,-3.12,
4.004,3.988,-3.04,
4.012,4.004,-3.04,
4.028,3.988,-3.12,
4.028,3.988,-3.04,
4.004,4.004,-3.12,
4.012,4.004,-3.04,
4.028,3.988,-3.12,
4.028,3.98,-3.04,
4.012,4.012,-3.08,
4.012,4.004,-3.04,
4.028,3.988,-3.12,
4.012,4.004,-3.04,
4.028,3.98,-3.12,
4.004,4.004,-3.04,
4.028,3.98,-3.12,
4.012,3.98,-3.04,
4.028,4.02,-3.12,
4.028,4.004,-3.04,
4.004,3.98,-3.12,
4.028,3.988,-3.04,
3.996,4.004,-3.12,
4.028,3.988,-3.08,
3.996,4.004,-3.04,
4.028,3.988,-3.04,
3.996,4.004,-3.12,
4.028,4.004,-3.04,
4.004,3.98,-3.12,
4.028,4.004,-3.04,
3.996,3.988,-3.08,
4.012,4.004,-3.04,
4.028,3.988,-3.12,
4.004,4.004,-3.12,
4.028,3.988,-3.04,
4.028,4.004,-3.04,
4.004,3.964,-3.12,
4.012,4.004,-3.04,
4.028,3.988,-3.12,
4.012,4.004,-3.04,
4.028,3.98,-3.12,
3.996,3.988,-3.04,
4.028,4.004,-3.12,
4.028,4.004,-3.04,
3.996,3.98,-3.12,
4.028,3.988,-3.04,
4.004,4.004,-3.12,
4.012,3.988,-3.12,
4.028,4.004,-3.04,
4.028,4.004,-3.04,
4.004,3.98,-3.12,
4.012,3.988,-3.04,
4.028,4.004,-3.12,
4.012,3.988,-3.08,
4.028,4.004,-3.04,
4.028,3.988,-3.04,
4.004,4.004,-3.12,
4.012,4.004,-3.04,
4.028,3.98,-3.12,
4.012,3.956,-3.08,
4.028,4.012,-3.04,
4.028,3.98,-3.04,
3.996,4.004,-3.12,
4.004,4.004,-3.04,
4.028,3.988,-3.08,
3.996,4.004,-3.04,
4.028,3.98,-3.12,
3.996,4.004,-3.04,
4.028,3.988,-3.12,
4.028,3.996,-3.04,
4.012,3.892,-3.12,
4.012,3.916,-3.04,
4.028,4.028,-3.12,
4.012,4.028,-3.04,
4.028,3.988,-3.12,
4.02,3.988,-3.04,
3.948,4.004,-3.12,
3.98,4.004,-3.04,
4.052,3.892,-3.12,
4.052,3.916,-3.04,
4.012,3.964,-3.12,
4.028,3.964,-3.04,
4.012,3.876,-3.12,
4.028,3.916,-3.04,
3.948,3.94,-3.12,
3.98,3.948,-3.04,
4.004,3.916,-3.12,
4.02,3.924,-3.04,
3.956,3.948,-3.12,
3.98,3.948,-3.04,
4.004,3.924,-3.08,
3.988,3.948,-3.04,
4.004,3.924,-3.12,
4.004,3.948,-3.12,
3.988,3.924,-3.04,
4.004,3.924,-3.04,
3.988,3.956,-3.12,
4.004,3.948,-3.04,
3.988,3.924,-3.12,
4.004,3.948,-3.04,
3.988,3.908,-3.12,
3.988,3.948,-3.04,
4.012,3.916,-3.12,
3.988,3.932,-3.04,
4.004,3.948,-3.12,
4.004,3.948,-3.04,
3.988,3.916,-3.12,
4.004,3.948,-3.04,
3.988,3.924,-3.12,
4.004,3.948,-3.04,
3.988,3.924,-3.12,
4.004,3.948,-3.04,
3.988,3.924,-3.12,
3.988,3.948,-3.04,
4.012,3.9,-3.08,
4.004,3.964,-3.04,
3.988,3.908,-3.12,
4.004,3.948,-3.08,
3.988,3.884,-3.04,
4.004,3.948,-3.04,
3.98,3.924,-3.12,
4.02,3.948,-3.04,
3.98,3.908,-3.12,
4.004,3.948,-3.04,
3.964,3.924,-3.08,
3.988,3.924,-3.04,
4.02,3.948,-3.08,
3.988,3.948,-3.04,
4.02,3.924,-3.08,
4.004,3.948,-3.04,
3.988,3.924,-3.12,
3.988,3.948,-3.04,
4.004,3.924,-3.12,
4.004,3.948,-3.04,
3.988,3.924,-3.12,
3.988,3.924,-3.04,
4.004,3.948,-3.12,
4.004,3.948,-3.04,
3.988,3.924,-3.12,
4.004,3.948,-3.04,
3.988,3.924,-3.12,
4.004,3.948,-3.08,
3.988,3.924,-3.04,
4.004,3.988,-3.12,
3.988,3.708,-3.04,
4.004,3.756,-3.04,
3.988,4.052,-3.12,
4.012,4.044,-3.04,
3.98,3.692,-3.12,
4.044,3.708,-3.04,
3.876,4.004,-3.08,
3.908,3.98,-3.04,
4.084,3.948,-3.12,
4.076,3.9,-3.04,
3.86,4.02,-3.12,
3.876,3.676,-3.04,
4.052,4.02,-3.12,
4.028,3.556,-3.04,
3.996,4.052,-3.12,
3.972,3.564,-3.04,
4.044,4.06,-3.12,
3.844,4.052,-3.04,
4.052,3.58,-3.08,
3.788,4.06,-3.12,
4.076,3.588,-3.04,
3.804,4.06,-3.04,
4.084,3.588,-3.12,
4.076,4.06,-3.12,
3.804,3.572,-3.04,
4.084,4.052,-3.04,
3.812,3.572,-3.08,
4.084,4.044,-3.04,
3.812,3.692,-3.12,
4.084,3.708,-3.04,
3.812,3.988,-3.12,
4.084,4.036,-3.04,
3.812,3.676,-3.12,
4.06,3.908,-3.04,
3.852,4.028,-3.12,
3.876,3.676,-3.04,
4.028,4.028,-3.08,
4.06,4.028,-3.04,
3.852,3.452,-3.12,
3.98,3.484,-3.04,
4.052,4.028,-3.12,
3.844,4.028,-3.04,
4.06,3.684,-3.12,
4.052,3.996,-3.08,
3.732,3.932,-3.04,
3.764,3.94,-3.04,
4.06,3.972,-3.12,
4.052,3.964,-3.04,
3.86,3.932,-3.08,
4.028,3.932,-3.04,
3.996,3.972,-3.12,
4.02,3.972,-3.04,
3.988,3.94,-3.12,
3.996,3.94,-3.04,
4.02,3.972,-3.12,
4.02,3.972,-3.04,
3.988,3.94,-3.12,
4.02,3.972,-3.04,
3.988,3.94,-3.12,
3.996,3.972,-3.04,
4.02,3.932,-3.12,
4.02,3.94,-3.04,
3.996,3.972,-3.12,
4.02,3.932,-3.04,
3.996,3.964,-3.12,
3.988,3.972,-3.04,
4.02,3.932,-3.08,
4.02,3.964,-3.04,
3.988,3.932,-3.12,
3.988,3.964,-3.04,
4.02,3.932,-3.12,
3.988,3.964,-3.04,
4.02,3.932,-3.12,
4.02,3.948,-3.04,
3.988,3.972,-3.12,
4.02,3.94,-3.04,
3.988,3.972,-3.12,
4.02,3.948,-3.04,
3.988,3.972,-3.12,
4.02,3.972,-3.04,
3.988,3.94,-3.12,
4.02,3.948,-3.04,
3.988,3.972,-3.12,
4.02,3.972,-3.08,
3.996,3.932,-3.04,
3.996,3.948,-3.04,
4.02,3.972,-3.12,
3.996,3.964,-3.04,
4.02,3.924,-3.12,
4.02,3.964,-3.04,
3.988,3.924,-3.12,
3.996,3.932,-3.08,
4.02,3.964,-3.04,
4.02,3.964,-3.04,
3.988,3.94,-3.12,
3.988,3.964,-3.04,
4.02,3.932,-3.12,
3.988,3.948,-3.04,
4.02,3.964,-3.08,
3.988,3.964,-3.04,
4.02,3.932,-3.12,
4.02,3.94,-3.04,
3.988,3.972,-3.12,
4.02,3.972,-3.04,
3.996,3.924,-3.12,
4.02,3.964,-3.04,
3.988,3.932,-3.12,
3.988,3.932,-3.04,
4.02,3.972,-3.12,
4.02,3.932,-3.04,
3.988,3.972,-3.12,
3.988,3.964,-3.04,
4.02,3.94,-3.12,
3.988,3.94,-3.04,
4.02,3.972,-3.12,
3.988,3.972,-3.08,
4.02,3.932,-3.04,
3.988,3.94,-3.04,
4.02,3.972,-3.08,
3.996,3.972,-3.04,
4.02,3.932,-3.12,
4.02,3.94,-3.04,
3.988,3.972,-3.12,
3.988,3.972,-3.04,
4.02,3.932,-3.12,
4.02,3.964,-3.08,
3.988,3.94,-3.04,
3.996,3.964,-3.12,
4.02,3.932,-3.04,
3.988,3.964,-3.04,
4.02,3.94,-3.12,
3.988,3.964,-3.04,
4.02,3.932,-3.12,
3.988,3.94,-3.04,
4.02,3.964,-3.08,
3.988,3.972,-3.04,
4.02,3.932,-3.08,
4.02,3.94,-3.04,
3.988,3.972,-3.12,
3.996,3.972,-3.04,
4.02,3.932,-3.12,
4.02,3.94,-3.04,
3.988,3.972,-3.08,
4.02,3.972,-3.04,
3.988,3.94,-3.08,
4.02,3.948,-3.04,
3.988,3.972,-3.12,
3.996,3.972,-3.04,
4.02,3.94,-3.12,
3.988,3.972,-3.04,
4.02,3.932,-3.12,
3.988,3.964,-3.04,
4.02,3.932,-3.12,
4.02,3.932,-3.04,
3.988,3.964,-3.12,
4.02,3.964,-3.04,
3.988,3.932,-3.08,
3.988,3.964,-3.04,
4.02,3.94,-3.12,
3.988,3.964,-3.04,
4.02,3.932,-3.12,
3.988,3.94,-3.04,
4.02,3.964,-3.08,
3.988,3.94,-3.04,
4.02,3.972,-3.12,
4.02,3.972,-3.04,
3.988,3.932,-3.08,
3.996,3.972,-3.04,
4.02,3.932,-3.12,
3.996,3.932,-3.04,
4.02,3.972,-3.12,
4.02,3.932,-3.04,
4.004,3.972,-3.12,
4.02,3.94,-3.04,
3.988,3.972,-3.12,
3.988,3.932,-3.04,
4.02,3.972,-3.12,
3.988,3.972,-3.04,
4.028,3.94,-3.12,
3.988,3.972,-3.04,
4.02,3.932,-3.12,
4.02,3.964,-3.04,
3.988,3.94,-3.12,
4.02,3.964,-3.04,
3.988,3.94,-3.12,
3.988,3.964,-3.04,
4.02,3.932,-3.12,
4.02,3.964,-3.04,
3.988,3.94,-3.12,
4.004,3.964,-3.04,
3.988,3.932,-3.12,
3.988,3.964,-3.04,
4.02,3.924,-3.08,
4.012,3.964,-3.08,
3.988,3.94,-3.04,
4.02,3.932,-3.12,
3.988,3.972,-3.04,
3.988,3.964,-3.08,
4.02,3.932,-3.04,
4.02,3.972,-3.04,
3.988,3.932,-3.12,
3.988,3.964,-3.04,
4.02,3.932,-3.12,
4.02,3.932,-3.04,
3.988,3.964,-3.12,
4.02,3.964,-3.12,
3.988,3.932,-3.04,
3.988,3.964,-3.04,
4.02,3.932,-3.12,
3.988,3.964,-3.04,
4.02,3.932,-3.12,
4.02,3.964,-3.04,
3.996,3.94,-3.12,
4.02,3.94,-3.08,
3.988,3.964,-3.04,
4.02,3.964,-3.04,
3.988,3.932,-3.08,
3.996,3.972,-3.04,
4.02,3.932,-3.12,
4.02,3.964,-3.04,
3.988,3.924,-3.08,
3.988,3.964,-3.04,
4.02,3.932,-3.08,
4.02,3.932,-3.04,
3.988,3.964,-3.12,
3.988,3.964,-3.04,
4.02,3.932,-3.12,
3.988,3.964,-3.04,
4.02,3.932,-3.08,
3.988,3.972,-3.04,
4.02,3.924,-3.08,
4.02,3.932,-3.04,
3.988,3.964,-3.12,
4.02,3.932,-3.04,
3.988,3.972,-3.08,
4.02,3.932,-3.04,
3.98,3.972,-3.12,
3.988,3.972,-3.04,
4.02,3.932,-3.12,
4.02,3.972,-3.08,
3.988,3.932,-3.04,
3.988,3.964,-3.04,
4.02,3.94,-3.12,
4.02,3.964,-3.04,
3.988,3.932,-3.12,
4.02,3.932,-3.12,
3.988,3.964,-3.04,
3.988,3.94,-3.04,
4.02,3.964,-3.12,
4.02,3.964,-3.04,
3.988,3.932,-3.12,
3.996,3.964,-3.04,
4.02,3.94,-3.08,
4.02,3.932,-3.04,
3.988,3.964,-3.12,
3.988,3.964,-3.04,
4.02,3.932,-3.08,
4.02,3.964,-3.04,
3.988,3.932,-3.12,
3.988,3.964,-3.04,
4.02,3.932,-3.12,
4.02,3.964,-3.04,
3.988,3.94,-3.08,
3.988,3.964,-3.04,
4.02,3.94,-3.12,
3.988,3.964,-3.12,
4.02,3.932,-3.04,
3.988,3.964,-3.08,
4.02,3.94,-3.04,
3.988,3.964,-3.04,
4.012,3.932,-3.12,
3.988,3.964,-3.04,
4.02,3.932,-3.08,
4.012,3.932,-3.04,
3.988,3.972,-3.12,
4.02,3.932,-3.04,
3.988,3.972,-3.12,
3.988,3.964,-3.04,
4.02,3.932,-3.12,
4.02,3.932,-3.08,
3.988,3.964,-3.04,
3.988,3.964,-3.04,
4.02,3.94,-3.12,
4.02,3.972,-3.04,
3.988,3.932,-3.12,
3.988,3.964,-3.04,
4.02,3.932,-3.08,
3.996,3.964,-3.04,
4.02,3.94,-3.12,
4.02,3.964,-3.04,
3.988,3.932,-3.08,
3.988,3.932,-3.08,
4.02,3.972,-3.04,
4.02,3.972,-3.04,
3.988,3.924,-3.08,
4.012,3.972,-3.08,
3.988,3.932,-3.04,
3.988,3.972,-3.04,
4.02,3.932,-3.08,
4.02,3.964,-3.08,
3.98,3.932,-3.04,
4.02,3.94,-3.04,
3.988,3.972,-3.12,
4.02,3.972,-3.04,
3.988,3.932,-3.12,
4.02,3.972,-3.04,
3.988,3.932,-3.12,
3.988,3.964,-3.04,
4.02,3.94,-3.12,
4.02,3.964,-3.04,
3.988,3.932,-3.12,
4.02,3.94,-3.04,
3.996,3.972,-3.12,
4.02,3.94,-3.04,
3.988,3.972,-3.08,
4.02,3.964,-3.04,
3.988,3.932,-3.08,
3.996,3.932,-3.04,
4.02,3.972,-3.12,
3.988,3.972,-3.04,
4.02,3.932,-3.12,
3.988,3.964,-3.04,
4.02,3.94,-3.12,
3.988,3.94,-3.08,
4.02,3.972,-3.04,
4.02,3.964,-3.08,
3.988,3.932,-3.04,
4.02,3.964,-3.04,
3.988,3.94,-3.08,
3.988,3.972,-3.04,
4.02,3.932,-3.12,
3.988,3.972,-3.04,
4.02,3.932,-3.12,
4.02,3.964,-3.04,
3.988,3.932,-3.12,
4.02,3.94,-3.08,
3.988,3.964,-3.04,
4.02,3.972,-3.04,
3.988,3.94,-3.12,
3.996,3.932,-3.04,
4.02,3.972,-3.08,
3.988,3.94,-3.04,
4.02,3.972,-3.12,
4.02,3.924,-3.12,
3.988,3.972,-3.04,
3.988,3.932,-3.08,
4.02,3.972,-3.04,
3.988,3.932,-3.04,
4.02,3.972,-3.12,
3.988,3.964,-3.04,
4.02,3.932,-3.12,
4.02,3.964,-3.04,
3.988,3.932,-3.12,
4.02,3.964,-3.04,
3.988,3.932,-3.12,
4.02,3.932,-3.08,
3.988,3.972,-3.04,
3.996,3.94,-3.04,
4.02,3.972,-3.08,
3.988,3.964,-3.04,
4.02,3.932,-3.12,
4.02,3.964,-3.04,
3.988,3.94,-3.12,
3.996,3.948,-3.04,
4.02,3.972,-3.12,
4.02,3.972,-3.04,
3.988,3.94,-3.12,
4.02,3.972,-3.04,
3.988,3.932,-3.12,
4.02,3.94,-3.04,
3.988,3.972,-3.12,
4.02,3.972,-3.08,
3.988,3.94,-3.04,
4.02,3.948,-3.04,
3.996,3.972,-3.08,
4.02,3.964,-3.04,
3.988,3.94,-3.08,
3.996,3.948,-3.04,
4.02,3.972,-3.12,
4.02,3.94,-3.04,
3.996,3.988,-3.12,
4.02,3.932,-3.04,
3.988,3.972,-3.12,
3.988,3.972,-3.04,
4.02,3.932,-3.12,
3.988,3.932,-3.04,
4.02,3.972,-3.12,
3.988,3.932,-3.04,
4.02,3.972,-3.08,
4.012,3.964,-3.04,
3.988,3.932,-3.12,
3.988,3.932,-3.04,
4.02,3.964,-3.12,
3.988,3.964,-3.04,
4.02,3.94,-3.12,
4.02,3.94,-3.04,
3.988,3.972,-3.12,
4.02,3.964,-3.08,
3.988,3.94,-3.04,
4.02,3.964,-3.04,
3.988,3.932,-3.12,
4.02,3.972,-3.04,
3.988,3.94,-3.12,
4.02,3.932,-3.04,
3.988,3.972,-3.08,
4.012,3.964,-3.04,
3.988,3.932,-3.12,
4.02,3.964,-3.04,
3.996,3.932,-3.12,
4.02,3.964,-3.04,
3.988,3.932,-3.08,
3.988,3.94,-3.04,
4.02,3.972,-3.12,
3.996,3.94,-3.04,
4.02,3.972,-3.12,
4.02,3.9,-3.04,
3.988,3.964,-3.12,
3.988,3.964,-3.04,
4.02,3.932,-3.08,
4.02,3.932,-3.04,
3.988,3.972,-3.12,
4.02,3.964,-3.04,
3.98,3.94,-3.12,
3.996,3.972,-3.12,
4.02,3.932,-3.04,
4.02,3.964,-3.04,
3.988,3.932,-3.08,
3.988,3.972,-3.04,
4.02,3.932,-3.12,
4.02,3.972,-3.04,
3.996,3.932,-3.12,
4.02,3.932,-3.04,
3.988,3.972,-3.12,
4.02,3.932,-3.04,
3.988,3.964,-3.12,
3.988,3.932,-3.04,
4.02,3.972,-3.12,
4.02,3.94,-3.04,
3.988,3.972,-3.12,
3.988,3.964,-3.12,
4.02,3.932,-3.04,
3.996,3.964,-3.04,
4.02,3.94,-3.12,
3.996,3.932,-3.04,
4.02,3.972,-3.12,
4.02,3.964,-3.04,
3.988,3.932,-3.12,
4.02,3.972,-3.04,
3.996,3.932,-3.12,
3.988,3.972,-3.04,
4.02,3.932,-3.12,
3.988,3.964,-3.04,
4.02,3.94,-3.08,
4.02,3.964,-3.08,
3.988,3.94,-3.04,
4.02,3.94,-3.04,
3.988,3.972,-3.08,
3.988,3.972,-3.12,
4.02,3.94,-3.04,
3.988,3.972,-3.04,
4.02,3.932,-3.12,
4.02,3.94,-3.04,
3.988,3.972,-3.12,
4.02,3.972,-3.12,
3.988,3.94,-3.04,
3.988,3.972,-3.04,
4.02,3.932,-3.12,
3.988,3.964,-3.04,
4.02,3.932,-3.12,
4.02,3.972,-3.04,
3.988,3.932,-3.12,
3.988,3.94,-3.04,
4.02,3.972,-3.12,
3.988,3.972,-3.08,
4.02,3.932,-3.04,
4.02,3.932,-3.04,
3.988,3.972,-3.12,
3.988,3.964,-3.04,
4.02,3.94,-3.12,
4.02,3.932,-3.04,
3.988,3.972,-3.12,
3.996,3.94,-3.04,
4.02,3.972,-3.12,
4.02,3.964,-3.08,
3.988,3.932,-3.04,
4.02,3.94,-3.04,
3.988,3.972,-3.12,
4.02,3.972,-3.08,
3.988,3.932,-3.04,
3.996,3.964,-3.04,
4.02,3.932,-3.12,
3.988,3.972,-3.04,
4.02,3.924,-3.12,
4.02,3.924,-3.04,
3.988,3.972,-3.12,
3.988,3.932,-3.04,
4.02,3.972,-3.12,
3.988,3.972,-3.04,
4.02,3.932,-3.08,
3.988,3.932,-3.04,
4.02,3.972,-3.12,
3.988,3.94,-3.04,
4.02,3.972,-3.08,
3.988,3.964,-3.04,
4.02,3.932,-3.12,
4.02,3.964,-3.12,
3.988,3.932,-3.04,
3.988,3.964,-3.04,
4.02,3.94,-3.12,
4.02,3.964,-3.08,
3.988,3.932,-3.04,
4.02,3.94,-3.04,
3.988,3.972,-3.12,
4.02,3.972,-3.04,
3.988,3.94,-3.12,
4.02,3.964,-3.04,
3.988,3.94,-3.12,
4.02,3.94,-3.04,
3.988,3.972,-3.12,
4.02,3.964,-3.04,
3.988,3.932,-3.12,
4.02,3.94,-3.04,
3.988,3.972,-3.12,
4.02,3.94,-3.04,
3.988,3.972,-3.12,
4.02,3.932,-3.04,
3.988,3.972,-3.12,
3.988,3.964,-3.04,
4.02,3.932,-3.12,
3.988,3.964,-3.04,
4.02,3.932,-3.12,
3.988,3.932,-3.04,
4.02,3.972,-3.08,
4.02,3.964,-3.04,
3.988,3.932,-3.08,
4.02,3.964,-3.08,
3.988,3.932,-3.04,
4.02,3.964,-3.04,
3.988,3.932,-3.08,
3.996,3.964,-3.04,
4.02,3.94,-3.12,
4.02,3.94,-3.04,
3.988,3.972,-3.12,
4.02,3.932,-3.04,
3.988,3.964,-3.12,
3.988,3.94,-3.04,
4.02,3.972,-3.12,
4.02,3.94,-3.04,
3.996,3.964,-3.12,
3.988,3.964,-3.04,
4.02,3.932,-3.08,
4.02,3.932,-3.04,
3.988,3.972,-3.08,
4.02,3.932,-3.12,
