Measurements/Power Payload/Metingen 7/Payload 0 1420.csv

CH1,CH2,CH3,Start,Increment,
Volt,Volt,Volt,-5.995,0.01
4.02,3.972,0,
4.004,3.94,0.12,
4.028,3.972,0.12,
3.996,3.948,0.04,
3.996,3.972,0,
4.028,3.948,0.12,
4.028,3.972,0,
3.996,3.94,0.12,
4.02,3.972,0.04,
4.004,3.94,0.12,
4.028,3.972,0.12,
3.996,3.948,0,
3.996,3.94,0.12,
4.02,3.98,0,
3.996,3.948,0.12,
4.028,3.972,0,
3.996,3.972,0.12,
4.028,3.932,0,
4.004,3.948,0.04,
4.044,3.98,0.12,
4.02,3.98,0,
3.996,3.956,0.12,
4.028,3.948,0.12,
3.996,3.98,0,
4.028,3.948,0.12,
4.004,3.98,0,
4.028,3.972,0.12,
4.004,3.94,0,
4.02,3.972,0.12,
3.996,3.924,0,
4.028,3.98,0.12,
3.996,3.948,0.04,
4.02,3.956,0.12,
3.996,3.98,0.04,
4.028,3.972,0,
3.988,3.948,0.12,
4.028,3.948,0.04,
3.996,3.98,0.12,
4.028,3.972,0.04,
4.004,3.948,0.12,
4.004,3.972,0.12,
4.028,3.94,0,
4.004,3.972,0,
4.028,3.948,0.12,
4.02,3.972,0.12,
3.996,3.956,0,
4.02,3.972,0.12,
3.996,3.94,0.04,
4.02,3.972,0.12,
3.996,3.94,0,
4.02,3.972,0.12,
4.004,3.948,0,
4.02,3.972,0.04,
3.996,3.948,0.12,
4.004,3.972,0.12,
4.028,3.956,0,
4.028,3.972,0.12,
3.996,3.94,0,
4.02,3.972,0.12,
4.004,3.948,0,
4.02,3.972,0.12,
3.996,3.948,0,
4.004,3.972,0.12,
4.028,3.948,0,
3.996,3.972,0,
4.028,3.948,0.12,
4.028,3.972,0.12,
3.996,3.94,0,
3.996,3.972,0.12,
4.028,3.94,0,
4.028,3.972,0.12,
3.996,3.94,0,
4.028,3.948,0.12,
3.996,3.972,0,
4.004,3.972,0.12,
4.028,3.948,0,
4.028,3.972,0,
3.996,3.94,0.12,
4.004,3.956,0.12,
4.028,3.972,0.04,
4.004,3.972,0,
4.028,3.932,0.12,
4.028,3.972,0,
4.004,3.94,0.12,
4.004,3.972,0,
4.028,3.956,0.12,
4.004,3.98,0.12,
4.028,3.932,0,
4.02,3.972,0.12,
3.996,3.94,0,
4.028,3.972,0.12,
4.004,3.948,0,
4.028,3.948,0.04,
3.988,3.98,0.12,
4.028,3.98,0.12,
3.996,3.94,0,
4.028,3.98,0.12,
3.996,3.932,0,
3.996,3.972,0.12,
4.028,3.948,0,
4.028,3.972,0,
3.996,3.948,0.12,
3.996,3.972,0.12,
4.028,3.94,0,
4.028,3.972,0.12,
3.996,3.948,0,
4.004,3.98,0.04,
4.028,3.94,0.12,
4.004,3.972,0,
4.028,3.956,0.12,
3.996,3.972,0.12,
4.028,3.948,0,
4.004,3.972,0,
4.028,3.948,0.12,
4.02,3.972,0.12,
3.996,3.94,0,
4.02,3.972,0,
3.996,3.948,0.12,
4.02,3.972,0.04,
4.004,3.94,0.12,
4.028,3.972,0.12,
3.996,3.94,0,
4.02,3.972,0.04,
3.996,3.94,0.12,
4.004,3.956,0,
4.028,3.972,0.12,
3.996,3.972,0.04,
4.028,3.932,0.12,
3.996,3.98,0.12,
4.028,3.948,0,
4.028,3.972,0.12,
3.996,3.94,0,
4.02,3.972,0.12,
3.988,3.948,0,
4.028,3.972,0,
3.996,3.948,0.12,
4.028,3.972,0.12,
4.004,3.948,0,
4.004,3.956,0,
4.02,3.972,0.12,
3.996,3.972,0.12,
4.028,3.948,0,
3.996,3.948,0.12,
4.028,3.972,0,
4.028,3.98,0.12,
4.004,3.948,0.04,
4.028,3.972,0,
4.004,3.94,0.12,
4.028,3.956,0.12,
3.996,3.972,0.04,
4.004,3.972,0,
4.028,3.948,0.12,
4.02,3.972,0.12,
3.996,3.94,0,
4.02,3.972,0,
3.996,3.956,0.12,
3.996,3.972,0.12,
4.028,3.948,0,
4.004,3.972,0.12,
4.02,3.956,0,
3.996,3.972,0.12,
4.028,3.948,0,
4.028,3.972,0.04,
4.004,3.94,0.12,
3.996,3.972,0.12,
4.028,3.948,0,
4.028,3.948,0.12,
3.996,3.972,0,
4.028,3.972,0.04,
4.004,3.948,0.12,
3.996,3.988,0.12,
4.028,3.94,0,
3.996,3.972,0.04,
4.028,3.94,0.12,
4.028,3.972,0.04,
3.996,3.948,0.12,
4.028,3.972,0.12,
3.996,3.94,0,
4.028,3.972,0,
3.996,3.948,0.12,
3.996,3.956,0,
4.028,3.972,0.12,
4.028,3.972,0.12,
3.996,3.948,0,
4.028,3.98,0.12,
3.996,3.948,0,
4.02,3.972,0.12,
3.996,3.948,0,
3.996,3.972,0.04,
4.028,3.948,0.12,
4.028,3.972,0.12,
4.004,3.948,0,
4.028,3.932,0,
3.996,3.972,0.12,
4.028,3.972,0.12,
4.004,3.948,0,
3.996,3.94,0.12,
4.02,3.996,0,
4.028,3.972,0.12,
3.996,3.948,0,
4.028,3.972,0.04,
4.004,3.948,0.12,
3.996,3.972,0.12,
4.028,3.948,0.04,
3.996,3.972,0.12,
4.028,3.948,0,
4.02,3.972,0.12,
3.996,3.94,0,
4.02,3.972,0.04,
4.004,3.948,0.12,
4.02,3.972,0.12,
3.996,3.948,0,
4.02,3.972,0.12,
3.996,3.94,-3.12,
4.004,3.948,-3.12,
4.028,3.98,-3.04,
4.028,3.972,-3.12,
3.996,3.924,-3.08,
4.02,3.956,-3.08,
3.996,3.972,-3.12,
4.004,3.98,-3.12,
4.028,3.948,-3.04,
4.02,3.972,-3.12,
3.988,3.94,-3.04,
3.996,3.98,-3.12,
4.028,3.956,-3.04,
4.028,3.972,-3.12,
3.996,3.948,-3.08,
4.02,3.972,-3.12,
3.996,3.956,-3.04,
4.028,3.956,-3.12,
3.996,3.98,-3.04,
4.02,3.98,-3.12,
4.004,3.94,-3.04,
4.02,3.98,-3.04,
3.996,3.932,-3.12,
4.028,3.98,-3.12,
3.996,3.948,-3.08,
4.028,3.988,-3.08,
3.996,3.94,-3.12,
4.028,3.932,-3.12,
3.996,3.988,-3.04,
4.028,3.94,-3.12,
3.996,3.972,-3.04,
4.028,3.972,-3.12,
3.996,3.948,-3.04,
3.996,3.972,-3.08,
4.028,3.948,-3.12,
4.02,3.948,-3.12,
3.996,3.972,-3.08,
4.02,3.972,-3.12,
3.996,3.94,-3.08,
3.996,3.972,-3.08,
4.02,3.94,-3.12,
4.02,3.972,-3.08,
3.996,3.948,-3.12,
4.028,3.948,-3.12,
4.004,3.972,-3.08,
4.02,3.972,-3.12,
3.996,3.948,-3.08,
4.004,3.972,-3.12,
4.02,3.956,-3.04,
4.02,3.948,-3.12,
3.996,3.972,-3.08,
4.028,3.972,-3.12,
3.996,3.94,-3.04,
4.028,3.972,-3.08,
3.996,3.94,-3.12,
3.996,3.972,-3.12,
4.028,3.948,-3.04,
3.996,3.956,-3.12,
4.028,3.972,-3.04,
4.028,3.972,-3.12,
3.996,3.94,-3.08,
4.028,3.972,-3.12,
3.996,3.948,-3.04,
4.02,3.972,-3.12,
3.996,3.948,-3.04,
3.996,3.98,-3.12,
4.02,3.94,-3.04,
4.028,3.972,-3.08,
4.004,3.94,-3.12,
4.028,3.972,-3.12,
3.996,3.94,-3.04,
4.02,3.972,-3.12,
3.996,3.94,-3.04,
4.02,3.948,-3.12,
3.996,3.972,-3.04,
3.996,3.94,-3.12,
4.028,3.98,-3.04,
4.02,3.972,-3.12,
3.996,3.948,-3.04,
4.02,3.972,-3.12,
3.996,3.94,-3.04,
4.02,3.972,-3.12,
3.996,3.948,-3.04,
4.028,3.972,-3.12,
4.004,3.948,-3.04,
4.028,3.948,-3.12,
3.996,3.98,-3.04,
4.02,3.988,-3.12,
3.988,3.948,-3.04,
4.02,3.972,-3.12,
4.004,3.94,-3.04,
3.996,3.972,-3.12,
4.028,3.948,-3.04,
4.028,3.972,-3.12,
3.996,3.948,-3.04,
4.028,3.948,-3.12,
3.996,3.988,-3.08,
4.004,3.948,-3.12,
4.028,3.972,-3.04,
3.988,3.94,-3.08,
4.028,3.972,-3.12,
3.996,3.972,-3.12,
4.028,3.94,-3.08,
4.02,3.972,-3.08,
3.988,3.932,-3.12,
4.02,3.972,-3.12,
3.996,3.948,-3.08,
4.02,3.972,-3.12,
3.996,3.94,-3.08,
4.02,3.972,-3.12,
3.996,3.948,-3.04,
4.004,3.948,-3.12,
4.028,3.98,-3.04,
3.996,3.972,-3.12,
4.028,3.94,-3.04,
4.02,3.972,-3.12,
3.996,3.948,-3.04,
4.02,3.972,-3.12,
3.996,3.948,-3.04,
4.02,3.972,-3.12,
3.988,3.94,-3.04,
4.004,3.972,-3.12,
4.028,3.94,-3.08,
4.028,3.972,-3.12,
4.004,3.94,-3.04,
4.02,3.972,-3.12,
3.996,3.94,-3.04,
3.996,3.956,-3.12,
4.028,3.972,-3.04,
4.02,3.972,-3.08,
3.996,3.94,-3.12,
3.996,3.972,-3.12,
4.02,3.948,-3.04,
3.996,3.972,-3.12,
4.028,3.924,-3.04,
4.004,3.916,-3.12,
4.02,3.98,-3.04,
4.02,3.972,-3.08,
3.996,3.948,-3.12,
4.02,3.972,-3.12,
3.988,3.94,-3.04,
3.98,3.972,-3.12,
4.028,3.924,-3.04,
3.996,3.94,-3.12,
4.028,3.98,-3.08,
4.028,3.972,-3.08,
3.996,3.94,-3.12,
4.028,3.98,-3.12,
3.988,3.948,-3.04,
3.996,3.972,-3.12,
4.028,3.932,-3.04,
4.028,3.972,-3.12,
3.996,3.948,-3.04,
3.996,3.972,-3.12,
4.028,3.932,-3.04,
4.02,3.956,-3.12,
3.996,3.988,-3.04,
4.02,3.972,-3.12,
3.996,3.948,-3.08,
4.02,3.972,-3.12,
3.996,3.94,-3.04,
4.028,3.972,-3.12,
3.996,3.948,-3.04,
4.028,3.98,-3.12,
3.996,3.932,-3.04,
4.028,3.98,-3.12,
3.996,3.948,-3.08,
4.028,3.972,-3.12,
3.996,3.932,-3.04,
4.028,3.932,-3.12,
3.996,3.988,-3.04,
4.028,3.94,-3.12,
4.004,3.98,-3.08,
4.028,3.972,-3.12,
4.004,3.94,-3.04,
3.996,3.972,-3.12,
4.028,3.948,-3.04,
3.996,3.972,-3.04,
4.028,3.948,-3.12,
4.028,3.972,-3.12,
3.996,3.948,-3.08,
4.028,3.972,-3.12,
3.996,3.94,-3.04,
4.02,3.972,-3.12,
3.996,3.948,-3.04,
4.004,3.948,-3.12,
4.02,3.972,-3.04,
4.02,3.948,-3.12,
3.996,3.972,-3.04,
3.996,3.972,-3.12,
4.02,3.94,-3.04,
4.02,3.972,-3.12,
3.996,3.948,-3.04,
4.004,3.972,-3.12,
4.02,3.932,-3.04,
4.02,3.972,-3.08,
3.996,3.94,-3.12,
4.02,3.948,-3.12,
3.996,3.972,-3.04,
3.996,3.972,-3.12,
4.02,3.932,-3.04,
4.028,3.972,-3.12,
3.996,3.94,-3.04,
4.02,3.972,-3.12,
3.996,3.94,-3.08,
4.02,3.972,-3.12,
3.996,3.948,-3.08,
4.02,3.956,-3.12,
3.996,3.988,-3.04,
4.02,3.94,-3.12,
3.996,3.98,-3.04,
3.996,3.956,-3.12,
4.028,3.972,-3.04,
4.028,3.948,-3.08,
4.004,3.972,-3.12,
3.996,3.98,-3.12,
4.028,3.948,-3.04,
4.004,3.972,-3.12,
4.028,3.948,-3.08,
4.02,3.948,-3.12,
3.988,3.972,-3.04,
4.028,3.98,-3.08,
3.996,3.948,-3.12,
3.996,3.948,-3.12,
4.028,3.98,-3.04,
3.996,3.972,-3.12,
4.028,3.94,-3.04,
4.028,3.94,-3.08,
3.996,3.972,-3.12,
3.996,3.972,-3.12,
4.028,3.932,-3.04,
4.028,3.94,-3.12,
3.988,3.988,-3.04,
4.02,3.972,-3.12,
3.996,3.932,-3.04,
4.02,3.932,-3.12,
3.988,3.972,-3.04,
3.996,3.972,-3.12,
4.028,3.94,-3.08,
4.02,3.972,-3.08,
3.988,3.932,-3.12,
3.988,3.972,-3.12,
4.028,3.94,-3.04,
4.02,3.972,-3.08,
3.996,3.94,-3.12,
4.02,3.972,-3.08,
3.988,3.94,-3.12,
4.004,3.972,-3.08,
4.028,3.948,-3.12,
3.996,3.94,-3.12,
4.028,3.972,-3.04,
4.02,3.956,-3.12,
3.996,3.98,-3.04,
4.02,3.972,-3.12,
3.996,3.932,-3.04,
4.02,3.956,-3.12,
3.988,3.972,-3.04,
4.004,3.972,-3.12,
4.028,3.94,-3.04,
4.02,3.972,-3.12,
3.988,3.932,-3.04,
4.02,3.972,-3.12,
3.996,3.948,-3.08,
4.02,3.972,-3.08,
3.996,3.932,-3.12,
4.02,3.972,-3.12,
3.996,3.948,-3.08,
4.02,3.948,-3.08,
3.996,3.972,-3.12,
4.02,3.972,-3.08,
3.996,3.932,-3.12,
3.996,3.972,-3.12,
4.02,3.94,-3.04,
3.996,3.98,-3.12,
4.02,3.932,-3.04,
4.02,3.948,-3.12,
3.996,3.972,-3.04,
4.02,3.972,-3.12,
4.004,3.94,-3.04,
4.028,3.972,-3.12,
3.988,3.932,-3.04,
4.02,3.972,-3.12,
3.996,3.94,-3.04,
4.02,3.972,-3.12,
3.996,3.932,-3.04,
4.02,3.972,-3.12,
3.996,3.948,-3.08,
4.02,3.972,-3.12,
3.996,3.948,-3.08,
4.02,3.972,-3.12,
3.996,3.932,-3.04,
4.028,3.972,-3.08,
3.996,3.94,-3.12,
4.02,3.972,-3.08,
3.996,3.94,-3.12,
3.996,3.972,-3.08,
4.028,3.94,-3.12,
3.996,3.972,-3.12,
4.02,3.94,-3.04,
4.028,3.972,-3.08,
3.988,3.94,-3.12,
3.996,3.98,-3.08,
4.02,3.932,-3.12,
3.996,3.98,-3.12,
4.028,3.94,-3.04,
4.02,3.972,-3.08,
3.996,3.94,-3.12,
4.028,3.948,-3.12,
3.996,3.972,-3.08,
4.028,3.972,-3.12,
3.996,3.948,-3.08,
4.028,3.972,-3.04,
3.996,3.94,-3.12,
3.996,3.972,-3.12,
4.028,3.932,-3.08,
3.996,3.972,-3.12,
4.028,3.908,-3.04,
4.028,3.972,-3.04,
3.996,3.916,-3.12,
3.996,3.908,-3.12,
4.028,3.972,-3.04,
4.02,3.972,-3.12,
3.988,3.924,-3.04,
4.028,3.972,-3.12,
3.988,3.948,-3.08,
3.98,3.972,-3.12,
4.028,3.94,-3.04,
3.988,3.948,-3.08,
4.028,3.988,-3.12,
4.028,3.94,-3.04,
3.996,3.972,-3.12,
4.028,3.972,-3.12,
3.996,3.94,-3.04,
4.028,3.972,-3.12,
4.004,3.94,-3.08,
3.996,3.98,-3.08,
4.02,3.94,-3.12,
4.028,3.972,-3.08,
3.996,3.948,-3.12,
4.028,3.972,-3.12,
3.996,3.948,-3.04,
4.02,3.972,-3.12,
3.996,3.94,-3.04,
4.028,3.972,-3.08,
3.996,3.932,-3.12,
3.996,3.972,-3.12,
4.028,3.948,-3.04,
4.028,3.972,-3.12,
4.004,3.94,-3.04,
4.02,3.972,-3.08,
4.004,3.932,-3.12,
3.996,3.972,-3.12,
4.028,3.932,-3.04,
4.004,3.972,-3.12,
4.028,3.94,-3.04,
3.996,3.972,-3.04,
4.028,3.908,-3.12,
4.028,3.988,-3.12,
3.988,3.94,-3.08,
4.028,3.948,-3.12,
3.996,4.028,-3.08,
3.98,4.028,-3.12,
4.028,3.7,-3.04,
4.028,3.74,-3.12,
3.996,4.052,-3.04,
3.996,4.052,-3.12,
4.052,3.676,-3.08,
4.052,4.052,-3.12,
3.852,3.564,-3.04,
3.916,4.06,-3.08,
4.084,3.572,-3.12,
4.076,4.06,-3.08,
3.852,3.484,-3.12,
4.084,4.052,-3.08,
3.796,3.572,-3.12,
4.092,4.028,-3.12,
3.812,3.956,-3.08,
4.084,3.564,-3.08,
3.756,4.052,-3.12,
4.084,4.06,-3.12,
3.796,3.556,-3.04,
4.084,4.068,-3.12,
4.02,3.588,-3.04,
3.788,3.932,-3.12,
4.084,4.028,-3.04,
4.1,3.564,-3.08,
3.796,4.044,-3.12,
4.1,4.06,-3.12,
3.812,3.572,-3.04,
4.06,4.076,-3.12,
4.004,3.564,-3.04,
4.076,3.94,-3.12,
3.788,4.028,-3.08,
3.812,3.476,-3.12,
4.092,4.052,-3.04,
4.1,4.052,-3.12,
3.812,3.476,-3.04,
4.06,3.948,-3.12,
4.004,4.044,-3.04,
4.076,4.004,-3.12,
3.748,3.676,-3.04,
4.084,3.972,-3.12,
3.74,3.948,-3.04,
4.004,3.972,-3.12,
4.076,3.948,-3.04,
4.052,3.948,-3.08,
3.852,3.98,-3.12,
4.028,3.956,-3.12,
3.996,3.988,-3.08,
4.028,3.932,-3.12,
3.996,3.98,-3.04,
3.996,3.972,-3.12,
4.028,3.948,-3.04,
4.028,3.98,-3.08,
3.996,3.948,-3.12,
4.004,3.972,-3.12,
4.028,3.948,-3.08,
4.004,3.972,-3.08,
4.028,3.94,-3.12,
4.028,3.94,-3.12,
3.996,3.972,-3.04,
4.028,3.972,-3.08,
3.996,3.94,-3.12,
4.028,3.972,-3.12,
3.996,3.948,-3.08,
4.02,3.948,-3.12,
3.996,3.972,-3.04,
4.02,3.972,-3.12,
4.004,3.94,-3.08,
4.028,3.972,-3.08,
3.996,3.948,-3.12,
4.004,3.956,-3.12,
4.028,3.988,-3.04,
4.004,3.98,-3.08,
4.028,3.948,-3.12,
4.028,3.948,-3.12,
4.004,3.98,-3.08,
4.028,3.988,-3.12,
4.004,3.948,-3.08,
4.028,3.988,-3.12,
3.996,3.932,-3.04,
3.996,3.988,-3.08,
4.028,3.948,-3.12,
4.028,3.972,-3.12,
3.996,3.932,-3.04,
4.028,3.972,-3.12,
3.996,3.948,-3.04,
4.028,3.972,-3.12,
4.004,3.948,-3.08,
4.02,3.972,-3.12,
3.988,3.94,-3.04,
4.02,3.94,-3.12,
4.004,3.972,-3.08,
4.02,3.972,-3.12,
3.996,3.932,-3.08,
4.004,3.972,-3.12,
4.028,3.948,-3.08,
3.996,3.972,-3.04,
4.02,3.948,-3.12,
4.02,3.972,-3.08,
3.988,3.948,-3.12,
4.02,3.98,-3.12,
3.996,3.94,-3.04,
4.028,3.972,-3.12,
4.004,3.932,-3.04,
3.996,3.948,-3.12,
4.028,3.972,-3.04,
4.028,3.972,-3.12,
4.004,3.94,-3.04,
4.02,3.98,-3.12,
3.996,3.948,-3.04,
3.996,3.956,-3.08,
4.028,3.988,-3.12,
4.02,3.98,-3.12,
3.996,3.948,-3.04,
4.028,3.972,-3.12,
3.996,3.94,-3.04,
4.028,3.98,-3.08,
3.996,3.948,-3.12,
4.004,3.98,-3.12,
4.028,3.94,-3.08,
3.996,3.972,-3.08,
4.028,3.932,-3.12,
4.028,3.972,-3.12,
4.004,3.94,-3.08,
4.028,3.972,-3.12,
4.004,3.94,-3.04,
4.02,3.972,-3.12,
3.988,3.948,-3.08,
3.996,3.94,-3.12,
4.028,3.972,-3.08,
4.004,3.972,-3.12,
4.028,3.94,-3.04,
3.996,3.948,-3.08,
4.028,3.98,-3.12,
3.996,3.972,-3.12,
4.028,3.956,-3.04,
3.996,3.972,-3.12,
4.028,3.948,-3.08,
4.028,3.948,-3.12,
3.996,3.98,-3.04,
4.028,3.988,-3.12,
4.004,3.948,-3.08,
4.028,3.98,-3.12,
3.996,3.948,-3.08,
3.996,3.972,-3.12,
4.028,3.932,-3.04,
4.028,3.948,-3.12,
3.996,3.972,-3.04,
4.028,3.972,-3.04,
3.996,3.94,-3.12,
4.028,3.972,-3.12,
3.988,3.948,-3.08,
4.028,3.972,-3.12,
3.996,3.948,-3.04,
4.02,3.948,-3.08,
3.996,3.972,-3.12,
4.02,3.94,-3.12,
3.996,3.988,-3.08,
4.02,3.988,-3.12,
3.996,3.948,-3.04,
3.996,3.98,-3.08,
4.02,3.948,-3.12,
3.996,3.972,-3.12,
4.028,3.94,-3.08,
4.028,3.972,-3.12,
4.004,3.94,-3.08,
4.028,3.956,-3.12,
3.996,3.972,-3.08,
4.028,3.972,-3.04,
3.996,3.94,-3.12,
4.004,3.98,-3.08,
4.028,3.948,-3.12,
4.004,3.972,-3.08,
4.028,3.932,-3.12,
3.996,3.948,-3.12,
4.02,3.988,-3.04,
4.004,3.972,-3.08,
4.02,3.94,-3.12,
4.028,3.972,-3.08,
4.004,3.94,-3.12,
4.028,3.972,-3.12,
3.996,3.948,-3.04,
4.028,3.972,-3.12,
3.996,3.948,-3.04,
4.02,3.94,-3.04,
3.996,3.972,-3.12,
4.02,3.972,-3.08,
3.996,3.948,-3.12,
4.028,3.972,-3.12,
3.996,3.94,-3.04,
4.028,3.972,-3.12,
3.996,3.948,-3.04,
4.02,3.972,-3.12,
4.004,3.948,-3.04,
4.02,3.972,-3.12,
3.996,3.94,-3.08,
4.028,3.972,-3.12,
3.996,3.94,-3.08,
4.02,3.972,-3.12,
3.996,3.94,-3.08,
4.028,3.972,-3.12,
3.996,3.94,-3.08,
4.02,3.972,-3.08,
3.996,3.948,-3.12,
3.996,3.972,-3.12,
4.028,3.94,-3.04,
4.004,3.972,-3.12,
4.028,3.94,-3.08,
4.02,3.972,-3.12,
3.996,3.94,-3.04,
4.02,3.972,-3.12,
3.996,3.94,-3.04,
4.004,3.972,-3.12,
4.028,3.94,-3.04,
4.02,3.972,-3.12,
3.996,3.948,-3.08,
4.02,3.972,-3.12,
3.996,3.94,-3.04,
4.004,3.98,-3.12,
4.028,3.94,-3.04,
4.004,3.972,-3.08,
4.028,3.948,-3.12,
3.996,3.972,-3.12,
4.028,3.948,-3.04,
4.028,3.972,-3.12,
3.996,3.94,-3.04,
4.02,3.972,-3.12,
3.996,3.94,-3.04,
4.02,3.972,-3.12,
3.996,3.94,-3.08,
4.02,3.972,-3.12,
3.996,3.948,-3.04,
4.02,3.972,-3.12,
3.996,3.948,-3.04,
4.02,3.972,-3.12,
3.996,3.94,-3.04,
3.996,3.972,-3.12,
4.028,3.94,-3.08,
4.02,3.972,-3.12,
3.996,3.94,-3.04,
3.996,3.972,-3.08,
4.028,3.948,-3.12,
4.028,3.972,-3.12,
3.996,3.94,-3.04,
4.028,3.972,-3.12,
3.996,3.948,-3.04,
3.996,3.972,-3.12,
4.028,3.94,-3.04,
4.028,3.972,-3.12,
3.996,3.948,-3.04,
4.02,3.972,-3.08,
3.996,3.94,-3.12,
4.028,3.972,-3.12,
3.996,3.948,-3.08,
4.028,3.948,-3.08,
3.996,3.972,-3.12,
4.02,3.972,-3.12,
3.996,3.94,-3.04,
4.028,3.972,-3.12,
3.996,3.94,-3.04,
4.004,3.972,-3.04,
4.028,3.94,-3.12,
3.996,3.972,-3.12,
4.028,3.948,-3.04,
4.02,3.972,-3.08,
3.996,3.94,-3.12,
4.028,3.972,-3.12,
3.996,3.94,-3.04,
4.028,3.972,-3.12,
4.004,3.948,-3.04,
3.996,3.972,-3.12,
4.028,3.948,-3.08,
4.02,3.972,-3.12,
3.996,3.94,-3.04,
4.004,3.988,-3.12,
4.028,3.94,-3.04,
4.02,3.948,-3.12,
3.996,3.98,-3.08,
4.004,3.932,-3.08,
4.028,3.98,-3.12,
4.004,3.972,-3.08,
4.028,3.94,-3.12,
4.028,3.972,-3.12,
3.996,3.948,-3.08,
4.028,3.948,-3.12,
3.988,3.98,-3.04,
3.996,3.98,-3.12,
4.028,3.94,-3.08,
4.028,3.972,-3.12,
3.996,3.94,-3.08,
3.996,3.972,-3.08,
4.028,3.948,-3.12,
4.036,3.972,-3.08,
3.996,3.948,-3.12,
3.996,3.972,-3.12,
4.028,3.948,-3.08,
4.028,3.972,-3.12,
3.996,3.948,-3.08,
4.028,3.972,-3.08,
3.996,3.94,-3.12,
4.02,3.972,-3.12,
3.996,3.94,-3.08,
4.02,3.98,-3.08,
3.996,3.94,-3.12,
4.02,3.948,-3.12,
3.996,3.98,-3.04,
4.028,3.94,-3.12,
3.996,3.972,-3.04,
4.004,3.972,-3.12,
4.028,3.94,-3.04,
4.02,3.972,-3.12,
3.996,3.94,-3.04,
4.028,3.972,-3.12,
3.996,3.932,-3.08,
4.028,3.972,-3.12,
3.996,3.932,-3.04,
4.02,3.972,-3.08,
3.996,3.948,-3.12,
4.02,3.932,-3.08,
3.996,3.98,-3.12,
4.004,3.94,-3.12,
4.028,3.972,-3.08,
4.02,3.972,-3.12,
3.996,3.948,-3.04,
3.996,3.972,-3.12,
4.028,3.948,-3.04,
4.004,3.972,-3.12,
4.028,3.94,-3.08,
3.996,3.972,-3.12,
4.02,3.94,-3.08,
4.02,3.948,-3.12,
3.996,3.972,-3.08,
4.02,3.972,-3.08,
3.988,3.932,-3.12,
4.028,3.972,-3.08,
3.996,3.948,-3.12,
4.004,3.972,-3.12,
4.028,3.948,-3.08,
4.02,3.972,-3.12,
3.996,3.94,-3.04,
3.996,3.972,-3.12,
4.028,3.932,-3.04,
4.02,3.972,-3.12,
3.996,3.948,-3.08,
4.02,3.972,-3.12,
3.988,3.94,-3.08,
4.02,3.956,-3.12,
3.996,3.98,-3.04,
4.028,3.972,-3.12,
3.996,3.94,-3.04,
4.02,3.972,-3.12,
3.996,3.948,-3.04,
4.028,3.972,-3.12,
3.996,3.94,-3.04,
4.02,3.94,-3.12,
3.996,3.98,-3.04,
4.028,3.972,-3.12,
4.004,3.932,-3.04,
3.996,3.988,-3.12,
4.028,3.948,-3.04,
3.996,3.98,-3.12,
4.028,3.94,-3.08,
4.028,3.988,-3.12,
3.988,3.94,-3.04,
4.028,3.972,-3.12,
3.996,3.948,-3.04,
4.004,3.972,-3.12,
4.028,3.94,-3.08,
4.028,3.972,-3.12,
4.004,3.948,-3.04,
4.004,3.948,-3.12,
4.028,3.98,-3.08,
4.02,3.98,-3.12,
3.996,3.948,-3.04,
3.996,3.94,-3.12,
4.02,3.98,-3.04,
3.996,3.972,-3.08,
4.028,3.948,-3.12,
4.02,3.948,-3.08,
3.996,3.972,-3.12,
4.004,3.972,-3.12,
4.028,3.948,-3.04,
3.996,3.972,-3.12,
4.028,3.948,-3.04,
4.004,3.972,-3.12,
4.028,3.948,-3.08,
3.996,3.956,-3.12,
4.02,3.972,-3.04,
4.004,3.972,-3.08,
4.028,3.932,-3.12,
4.02,3.948,-3.12,
3.996,3.972,-3.04,
4.004,3.972,-3.12,
4.028,3.94,-3.08,
4.028,3.972,-3.12,
3.996,3.948,-3.04,
4.028,3.972,-3.08,
3.996,3.948,-3.12,
4.02,3.972,-3.12,
3.996,3.94,-3.04,
4.004,3.972,-3.12,
4.028,3.94,-3.08,
3.996,3.972,-3.12,
4.028,3.948,-3.08,
4.028,3.988,-3.12,
3.996,3.948,-3.08,
4.028,3.972,-3.12,
3.996,3.948,-3.08,
4.028,3.972,-3.12,
3.996,3.932,-3.04,
4.02,3.948,-3.12,
3.996,3.972,-3.04,
4.02,3.972,-3.12,
4.004,3.932,-3.08,
3.996,3.94,-3.12,
4.028,3.98,-3.04,
4.004,3.94,-3.12,
4.028,3.972,-3.08,
4.02,3.972,-3.12,
3.996,3.948,-3.04,
4.004,3.94,-3.12,
4.028,3.98,-3.04,
3.996,3.98,-3.12,
4.02,3.94,-3.08,
4.004,3.972,-3.12,
4.028,3.94,-3.04,
3.996,3.972,-3.08,
4.028,3.94,-3.12,
4.028,3.972,-3.08,
3.996,3.94,-3.12,
4.028,3.972,-3.12,
3.996,3.948,-3.04,
4.028,3.972,-3.12,
3.996,3.932,-3.08,
4.02,3.972,-3.12,
3.996,3.948,-3.04,
4.028,3.972,-3.08,
3.996,3.948,-3.12,
4.02,3.98,-3.12,
4.004,3.94,-3.04,
3.996,3.972,-3.12,
4.028,3.94,-3.04,
4.004,3.972,-3.08,
4.028,3.948,-3.12,
4.028,3.972,-3.12,
3.996,3.94,-3.08,
4.02,3.972,-3.12,
3.996,3.948,-3.04,
4.028,3.972,-3.12,
3.996,3.932,-3.08,
3.996,3.972,-3.12,
4.028,3.948,-3.08,
4.028,3.972,-3.08,
3.996,3.948,-3.12,
4.02,3.972,-3.12,
3.996,3.908,-3.04,
3.996,3.972,-3.12,
4.028,3.94,-3.04,
4.004,3.972,-3.12,
4.02,3.932,-3.04,
4.028,3.972,-3.12,
3.988,3.948,-3.04,
4.028,3.972,-3.12,
3.996,3.948,-3.04,
4.02,3.972,-3.12,
3.996,3.94,-3.04,
4.02,3.972,-3.12,
3.996,3.94,-3.08,
4.004,3.94,-3.12,
4.02,3.98,-3.04,
3.996,3.956,-3.12,
4.028,3.972,-3.08,
4.004,3.972,-3.08,
4.028,3.94,-3.12,
4.028,3.972,-3.12,
3.996,3.948,-3.04,
3.996,3.972,-3.08,
4.028,3.94,-3.12,
3.996,3.972,-3.12,
4.028,3.948,-3.04,
4.028,3.972,-3.12,
3.996,3.948,-3.04,
4.028,3.94,-3.12,
4.004,3.98,-3.04,
4.02,3.972,-3.08,
3.996,3.94,-3.12,
4.02,3.972,-3.12,
4.004,3.948,-3.04,
4.028,3.972,-3.12,
3.996,3.94,-3.04,
4.02,3.98,-3.12,
3.996,3.94,-3.04,
4.02,3.98,-3.12,
3.996,3.932,-3.08,
4.028,3.948,-3.12,
3.996,3.972,-3.04,
4.028,3.972,-3.08,
3.996,3.948,-3.12,
4.028,3.972,-3.12,
3.988,3.94,-3.04,
4.004,3.972,-3.12,
4.028,3.948,-3.08,
4.02,3.972,-3.12,
3.996,3.932,-3.08,
4.028,3.972,-3.12,
3.996,3.94,-3.08,
4.004,3.972,-3.08,
4.02,3.94,-3.12,
4.028,3.972,-3.12,
3.996,3.94,-3.08,
4.02,3.956,-3.12,
3.996,3.972,-3.08,
4.02,3.972,-3.12,
3.996,3.94,-3.04,
4.028,3.972,-3.08,
3.996,3.94,-3.12,
4.02,3.972,-3.12,
4.004,3.94,-3.08,
4.02,3.972,-3.12,
3.996,3.948,-3.04,
3.996,3.972,-3.12,
4.028,3.948,-3.04,
3.996,3.972,-3.08,
4.028,3.932,-3.12,
4.004,3.972,-3.08,
