Measurements/Power Payload/Metingen 7/Payload 0 740.csv

CH1,CH2,CH3,Start,Increment,
Volt,Volt,Volt,-5.995,0.01
4.028,3.98,0.12,
4.004,3.948,0,
4.028,3.908,0,
3.996,3.98,0.12,
4.028,3.884,0,
3.996,4.036,0.12,
4.028,4.052,0.12,
3.98,4.012,0,
3.964,4.028,0,
4.06,4.004,0.12,
4.076,4.02,0.12,
4.036,3.996,0,
4.052,4.02,0.12,
4.02,3.988,0,
4.02,4.02,0.12,
4.044,3.988,0,
4.012,4.02,0.12,
4.044,3.988,0,
4.044,4.02,0.12,
4.012,3.996,0.04,
4.02,3.996,0,
4.044,4.028,0.12,
4.044,3.988,0.12,
4.012,4.02,0,
4.012,3.988,0.12,
4.044,4.02,0.04,
4.02,3.988,0.12,
4.044,4.02,0,
4.012,4.02,0,
4.044,3.996,0.12,
4.02,3.996,0.12,
4.044,4.02,0.04,
4.02,3.988,0.12,
4.036,4.02,0,
4.02,3.996,0,
4.044,4.02,0.12,
4.012,4.02,0.12,
4.044,3.996,0,
4.02,4.02,0.12,
4.036,3.996,0,
4.02,3.996,0.12,
4.044,4.02,0,
4.02,4.02,0.04,
4.044,3.996,0.12,
4.036,4.02,0.12,
4.02,3.996,0,
4.02,3.988,0.12,
4.044,4.02,0,
4.02,4.02,0,
4.044,3.996,0.12,
4.012,4.02,0,
4.036,3.996,0.12,
4.02,4.02,0,
4.044,3.996,0.12,
4.02,4.004,0.12,
4.044,4.02,0,
4.02,3.996,0.12,
4.044,4.02,0.04,
4.036,4.02,0.12,
4.02,3.996,0,
4.02,4.02,0.12,
4.036,3.996,0,
4.02,4.02,0.12,
4.044,3.996,0,
4.02,4.02,0.04,
4.044,3.996,0.12,
4.02,4.02,0.12,
4.044,3.996,0,
4.044,3.996,0.12,
4.02,4.028,0,
4.036,4.02,0,
4.02,3.996,0.12,
4.02,3.996,0.04,
4.044,4.02,0.12,
4.02,4.02,0.12,
4.036,3.996,0,
4.036,4.02,0.12,
4.02,3.988,0,
4.044,4.02,0,
4.012,3.996,0.12,
4.044,4.028,0.12,
4.012,3.988,0,
4.012,4.02,0,
4.044,3.988,0.12,
4.012,4.02,0,
4.036,3.996,0.12,
4.012,4.02,0,
4.044,3.988,0.12,
4.044,4.02,0.12,
4.012,3.996,0,
4.02,4.02,0.12,
4.044,3.996,0,
4.02,4.02,0.12,
4.044,3.996,0,
4.02,4.02,0.04,
4.036,3.996,0.12,
4.02,4.02,0.12,
4.044,4.004,0,
4.02,4.02,0.12,
4.044,3.996,0.04,
4.02,4.028,0.04,
4.044,3.996,0.12,
4.02,3.996,0,
4.044,4.02,0.12,
4.036,3.996,0.12,
4.012,4.028,0.04,
4.044,3.996,0.12,
4.02,4.028,0,
4.02,4.02,0.12,
4.044,3.996,0,
4.02,3.996,0.12,
4.052,4.028,0,
4.02,4.02,0.12,
4.044,3.996,0,
4.02,4.02,0.12,
4.044,3.996,0,
4.044,4.02,0.12,
4.012,3.988,0,
4.012,4.02,0.04,
4.036,3.996,0.12,
4.012,4.02,0.04,
4.044,3.988,0.12,
4.02,4.02,0.12,
4.044,3.996,0,
4.02,3.988,0.04,
4.044,4.028,0.12,
4.02,3.988,0.12,
4.044,4.028,0,
4.02,4.02,0.12,
4.044,3.996,0,
4.02,4.02,0.12,
4.036,3.996,0,
4.036,3.996,0,
4.02,4.02,0.12,
4.036,4.02,0.12,
4.02,3.996,0,
4.012,4.02,0,
4.044,3.996,0.12,
4.02,3.996,0,
4.044,4.028,0.12,
4.012,3.996,0.12,
4.044,4.02,0,
4.044,3.996,0.12,
4.012,4.02,0,
4.012,3.996,0.12,
4.036,4.028,0.04,
4.012,3.988,0.12,
4.044,4.028,0.04,
4.012,4.02,0.12,
4.044,3.996,0,
4.012,4.02,0.12,
4.044,3.996,0,
4.02,4.02,0.04,
4.036,3.996,0.12,
4.02,4.02,0.12,
4.044,3.996,0.04,
4.02,3.996,0.04,
4.044,4.02,-3.12,
4.044,4.02,-3.12,
4.02,3.996,-3.04,
4.02,4.02,-3.12,
4.044,3.98,-3.04,
4.02,4.02,-3.04,
4.044,3.988,-3.12,
4.012,4.02,-3.12,
4.044,3.996,-3.04,
4.02,3.996,-3.12,
4.044,4.02,-3.04,
4.02,4.02,-3.12,
4.044,3.996,-3.04,
4.02,4.02,-3.04,
4.044,3.996,-3.12,
4.02,4.02,-3.12,
4.044,3.996,-3.04,
4.036,4.02,-3.04,
4.012,3.988,-3.12,
4.044,4.02,-3.12,
4.02,3.988,-3.04,
4.02,4.02,-3.12,
4.044,3.996,-3.04,
4.036,4.02,-3.04,
4.012,4.004,-3.12,
4.02,3.996,-3.12,
4.044,4.028,-3.04,
4.02,4.02,-3.12,
4.044,3.996,-3.04,
4.02,4.02,-3.12,
4.044,3.996,-3.04,
4.02,4.028,-3.12,
4.036,3.996,-3.04,
4.02,4.02,-3.12,
4.044,3.996,-3.04,
4.02,4.02,-3.12,
4.044,3.988,-3.04,
4.02,4.02,-3.12,
4.044,4.004,-3.04,
4.036,4.02,-3.12,
4.02,3.988,-3.04,
4.02,4.02,-3.04,
4.044,3.996,-3.12,
4.036,3.996,-3.04,
4.012,4.028,-3.12,
4.02,4.02,-3.12,
4.036,3.996,-3.04,
4.02,4.02,-3.04,
4.044,3.996,-3.12,
4.044,3.988,-3.12,
4.02,4.028,-3.04,
4.012,4.02,-3.12,
4.044,3.996,-3.04,
4.012,4.02,-3.12,
4.036,3.996,-3.04,
4.02,4.02,-3.12,
4.044,3.996,-3.04,
4.036,4.02,-3.12,
4.012,3.996,-3.04,
4.02,4.02,-3.04,
4.044,3.988,-3.12,
4.02,3.996,-3.12,
4.036,4.028,-3.04,
4.02,4.02,-3.12,
4.036,3.988,-3.04,
4.02,4.02,-3.12,
4.044,3.996,-3.04,
4.02,3.996,-3.12,
4.036,4.02,-3.04,
4.02,4.02,-3.12,
4.044,3.996,-3.04,
4.02,4.02,-3.04,
4.044,3.996,-3.12,
4.02,4.02,-3.12,
4.044,3.996,-3.04,
4.044,3.996,-3.12,
4.012,4.02,-3.04,
4.044,3.996,-3.12,
4.012,4.028,-3.04,
4.044,4.028,-3.12,
4.012,3.996,-3.04,
4.02,4.02,-3.12,
4.052,3.996,-3.04,
4.02,4.02,-3.12,
4.044,3.988,-3.04,
4.02,3.996,-3.12,
4.044,4.02,-3.04,
4.036,3.996,-3.12,
4.012,4.028,-3.04,
4.02,4.02,-3.12,
4.044,3.988,-3.04,
4.02,4.02,-3.12,
4.044,3.996,-3.04,
4.02,4.02,-3.12,
4.044,3.972,-3.04,
4.02,3.996,-3.12,
4.044,4.02,-3.04,
4.036,4.02,-3.04,
4.004,3.996,-3.12,
4.012,4.02,-3.04,
4.044,3.996,-3.12,
4.02,3.996,-3.12,
4.044,4.02,-3.04,
4.02,3.996,-3.04,
4.044,4.028,-3.12,
4.02,3.988,-3.12,
4.044,4.028,-3.04,
4.044,4.02,-3.04,
4.012,3.996,-3.12,
4.012,4.02,-3.04,
4.044,3.988,-3.12,
4.044,4.02,-3.12,
4.012,3.996,-3.04,
4.012,4.02,-3.12,
4.044,3.988,-3.04,
4.044,4.02,-3.12,
4.012,3.996,-3.04,
4.02,4.02,-3.04,
4.044,3.996,-3.12,
4.02,4.02,-3.12,
4.044,3.996,-3.04,
4.02,4.02,-3.12,
4.044,3.996,-3.04,
4.02,4.02,-3.12,
4.044,3.996,-3.04,
4.02,4.02,-3.12,
4.044,3.996,-3.04,
4.02,4.02,-3.12,
4.044,3.996,-3.04,
4.02,4.02,-3.12,
4.044,3.988,-3.04,
4.036,4.02,-3.12,
4.012,3.996,-3.04,
4.02,4.02,-3.12,
4.036,3.98,-3.04,
4.02,3.996,-3.12,
4.044,4.02,-3.04,
4.036,4.028,-3.12,
4.012,4.004,-3.04,
4.02,4.02,-3.04,
4.044,4.004,-3.12,
4.02,4.02,-3.12,
4.044,3.98,-3.04,
4.044,4.02,-3.04,
4.02,3.996,-3.12,
4.036,4.02,-3.12,
4.012,3.996,-3.04,
4.02,4.02,-3.12,
4.044,3.988,-3.04,
4.02,4.02,-3.12,
4.044,3.996,-3.04,
4.02,4.02,-3.12,
4.044,4.004,-3.04,
4.044,4.02,-3.04,
4.02,4.004,-3.12,
4.044,4.02,-3.12,
4.02,3.996,-3.04,
4.02,4.02,-3.12,
4.044,3.996,-3.04,
4.044,4.02,-3.12,
4.012,3.996,-3.04,
4.02,4.028,-3.04,
4.036,3.996,-3.12,
4.02,4.02,-3.12,
4.044,3.996,-3.04,
4.036,3.996,-3.12,
4.02,4.02,-3.04,
4.036,4.02,-3.12,
4.02,3.98,-3.04,
4.02,4.028,-3.12,
4.036,3.988,-3.04,
4.012,3.996,-3.12,
4.044,4.02,-3.04,
4.044,3.996,-3.12,
4.012,4.02,-3.04,
4.036,4.02,-3.12,
4.012,3.988,-3.04,
4.044,4.028,-3.12,
4.012,3.988,-3.04,
4.044,4.028,-3.12,
4.012,3.988,-3.04,
4.044,3.996,-3.04,
4.012,4.02,-3.12,
4.02,4.02,-3.04,
4.044,3.996,-3.12,
4.02,3.996,-3.04,
4.044,4.02,-3.12,
4.02,4.02,-3.04,
4.036,3.996,-3.12,
4.02,4.02,-3.12,
4.044,3.988,-3.04,
4.02,3.996,-3.12,
4.044,4.028,-3.04,
4.02,4.02,-3.12,
4.036,3.996,-3.04,
4.02,3.988,-3.12,
4.052,4.02,-3.04,
4.012,4.02,-3.12,
4.044,3.996,-3.04,
4.012,4.02,-3.04,
4.044,3.988,-3.12,
4.036,4.02,-3.12,
4.012,3.996,-3.04,
4.036,4.02,-3.04,
4.012,3.988,-3.12,
4.02,4.02,-3.12,
4.044,3.988,-3.04,
4.02,3.996,-3.12,
4.036,4.028,-3.04,
4.036,4.02,-3.12,
4.012,3.988,-3.04,
4.044,4.02,-3.12,
4.012,3.996,-3.04,
4.044,4.02,-3.12,
4.012,3.996,-3.04,
4.012,3.996,-3.12,
4.044,4.02,-3.04,
4.02,3.996,-3.12,
4.044,4.02,-3.04,
4.044,4.02,-3.12,
4.012,3.996,-3.04,
4.02,4.02,-3.12,
4.036,3.988,-3.04,
4.012,4.02,-3.12,
4.044,3.996,-3.04,
4.036,3.988,-3.12,
4.02,4.02,-3.04,
4.02,4.02,-3.04,
4.044,3.996,-3.12,
4.02,4.02,-3.04,
4.044,3.988,-3.12,
4.02,4.02,-3.12,
4.044,3.988,-3.04,
4.036,4.02,-3.12,
4.012,3.996,-3.04,
4.044,4.02,-3.04,
4.012,3.988,-3.12,
4.02,3.988,-3.04,
4.044,4.02,-3.12,
4.036,3.988,-3.12,
4.012,4.02,-3.04,
4.036,3.996,-3.04,
4.012,4.02,-3.12,
4.02,4.02,-3.12,
4.036,3.996,-3.04,
4.02,4.02,-3.12,
4.036,3.996,-3.04,
4.02,4.02,-3.12,
4.044,3.996,-3.04,
4.02,4.02,-3.12,
4.044,3.996,-3.04,
4.02,3.996,-3.12,
4.044,4.02,-3.04,
4.02,4.02,-3.12,
4.036,3.996,-3.04,
4.02,3.988,-3.12,
4.036,4.02,-3.04,
4.02,4.02,-3.04,
4.044,3.996,-3.12,
4.012,4.02,-3.12,
4.036,3.996,-3.04,
4.036,4.02,-3.12,
4.02,3.996,-3.04,
4.02,4.02,-3.12,
4.044,3.9,-3.04,
4.02,3.94,-3.12,
4.044,3.972,-3.04,
4.044,3.924,-3.12,
3.964,3.98,-3.04,
3.988,3.924,-3.12,
4.02,3.996,-3.04,
3.988,3.972,-3.12,
4.028,3.956,-3.04,
4.028,3.996,-3.12,
3.996,3.94,-3.04,
4.012,3.94,-3.12,
4.028,3.972,-3.04,
4.028,3.956,-3.12,
3.996,3.988,-3.04,
3.988,3.972,-3.12,
4.028,3.924,-3.04,
4.028,3.972,-3.04,
3.996,3.924,-3.12,
4.028,3.916,-3.12,
3.988,3.988,-3.04,
4.028,3.924,-3.12,
3.988,3.988,-3.04,
3.988,3.98,-3.12,
4.028,3.924,-3.04,
3.988,3.98,-3.12,
4.028,3.932,-3.04,
4.028,3.988,-3.12,
3.996,3.94,-3.04,
4.028,3.964,-3.12,
3.988,3.996,-3.04,
4.028,3.924,-3.12,
3.996,3.996,-3.04,
4.012,3.988,-3.12,
4.044,3.908,-3.04,
3.988,3.988,-3.12,
4.036,3.924,-3.04,
4.028,3.948,-3.04,
3.98,4.02,-3.12,
4.036,3.956,-3.12,
3.988,3.988,-3.04,
4.004,3.948,-3.12,
4.052,3.988,-3.04,
4.012,3.964,-3.04,
4.028,3.988,-3.12,
4.004,3.956,-3.04,
4.028,4.02,-3.12,
4.012,3.98,-3.12,
4.028,3.956,-3.04,
4.012,3.956,-3.12,
4.052,3.98,-3.04,
4.028,3.956,-3.12,
4.012,3.988,-3.04,
4.028,3.964,-3.12,
3.996,3.988,-3.04,
4.004,3.956,-3.12,
4.028,3.988,-3.04,
4.012,3.948,-3.12,
4.028,3.988,-3.04,
4.028,3.956,-3.12,
3.996,4.02,-3.04,
4.028,3.956,-3.12,
4.004,3.98,-3.04,
4.012,3.988,-3.12,
4.036,3.956,-3.04,
3.996,3.98,-3.12,
4.028,3.956,-3.04,
4.012,3.988,-3.12,
4.028,3.956,-3.04,
4.028,3.956,-3.12,
3.996,3.988,-3.04,
4.012,3.956,-3.12,
4.028,3.988,-3.04,
4.012,3.964,-3.12,
4.028,3.996,-3.04,
4.004,3.98,-3.04,
4.028,3.956,-3.12,
4.012,3.964,-3.12,
4.036,3.988,-3.04,
4.012,4.012,-3.12,
4.028,3.892,-3.04,
4.028,3.908,-3.12,
4.012,3.948,-3.04,
4.044,3.932,-3.12,
3.964,3.964,-3.04,
3.98,3.932,-3.12,
4.004,3.964,-3.04,
4.02,3.932,-3.12,
3.988,3.964,-3.04,
3.996,3.964,-3.12,
4.02,3.932,-3.04,
4.02,3.924,-3.12,
3.996,3.972,-3.04,
4.02,3.94,-3.12,
3.996,3.964,-3.04,
4.028,3.964,-3.12,
3.996,3.924,-3.04,
4.02,3.932,-3.12,
3.996,3.972,-3.04,
4.02,3.964,-3.12,
3.996,3.932,-3.04,
3.996,3.964,-3.12,
4.028,3.932,-3.04,
4.02,3.94,-3.12,
3.996,3.964,-3.04,
4.004,3.924,-3.12,
4.028,3.964,-3.04,
4.02,3.94,-3.12,
3.996,3.964,-3.04,
3.996,3.964,-3.12,
4.02,3.932,-3.04,
4.02,3.932,-3.12,
4.004,3.964,-3.04,
4.02,3.932,-3.12,
3.996,3.956,-3.04,
3.996,3.964,-3.12,
4.02,3.932,-3.04,
4.02,3.932,-3.04,
3.996,3.964,-3.12,
4.02,3.932,-3.04,
3.996,3.964,-3.12,
3.996,3.932,-3.12,
4.02,3.964,-3.04,
4.02,3.964,-3.12,
3.996,3.932,-3.04,
4.02,3.932,-3.12,
3.996,3.956,-3.04,
4.02,3.932,-3.04,
3.996,3.964,-3.12,
4.02,3.964,-3.12,
3.996,3.932,-3.04,
3.996,3.932,-3.12,
4.02,3.964,-3.04,
4.02,3.932,-3.12,
3.996,4.004,-3.04,
4.02,3.884,-3.04,
3.988,3.724,-3.12,
4.004,3.78,-3.12,
4.052,4.06,-3.04,
3.996,4.06,-3.12,
3.892,3.684,-3.04,
3.932,4.012,-3.04,
4.092,3.964,-3.12,
4.084,4.028,-3.12,
3.868,3.684,-3.04,
4.06,4.044,-3.12,
4.02,3.42,-3.04,
4.052,4.06,-3.12,
3.852,3.54,-3.04,
4.076,4.06,-3.04,
3.724,3.556,-3.12,
4.084,4.076,-3.04,
3.788,3.556,-3.12,
4.084,4.076,-3.04,
3.796,3.564,-3.12,
4.108,4.052,-3.12,
3.812,3.556,-3.04,
4.1,3.564,-3.12,
3.796,4.076,-3.04,
4.084,3.572,-3.12,
3.796,4.084,-3.04,
4.1,3.572,-3.12,
3.796,4.052,-3.04,
3.812,4.076,-3.04,
4.116,3.692,-3.12,
3.82,4.044,-3.12,
4.092,3.684,-3.04,
4.092,4.052,-3.12,
3.868,3.484,-3.04,
4.076,3.956,-3.12,
3.86,3.988,-3.04,
4.068,3.948,-3.12,
3.756,3.98,-3.04,
4.028,3.972,-3.12,
4.012,3.948,-3.04,
4.028,3.972,-3.12,
4.004,3.948,-3.04,
4.028,3.98,-3.12,
4.004,3.94,-3.04,
4.028,3.972,-3.12,
4.004,3.948,-3.04,
4.004,3.94,-3.12,
4.028,3.988,-3.04,
4.028,3.972,-3.12,
4.004,3.948,-3.04,
4.028,3.948,-3.12,
3.996,3.988,-3.04,
4.028,3.956,-3.04,
3.996,3.988,-3.12,
4.004,3.956,-3.12,
4.028,3.988,-3.04,
4.028,3.948,-3.12,
4.004,3.98,-3.04,
4.028,3.972,-3.12,
4.012,3.948,-3.04,
4.028,3.988,-3.12,
3.996,3.948,-3.04,
4.028,3.972,-3.12,
4.004,3.948,-3.04,
4.028,3.956,-3.12,
3.996,3.98,-3.04,
4.028,3.948,-3.12,
4.004,3.988,-3.04,
4.004,3.948,-3.12,
4.028,3.98,-3.04,
4.004,3.98,-3.12,
4.028,3.948,-3.04,
4.004,3.972,-3.12,
4.028,3.94,-3.04,
4.028,3.956,-3.12,
3.996,3.972,-3.04,
3.996,3.972,-3.04,
4.028,3.94,-3.12,
4.004,3.972,-3.12,
4.028,3.948,-3.04,
4.004,3.948,-3.12,
4.028,3.988,-3.04,
4.028,3.972,-3.12,
4.004,3.94,-3.04,
4.028,3.972,-3.12,
3.996,3.94,-3.04,
4.028,3.94,-3.12,
3.996,3.98,-3.04,
4.028,3.98,-3.12,
3.996,3.948,-3.04,
3.996,3.988,-3.12,
4.044,3.94,-3.04,
4.036,3.948,-3.12,
4.004,3.98,-3.04,
4.028,3.972,-3.12,
3.996,3.94,-3.04,
3.996,3.948,-3.12,
4.028,3.972,-3.04,
4.028,3.972,-3.12,
4.004,3.956,-3.04,
4.004,3.972,-3.04,
4.028,3.94,-3.12,
4.028,3.972,-3.12,
3.996,3.948,-3.04,
4.028,3.948,-3.12,
3.996,3.98,-3.04,
4.028,3.98,-3.12,
4.004,3.948,-3.04,
4.028,3.972,-3.12,
4.004,3.948,-3.04,
4.004,3.948,-3.12,
4.028,3.98,-3.04,
4.004,3.98,-3.12,
4.028,3.948,-3.04,
4.028,3.972,-3.04,
4.004,3.948,-3.12,
4.004,3.94,-3.04,
4.028,3.972,-3.12,
4.004,3.972,-3.12,
4.028,3.948,-3.04,
3.996,3.972,-3.12,
4.028,3.948,-3.04,
4.028,3.972,-3.12,
4.004,3.948,-3.04,
4.028,3.972,-3.04,
4.004,3.948,-3.12,
4.028,3.972,-3.12,
4.012,3.948,-3.04,
4.028,3.972,-3.12,
3.996,3.948,-3.04,
4.028,3.98,-3.04,
4.004,3.948,-3.12,
4.028,3.98,-3.12,
4.004,3.948,-3.04,
4.028,3.972,-3.12,
3.996,3.948,-3.04,
4.028,3.972,-3.04,
4.004,3.94,-3.12,
4.028,3.956,-3.12,
4.004,3.98,-3.04,
4.004,3.972,-3.12,
4.028,3.948,-3.04,
4.012,3.956,-3.12,
4.028,3.98,-3.04,
4.028,3.98,-3.12,
4.004,3.932,-3.04,
4.028,3.972,-3.12,
4.004,3.948,-3.04,
4.028,3.98,-3.12,
3.996,3.94,-3.04,
3.996,3.98,-3.12,
4.028,3.94,-3.04,
4.028,3.94,-3.12,
3.996,3.988,-3.04,
4.028,3.956,-3.04,
4.004,3.972,-3.12,
3.996,3.972,-3.12,
4.028,3.948,-3.04,
4.028,3.956,-3.12,
4.004,3.972,-3.04,
3.996,3.98,-3.12,
4.028,3.94,-3.04,
4.012,3.972,-3.12,
4.028,3.956,-3.04,
4.028,3.948,-3.12,
3.996,3.98,-3.04,
4.012,3.948,-3.12,
4.028,3.98,-3.04,
4.028,3.972,-3.12,
3.996,3.948,-3.04,
4.004,3.972,-3.12,
4.028,3.948,-3.04,
4.028,3.956,-3.12,
4.004,3.98,-3.04,
4.028,3.956,-3.04,
4.004,3.972,-3.12,
4.028,3.948,-3.12,
4.004,3.972,-3.04,
4.028,3.972,-3.12,
4.004,3.948,-3.04,
3.996,3.972,-3.12,
4.028,3.94,-3.04,
4.028,3.98,-3.04,
3.996,3.948,-3.12,
4.028,3.972,-3.04,
3.996,3.94,-3.12,
4.012,3.94,-3.12,
4.028,3.972,-3.04,
4.028,3.972,-3.12,
4.004,3.948,-3.04,
3.996,3.972,-3.12,
4.028,3.94,-3.04,
4.004,3.956,-3.12,
4.028,3.972,-3.04,
4.028,3.956,-3.12,
4.004,3.988,-3.04,
4.028,3.916,-3.04,
4.004,3.972,-3.12,
3.996,3.98,-3.12,
4.028,3.956,-3.04,
3.988,3.972,-3.12,
4.028,3.948,-3.04,
4.028,3.956,-3.12,
4.012,3.972,-3.04,
4.028,3.972,-3.12,
4.004,3.948,-3.04,
4.004,3.988,-3.04,
4.028,3.932,-3.12,
4.02,3.972,-3.12,
4.004,3.94,-3.04,
4.028,3.98,-3.12,
3.988,3.948,-3.04,
4.028,3.956,-3.12,
3.996,3.988,-3.04,
3.996,3.956,-3.12,
4.028,3.98,-3.04,
4.028,3.94,-3.12,
4.004,3.972,-3.04,
4.028,3.956,-3.04,
4.004,3.972,-3.12,
4.004,3.972,-3.12,
4.028,3.94,-3.04,
4.004,3.98,-3.12,
4.028,3.948,-3.04,
4.028,3.972,-3.12,
4.004,3.948,-3.04,
4.028,3.948,-3.12,
4.004,3.972,-3.04,
4.004,3.972,-3.12,
4.028,3.948,-3.04,
4.004,3.98,-3.12,
4.028,3.948,-3.04,
4.004,3.972,-3.12,
4.028,3.948,-3.04,
4.028,3.98,-3.12,
4.004,3.94,-3.04,
3.996,3.972,-3.12,
4.028,3.94,-3.04,
4.028,3.972,-3.12,
3.996,3.948,-3.04,
4.004,3.972,-3.12,
4.028,3.94,-3.04,
4.028,3.98,-3.12,
4.004,3.948,-3.04,
4.028,3.972,-3.12,
3.996,3.94,-3.04,
4.028,3.972,-3.12,
3.996,3.948,-3.04,
4.012,3.972,-3.12,
4.028,3.948,-3.04,
4.004,3.956,-3.04,
4.028,3.988,-3.12,
4.028,3.988,-3.12,
4.004,3.948,-3.04,
4.028,3.988,-3.12,
4.004,3.956,-3.04,
4.028,3.94,-3.12,
4.012,3.98,-3.04,
4.028,3.956,-3.12,
4.004,3.98,-3.04,
4.004,3.94,-3.12,
4.028,3.988,-3.04,
4.028,3.988,-3.12,
4.004,3.956,-3.04,
4.028,3.98,-3.04,
3.996,3.948,-3.12,
4.028,3.972,-3.12,
3.996,3.948,-3.04,
4.028,3.948,-3.12,
4.004,3.98,-3.04,
4.004,3.972,-3.12,
4.028,3.94,-3.04,
4.028,3.98,-3.12,
3.996,3.948,-3.04,
3.996,3.948,-3.12,
4.028,3.98,-3.04,
3.996,3.932,-3.12,
4.028,3.98,-3.04,
4.004,3.972,-3.12,
4.028,3.956,-3.04,
3.996,3.972,-3.12,
4.028,3.948,-3.04,
4.004,3.972,-3.12,
4.028,3.948,-3.04,
3.996,3.972,-3.12,
4.028,3.948,-3.04,
4.028,3.948,-3.04,
4.004,3.972,-3.12,
4.028,3.972,-3.04,
4.004,3.94,-3.12,
4.004,3.972,-3.04,
4.028,3.948,-3.12,
3.996,3.972,-3.12,
4.028,3.948,-3.04,
4.004,3.948,-3.12,
4.028,3.98,-3.04,
4.028,3.948,-3.12,
4.004,3.98,-3.04,
4.028,3.956,-3.12,
3.996,3.98,-3.04,
4.028,3.972,-3.12,
4.004,3.94,-3.04,
4.012,3.956,-3.12,
4.028,3.972,-3.04,
4.028,3.948,-3.04,
3.996,3.98,-3.12,
4.028,3.948,-3.12,
3.996,3.988,-3.04,
4.028,3.972,-3.12,
3.996,3.948,-3.04,
3.996,3.972,-3.12,
4.028,3.948,-3.04,
4.004,3.956,-3.12,
4.028,3.972,-3.04,
4.028,3.972,-3.12,
3.996,3.94,-3.04,
4.004,3.948,-3.12,
4.028,3.972,-3.04,
4.028,3.972,-3.12,
4.004,3.948,-3.04,
4.004,3.948,-3.12,
4.028,3.98,-3.04,
4.028,3.956,-3.04,
4.004,3.972,-3.12,
4.028,3.956,-3.12,
4.004,3.972,-3.04,
4.028,3.972,-3.04,
4.004,3.948,-3.12,
4.012,3.972,-3.12,
4.028,3.948,-3.04,
4.028,3.988,-3.04,
4.004,3.94,-3.12,
4.028,3.972,-3.04,
3.996,3.948,-3.12,
4.028,3.98,-3.04,
3.996,3.948,-3.12,
4.004,3.94,-3.12,
4.028,3.988,-3.04,
4.004,3.988,-3.12,
4.028,3.948,-3.04,
3.996,3.972,-3.12,
4.028,3.948,-3.04,
4.028,3.972,-3.04,
3.996,3.948,-3.12,
3.996,3.972,-3.12,
4.028,3.948,-3.04,
4.028,3.948,-3.12,
3.996,3.988,-3.04,
4.028,3.972,-3.12,
4.004,3.948,-3.04,
3.996,3.972,-3.04,
4.028,3.948,-3.12,
4.004,3.956,-3.12,
4.028,3.98,-3.04,
4.028,3.956,-3.12,
3.996,3.98,-3.04,
4.028,3.972,-3.04,
4.004,3.948,-3.12,
4.028,3.948,-3.12,
3.996,3.98,-3.04,
4.028,3.972,-3.04,
3.996,3.94,-3.12,
4.012,3.956,-3.12,
4.028,3.98,-3.04,
4.028,3.972,-3.12,
4.004,3.948,-3.04,
4.028,3.948,-3.12,
4.004,3.98,-3.04,
4.028,3.972,-3.12,
3.996,3.94,-3.04,
4.028,3.988,-3.04,
3.996,3.948,-3.12,
4.028,3.972,-3.04,
4.004,3.948,-3.12,
4.028,3.98,-3.12,
3.996,3.956,-3.04,
4.028,3.98,-3.12,
3.996,3.94,-3.04,
4.028,3.956,-3.12,
4.004,3.972,-3.04,
4.028,3.972,-3.12,
3.996,3.94,-3.04,
4.004,3.972,-3.12,
4.028,3.94,-3.04,
4.004,3.972,-3.12,
4.028,3.948,-3.04,
4.028,3.948,-3.04,
4.004,3.972,-3.12,
4.028,3.956,-3.12,
3.996,3.98,-3.04,
4.004,3.94,-3.12,
4.028,3.98,-3.04,
4.028,3.98,-3.12,
4.004,3.948,-3.04,
4.028,3.956,-3.12,
3.996,3.988,-3.04,
4.028,3.948,-3.12,
4.004,3.972,-3.04,
4.004,3.972,-3.04,
4.028,3.94,-3.12,
4.028,3.972,-3.04,
3.996,3.94,-3.12,
4.028,3.972,-3.12,
4.004,3.948,-3.04,
4.028,3.972,-3.12,
3.996,3.948,-3.04,
4.028,3.972,-3.12,
4.004,3.948,-3.04,
4.028,3.972,-3.12,
3.996,3.948,-3.04,
4.012,3.972,-3.12,
4.028,3.94,-3.04,
4.004,3.948,-3.12,
4.028,3.996,-3.04,
4.028,3.948,-3.12,
3.996,3.988,-3.04,
4.028,3.972,-3.12,
3.996,3.948,-3.04,
4.028,3.98,-3.12,
3.996,3.94,-3.04,
4.004,3.972,-3.12,
4.028,3.948,-3.04,
4.028,3.972,-3.12,
4.004,3.948,-3.04,
4.004,3.972,-3.12,
4.028,3.948,-3.04,
4.028,3.972,-3.12,
4.004,3.948,-3.04,
4.028,3.972,-3.12,
4.004,3.956,-3.04,
3.996,3.972,-3.04,
4.028,3.948,-3.12,
4.028,3.972,-3.12,
4.004,3.94,-3.04,
4.028,3.956,-3.12,
3.996,3.972,-3.04,
4.012,3.948,-3.04,
4.028,3.98,-3.12,
4.004,3.956,-3.12,
4.028,3.972,-3.04,
3.996,3.972,-3.12,
4.036,3.94,-3.04,
4.012,3.972,-3.12,
4.028,3.956,-3.04,
4.028,3.972,-3.04,
4.004,3.948,-3.12,
4.012,3.972,-3.12,
4.028,3.94,-3.04,
4.028,3.972,-3.12,
3.996,3.948,-3.04,
4.028,3.988,-3.12,
4.004,3.94,-3.04,
4.028,3.956,-3.12,
4.004,3.98,-3.04,
4.004,3.98,-3.12,
4.028,3.948,-3.04,
4.028,3.94,-3.12,
4.012,3.988,-3.04,
4.028,3.956,-3.12,
3.996,3.98,-3.04,
4.004,3.956,-3.12,
4.028,3.988,-3.04,
4.028,3.956,-3.12,
3.996,3.988,-3.04,
3.996,3.956,-3.04,
4.028,3.98,-3.12,
4.012,3.948,-3.12,
4.028,3.98,-3.04,
4.004,3.956,-3.12,
4.028,3.98,-3.04,
4.004,3.98,-3.12,
4.028,3.94,-3.04,
4.012,3.972,-3.12,
4.028,3.948,-3.04,
4.028,3.948,-3.12,
3.996,3.988,-3.04,
3.996,3.948,-3.12,
4.028,3.972,-3.04,
4.004,3.98,-3.12,
4.028,3.948,-3.04,
4.004,3.972,-3.04,
4.028,3.948,-3.12,
4.028,3.972,-3.12,
4.004,3.948,-3.04,
4.028,3.972,-3.04,
3.996,3.948,-3.12,
4.028,3.948,-3.12,
4.004,3.988,-3.04,
4.028,3.972,-3.12,
3.996,3.948,-3.04,
4.004,3.98,-3.04,
4.028,3.94,-3.12,
3.996,3.948,-3.12,
4.028,3.988,-3.04,
4.004,3.972,-3.12,
4.028,3.956,-0.08,
4.028,3.948,0.04,
3.996,3.988,0.12,
4.028,3.972,0.04,
4.004,3.948,0.12,
4.004,3.98,0.12,
4.028,3.948,0,
4.028,3.972,0.04,
4.004,3.932,0.12,
4.028,3.956,0.12,
3.996,3.972,0.04,
4.028,3.972,0.12,
4.004,3.948,0,
4.004,3.972,0.12,
4.028,3.956,0,
3.996,3.94,0.04,
4.028,3.98,0.12,
4.028,3.956,0.04,
4.004,3.972,0.12,
4.028,3.972,0.12,
3.996,3.948,0,
4.012,3.948,0.12,
4.028,3.988,0,
3.996,3.948,0.12,
4.028,3.98,0,
4.028,3.98,0.12,
3.996,3.94,0,
4.028,3.948,0.12,
4.004,3.98,0,
3.996,3.948,0.12,
4.028,3.98,0,
3.996,3.94,0.12,
4.028,3.988,0,
4.004,3.972,0.12,
4.028,3.94,0,
3.996,3.94,0,
4.028,3.98,0.12,
4.028,3.956,0.04,
3.996,3.98,0.12,
4.028,3.972,0.12,
3.996,3.948,0,
3.996,3.948,0.04,
4.028,3.98,0.12,
4.028,3.972,0.04,
4.004,3.956,0.12,
3.996,3.988,0.04,
4.028,3.94,0.12,
4.004,3.972,0.12,
