Measurements/Power Payload/Metingen 7/Payload 0 360.csv

CH1,CH2,CH3,Start,Increment,
Volt,Volt,Volt,-5.995,0.01
3.988,3.972,0.08,
4.02,3.932,0.12,
3.988,3.94,0.12,
4.028,3.972,0.04,
3.988,3.98,0.12,
4.02,3.932,0.04,
3.996,3.972,0.12,
4.02,3.932,0.04,
4.02,3.972,0.08,
3.988,3.932,0.12,
4.028,3.932,0.12,
3.988,3.972,0.04,
4.02,3.972,0.12,
3.988,3.94,0.04,
4.02,3.932,0.12,
3.98,3.972,0.04,
3.988,3.972,0.08,
4.02,3.94,0.12,
4.02,3.94,0.12,
3.988,3.972,0.04,
3.988,3.972,0.12,
4.02,3.932,0.04,
4.02,3.972,0.12,
3.988,3.932,0.04,
3.988,3.972,0.12,
4.02,3.916,0.04,
3.988,3.948,0.08,
4.02,3.972,0.12,
3.988,3.94,0.12,
4.02,3.972,0,
3.98,3.972,0.12,
4.02,3.94,0.04,
4.02,3.972,0.12,
3.996,3.94,0.04,
4.02,3.932,0.12,
3.988,3.972,0.04,
4.02,3.972,0.08,
3.988,3.94,0.12,
4.02,3.964,0.08,
3.988,3.932,0.12,
3.988,3.932,0.12,
4.02,3.972,0.08,
4.02,3.964,0.08,
3.988,3.932,0.12,
3.988,3.94,0.12,
4.02,3.972,0.04,
4.02,3.972,0.12,
3.996,3.932,0.04,
4.02,3.964,0.12,
3.988,3.932,0.04,
4.02,3.94,0.08,
3.988,3.972,0.12,
3.988,3.94,0.12,
4.02,3.972,0,
4.02,3.964,0.04,
3.988,3.932,0.12,
4.02,3.964,0.12,
3.988,3.94,0.04,
4.02,3.972,0.04,
3.996,3.932,0.12,
4.02,3.94,0.12,
3.988,3.972,0.04,
4.02,3.932,0.08,
3.996,3.972,0.12,
4.02,3.94,0.12,
3.988,3.972,0.04,
4.02,3.972,0.08,
3.988,3.94,0.12,
3.988,3.972,0.12,
4.02,3.924,0.04,
3.988,3.932,0.04,
4.028,3.972,0.12,
4.02,3.972,0.08,
3.996,3.94,0.12,
4.02,3.932,0.12,
3.98,3.972,0.04,
4.02,3.932,0.08,
3.98,3.972,0.12,
4.02,3.972,0.12,
3.988,3.932,0.04,
3.988,3.964,0.12,
4.02,3.932,0.04,
4.02,3.94,0.08,
3.988,3.972,0.12,
4.02,3.932,0.12,
3.996,3.972,0.04,
3.988,3.972,0.08,
4.02,3.932,0.12,
3.996,3.94,0.12,
4.02,3.972,0.04,
4.02,3.972,0.12,
3.988,3.948,0.04,
4.02,3.972,0.12,
3.988,3.94,0.04,
4.02,3.932,0.08,
3.988,3.972,0.12,
4.02,3.94,0.12,
3.996,3.972,0.04,
4.02,3.972,0.12,
3.988,3.94,0.04,
3.988,3.932,0.08,
4.02,3.972,0.12,
3.996,3.972,0.12,
4.02,3.94,0.04,
3.996,3.94,0.08,
4.02,3.964,0.12,
4.02,3.972,0.12,
3.988,3.94,0.04,
4.02,3.972,0.12,
3.996,3.908,0.04,
4.02,3.972,0.08,
3.988,3.924,0.12,
3.996,3.972,0.08,
4.02,3.94,0.12,
4.02,3.972,0.08,
3.988,3.932,0.12,
3.988,3.94,0.08,
4.02,3.972,0.12,
4.02,3.972,0.12,
3.988,3.932,0.04,
4.02,3.932,0.08,
3.988,3.972,0.12,
4.02,3.948,0.12,
3.988,3.972,0.04,
4.02,3.932,0.08,
3.988,3.972,0.12,
3.996,3.972,0.08,
4.02,3.932,0.12,
3.988,3.964,0.12,
4.02,3.94,0.04,
3.988,3.964,0.04,
4.02,3.94,0.12,
4.02,3.94,0.12,
3.988,3.972,0.04,
4.02,3.932,0.12,
3.988,3.972,0.08,
3.988,3.964,0.08,
4.02,3.94,0.12,
3.988,3.972,0.12,
4.02,3.932,0.04,
4.02,3.972,0.08,
3.988,3.932,0.12,
3.988,3.972,0.12,
4.02,3.94,0.04,
4.02,3.94,0.08,
3.988,3.972,0.12,
3.988,3.94,0.08,
4.02,3.972,0.12,
4.02,3.94,0.08,
3.996,3.972,0.12,
3.996,3.932,0.08,
4.02,3.972,0.12,
3.996,3.94,0.12,
4.02,3.972,0.04,
4.02,3.94,0.12,
3.996,3.972,0.04,
4.02,3.972,0.08,
3.988,3.94,0.12,
3.996,3.964,0.12,
4.02,3.932,0.04,
4.02,3.932,0.12,
3.988,3.972,0,
4.02,3.94,0.12,
3.988,3.972,0.04,
4.02,3.94,0.12,
3.988,3.972,0.04,
3.988,3.964,0.08,
4.02,3.932,0.12,
3.996,3.972,0.12,
4.02,3.932,0.04,
3.988,3.94,0.08,
4.02,3.964,0.12,
3.988,3.94,0.08,
4.02,3.972,0.12,
4.02,3.94,0.08,
3.988,3.972,0.12,
4.02,3.964,0.08,
3.988,3.94,0.12,
4.02,3.932,0.12,
3.988,3.964,0.08,
4.02,3.94,0.12,
3.988,3.972,0.04,
3.996,3.932,0.12,
4.02,3.972,0.04,
3.996,3.94,0.12,
4.02,3.972,0.04,
4.02,3.94,0.12,
3.996,3.972,0.04,
3.988,3.972,0.12,
4.02,3.94,0.04,
4.02,3.972,0.08,
3.996,3.94,0.12,
4.02,3.972,0.12,
3.988,3.932,0.04,
4.02,3.972,0.08,
3.996,3.932,0.12,
4.02,3.94,0.08,
3.996,3.972,0.12,
4.02,3.972,0.12,
3.988,3.94,0.04,
4.02,3.932,0.12,
3.988,3.972,0.04,
3.996,3.972,0.12,
4.02,3.94,0.04,
4.02,3.932,0.12,
3.988,3.972,0.04,
3.988,3.932,0.08,
4.02,3.972,0.12,
3.988,3.964,0.04,
4.02,3.932,0.12,
4.02,3.932,0.08,
3.988,3.972,0.12,
3.988,3.972,0.12,
4.02,3.94,0.04,
4.012,3.932,0.12,
3.988,3.972,0.04,
3.988,3.94,0.08,
4.02,3.972,0.12,
3.996,3.972,0.08,
4.02,3.932,0.12,
4.02,3.932,0.08,
3.988,3.972,0.12,
4.02,3.964,0.08,
3.988,3.932,0.12,
4.02,3.964,0.08,
3.988,3.94,0.12,
4.02,3.94,0.12,
3.988,3.972,0.08,
3.996,3.964,0.12,
4.02,3.932,0.04,
3.988,3.972,0.12,
4.02,3.932,0.04,
3.988,3.972,0.08,
4.02,3.94,0.12,
4.02,3.972,0.12,
3.988,3.94,0,
4.02,3.94,0.04,
3.988,3.972,0.12,
3.996,3.972,0.04,
4.02,3.932,0.12,
3.988,3.964,0.08,
4.02,3.932,0.12,
3.996,3.94,0.12,
4.02,3.972,0.04,
4.02,3.94,0.12,
3.988,3.972,0.04,
3.988,3.972,0.08,
4.02,3.932,0.12,
4.02,3.972,0.08,
3.988,3.932,0.12,
4.02,3.972,0.12,
3.988,3.932,0.04,
4.02,3.972,0.12,
3.988,3.94,0.04,
4.028,3.964,0.12,
3.988,3.932,0.04,
3.996,3.972,0.08,
4.02,3.94,0.12,
4.02,3.948,0.08,
3.996,3.972,0.12,
3.988,3.94,0.04,
4.02,3.972,0.12,
4.02,3.972,0.08,
3.996,3.94,0.12,
4.02,3.972,0.12,
3.988,3.932,0.04,
3.996,3.972,0.12,
4.02,3.932,0.04,
4.02,3.94,0.12,
3.988,3.972,0.04,
4.02,3.94,0.08,
3.988,3.972,0.12,
4.02,3.94,0.08,
3.988,3.972,0.12,
4.02,3.972,0.12,
3.988,3.932,0.04,
4.02,3.972,0.04,
3.988,3.94,0.12,
3.988,3.964,0.08,
4.02,3.932,0.12,
4.02,3.932,0.12,
3.988,3.972,0.04,
3.988,3.972,0.08,
4.02,3.94,0.12,
4.004,3.972,0.12,
3.988,3.932,0.08,
4.02,3.972,0.12,
3.988,3.932,0.04,
4.02,3.94,0.08,
3.988,3.972,0.12,
4.02,3.94,0.12,
3.988,3.972,-3.12,
4.02,3.972,-3.04,
3.988,3.932,-3.12,
4.02,3.94,-3.08,
3.988,3.964,-3.04,
4.02,3.932,-3.08,
3.988,3.972,-3.04,
4.02,3.972,-3.04,
3.988,3.932,-3.12,
3.988,3.972,-3.04,
4.02,3.932,-3.12,
4.02,3.948,-3.04,
3.988,3.972,-3.08,
4.02,3.964,-3.04,
3.988,3.94,-3.08,
4.02,3.972,-3.04,
3.988,3.94,-3.12,
4.02,3.972,-3.04,
3.996,3.94,-3.08,
3.988,3.932,-3.08,
4.02,3.972,-3.04,
4.02,3.94,-3.04,
3.996,3.972,-3.12,
4.02,3.972,-3.04,
3.996,3.932,-3.08,
4.02,3.972,-3.04,
3.988,3.94,-3.08,
4.02,3.972,-3.04,
3.988,3.932,-3.08,
4.02,3.964,-3.04,
3.988,3.94,-3.12,
3.988,3.964,-3.04,
4.02,3.932,-3.12,
4.02,3.94,-3.04,
3.988,3.972,-3.12,
4.02,3.964,-3.04,
3.988,3.94,-3.08,
4.02,3.94,-3.04,
3.988,3.972,-3.08,
4.02,3.972,-3.04,
3.988,3.932,-3.08,
4.02,3.94,-3.04,
3.996,3.972,-3.08,
3.988,3.972,-3.04,
4.02,3.94,-3.12,
4.028,3.932,-3.04,
3.988,3.972,-3.12,
4.02,3.94,-3.08,
3.988,3.972,-3.04,
4.02,3.932,-3.04,
3.988,3.972,-3.08,
4.02,3.932,-3.08,
3.98,3.972,-3.04,
4.02,3.932,-3.04,
3.988,3.972,-3.08,
4.02,3.972,-3.04,
3.988,3.94,-3.08,
3.988,3.972,-3.04,
4.02,3.932,-3.12,
4.02,3.964,-3.08,
3.988,3.932,-3.04,
4.02,3.972,-3.08,
3.988,3.932,-3.04,
4.02,3.932,-3.08,
3.988,3.972,-3.04,
4.02,3.972,-3.04,
3.988,3.94,-3.08,
4.02,3.964,-3.04,
3.988,3.932,-3.08,
4.02,3.932,-3.04,
3.988,3.972,-3.08,
3.996,3.972,-3.04,
4.02,3.932,-3.08,
4.02,3.972,-3.04,
3.988,3.94,-3.08,
3.988,3.932,-3.04,
4.02,3.972,-3.12,
4.02,3.964,-3.04,
3.988,3.94,-3.12,
4.02,3.972,-3.04,
3.988,3.932,-3.12,
4.02,3.94,-3.04,
3.996,3.972,-3.12,
4.02,3.972,-3.04,
3.988,3.932,-3.08,
4.02,3.964,-3.04,
3.988,3.932,-3.08,
3.996,3.972,-3.08,
4.02,3.94,-3.04,
3.988,3.964,-3.04,
4.02,3.932,-3.08,
4.02,3.972,-3.04,
3.988,3.94,-3.12,
4.02,3.94,-3.08,
3.988,3.972,-3.04,
4.02,3.948,-3.08,
3.988,3.972,-3.04,
4.02,3.948,-3.04,
3.996,3.98,-3.08,
4.02,3.972,-3.04,
3.988,3.948,-3.08,
3.996,3.948,-3.04,
4.02,3.972,-3.12,
4.02,3.972,-3.08,
3.996,3.94,-3.04,
3.996,3.932,-3.04,
4.02,3.98,-3.08,
3.996,3.972,-3.04,
4.02,3.932,-3.08,
4.02,3.932,-3.04,
3.988,3.972,-3.08,
3.988,3.972,-3.04,
4.028,3.948,-3.08,
4.02,3.972,-3.04,
3.988,3.94,-3.08,
4.02,3.932,-3.08,
3.988,3.972,-3.04,
4.02,3.964,-3.08,
3.988,3.924,-3.04,
3.988,3.972,-3.08,
4.02,3.94,-3.04,
4.02,3.94,-3.04,
3.996,3.972,-3.08,
3.988,3.964,-3.08,
4.02,3.948,-3.04,
4.02,3.964,-3.04,
3.988,3.932,-3.08,
4.02,3.972,-3.04,
3.988,3.94,-3.08,
4.012,3.972,-3.04,
3.988,3.94,-3.08,
3.988,3.972,-3.04,
4.02,3.932,-3.08,
4.02,3.9,-3.04,
3.988,3.972,-3.08,
4.02,3.972,-3.04,
3.988,3.94,-3.12,
4.02,3.964,-3.04,
3.988,3.932,-3.12,
3.964,3.972,-3.04,
4.02,3.924,-3.08,
4.02,3.9,-3.04,
3.996,3.972,-3.08,
4.02,3.972,-3.04,
3.988,3.94,-3.12,
4.02,3.972,-3.08,
3.98,3.932,-3.04,
3.98,3.924,-3.04,
4.02,3.972,-3.08,
4.02,3.932,-3.08,
3.996,3.972,-3.04,
4.02,3.94,-3.04,
3.988,3.972,-3.08,
4.02,3.932,-3.04,
3.988,3.972,-3.12,
3.988,3.972,-3.04,
4.02,3.94,-3.08,
4.02,3.94,-3.04,
3.996,3.972,-3.08,
3.996,3.972,-3.08,
4.02,3.932,-3.04,
4.02,3.964,-3.04,
3.996,3.932,-3.08,
4.02,3.964,-3.04,
3.988,3.948,-3.08,
4.02,3.964,-3.04,
3.988,3.932,-3.12,
4.02,3.972,-3.04,
3.988,3.932,-3.08,
4.02,3.964,-3.08,
3.988,3.94,-3.04,
4.02,3.972,-3.08,
3.988,3.94,-3.04,
4.02,3.94,-3.04,
3.996,3.972,-3.08,
4.02,3.972,-3.04,
3.996,3.94,-3.08,
4.02,3.972,-3.04,
3.988,3.94,-3.08,
3.996,3.972,-3.04,
4.02,3.932,-3.12,
4.02,3.948,-3.08,
3.988,3.972,-3.04,
4.004,3.964,-3.04,
3.988,3.932,-3.08,
4.02,3.94,-3.04,
3.988,3.972,-3.08,
4.02,3.932,-3.04,
3.988,3.964,-3.12,
3.988,3.964,-3.04,
4.02,3.932,-3.08,
4.02,3.94,-3.08,
3.996,3.972,-3.04,
3.988,3.932,-3.04,
4.02,3.972,-3.12,
3.996,3.964,-3.04,
4.02,3.932,-3.08,
4.02,3.972,-3.04,
3.996,3.94,-3.08,
3.988,3.94,-3.04,
4.02,3.972,-3.12,
3.988,3.964,-3.04,
4.02,3.932,-3.08,
4.02,3.964,-3.08,
3.988,3.924,-3.04,
4.02,3.94,-3.04,
3.988,3.964,-3.08,
4.02,3.972,-3.04,
3.988,3.9,-3.12,
4.02,3.972,-3.04,
3.988,3.932,-3.12,
3.988,3.924,-3.08,
4.02,3.964,-3.04,
4.02,3.972,-3.04,
3.98,3.932,-3.08,
4.02,3.94,-3.08,
3.988,3.972,-3.04,
3.98,3.972,-3.04,
4.02,3.932,-3.08,
4.02,3.932,-3.04,
3.988,3.972,-3.12,
4.02,3.94,-3.04,
3.996,3.972,-3.12,
4.02,3.972,-3.04,
3.988,3.94,-3.08,
4.02,3.932,-3.04,
3.996,3.972,-3.08,
3.996,3.94,-3.08,
4.02,3.972,-3.04,
4.02,3.932,-3.04,
3.988,4.02,-3.08,
4.02,4.02,-3.04,
3.988,3.676,-3.12,
3.996,4.02,-3.08,
4.02,3.612,-3.04,
3.988,3.964,-3.04,
4.052,3.884,-3.08,
4.052,3.876,-3.04,
3.844,3.94,-3.12,
4.052,3.948,-3.08,
3.82,3.916,-3.04,
4.02,3.932,-3.04,
3.972,3.948,-3.08,
3.956,3.948,-3.08,
4.004,3.876,-3.04,
4.004,3.932,-3.04,
3.98,3.948,-3.12,
3.988,3.948,-3.04,
4.012,3.924,-3.12,
4.012,3.948,-3.08,
3.964,3.924,-3.04,
4.004,3.924,-3.08,
3.988,3.956,-3.04,
4.012,3.924,-3.08,
3.988,3.948,-3.04,
4.02,3.932,-3.04,
3.988,3.948,-3.12,
3.988,3.948,-3.04,
4.02,3.932,-3.08,
4.004,3.948,-3.08,
3.988,3.924,-3.04,
4.004,3.948,-3.04,
3.988,3.924,-3.12,
4.004,3.948,-3.04,
3.988,3.924,-3.08,
3.988,3.948,-3.04,
4.012,3.916,-3.08,
4.004,3.996,-3.04,
3.988,3.724,-3.12,
4.004,3.74,-3.04,
3.988,4.052,-3.12,
4.02,3.948,-3.04,
3.98,4.044,-3.12,
4.036,4.028,-3.04,
3.876,3.7,-3.08,
3.9,3.996,-3.04,
4.084,3.956,-3.12,
4.084,4.012,-3.04,
4.012,3.676,-3.12,
4.052,4.028,-3.04,
3.868,3.66,-3.12,
4.044,4.036,-3.04,
4.012,3.676,-3.08,
4.044,4.036,-3.04,
3.852,3.676,-3.08,
4.052,4.036,-3.04,
3.844,3.676,-3.12,
4.06,3.82,-3.04,
3.86,4.036,-3.12,
4.076,4.02,-3.04,
3.86,3.7,-3.12,
4.06,4.028,-3.08,
3.86,3.692,-3.04,
3.932,4.028,-3.04,
4.06,3.676,-3.08,
4.052,3.972,-3.04,
3.868,3.94,-3.08,
4.052,3.94,-3.04,
3.86,3.972,-3.08,
4.052,3.972,-3.08,
3.86,3.94,-3.04,
4.02,3.94,-3.04,
3.988,3.972,-3.08,
3.988,3.972,-3.04,
4.02,3.932,-3.08,
4.02,3.948,-3.04,
3.988,3.972,-3.08,
4.02,3.972,-3.08,
3.988,3.932,-3.04,
4.02,3.972,-3.04,
3.988,3.94,-3.08,
4.02,3.964,-3.04,
3.996,3.932,-3.12,
4.02,3.964,-3.08,
3.988,3.924,-3.04,
4.02,3.972,-3.04,
3.988,3.932,-3.12,
3.988,3.932,-3.08,
4.02,3.98,-3.04,
4.02,3.972,-3.04,
3.98,3.94,-3.12,
4.02,3.932,-3.04,
3.988,3.972,-3.12,
4.028,3.972,-3.08,
3.988,3.94,-3.04,
4.02,3.972,-3.04,
3.988,3.94,-3.08,
3.988,3.972,-3.04,
4.02,3.932,-3.08,
4.02,3.972,-3.04,
3.996,3.948,-3.12,
4.02,3.948,-3.04,
3.996,3.972,-3.12,
4.02,3.972,-3.04,
3.988,3.94,-3.08,
4.02,3.972,-3.04,
3.996,3.932,-3.08,
3.996,3.932,-3.04,
4.02,3.964,-3.12,
4.02,3.94,-3.04,
3.988,3.972,-3.12,
4.02,3.94,-3.08,
3.988,3.972,-3.04,
3.988,3.972,-3.08,
4.02,3.94,-3.04,
4.02,3.94,-3.08,
3.988,3.972,-3.04,
4.02,3.972,-3.04,
3.996,3.94,-3.12,
4.02,3.972,-3.04,
3.988,3.94,-3.12,
4.02,3.972,-3.04,
3.988,3.932,-3.08,
4.02,3.94,-3.04,
3.988,3.972,-3.08,
4.02,3.94,-3.08,
3.988,3.972,-3.04,
4.02,3.964,-3.04,
3.996,3.94,-3.12,
4.02,3.972,-3.04,
3.988,3.932,-3.12,
4.02,3.972,-3.08,
3.988,3.948,-3.04,
3.988,3.972,-3.08,
4.012,3.94,-3.04,
4.02,3.972,-3.04,
3.988,3.94,-3.08,
4.02,3.972,-3.04,
3.996,3.94,-3.12,
4.02,3.972,-3.04,
3.996,3.94,-3.08,
3.988,3.972,-3.08,
4.02,3.94,-3.04,
4.02,3.964,-3.04,
3.988,3.94,-3.12,
4.02,3.972,-3.04,
3.988,3.94,-3.08,
4.02,3.932,-3.04,
3.988,3.972,-3.12,
4.004,3.964,-3.08,
3.988,3.932,-3.04,
4.02,3.932,-3.04,
3.988,3.972,-3.12,
4.02,3.972,-3.04,
3.988,3.932,-3.12,
3.988,3.94,-3.04,
4.02,3.972,-3.12,
4.02,3.972,-3.04,
3.988,3.932,-3.12,
4.02,3.94,-3.04,
3.988,3.972,-3.08,
3.996,3.972,-3.04,
4.028,3.94,-3.08,
3.988,3.932,-3.08,
4.028,3.972,-3.04,
3.996,3.948,-3.04,
4.02,3.972,-3.12,
4.02,3.972,-3.04,
3.996,3.932,-3.08,
3.988,3.972,-3.08,
4.02,3.932,-3.04,
3.996,3.964,-3.04,
4.02,3.932,-3.08,
3.988,3.94,-3.04,
4.02,3.972,-3.12,
4.02,3.972,-3.04,
3.988,3.94,-3.12,
4.02,3.972,-3.04,
3.988,3.932,-3.08,
4.02,3.972,-3.04,
3.996,3.948,-3.12,
4.02,3.972,-3.08,
3.996,3.948,-3.04,
4.02,3.972,-3.04,
3.996,3.94,-3.08,
4.02,3.972,-3.08,
3.988,3.932,-3.04,
4.02,3.972,-3.08,
3.996,3.932,-3.04,
3.988,3.972,-3.04,
4.02,3.948,-3.12,
4.02,3.972,-3.04,
3.988,3.94,-3.08,
4.02,3.972,-3.04,
3.988,3.94,-3.08,
3.996,3.972,-3.08,
4.02,3.94,-3.04,
4.02,3.948,-3.04,
3.996,3.972,-3.08,
4.02,3.948,-3.04,
3.988,3.972,-3.08,
4.02,3.972,-3.04,
3.988,3.932,-3.08,
3.996,3.964,-3.04,
4.028,3.932,-3.08,
4.02,3.972,-3.04,
3.996,3.94,-3.08,
4.02,3.932,-3.04,
3.988,3.972,-3.12,
3.988,3.972,-3.04,
4.028,3.94,-3.12,
4.02,3.94,-3.04,
3.988,3.972,-3.08,
4.02,3.94,-3.04,
3.988,3.972,-3.12,
4.02,3.972,-3.04,
3.996,3.94,-3.08,
4.02,3.972,-3.04,
3.996,3.932,-3.12,
4.02,3.972,-3.08,
3.988,3.932,-3.04,
4.02,3.94,-3.04,
3.996,3.972,-3.12,
4.02,3.94,-3.08,
3.988,3.972,-3.04,
4.02,3.972,-3.08,
3.988,3.932,-3.04,
4.02,3.948,-3.04,
3.988,3.972,-3.08,
4.02,3.948,-3.04,
3.988,3.972,-3.08,
4.02,3.948,-3.08,
3.988,3.972,-3.04,
3.996,3.972,-3.08,
4.02,3.932,-3.04,
4.02,3.964,-3.04,
3.988,3.94,-3.08,
4.02,3.972,-3.08,
3.996,3.94,-3.04,
4.02,3.972,-3.04,
3.988,3.94,-3.08,
4.02,3.972,-3.04,
3.996,3.948,-3.08,
4.02,3.932,-3.04,
3.988,3.972,-3.08,
4.02,3.972,-3.04,
3.996,3.94,-3.08,
4.02,3.932,-3.04,
3.988,3.972,-3.12,
4.02,3.972,-3.04,
3.988,3.932,-3.12,
3.996,3.972,-3.04,
4.02,3.94,-3.08,
4.02,3.964,-3.04,
3.996,3.94,-3.12,
4.02,3.948,-3.04,
3.996,3.972,-3.12,
3.996,3.972,-3.04,
4.02,3.94,-3.08,
4.02,3.948,-3.08,
3.988,3.972,-3.04,
3.996,3.972,-3.08,
4.02,3.94,-3.04,
4.02,3.964,-3.04,
3.996,3.94,-3.08,
4.02,3.972,-3.08,
3.988,3.932,-3.04,
4.02,3.972,-3.04,
3.996,3.94,-3.12,
3.988,3.972,-3.08,
4.02,3.932,-3.04,
4.02,3.948,-3.04,
3.988,3.972,-3.08,
4.02,3.94,-3.04,
3.996,3.972,-3.12,
4.02,3.94,-3.08,
3.988,3.972,-3.04,
3.996,3.972,-3.04,
4.02,3.94,-3.08,
4.02,3.94,-3.04,
3.988,3.972,-3.08,
4.02,3.972,-3.04,
3.996,3.94,-3.08,
4.02,3.932,-3.04,
3.996,3.972,-3.08,
4.02,3.972,-3.04,
3.996,3.94,-3.08,
4.02,3.972,-3.04,
3.988,3.932,-3.08,
4.02,3.972,-3.04,
3.988,3.932,-3.08,
4.02,3.972,-3.08,
3.996,3.94,-3.04,
3.988,3.94,-3.08,
4.02,3.972,-3.04,
3.988,3.948,-3.04,
4.028,3.972,-3.08,
4.02,3.972,-3.04,
3.988,3.94,-3.12,
4.028,3.94,-3.04,
3.988,3.972,-3.12,
4.02,3.94,-3.04,
3.996,3.972,-3.08,
3.988,3.94,-3.08,
4.028,3.972,-3.04,
4.02,3.972,-3.04,
3.996,3.94,-3.12,
3.988,3.964,-3.04,
4.02,3.948,-3.08,
3.988,3.948,-3.04,
4.02,3.972,-3.08,
3.988,3.932,-3.04,
4.02,3.972,-3.12,
3.996,3.94,-3.04,
4.02,3.972,-3.08,
4.004,3.972,-3.04,
4.02,3.94,-3.08,
4.02,3.964,-3.04,
3.996,3.94,-3.08,
4.02,3.932,-3.04,
3.988,3.972,-3.08,
3.996,3.972,-3.04,
4.02,3.94,-3.08,
4.02,3.948,-3.04,
3.988,3.972,-3.12,
3.988,3.94,-3.04,
4.02,3.972,-3.08,
4.02,3.932,-3.04,
3.988,3.972,-3.08,
3.996,3.972,-3.04,
4.02,3.94,-3.08,
4.02,3.964,-3.04,
3.996,3.94,-3.08,
3.988,3.94,-3.04,
4.02,3.972,-3.12,
4.02,3.932,-3.08,
3.988,3.972,-3.04,
3.996,3.972,-3.04,
4.028,3.932,-3.08,
3.988,3.94,-3.04,
4.02,3.972,-3.08,
3.988,3.948,-3.08,
4.02,3.972,-3.04,
4.02,3.94,-3.04,
3.988,3.972,-3.08,
3.996,3.972,-3.04,
4.02,3.94,-3.08,
4.02,3.94,-3.04,
3.988,3.972,-3.08,
3.996,3.972,-3.04,
4.02,3.94,-3.08,
4.02,3.948,-3.04,
3.988,3.972,-3.12,
4.02,3.972,-3.04,
3.988,3.932,-3.12,
4.02,3.932,-3.04,
3.988,3.98,-3.08,
4.02,3.94,-3.04,
3.996,3.972,-3.12,
4.02,3.972,-3.04,
3.988,3.94,-3.08,
3.988,3.94,-3.08,
4.028,3.972,-3.04,
4.02,3.94,-3.04,
3.988,3.972,-3.12,
3.996,3.972,-3.04,
4.02,3.94,-3.08,
4.02,3.932,-3.04,
3.988,3.972,-3.12,
4.02,3.972,-3.04,
3.988,3.948,-3.12,
4.02,3.932,-3.04,
3.996,3.972,-3.12,
4.02,3.972,-3.08,
3.996,3.94,-3.04,
4.02,3.94,-3.04,
3.996,3.972,-3.12,
3.988,3.972,-3.04,
4.02,3.94,-3.12,
3.996,3.94,-3.08,
4.02,3.972,-3.04,
4.02,3.972,-3.04,
3.988,3.948,-3.08,
4.02,3.972,-3.04,
3.988,3.94,-3.12,
4.02,3.972,-3.08,
3.988,3.94,-3.04,
4.02,3.94,-3.04,
3.996,3.972,-3.12,
4.02,3.972,-3.04,
3.996,3.94,-3.08,
4.02,3.932,-3.04,
3.996,3.972,-3.12,
3.988,3.972,-3.04,
4.02,3.94,-3.12,
4.02,3.972,-3.04,
3.996,3.932,-3.08,
3.988,3.972,-3.04,
4.02,3.948,-3.12,
4.02,3.972,-3.04,
3.996,3.94,-3.12,
4.02,3.94,-3.08,
3.988,3.964,-3.04,
4.02,3.932,-3.08,
3.988,3.972,-3.04,
4.02,3.972,-3.04,
3.988,3.94,-3.12,
3.988,3.932,-3.04,
4.02,3.972,-3.08,
3.988,3.972,-3.04,
4.02,3.948,-3.12,
4.02,3.94,-3.04,
3.988,3.98,-3.08,
3.988,3.972,-3.04,
4.02,3.94,-3.12,
4.02,3.972,-3.04,
3.996,3.94,-3.08,
3.988,3.972,-3.08,
4.02,3.94,-3.04,
4.02,3.964,-3.04,
3.996,3.94,-3.12,
3.996,3.932,-3.04,
4.02,3.972,-3.12,
4.02,3.932,-3.04,
3.988,3.972,-3.08,
4.02,3.948,-3.04,
3.988,3.972,-3.12,
3.996,3.94,-3.04,
4.02,3.972,-3.12,
3.988,3.972,-3.04,
4.02,3.924,-3.08,
3.988,3.932,-3.04,
4.02,3.972,-3.12,
3.988,3.972,-3.08,
4.02,3.948,-3.04,
4.02,3.94,-3.04,
3.988,3.972,-3.08,
3.988,3.972,-3.04,
4.02,3.932,-3.12,
4.02,3.932,-3.04,
3.996,3.972,-3.08,
4.02,3.948,-3.04,
3.988,3.972,-3.12,
4.02,3.932,-3.04,
3.988,3.972,-3.08,
3.988,3.972,-3.08,
4.02,3.94,-3.04,
4.02,3.932,-3.04,
3.996,3.972,-3.08,
3.988,3.972,-3.04,
4.02,3.94,-3.12,
4.02,3.948,-3.04,
3.988,3.972,-3.08,
4.02,3.972,-3.08,
3.988,3.948,-3.04,
4.02,3.972,-3.04,
3.996,3.94,-3.12,
4.02,3.972,-3.08,
3.996,3.94,-3.04,
4.02,3.948,-3.04,
3.988,3.972,-3.08,
3.996,3.932,-3.04,
4.02,3.972,-3.08,
4.02,3.94,-3.04,
3.996,3.972,-3.12,
3.996,3.972,-3.04,
4.02,3.94,-3.08,
3.996,3.964,-3.04,
4.02,3.932,-3.12,
4.02,3.972,-3.08,
3.988,3.94,-3.04,
4.02,3.932,-3.04,
3.988,3.972,-3.08,
4.02,3.972,-3.04,
3.988,3.932,-3.08,
3.996,3.972,-3.04,
4.02,3.94,-3.12,
3.996,3.964,-3.08,
4.02,3.94,-3.04,
4.02,3.94,-3.04,
3.988,3.972,-3.12,
3.996,3.94,-3.04,
4.02,3.972,-3.12,
4.02,3.972,-3.04,
3.988,3.932,-3.12,
3.996,3.972,-3.04,
4.02,3.948,-3.12,
4.02,3.932,-3.04,
3.996,3.972,-3.08,
4.02,3.94,-3.04,
3.988,3.98,-3.12,
4.02,3.94,-3.04,
3.988,3.972,-3.08,
4.02,3.94,-3.04,
3.988,3.972,-3.08,
3.996,3.932,-3.04,
4.028,3.972,-3.12,
3.988,3.972,-3.04,
4.02,3.932,-3.08,
3.988,3.948,-3.08,
4.02,3.972,-3.04,
3.988,3.972,-3.04,
4.02,3.94,-3.08,
4.02,3.916,-3.04,
3.988,3.972,-3.12,
3.996,3.972,-3.04,
4.02,3.948,-3.08,
3.996,3.94,-3.04,
4.02,3.972,-3.08,
3.988,3.94,-3.04,
4.02,3.972,-3.12,
4.02,3.94,-3.04,
3.988,3.972,-3.08,
3.988,3.972,-3.04,
4.02,3.932,-3.08,
3.996,3.948,-3.08,
4.02,3.972,-3.04,
3.996,3.972,-3.04,
4.02,3.94,-3.08,
4.02,3.94,-3.04,
3.988,3.972,-3.12,
4.02,3.948,-3.08,
3.996,3.972,-3.04,
3.996,3.932,-3.04,
4.02,3.972,-3.12,
4.02,3.972,-3.04,
3.996,3.932,-3.12,
4.02,3.932,-3.08,
3.988,3.972,-3.04,
3.988,3.972,-3.04,
4.02,3.94,-3.12,
4.02,3.972,-3.04,
3.988,3.932,-3.08,
4.02,3.972,-3.04,
3.988,3.932,-3.08,
4.02,3.94,-3.04,
3.996,3.972,-3.08,
4.02,3.972,-3.04,
3.996,3.94,-3.12,
4.02,3.948,-3.04,
3.996,3.972,-3.12,
3.996,3.932,-3.04,
4.02,3.972,-3.08,
4.02,3.972,-3.08,
3.996,3.94,-3.04,
4.02,3.972,-3.08,
3.996,3.932,-3.04,
4.02,3.948,-3.04,
3.996,3.972,-3.12,
4.02,3.972,-3.04,
3.988,3.94,-3.08,
4.028,3.972,-3.04,
3.988,3.94,-3.08,
3.988,3.932,-3.04,
4.02,3.972,-3.12,
3.996,3.972,-3.08,
4.02,3.932,-3.04,
3.996,3.94,-3.08,
4.02,3.98,-3.04,
4.02,3.932,-3.04,
3.988,3.964,-3.08,
4.02,3.932,-3.04,
3.988,3.972,-3.08,
4.02,3.932,-3.04,
3.988,3.972,-3.08,
3.988,3.972,-3.04,
4.02,3.94,-3.12,
3.988,3.932,-3.04,
4.02,3.972,-3.12,
3.988,3.972,-3.04,
4.02,3.94,-3.08,
4.02,3.932,-3.04,
3.988,3.972,-3.12,
3.988,3.972,-3.04,
4.02,3.94,-3.08,
4.02,3.972,-3.04,
3.988,3.932,-3.12,
4.02,3.94,-3.04,
3.988,3.972,-3.08,
4.02,3.94,-3.04,
3.988,3.972,-3.08,
4.02,3.972,-3.04,
3.988,3.948,-3.12,
4.02,3.972,-3.04,
3.988,3.948,-3.12,
4.02,3.972,-3.04,
