Measurements/Power Payload/Metingen 7/Payload 2 20.csv

CH1,CH2,CH3,Start,Increment,
Volt,Volt,Volt,-5.995,0.01
3.94,3.956,0.12,
3.924,3.988,0.04,
3.916,3.964,0.12,
3.94,3.988,0.04,
3.94,3.972,0.12,
3.924,4.028,0.04,
3.924,4.02,0.12,
3.948,3.988,0.04,
3.94,4.004,0.12,
3.924,3.988,0.04,
3.924,4.004,0.12,
3.988,3.932,0.04,
3.972,3.956,0.12,
3.956,3.98,0,
3.972,3.964,0.12,
3.948,3.996,0.04,
3.964,3.956,0.12,
3.9,3.988,0.04,
3.908,3.988,0.12,
3.94,3.956,0.04,
3.924,3.98,0.12,
3.948,3.956,0.04,
3.94,3.98,0.08,
3.908,3.956,0.12,
3.94,3.956,0.12,
3.924,3.988,0.04,
3.94,3.956,0.12,
3.908,3.996,0.04,
3.94,3.956,0.12,
3.924,3.988,0.08,
3.94,3.988,0.12,
3.924,4.028,0,
3.924,4.02,0.08,
3.948,3.98,0.12,
3.94,4.004,0.08,
3.916,3.972,0.12,
3.956,3.972,0.12,
3.996,3.932,0.04,
3.972,3.948,0.04,
3.94,3.98,0.12,
3.972,3.956,0.08,
3.932,3.98,0.12,
3.94,3.956,0.08,
3.9,3.988,0.12,
3.908,3.988,0.12,
3.94,3.956,0.08,
3.94,3.956,0.08,
3.908,3.98,0.12,
3.924,3.956,0.08,
3.94,3.988,0.12,
3.94,3.956,0.04,
3.924,3.988,0.12,
3.94,3.988,0.12,
3.924,3.956,0.04,
3.94,3.98,0.12,
3.924,3.956,0.04,
3.94,3.956,0.08,
3.908,3.988,0.12,
3.94,3.956,0.04,
3.924,3.988,0.12,
3.94,3.98,0.04,
3.908,3.956,0.12,
3.94,3.964,0.08,
3.924,3.988,0.12,
3.94,3.956,0.12,
3.916,3.988,0.08,
3.94,3.956,0.12,
3.908,3.98,0.08,
3.94,3.988,0.12,
3.924,3.956,0,
3.94,3.956,0.12,
3.924,3.988,0.08,
3.94,3.988,0.08,
3.924,3.956,0.12,
3.908,3.98,0.12,
3.948,3.956,0.04,
3.94,3.956,0.12,
3.924,3.98,0.04,
3.94,3.956,0.08,
3.924,3.98,0.12,
3.94,3.988,0.04,
3.916,3.956,0.12,
3.924,3.988,0.12,
3.948,3.956,0,
3.94,3.98,0.12,
3.908,3.956,0.04,
3.94,3.956,0.04,
3.924,3.98,0.12,
3.924,3.956,0.12,
3.948,3.988,0.08,
3.94,3.988,0.12,
3.924,3.948,0.04,
3.94,3.98,0.12,
3.924,3.956,0.04,
3.94,3.98,0.12,
3.924,3.956,0.04,
3.94,3.956,0.12,
3.916,3.988,0.04,
3.94,3.988,0.12,
3.924,3.956,0.04,
3.924,3.956,0.12,
3.94,3.98,0,
3.924,3.956,0.12,
3.948,3.98,0.04,
3.948,3.956,0.12,
3.916,3.988,0.04,
3.94,3.956,0.04,
3.924,3.98,0.12,
3.94,3.988,0.12,
3.908,3.94,0.04,
3.924,3.956,0.12,
3.948,3.988,0.04,
3.948,3.956,0.08,
3.908,3.988,0.12,
3.908,3.956,0.08,
3.948,3.988,0.12,
3.94,3.956,0.04,
3.924,3.988,0.12,
3.924,3.956,0.12,
3.94,3.988,0.04,
3.94,3.98,0.12,
3.908,3.956,0.04,
3.924,3.988,0.08,
3.94,3.956,0.12,
3.94,3.956,0.08,
3.924,3.988,0.12,
3.94,3.956,0.04,
3.916,3.98,0.12,
3.94,3.956,0.12,
3.924,3.988,0.04,
3.94,3.988,0.12,
3.924,3.956,0.08,
3.94,3.988,0.12,
3.924,3.956,0.04,
3.94,3.988,0.12,
3.924,3.956,0.08,
3.94,3.956,0.04,
3.908,4.028,0.12,
3.94,4.012,0.12,
3.924,3.94,0.04,
3.94,3.972,0.04,
3.908,3.956,0.12,
3.924,3.956,0.08,
3.988,3.98,0.12,
3.972,3.956,0.08,
3.9,3.988,0.12,
3.94,3.956,0.08,
3.908,3.996,0.12,
3.94,3.988,0.12,
3.916,3.948,0.04,
3.94,3.956,0.12,
3.924,3.98,0.04,
3.924,3.98,0.08,
3.948,3.956,0.12,
3.94,3.956,0.12,
3.916,3.988,0.04,
3.924,3.956,0.12,
3.94,3.988,0.08,
3.94,3.996,0.08,
3.916,4.028,0.12,
3.94,4.02,0.12,
3.924,3.98,0.04,
3.948,4.004,0.08,
3.916,3.972,0.12,
3.956,3.972,0.12,
3.996,3.932,0.04,
3.972,3.94,0.12,
3.948,3.972,0.04,
3.972,3.956,0.12,
3.932,3.988,0.04,
3.932,3.956,0.12,
3.9,3.98,0.04,
3.9,3.956,0.08,
3.932,3.98,-3.2,
3.94,3.956,-3.2,
3.916,3.988,-3.12,
3.908,3.956,-3.2,
3.948,3.988,-3.16,
3.94,3.98,-3.2,
3.916,3.956,-3.16,
3.924,3.956,-3.2,
3.94,3.98,-3.16,
3.94,3.956,-3.2,
3.908,4.028,-3.16,
3.94,4.028,-3.2,
3.908,3.996,-3.12,
3.94,3.988,-3.2,
3.908,4.004,-3.16,
3.924,4.004,-3.2,
3.98,3.932,-3.16,
3.988,3.94,-3.2,
3.956,3.972,-3.16,
3.972,3.972,-3.2,
3.94,3.948,-3.2,
3.964,3.956,-3.2,
3.9,3.98,-3.16,
3.9,3.956,-3.2,
3.924,3.98,-3.16,
3.908,3.948,-3.2,
3.94,3.988,-3.16,
3.94,3.956,-3.2,
3.916,3.988,-3.2,
3.94,3.988,-3.2,
3.924,3.956,-3.16,
3.94,3.988,-3.2,
3.908,3.956,-3.16,
3.924,3.988,-3.2,
3.948,3.956,-3.12,
3.94,3.956,-3.2,
3.924,4.028,-3.12,
3.924,4.02,-3.2,
3.948,3.988,-3.12,
3.94,4.004,-3.2,
3.924,3.988,-3.12,
3.908,4.004,-3.2,
3.988,3.94,-3.16,
3.98,3.94,-3.2,
3.948,3.972,-3.12,
3.972,3.956,-3.2,
3.948,3.98,-3.16,
3.972,3.948,-3.2,
3.892,3.996,-3.16,
3.908,3.956,-3.2,
3.94,3.98,-3.12,
3.94,3.956,-3.2,
3.916,3.988,-3.16,
3.908,3.956,-3.2,
3.948,3.98,-3.16,
3.94,3.988,-3.2,
3.908,3.948,-3.16,
3.94,3.988,-3.2,
3.916,3.956,-3.12,
3.94,3.956,-3.2,
3.916,3.988,-3.12,
3.94,3.964,-3.2,
3.916,4.028,-3.16,
3.94,4.02,-3.2,
3.916,3.988,-3.12,
3.94,3.988,-3.2,
3.916,4.02,-3.16,
3.924,4.004,-3.2,
3.988,3.932,-3.12,
3.972,3.948,-3.2,
3.94,3.972,-3.16,
3.972,3.972,-3.2,
3.94,3.956,-3.16,
3.964,3.956,-3.2,
3.9,3.98,-3.16,
3.908,3.948,-3.2,
3.94,3.988,-3.16,
3.908,3.988,-3.2,
3.94,3.956,-3.12,
3.908,3.956,-3.2,
3.94,3.996,-3.12,
3.94,3.98,-3.2,
3.908,3.956,-3.12,
3.94,3.956,-3.2,
3.908,3.988,-3.16,
3.924,3.948,-3.2,
3.948,3.988,-3.12,
3.924,3.972,-3.2,
3.94,4.028,-3.16,
3.924,4.012,-3.2,
3.94,3.988,-3.16,
3.94,4.004,-3.2,
3.908,3.988,-3.12,
3.924,4.004,-3.2,
3.996,3.94,-3.16,
3.972,3.972,-3.2,
3.948,3.932,-3.12,
3.972,3.956,-3.2,
3.94,3.98,-3.12,
3.964,3.98,-3.2,
3.9,3.956,-3.12,
3.9,3.988,-3.2,
3.94,3.948,-3.12,
3.924,3.956,-3.2,
3.94,3.98,-3.12,
3.94,3.98,-3.2,
3.924,3.948,-3.16,
3.94,3.956,-3.2,
3.916,3.988,-3.12,
3.94,3.988,-3.2,
3.916,3.956,-3.12,
3.94,3.956,-3.2,
3.908,3.98,-3.16,
3.924,3.996,-3.2,
3.948,4.028,-3.12,
3.94,4.012,-3.2,
3.916,3.988,-3.12,
3.924,4.004,-3.2,
3.94,3.964,-3.12,
3.948,3.964,-3.2,
3.988,3.94,-3.12,
3.972,3.956,-3.2,
3.948,3.972,-3.16,
3.972,3.956,-3.2,
3.924,3.988,-3.12,
3.924,3.988,-3.2,
3.9,3.948,-3.16,
3.908,3.98,-3.2,
3.94,3.948,-3.16,
3.916,3.956,-3.2,
3.94,3.98,-3.12,
3.908,3.988,-3.2,
3.94,3.924,-3.12,
3.948,3.924,-3.2,
3.908,3.988,-3.16,
3.94,3.988,-3.2,
3.924,3.956,-3.12,
3.94,3.956,-3.2,
3.892,4.028,-3.12,
3.884,4.028,-3.2,
3.948,3.98,-3.12,
3.94,4.004,-3.2,
3.908,3.988,-3.16,
3.924,4.02,-3.2,
3.996,3.932,-3.16,
3.988,3.932,-3.2,
3.932,3.972,-3.16,
3.972,3.948,-3.2,
3.948,3.972,-3.12,
3.972,3.956,-3.2,
3.9,3.98,-3.16,
3.9,3.956,-3.2,
3.932,3.98,-3.12,
3.908,3.956,-3.2,
3.94,3.988,-3.12,
3.924,3.956,-3.2,
3.948,3.988,-3.16,
3.94,3.98,-3.2,
3.908,3.956,-3.16,
3.94,3.98,-3.2,
3.908,3.956,-3.16,
3.924,3.98,-3.2,
3.94,3.948,-3.12,
3.94,3.956,-3.2,
3.908,4.028,-3.2,
3.94,4.028,-3.2,
3.916,3.98,-3.16,
3.94,3.988,-3.2,
3.908,4.004,-3.12,
3.916,4.004,-3.2,
3.996,3.932,-3.16,
3.988,3.972,-3.2,
3.948,3.924,-3.12,
3.972,3.956,-3.2,
3.94,3.98,-3.16,
3.964,3.972,-3.2,
3.9,3.948,-3.16,
3.876,3.98,-3.2,
3.932,3.956,-3.2,
3.916,3.988,-3.2,
3.94,3.956,-3.16,
3.94,3.956,-3.2,
3.908,3.98,-3.16,
3.94,3.956,-3.2,
3.924,3.988,-3.16,
3.94,3.988,-3.2,
3.924,3.956,-3.16,
3.916,3.98,-3.2,
3.94,3.956,-3.16,
3.94,3.956,-3.2,
3.908,4.028,-3.12,
3.94,4.02,-3.2,
3.924,3.988,-3.12,
3.908,4.004,-3.2,
3.948,3.98,-3.16,
3.924,4.004,-3.2,
3.988,3.932,-3.2,
3.972,3.94,-3.2,
3.956,3.972,-3.16,
3.972,3.956,-3.2,
3.94,3.98,-3.12,
3.972,3.98,-3.2,
3.9,3.932,-3.16,
3.908,3.988,-3.2,
3.94,3.924,-3.12,
3.908,3.932,-3.2,
3.94,3.988,-3.12,
3.94,3.988,-3.2,
3.9,3.956,-3.12,
3.948,3.964,-3.2,
3.892,3.988,-3.12,
3.9,3.956,-3.2,
3.94,3.988,-3.16,
3.924,3.956,-3.2,
3.94,3.988,-3.16,
3.94,3.964,-3.2,
3.924,4.028,-3.12,
3.94,4.02,-3.2,
3.924,3.98,-3.12,
3.924,4.004,-3.2,
3.94,3.988,-3.2,
3.924,4.004,-3.2,
3.988,3.932,-3.12,
3.972,3.948,-3.2,
3.948,3.972,-3.16,
3.972,3.924,-3.2,
3.948,3.98,-3.12,
3.964,3.988,-3.2,
3.892,3.956,-3.16,
3.908,3.964,-3.2,
3.94,3.988,-3.16,
3.892,3.988,-3.2,
3.94,3.956,-3.12,
3.924,3.956,-3.2,
3.948,3.988,-3.16,
3.924,3.98,-3.2,
3.948,3.964,-3.16,
3.948,3.988,-3.2,
3.916,3.956,-3.16,
3.94,3.988,-3.2,
3.924,3.956,-3.2,
3.924,4.028,-3.2,
3.948,3.988,-3.16,
3.94,3.988,-3.2,
3.924,4.004,-3.16,
3.94,4.004,-3.2,
3.924,3.972,-3.16,
3.956,3.94,-3.2,
3.988,3.972,-3.16,
3.972,3.972,-3.2,
3.94,3.956,-3.16,
3.964,3.956,-3.2,
3.924,3.98,-3.16,
3.932,4.028,-3.2,
3.9,3.284,-3.16,
3.94,3.348,-3.2,
3.908,3.46,-3.16,
3.94,3.452,-3.2,
3.924,3.5,-3.16,
3.988,3.492,-3.2,
3.244,3.524,-3.12,
3.316,3.5,-3.2,
3.42,3.532,-3.16,
3.42,3.508,-3.2,
3.468,3.532,-3.16,
3.46,3.532,-3.2,
3.484,3.508,-3.12,
3.46,3.532,-3.16,
3.5,3.508,-3.2,
3.476,3.532,-3.2,
3.5,3.516,-3.16,
3.476,3.516,-3.2,
3.5,4.196,-3.2,
3.5,4.14,-3.2,
3.476,4.012,-3.12,
3.484,4.028,-3.2,
3.5,3.98,-3.16,
3.484,3.964,-3.2,
4.148,4.036,-3.16,
4.1,4.036,-3.2,
3.98,3.964,-3.12,
3.988,3.972,-3.2,
3.94,3.94,-3.16,
3.924,3.948,-3.2,
3.996,4.028,-3.12,
3.996,4.012,-3.2,
3.924,3.988,-3.16,
3.94,4.004,-3.2,
3.9,3.98,-3.12,
3.916,4.004,-3.2,
3.988,3.988,-3.16,
3.972,4.004,-3.2,
3.948,3.948,-3.16,
3.972,3.972,-3.2,
3.94,3.932,-3.12,
3.964,4.028,-3.2,
3.94,3.26,-3.12,
3.972,3.372,-3.2,
3.916,3.468,-3.16,
3.94,3.468,-3.2,
3.892,3.524,-3.12,
3.988,3.492,-3.2,
3.228,4.172,-3.16,
3.34,4.14,-3.2,
3.436,4.02,-3.16,
3.428,4.028,-3.2,
3.492,3.98,-3.16,
3.444,3.996,-3.2,
4.132,3.964,-3.16,
4.1,3.964,-3.2,
3.98,4.028,-3.12,
3.988,4.012,-3.2,
3.932,3.284,-3.16,
3.964,3.396,-3.2,
3.924,3.5,-3.16,
3.932,3.476,-3.2,
3.996,3.532,-3.12,
3.972,3.5,-3.16,
3.252,4.188,-3.2,
3.364,4.132,-3.12,
3.46,4.044,-3.2,
3.444,4.06,-3.2,
3.5,4.012,-3.16,
3.452,4.02,-3.2,
4.14,3.948,-3.16,
4.092,3.956,-3.2,
4.012,3.988,-3.12,
4.02,3.956,-3.2,
3.964,4.028,-3.16,
3.988,4.004,-3.2,
3.908,3.932,-3.16,
3.94,3.94,-3.2,
3.908,4.028,-3.16,
3.924,4.02,-3.2,
3.996,3.988,-3.16,
3.972,4.004,-3.2,
3.892,3.98,-3.2,
3.908,4.004,-3.2,
3.988,3.98,-3.16,
3.972,4.004,-3.2,
3.956,3.988,-3.12,
3.948,4.004,-3.2,
3.972,3.94,-3.16,
3.964,4.02,-3.2,
3.948,3.284,-3.12,
3.94,3.3,-3.2,
3.964,4.044,-3.16,
3.964,4.036,-3.2,
3.9,3.996,-3.16,
3.98,4.02,-3.2,
3.252,3.948,-3.16,
3.268,3.972,-3.2,
4.004,3.956,-3.16,
3.996,3.956,-3.2,
3.956,3.988,-3.16,
3.972,3.956,-3.2,
3.908,3.988,-3.16,
3.94,3.988,-3.2,
3.916,3.956,-3.16,
3.916,3.988,-3.2,
3.94,3.956,-3.2,
3.94,3.956,-3.2,
3.924,3.98,-3.16,
3.948,3.956,-3.2,
3.908,3.988,-3.16,
3.94,3.988,-3.2,
3.908,3.956,-3.16,
3.924,3.988,-3.2,
3.94,3.956,-3.12,
3.924,3.988,-3.2,
3.94,4.028,-3.16,
3.94,4.02,-3.2,
3.916,3.988,-3.16,
3.94,4.004,-3.2,
3.916,3.972,-3.16,
3.956,3.932,-3.2,
3.988,3.972,-3.16,
3.972,3.956,-3.2,
3.94,3.972,-3.12,
3.964,3.956,-3.2,
3.924,3.98,-3.12,
3.932,3.98,-3.2,
3.9,3.956,-3.2,
3.908,3.956,-3.2,
3.94,3.988,-3.2,
3.94,3.98,-3.2,
3.908,3.956,-3.12,
3.94,3.988,-3.2,
3.924,3.948,-3.16,
3.94,3.956,-3.2,
3.924,3.988,-3.16,
3.94,3.988,-3.2,
3.924,3.956,-3.16,
3.94,3.956,-3.2,
3.908,3.988,-3.16,
3.924,3.956,-3.2,
3.94,3.98,-3.12,
3.948,3.956,-3.2,
3.916,3.98,-3.16,
3.916,3.956,-3.2,
3.948,3.988,-3.12,
3.948,3.98,-3.16,
3.908,3.956,-3.2,
3.924,3.956,-3.2,
3.94,3.988,-3.12,
3.94,3.98,-3.2,
3.924,3.956,-3.12,
3.94,3.956,-3.2,
3.924,3.988,-3.12,
3.916,3.956,-3.2,
3.94,3.988,-3.16,
3.94,3.98,-3.2,
3.924,3.956,-3.12,
3.94,3.956,-3.2,
3.924,3.988,-3.12,
3.924,3.956,-3.2,
3.94,3.988,-3.12,
3.924,3.988,-3.2,
3.94,3.948,-3.12,
3.916,3.964,-3.2,
3.94,3.98,-3.16,
3.94,3.98,-3.2,
3.908,3.948,-3.12,
3.948,3.956,-3.2,
3.908,3.98,-3.12,
3.924,3.956,-3.2,
3.94,3.988,-3.16,
3.94,3.956,-3.2,
3.916,3.988,-3.12,
3.94,3.956,-3.2,
3.908,3.988,-3.16,
3.94,3.988,-3.2,
3.916,3.956,-3.12,
3.908,3.956,-3.2,
3.948,3.988,-3.12,
3.94,3.956,-3.2,
3.916,3.98,-3.16,
3.94,3.956,-3.2,
3.916,3.988,-3.12,
3.924,3.964,-3.2,
3.94,3.988,-3.16,
3.916,3.98,-3.2,
3.948,3.956,-3.16,
3.94,3.956,-3.2,
3.924,3.988,-3.16,
3.94,3.988,-3.2,
3.908,3.956,-3.16,
3.94,3.956,-3.2,
3.908,3.988,-3.12,
3.924,3.988,-3.2,
3.948,3.956,-3.12,
3.916,3.956,-3.2,
3.948,3.996,-3.16,
3.94,3.988,-3.2,
3.924,3.948,-3.16,
3.924,3.956,-3.16,
3.94,3.988,-3.2,
3.908,3.988,-3.2,
3.948,3.956,-3.16,
3.948,3.956,-3.2,
3.908,3.988,-3.12,
3.94,3.956,-3.2,
3.908,3.98,-3.16,
3.948,3.956,-3.2,
3.916,3.98,-3.12,
3.924,3.956,-3.2,
3.948,3.988,-3.16,
3.94,3.956,-3.2,
3.908,3.988,-3.16,
3.908,3.956,-3.2,
3.94,3.98,-3.16,
3.94,3.98,-3.2,
3.916,3.956,-3.16,
3.924,3.956,-3.2,
3.94,3.988,-3.16,
3.94,3.964,-3.2,
3.924,4.028,-3.16,
3.94,4.02,-3.2,
3.908,3.948,-3.16,
3.94,3.956,-3.2,
3.924,3.98,-3.16,
3.924,3.956,-3.2,
3.988,3.98,-3.12,
3.972,3.94,-3.2,
3.9,3.98,-3.16,
3.916,3.956,-3.2,
3.94,3.988,-3.12,
3.94,3.98,-3.2,
3.908,3.948,-3.12,
3.94,3.956,-3.2,
3.908,3.988,-3.2,
3.94,3.98,-3.2,
3.916,3.956,-3.12,
3.94,3.956,-3.2,
3.908,3.988,-3.16,
3.94,3.98,-3.2,
3.924,3.956,-3.16,
3.94,4.004,-3.2,
3.924,4.028,-3.12,
3.924,4.004,-3.2,
3.94,3.988,-3.12,
3.94,4.004,-3.16,
3.916,3.964,-3.2,
3.956,3.932,-3.2,
3.988,3.972,-3.12,
3.972,3.972,-3.2,
3.94,3.94,-3.16,
3.964,3.972,-3.2,
3.924,3.956,-3.16,
3.892,3.956,-3.2,
3.932,3.988,-3.12,
3.908,3.956,-3.2,
3.94,3.98,-3.12,
3.924,3.956,-3.2,
3.94,3.98,-3.16,
3.94,3.98,-3.2,
3.924,3.956,-3.12,
3.94,3.956,-3.2,
3.908,3.988,-3.12,
3.916,3.988,-3.2,
3.948,3.956,-3.12,
3.94,3.956,-3.2,
3.908,4.028,-3.12,
3.916,4.028,-3.2,
3.948,3.988,-3.16,
3.924,3.988,-3.2,
3.948,4.02,-3.16,
3.908,4.004,-3.2,
3.988,3.932,-3.16,
3.988,3.932,-3.2,
3.956,3.972,-3.16,
3.972,3.972,-3.2,
3.948,3.948,-3.16,
3.972,3.956,-3.2,
3.892,3.98,-3.12,
3.9,3.98,-3.2,
3.932,3.956,-3.12,
3.908,3.956,-3.2,
3.94,3.98,-3.16,
3.908,3.956,-3.2,
3.94,3.988,-3.16,
3.94,3.988,-3.2,
3.908,3.956,-3.12,
3.94,3.964,-3.16,
3.924,3.988,-3.2,
3.924,3.988,-3.2,
3.948,3.956,-3.2,
3.948,3.964,-3.2,
3.924,4.028,-3.12,
3.924,4.02,-3.2,
3.948,3.988,-3.12,
3.94,4.02,-3.2,
3.924,3.988,-3.16,
3.924,4.004,-3.2,
3.988,3.94,-3.12,
3.98,3.948,-3.2,
3.956,3.972,-3.16,
3.948,3.98,-3.2,
3.98,3.948,-3.12,
3.972,3.956,-3.2,
3.908,3.988,-3.16,
3.908,3.94,-3.2,
3.94,3.98,-3.12,
3.94,3.98,-3.2,
3.908,3.94,-3.16,
3.94,3.956,-3.2,
3.916,3.988,-3.16,
3.94,3.948,-3.2,
3.908,3.988,-3.16,
3.94,3.956,-3.2,
3.908,3.988,-3.16,
3.94,3.956,-3.2,
3.908,3.988,-3.16,
3.94,3.956,-3.2,
3.916,4.028,-3.16,
3.94,4.02,-3.2,
3.908,3.98,-3.16,
3.94,4.004,-3.2,
3.916,3.988,-3.12,
3.924,4.004,-3.2,
3.996,3.932,-3.16,
3.972,3.948,-3.2,
3.932,3.972,-3.12,
3.964,3.956,-3.16,
3.94,3.98,-3.2,
3.964,3.98,-3.2,
3.9,3.94,-3.12,
3.9,3.98,-3.2,
3.94,3.956,-3.16,
3.908,3.988,-3.2,
3.948,3.956,-3.16,
3.948,3.948,-3.2,
3.908,3.988,-3.12,
3.94,3.956,-3.2,
3.908,3.988,-3.12,
3.948,3.956,-3.2,
3.916,3.98,-3.12,
3.948,3.956,-3.2,
3.916,3.988,-3.12,
3.924,3.964,-3.2,
3.948,4.028,-3.2,
3.94,4.02,-3.2,
3.924,3.988,-3.16,
3.94,3.988,-3.16,
3.916,4.02,-3.2,
3.932,4.004,-3.2,
3.996,3.94,-3.16,
3.972,3.948,-3.2,
3.948,3.972,-3.16,
3.964,3.98,-3.2,
3.94,3.956,-3.16,
3.964,3.956,-3.16,
3.9,3.988,-3.2,
3.908,3.956,-3.2,
3.94,3.988,-3.16,
3.94,3.98,-3.2,
3.908,3.948,-3.12,
3.94,3.988,-3.2,
3.908,3.94,-3.12,
3.94,3.98,-3.2,
3.916,3.956,-3.16,
3.94,3.98,-3.2,
3.908,3.956,-3.16,
3.94,3.956,-3.16,
3.908,3.98,-3.2,
3.94,4.004,-3.2,
3.924,4.028,-3.16,
3.94,4.004,-3.2,
3.924,3.98,-3.16,
3.94,4.02,-3.2,
3.916,3.964,-3.16,
3.956,3.964,-3.2,
3.996,3.932,-3.12,
3.972,3.94,-3.2,
3.948,3.972,-3.16,
3.972,3.972,-3.2,
3.932,3.956,-3.2,
3.892,3.956,-3.2,
3.932,3.988,-3.16,
3.908,3.956,-3.2,
3.94,3.988,-3.16,
3.94,3.956,-3.2,
3.908,3.988,-3.2,
3.94,3.956,-3.2,
3.908,3.988,-3.16,
3.94,3.956,-3.2,
3.916,3.98,-3.16,
3.94,3.988,-3.2,
3.916,3.956,-3.12,
3.924,3.956,-3.2,
3.94,4.028,-3.16,
3.94,4.02,-3.2,
3.916,3.988,-3.12,
3.94,4.004,-3.2,
3.924,3.98,-3.16,
3.924,4.012,-3.2,
3.996,3.932,-3.16,
3.98,3.932,-3.2,
3.956,3.98,-3.12,
3.972,3.956,-3.2,
3.948,3.98,-3.12,
3.972,3.956,-3.2,
3.9,3.988,-3.16,
3.9,3.956,-3.2,
3.932,3.988,-3.16,
3.94,3.988,-3.2,
3.908,3.956,-3.2,
3.94,3.98,-3.16,
3.908,3.956,-3.2,
3.94,3.988,-3.2,
3.924,3.956,-3.12,
3.94,3.98,-3.2,
3.924,3.956,-3.16,
3.94,3.956,-3.2,
3.908,3.98,-3.12,
3.924,3.956,-3.2,
3.94,4.028,-3.16,
3.94,4.02,-3.2,
3.908,3.988,-3.12,
3.924,4.004,-3.2,
3.94,3.988,-3.12,
3.924,4.004,-3.2,
3.996,3.932,-3.12,
3.98,3.948,-3.2,
3.956,3.972,-3.16,
3.972,3.972,-3.2,
3.94,3.94,-3.16,
3.972,3.956,-3.2,
3.9,3.988,-3.12,
3.9,3.956,-3.2,
3.932,3.988,-3.16,
3.94,3.988,-3.2,
3.908,3.956,-3.16,
3.94,3.956,-3.2,
3.908,3.988,-3.16,
3.94,3.988,-3.16,
3.924,3.956,-3.2,
3.94,3.98,-3.2,
3.908,3.956,-3.12,
3.94,3.956,-3.2,
3.924,3.988,-3.2,
3.94,3.964,-3.2,
3.924,4.028,-3.12,
3.94,4.02,-3.2,
3.916,3.988,-3.16,
3.94,4.004,-3.2,
3.924,3.988,-3.16,
3.924,4.004,-3.2,
3.988,3.932,-3.12,
3.956,3.948,-3.2,
3.972,3.972,-3.12,
3.972,3.956,-3.2,
3.94,3.972,-3.12,
3.964,3.956,-3.2,
3.9,3.988,-3.12,
3.908,3.988,-3.2,
3.94,3.948,-3.12,
3.908,3.98,-3.2,
3.94,3.948,-3.12,
3.94,3.956,-3.2,
3.908,3.988,-3.16,
3.916,3.988,-3.2,
3.948,3.956,-3.12,
3.94,3.956,-3.2,
3.908,3.988,-3.12,
3.94,3.924,-3.2,
3.916,3.988,-3.16,
3.948,3.964,-3.2,
3.908,4.028,-3.12,
3.924,3.988,-3.2,
3.948,4.012,-3.12,
3.94,4.004,-3.2,
3.892,3.98,-3.12,
3.924,3.996,-3.2,
3.996,3.932,-3.16,
3.972,3.972,-3.2,
3.948,3.948,-3.16,
3.972,3.956,-3.2,
3.948,3.98,-3.16,
3.964,3.956,-3.2,
3.9,3.996,-3.16,
3.908,3.988,-3.2,
3.94,3.964,-3.16,
3.94,3.988,-3.2,
3.916,3.956,-3.12,
3.916,3.964,-3.2,
3.948,3.988,-3.12,
3.948,3.956,-3.2,
3.924,3.988,-3.12,
3.924,3.964,-3.2,
3.948,3.988,-3.16,
3.94,3.988,-3.2,
3.924,3.956,-3.16,
3.94,4.028,-3.2,
3.924,3.996,-3.16,
3.94,4.02,-3.2,
3.924,3.988,-3.12,
3.94,4.004,-3.2,
3.924,3.972,-3.12,
3.988,3.972,-3.16,
3.956,3.948,-3.2,
3.972,3.94,-3.2,
3.948,3.972,-3.16,
3.972,3.956,-3.2,
3.932,3.988,-3.16,
3.94,3.956,-3.2,
3.9,3.988,-3.16,
3.908,3.956,-3.2,
3.94,3.98,-3.12,
3.94,3.98,-3.2,
3.916,3.956,-3.12,
3.94,3.956,-3.2,
3.916,3.996,-3.16,
3.94,3.988,-3.2,
3.908,3.956,-3.16,
3.94,3.956,-3.2,
3.924,3.988,-3.12,
3.916,3.956,-3.2,
3.948,4.028,-3.16,
3.94,4.028,-3.2,
3.924,3.988,-3.12,
3.94,4.02,-3.2,
3.916,3.988,-3.12,
3.924,4.004,-3.2,
3.988,3.932,-3.12,
3.988,3.948,-3.2,
3.956,3.972,-3.16,
3.972,3.98,-3.2,
3.94,3.948,-3.12,
3.972,3.956,-3.2,
3.9,3.988,-3.16,
3.9,3.956,-3.2,
3.932,3.988,-3.16,
3.948,3.956,-3.2,
3.9,3.988,-3.12,
3.948,3.98,-3.2,
3.908,3.956,-3.16,
3.948,3.988,-3.2,
3.908,3.956,-3.2,
3.916,3.988,-3.2,
3.94,3.956,0.12,
3.94,3.98,0.12,
3.924,3.956,0.04,
3.94,3.956,0.12,
3.916,4.028,0.04,
3.94,4.02,0.12,
3.924,3.988,0.04,
3.94,4.004,0.08,
3.908,3.98,0.12,
3.924,4.004,0.08,
3.996,3.932,0.12,
3.98,3.94,0.12,
3.956,3.972,0.04,
3.972,3.972,0.08,
3.932,3.948,0.12,
3.972,3.94,0.12,
3.9,3.988,0.04,
3.908,3.988,0.12,
3.94,3.948,0.04,
3.916,3.988,0.12,
3.94,3.956,0.04,
3.94,3.956,0.08,
3.908,3.988,0.12,
3.94,3.98,0.12,
3.908,3.956,0.08,
3.94,3.98,0.12,
3.924,3.956,0.04,
3.94,3.988,0.08,
3.908,3.956,0.12,
3.94,3.964,0.12,
3.916,4.028,0.04,
3.94,4.02,0.04,
3.924,3.988,0.12,
3.94,4.004,0.12,
3.908,3.988,0.08,
3.924,4.004,0.08,
3.996,3.932,0.12,
3.972,3.948,0.12,
3.948,3.972,0.04,
3.948,3.956,0.12,
3.972,3.98,0.04,
3.964,3.956,0.12,
3.892,3.988,0.04,
3.908,3.956,0.08,
3.932,3.98,0.12,
3.94,3.988,0.12,
3.916,3.956,0.04,
3.94,3.988,0.12,
3.908,3.956,0.04,
3.94,3.988,0.08,
3.916,3.956,0.12,
3.94,3.956,0.08,
3.924,3.988,0.12,
3.916,3.956,0.12,
3.948,3.988,0.04,
3.948,3.956,0.08,
3.908,4.028,0.12,
3.94,4.004,0.08,
3.924,3.98,0.12,
3.948,4.004,0.12,
3.916,3.98,0.04,
3.924,4.004,0.12,
3.996,3.932,0.04,
3.972,3.94,0.08,
3.94,3.972,0.12,
3.94,3.956,0.12,
3.972,3.98,0.04,
3.964,3.988,0.12,
3.9,3.956,0.04,
3.9,3.956,0.12,
3.94,3.988,0.08,
3.924,3.988,0.12,
3.94,3.956,0,
3.908,3.948,0.08,
3.948,4.028,0.12,
3.94,4.02,0.08,
3.924,3.948,0.12,
3.94,3.94,0.12,
3.916,3.972,0.04,
3.908,3.956,0.12,
3.988,3.98,0.04,
3.988,3.956,0.12,
3.9,4.028,0.04,
3.908,4.02,0.12,
3.94,3.996,0,
3.94,4.012,0.08,
3.924,3.988,0.12,
3.916,3.988,0.12,
3.988,4.004,0.04,
3.98,3.988,0.12,
3.956,4.004,0.04,
3.972,4.004,0.08,
3.948,3.988,0.12,
3.964,4.004,0.04,
3.948,3.98,0.12,
3.964,4.004,0.12,
3.94,3.98,0.04,
3.964,3.988,0.08,
3.94,4.004,0.12,
3.964,4.012,0.08,
3.94,3.988,0.12,
3.964,4.004,0.12,
3.94,3.98,0.04,
3.94,4.004,0.12,
3.964,3.98,0.04,
3.972,3.988,0.12,
3.94,4.004,0.04,
3.972,4.004,0.12,
3.94,3.98,0.04,
3.964,4.004,0.08,
3.94,3.98,0.12,
3.964,3.932,0.08,
3.948,4.02,0.12,
3.964,4.004,0.08,
3.94,3.988,0.12,
3.964,4.02,0.08,
3.94,3.98,0.12,
3.972,4.004,0.12,
3.9,3.932,0,
3.972,3.94,0.12,
3.956,4.02,0.04,
3.972,4.012,0.08,
3.948,3.988,0.12,
3.964,4.004,0.12,
3.9,3.98,0,
3.9,3.98,0.12,
3.98,4.004,0.04,
3.948,3.988,0.12,
3.98,4.004,0.04,
3.94,4.004,0.08,
3.972,3.932,0.12,
3.94,3.988,0.12,
3.972,4.02,0.04,
3.964,4.004,0.12,
3.94,3.94,0,
3.964,3.972,0.08,
3.9,3.948,0.12,
3.94,4.028,0.08,
3.98,3.276,0.12,
3.9,3.34,0.04,
3.972,4.012,0.12,
3.94,3.996,0.12,
3.908,3.964,0.04,
3.988,3.988,0.12,
3.252,3.964,0.04,
3.308,3.988,0.12,
3.972,3.956,0.04,
3.956,3.988,0.08,
3.924,3.956,0.12,
3.924,3.988,0.08,
3.948,3.964,0.12,
3.948,3.964,0.08,
3.924,3.988,0.12,
