Measurements/Power Payload/Metingen 7/Payload 0 820.csv

CH1,CH2,CH3,Start,Increment,
Volt,Volt,Volt,-5.995,0.01
4.02,3.996,0.04,
4.044,4.028,0.12,
4.02,4.02,0.12,
4.044,3.988,0,
4.02,4.02,0.12,
4.044,3.996,0.04,
4.044,4.02,0.12,
4.02,3.996,0,
4.036,3.996,0.12,
4.012,4.02,0,
4.02,4.02,0,
4.044,3.996,0.12,
4.044,4.02,0,
4.012,3.988,0.12,
4.012,4.02,0,
4.036,3.988,0.12,
4.02,3.996,0,
4.036,4.02,0.12,
4.036,3.988,0.12,
4.012,4.02,0,
4.044,4.02,0.12,
4.012,3.996,0,
4.02,3.996,0.12,
4.044,4.02,0,
4.02,4.02,0.12,
4.036,3.996,0,
4.044,4.02,0,
4.02,3.996,0.12,
4.02,3.996,0.12,
4.044,4.02,0,
4.02,4.02,0.12,
4.044,3.996,0,
4.02,4.02,0.04,
4.044,3.996,0.12,
4.02,4.02,0.12,
4.044,3.996,0,
4.044,3.996,0.12,
4.012,4.02,0,
4.02,4.02,0.04,
4.044,3.996,0.12,
4.02,4.02,0.12,
4.044,3.996,0,
4.02,3.988,0.12,
4.044,4.028,0,
4.02,4.02,0.12,
4.036,3.996,0,
4.044,4.028,0,
4.012,3.988,0.12,
4.044,3.988,0.12,
4.012,4.028,0.04,
4.044,4.02,0.12,
4.012,3.996,0,
4.044,4.02,0.12,
4.012,3.988,0,
4.036,4.02,0.12,
4.012,3.996,0,
4.012,4.02,0.12,
4.044,3.996,0,
4.044,4.02,0.12,
4.012,3.996,0,
4.02,4.02,0.12,
4.036,3.996,0,
4.044,4.02,0.12,
4.012,3.996,0,
4.02,4.02,0.12,
4.044,3.996,0,
4.044,4.02,0.04,
4.02,3.996,0.12,
4.036,4.02,0.12,
4.012,3.996,0,
4.036,3.996,0,
4.012,4.02,0.12,
4.02,4.02,0.12,
4.044,3.996,0,
4.044,4.02,0.04,
4.02,3.996,0.12,
4.02,4.02,0,
4.036,3.988,0.12,
4.036,3.996,0.12,
4.02,4.028,0,
4.02,4.02,0.12,
4.044,3.996,0.04,
4.004,4.02,0.12,
4.036,3.996,0,
4.02,4.02,0.12,
4.044,3.996,0.04,
4.036,4.02,0,
4.02,3.996,0.12,
4.012,4.02,0.12,
4.044,3.996,0.04,
4.044,3.996,0.12,
4.02,4.02,0,
4.044,4.02,0.12,
4.02,3.988,0,
4.02,4.02,0.04,
4.036,3.996,0.12,
4.036,4.02,0.12,
4.012,3.996,0,
4.036,4.02,0.12,
4.012,3.996,0,
4.044,4.02,0.04,
4.012,3.996,0.12,
4.036,3.996,0.12,
4.02,4.02,0,
4.02,4.02,0.12,
4.044,3.996,0,
4.036,3.996,0.04,
4.012,4.02,0.12,
4.02,4.02,0.12,
4.044,3.988,0,
4.02,4.02,0.12,
4.044,3.996,0,
4.012,3.996,0,
4.044,4.028,0.12,
4.012,4.028,0.12,
4.044,3.988,0,
4.012,4.02,0.12,
4.044,3.996,0,
4.012,4.02,0,
4.036,3.996,0.12,
4.012,4.02,0.12,
4.044,3.996,0,
4.02,4.02,0.12,
4.036,3.996,0,
4.02,4.02,0,
4.044,3.996,0.12,
4.02,4.028,0.12,
4.044,3.988,0,
4.044,4.02,0.04,
4.012,3.996,0.12,
4.02,3.996,0.12,
4.044,4.02,0,
4.044,3.996,0.12,
4.012,4.02,0,
4.02,4.02,0.04,
4.044,3.996,0.12,
4.02,4.02,0.12,
4.044,3.988,0,
4.02,4.02,0.12,
4.036,3.996,0,
4.02,4.02,0.12,
4.036,3.996,0,
4.044,4.02,0,
4.012,3.996,0.12,
4.02,3.996,0.12,
4.036,4.02,-3.12,
4.02,4.02,-3.12,
4.044,3.996,-3.08,
4.012,4.02,-3.12,
4.044,3.98,-3.04,
4.02,4.02,-3.12,
4.044,3.996,-3.04,
4.02,3.996,-3.12,
4.036,4.02,-3.04,
4.044,4.02,-3.12,
4.012,3.996,-3.04,
4.02,4.02,-3.12,
4.036,3.996,-3.04,
4.044,4.02,-3.12,
4.012,3.996,-3.04,
4.044,4.004,-3.12,
4.02,4.02,-3.04,
4.044,4.02,-3.12,
4.012,3.988,-3.04,
4.02,4.02,-3.12,
4.044,3.964,-3.04,
4.036,3.988,-3.12,
4.02,4.028,-3.04,
4.044,3.996,-3.04,
4.012,4.028,-3.12,
4.004,3.996,-3.12,
4.044,4.028,-3.04,
4.044,3.988,-3.12,
4.012,4.02,-3.04,
4.02,4.02,-3.12,
4.044,3.996,-3.04,
4.044,4.02,-3.04,
4.012,3.996,-3.12,
4.012,4.02,-3.12,
4.044,3.996,-3.08,
4.012,3.996,-3.12,
4.044,4.02,-3.04,
4.012,3.988,-3.12,
4.044,4.028,-3.04,
4.02,4.02,-3.12,
4.036,3.996,-3.04,
4.02,4.02,-3.04,
4.044,3.996,-3.12,
4.012,3.996,-3.12,
4.044,4.02,-3.04,
4.044,4.028,-3.12,
4.02,3.996,-3.04,
4.044,3.996,-3.12,
4.02,4.028,-3.04,
4.02,4.02,-3.12,
4.044,3.996,-3.04,
4.02,4.02,-3.12,
4.044,3.996,-3.08,
4.012,3.996,-3.08,
4.036,4.028,-3.12,
4.02,3.996,-3.12,
4.044,4.028,-3.04,
4.02,4.02,-3.08,
4.044,3.988,-3.12,
4.012,4.02,-3.12,
4.044,3.996,-3.04,
4.012,4.02,-3.12,
4.044,3.988,-3.04,
4.036,3.996,-3.12,
4.012,4.02,-3.04,
4.044,4.02,-3.12,
4.012,3.996,-3.04,
4.012,4.02,-3.12,
4.036,3.988,-3.04,
4.02,4.02,-3.12,
4.044,3.996,-3.04,
4.044,4.02,-3.12,
4.02,3.996,-3.04,
4.044,3.996,-3.12,
4.012,4.02,-3.04,
4.02,4.02,-3.12,
4.044,3.996,-3.04,
4.044,4.02,-3.12,
4.012,3.996,-3.04,
4.02,4.02,-3.12,
4.044,3.996,-3.04,
4.02,4.02,-3.04,
4.036,3.996,-3.12,
4.02,4.02,-3.12,
4.044,3.996,-3.04,
4.02,4.02,-3.12,
4.044,3.996,-3.04,
4.044,3.996,-3.12,
4.012,4.028,-3.04,
4.044,4.02,-3.12,
4.012,3.988,-3.04,
4.02,4.028,-3.12,
4.044,3.988,-3.04,
4.036,3.988,-3.12,
4.012,4.02,-3.04,
4.012,3.996,-3.12,
4.044,4.02,-3.04,
4.044,4.02,-3.12,
4.012,3.996,-3.04,
4.012,4.02,-3.12,
4.044,3.996,-3.04,
4.044,4.02,-3.12,
4.012,3.996,-3.04,
4.012,4.02,-3.12,
4.036,3.996,-3.04,
4.02,3.996,-3.12,
4.044,4.02,-3.04,
4.02,4.02,-3.12,
4.044,3.988,-3.04,
4.02,4.02,-3.12,
4.044,3.996,-3.04,
4.012,4.02,-3.12,
4.044,3.988,-3.04,
4.036,4.02,-3.12,
4.012,3.996,-3.04,
4.036,4.02,-3.12,
4.02,3.996,-3.04,
4.012,4.02,-3.12,
4.044,3.996,-3.04,
4.044,4.02,-3.12,
4.012,3.996,-3.04,
4.044,4.02,-3.12,
4.012,3.996,-3.04,
4.02,4.02,-3.12,
4.044,3.996,-3.04,
4.02,3.996,-3.12,
4.044,4.02,-3.04,
4.044,4.02,-3.12,
4.012,3.988,-3.04,
4.02,4.02,-3.12,
4.044,3.996,-3.08,
4.02,4.02,-3.12,
4.044,3.996,-3.04,
4.012,4.02,-3.12,
4.044,3.972,-3.04,
4.02,3.964,-3.12,
4.044,4.02,-3.04,
4.044,4.02,-3.12,
4.012,3.988,-3.04,
4.044,4.02,-3.12,
4.012,3.996,-3.04,
4.012,4.02,-3.12,
4.044,3.964,-3.04,
4.02,4.02,-3.12,
4.044,3.988,-3.04,
4.02,3.996,-3.12,
4.044,4.028,-3.04,
4.044,4.02,-3.12,
4.004,3.988,-3.04,
4.044,3.988,-3.12,
4.012,4.02,-3.04,
4.044,4.028,-3.12,
4.02,3.988,-3.04,
4.012,3.988,-3.12,
4.044,4.028,-3.04,
4.012,4.02,-3.12,
4.044,3.988,-3.04,
4.012,4.02,-3.08,
4.044,3.988,-3.12,
4.012,4.02,-3.12,
4.044,3.996,-3.04,
4.012,4.02,-3.12,
4.044,3.996,-3.04,
4.02,4.02,-3.12,
4.044,3.996,-3.08,
4.02,4.02,-3.12,
4.044,3.996,-3.04,
4.02,4.02,-3.12,
4.044,3.988,-3.04,
4.02,4.02,-3.12,
4.044,3.996,-3.04,
4.02,4.02,-3.12,
4.036,3.988,-3.04,
4.004,4.02,-3.12,
4.044,3.996,-3.04,
4.02,4.02,-3.12,
4.044,3.996,-3.04,
4.036,4.02,-3.12,
4.012,3.988,-3.04,
4.02,4.02,-3.12,
4.044,3.996,-3.04,
4.02,4.02,-3.04,
4.036,3.988,-3.12,
4.036,4.02,-3.12,
4.012,3.996,-3.04,
4.036,4.02,-3.12,
4.012,3.996,-3.04,
4.044,4.02,-3.12,
4.012,3.996,-3.04,
4.02,3.996,-3.12,
4.044,4.028,-3.04,
4.02,3.996,-3.12,
4.044,4.02,-3.08,
4.012,4.02,-3.12,
4.044,3.996,-3.04,
4.02,4.02,-3.04,
4.036,3.996,-3.12,
4.02,4.02,-3.08,
4.044,3.988,-3.12,
4.02,4.02,-3.12,
4.044,3.996,-3.04,
4.02,4.02,-3.12,
4.036,3.996,-3.04,
4.044,3.996,-3.12,
4.012,4.02,-3.04,
4.02,4.02,-3.12,
4.044,3.996,-3.04,
4.044,4.02,-3.12,
4.012,3.988,-3.04,
4.02,3.996,-3.12,
4.044,4.02,-3.04,
4.036,3.988,-3.12,
4.012,4.02,-3.04,
4.012,3.996,-3.12,
4.044,4.028,-3.04,
4.012,4.02,-3.12,
4.044,3.988,-3.04,
4.012,3.988,-3.12,
4.044,4.02,-3.04,
4.012,4.02,-3.12,
4.044,3.988,-3.04,
4.02,3.996,-3.12,
4.044,4.02,-3.04,
4.012,4.02,-3.12,
4.036,3.996,-3.04,
4.044,4.02,-3.12,
4.012,3.996,-3.04,
4.044,3.996,-3.04,
4.012,4.02,-3.12,
4.02,4.02,-3.04,
4.036,3.996,-3.12,
4.02,4.02,-3.12,
4.044,3.98,-3.04,
4.012,3.996,-3.12,
4.044,4.02,-3.04,
4.012,4.02,-3.12,
4.036,3.988,-3.04,
4.036,4.02,-3.12,
4.004,3.996,-3.04,
4.012,4.028,-3.12,
4.044,3.996,-3.04,
4.036,4.028,-3.12,
4.012,3.996,-3.04,
4.012,4.02,-3.12,
4.044,3.996,-3.04,
4.02,3.996,-3.12,
4.044,4.028,-3.04,
4.044,4.028,-3.12,
4.02,3.98,-3.04,
4.044,4.004,-3.12,
4.012,4.02,-3.04,
4.02,4.02,-3.12,
4.044,3.996,-3.04,
4.044,4.036,-3.12,
4.004,3.996,-3.08,
4.02,4.02,-3.12,
4.044,3.996,-3.08,
4.02,4.02,-3.12,
4.036,3.988,-3.04,
4.052,3.996,-3.12,
4.012,4.02,-3.04,
4.02,4.02,-3.12,
4.044,3.996,-3.04,
4.036,4.02,-3.12,
4.012,3.996,-3.04,
4.036,4.02,-3.12,
4.02,3.996,-3.04,
4.044,4.02,-3.12,
4.012,3.94,-3.08,
4.02,3.908,-3.08,
4.044,3.972,-3.12,
4.02,3.924,-3.12,
4.044,3.98,-3.04,
4.036,4.004,-3.12,
3.996,3.94,-3.04,
3.972,3.94,-3.12,
4.02,3.988,-3.04,
3.988,3.932,-3.12,
4.028,3.988,-3.04,
3.996,3.98,-3.04,
4.036,3.932,-3.12,
4.004,3.98,-3.12,
4.028,3.916,-3.04,
3.996,3.9,-3.12,
4.028,3.98,-3.08,
3.996,3.98,-3.12,
4.028,3.932,-3.04,
4.028,3.98,-3.08,
3.98,3.924,-3.12,
3.98,3.988,-3.12,
4.028,3.924,-3.08,
4.028,3.988,-3.12,
3.988,3.94,-3.04,
4.028,3.988,-3.12,
3.996,3.956,-3.04,
4.028,3.988,-3.04,
3.988,3.9,-3.12,
4.028,3.932,-3.12,
4.004,3.996,-3.04,
4.012,3.98,-3.12,
4.036,3.94,-3.04,
4.028,3.924,-3.12,
3.972,4.02,-3.08,
3.988,3.98,-3.12,
4.044,3.924,-3.04,
4.004,3.964,-3.12,
4.028,3.988,-3.04,
3.988,3.988,-3.12,
4.036,3.948,-3.04,
4.028,3.956,-3.12,
3.98,4.012,-3.04,
4.012,3.972,-3.12,
4.028,3.94,-3.04,
4.028,3.956,-3.12,
4.004,3.98,-3.04,
4.012,3.956,-3.08,
4.052,3.98,-3.12,
4.02,3.956,-3.12,
4.004,3.988,-3.04,
4.004,3.956,-3.12,
4.028,3.98,-3.04,
4.004,3.956,-3.12,
4.028,4.004,-3.04,
4.028,3.988,-3.12,
4.004,3.956,-3.04,
4.028,3.948,-3.12,
3.996,3.988,-3.04,
4.004,3.956,-3.12,
4.036,3.988,-3.04,
4.028,3.972,-3.04,
4.004,3.956,-3.12,
3.996,3.98,-3.12,
4.028,3.956,-3.04,
4.028,3.956,-3.12,
4.004,3.988,-3.04,
4.028,3.956,-3.12,
4.004,3.98,-3.04,
4.028,3.956,-3.12,
3.996,3.988,-3.04,
4.004,3.956,-3.12,
4.028,3.988,-3.04,
4.004,3.956,-3.12,
4.028,3.988,-3.04,
4.004,4.012,-3.12,
4.028,3.892,-3.04,
4.028,3.924,-3.12,
4.004,3.948,-3.04,
4.028,3.948,-3.12,
3.996,3.924,-3.04,
4.036,3.932,-3.12,
3.964,3.964,-3.04,
3.98,3.964,-3.12,
4.004,3.932,-3.04,
3.988,3.932,-3.08,
4.02,3.964,-3.12,
4.02,3.964,-3.12,
3.996,3.932,-3.04,
4.02,3.964,-3.12,
3.996,3.932,-3.04,
3.996,3.932,-3.12,
4.02,3.964,-3.04,
4.02,3.964,-3.12,
3.996,3.932,-3.04,
4.02,3.932,-3.12,
3.996,3.964,-3.04,
4.02,3.932,-3.12,
3.996,3.964,-3.04,
4.02,3.932,-3.12,
3.996,3.964,-3.04,
4.02,3.932,-3.12,
3.996,3.964,-3.04,
4.02,3.964,-3.12,
3.996,3.924,-3.04,
4.02,3.932,-3.12,
3.996,3.964,-3.08,
4.02,3.964,-3.12,
3.996,3.94,-3.08,
4.004,3.964,-3.12,
4.02,3.932,-3.04,
3.996,3.996,-3.12,
4.02,3.732,-3.04,
3.996,3.732,-3.12,
4.02,3.796,-3.04,
4.02,3.78,-3.12,
3.996,4.06,-3.04,
4.052,4.052,-3.12,
3.884,3.7,-3.04,
3.892,4.004,-3.12,
3.948,3.964,-3.04,
3.948,4.028,-3.12,
4.1,3.668,-3.04,
4.076,4.036,-3.12,
3.868,3.46,-3.04,
4.052,4.052,-3.12,
4.02,3.572,-3.04,
4.06,3.956,-3.12,
3.844,4.036,-3.04,
4.06,3.572,-3.12,
3.74,4.06,-3.04,
4.084,3.58,-3.12,
3.804,4.076,-3.04,
4.076,3.58,-3.12,
4.02,4.052,-3.04,
3.796,3.956,-3.12,
4.084,4.052,-3.04,
3.812,3.564,-3.08,
4.1,4.06,-3.12,
3.812,3.572,-3.08,
4.092,4.076,-3.12,
4.012,3.588,-3.12,
4.076,4.036,-3.08,
3.788,3.948,-3.12,
4.084,4.044,-3.04,
3.812,4.036,-3.12,
4.108,3.508,-3.08,
3.812,3.956,-3.12,
4.084,4.044,-3.04,
4.012,3.676,-3.12,
4.068,4.044,-3.04,
4.06,4.028,-3.12,
3.772,3.684,-3.08,
4.012,4.044,-3.12,
4.06,3.692,-3.04,
3.844,4.044,-3.12,
4.068,3.508,-3.04,
4.06,3.956,-3.12,
3.852,3.988,-3.04,
4.068,3.972,-3.12,
3.852,3.948,-3.08,
4.06,3.932,-3.12,
3.764,3.98,-3.04,
4.028,3.972,-3.12,
4.012,3.948,-3.04,
4.028,3.948,-3.12,
4.004,3.972,-3.04,
3.996,3.948,-3.12,
4.028,3.972,-3.04,
4.028,3.948,-3.04,
4.004,3.988,-3.12,
4.004,3.98,-3.12,
4.028,3.956,-3.04,
4.028,3.98,-3.12,
3.996,3.94,-3.04,
4.004,3.948,-3.12,
4.028,3.98,-3.04,
4.028,3.972,-3.12,
4.004,3.956,-3.04,
4.028,3.98,-3.12,
3.996,3.948,-3.04,
4.028,3.948,-3.12,
3.996,3.98,-3.04,
4.02,3.94,-3.12,
4.004,3.972,-3.08,
4.028,3.948,-3.12,
4.004,3.972,-3.04,
4.028,3.972,-3.12,
3.996,3.94,-3.04,
4.02,3.972,-3.12,
3.996,3.948,-3.04,
3.996,3.972,-3.12,
4.028,3.94,-3.04,
4.028,3.98,-3.12,
3.996,3.948,-3.04,
4.004,3.988,-3.12,
4.028,3.94,-3.08,
4.028,3.988,-3.12,
3.996,3.956,-3.04,
4.028,3.988,-3.12,
4.004,3.948,-3.04,
4.004,3.972,-3.12,
4.044,3.94,-3.04,
4.028,3.98,-3.12,
4.004,3.956,-3.04,
4.028,3.948,-3.12,
4.004,3.972,-3.08,
4.004,3.972,-3.12,
4.028,3.956,-3.04,
4.012,3.972,-3.12,
4.028,3.932,-3.04,
4.004,3.972,-3.12,
4.028,3.948,-3.04,
4.004,3.972,-3.12,
4.028,3.94,-3.04,
3.996,3.932,-3.12,
4.028,3.972,-3.04,
4.028,3.972,-3.12,
3.996,3.948,-3.04,
4.028,3.972,-3.12,
3.996,3.932,-3.04,
3.996,3.972,-3.12,
4.028,3.94,-3.04,
4.004,3.948,-3.12,
4.028,3.972,-3.04,
4.004,3.932,-3.08,
4.028,3.972,-3.12,
4.02,3.972,-3.12,
3.996,3.94,-3.04,
4.028,3.972,-3.12,
3.996,3.94,-3.04,
3.996,3.94,-3.12,
4.028,3.98,-3.04,
4.028,4.044,-3.12,
3.996,3.676,-3.04,
3.996,4.036,-3.04,
4.028,3.508,-3.12,
4.004,4.036,-3.12,
4.028,3.476,-3.08,
4.06,3.98,-3.12,
3.844,3.94,-3.04,
4.06,4.044,-3.12,
3.764,3.676,-3.04,
4.06,3.988,-3.12,
3.74,3.956,-3.04,
4.028,3.972,-3.12,
4.004,3.94,-3.04,
4.06,3.948,-3.12,
3.852,3.98,-3.04,
4.028,3.972,-3.12,
4.012,3.94,-3.04,
4.02,3.972,-3.12,
3.996,3.924,-3.04,
4.004,3.98,-3.12,
4.028,3.948,-3.04,
3.996,3.972,-3.12,
4.028,3.94,-3.04,
4.028,3.948,-3.12,
3.988,3.988,-3.04,
4.028,3.98,-3.12,
4.004,3.956,-3.04,
4.028,3.972,-3.12,
3.996,3.948,-3.04,
4.028,3.956,-3.12,
4.004,3.98,-3.04,
4.028,3.98,-3.12,
4.004,3.948,-3.04,
4.028,3.956,-3.12,
3.996,3.988,-3.04,
3.996,3.972,-3.12,
4.028,3.932,-3.04,
4.028,3.948,-3.12,
3.996,3.972,-3.04,
4.028,3.972,-3.12,
4.004,3.948,-3.04,
4.02,3.972,-3.12,
3.996,3.948,-3.04,
4.028,3.972,-3.12,
3.996,3.94,-3.08,
4.02,3.972,-3.12,
4.004,3.948,-3.04,
4.028,3.932,-3.08,
3.996,3.98,-3.12,
4.028,3.98,-3.12,
3.996,3.956,-3.04,
4.02,3.956,-3.12,
3.996,3.98,-3.08,
4.004,3.98,-3.12,
4.028,3.94,-3.04,
4.028,3.972,-3.12,
4.012,3.948,-3.04,
4.028,3.948,-3.08,
4.004,3.98,-3.12,
4.028,3.948,-3.12,
4.004,3.98,-3.04,
4.004,3.948,-3.08,
4.028,3.972,-3.12,
4.028,3.972,-3.12,
4.004,3.94,-3.04,
4.028,3.972,-3.12,
3.996,3.94,-3.04,
4.004,3.972,-3.12,
4.02,3.948,-3.04,
3.996,3.948,-3.12,
4.028,3.98,-3.04,
4.028,3.972,-3.12,
3.996,3.948,-3.04,
4.004,3.956,-3.12,
4.028,3.98,-3.04,
3.996,3.988,-3.08,
4.028,3.94,-3.12,
4.004,3.988,-3.12,
4.028,3.948,-3.04,
4.028,3.988,-3.12,
4.004,3.948,-3.04,
4.028,3.948,-3.12,
3.996,3.988,-3.08,
4.028,3.948,-3.12,
3.996,3.98,-3.08,
4.028,3.98,-3.12,
3.996,3.94,-3.04,
4.028,3.972,-3.12,
3.996,3.948,-3.04,
4.028,3.972,-3.12,
3.996,3.948,-3.04,
4.028,3.972,-3.12,
3.996,3.94,-3.04,
4.02,3.956,-3.12,
4.004,3.972,-3.04,
4.028,3.972,-3.12,
3.996,3.94,-3.04,
3.996,3.948,-3.08,
4.028,3.98,-3.12,
4.028,3.956,-3.12,
3.996,3.988,-3.04,
4.02,3.956,-3.12,
3.996,3.988,-3.04,
4.028,3.972,-3.12,
4.004,3.948,-3.04,
4.028,3.948,-3.08,
4.004,3.98,-3.12,
4.004,3.956,-3.04,
4.028,3.98,-3.12,
4.028,3.948,-3.12,
3.996,3.98,-3.04,
4.028,3.972,-3.08,
4.004,3.94,-3.12,
4.004,3.972,-3.12,
4.028,3.948,-3.04,
4.028,3.972,-3.04,
3.996,3.948,-3.12,
4.02,3.972,-3.12,
3.996,3.948,-3.04,
4.004,3.972,-3.12,
4.028,3.94,-3.04,
4.028,3.972,-3.12,
4.004,3.948,-3.08,
4.028,3.948,-3.12,
4.004,3.988,-3.04,
4.004,3.972,-3.12,
4.028,3.948,-3.08,
4.028,3.98,-3.08,
3.996,3.948,-3.12,
4.036,3.956,-3.12,
4.004,3.988,-3.04,
4.028,3.956,-3.08,
3.996,3.972,-3.12,
4.028,3.956,-3.12,
4.004,3.988,-3.04,
4.028,3.972,-3.12,
4.004,3.948,-3.04,
4.028,3.98,-3.12,
4.004,3.956,-3.04,
4.028,3.948,-3.08,
4.004,3.988,-3.12,
3.996,3.972,-3.12,
4.028,3.948,-3.04,
4.028,3.94,-3.12,
4.004,3.98,-3.08,
4.028,3.98,-3.12,
3.996,3.932,-3.04,
4.004,3.988,-3.12,
4.028,3.94,-3.04,
4.028,3.956,-3.12,
3.996,3.972,-3.04,
4.028,3.972,-3.12,
3.996,3.948,-3.04,
4.028,3.948,-3.12,
3.988,3.98,-3.04,
4.028,3.972,-3.12,
3.996,3.948,-3.04,
3.996,3.972,-3.12,
4.028,3.956,-3.04,
4.036,3.972,-3.12,
3.996,3.948,-3.04,
4.028,3.972,-3.12,
3.996,3.948,-3.04,
4.028,3.98,-3.12,
3.996,3.948,-3.08,
4.028,3.972,-3.12,
3.996,3.948,-3.04,
4.028,3.972,-3.12,
3.996,3.948,-3.04,
4.028,3.98,-3.08,
4.004,3.948,-3.12,
3.996,3.98,-3.12,
4.028,3.94,-3.04,
3.996,3.972,-3.12,
4.028,3.956,-3.04,
4.028,3.972,-3.12,
4.004,3.948,-3.04,
4.004,3.988,-3.12,
4.028,3.948,-3.04,
4.004,3.972,-3.12,
4.028,3.948,-3.04,
4.004,3.972,-3.12,
4.028,3.948,-3.04,
4.028,3.972,-3.12,
4.004,3.948,-3.04,
4.028,3.972,-3.12,
3.996,3.94,-3.08,
3.996,3.972,-3.12,
4.028,3.932,-3.04,
4.004,3.972,-3.12,
4.028,3.948,-3.04,
4.028,3.972,-3.12,
3.996,3.948,-3.04,
4.02,3.988,-3.12,
3.996,3.948,-3.04,
4.004,3.972,-3.12,
4.028,3.948,-3.04,
4.028,3.972,-3.12,
3.996,3.956,-3.04,
4.028,3.972,-3.12,
4.004,3.948,-3.04,
4.028,3.94,-3.08,
4.004,3.988,-3.12,
4.004,3.98,-3.12,
4.028,3.948,-3.04,
3.996,3.948,-3.12,
4.028,3.98,-3.04,
4.004,3.948,-3.12,
4.028,3.98,-3.04,
4.028,3.988,-3.12,
4.004,3.948,-3.04,
4.028,3.972,-3.08,
3.996,3.94,-3.12,
4.028,3.972,-3.12,
3.996,3.956,-3.04,
4.028,3.972,-3.04,
4.004,3.94,-3.12,
4.004,3.972,-3.12,
4.028,3.948,-3.04,
4.004,3.972,-3.12,
4.028,3.956,-3.04,
3.996,3.956,-3.12,
4.028,3.972,-3.04,
4.028,3.972,-3.12,
4.004,3.948,-3.04,
4.02,3.972,-3.12,
3.996,3.956,-3.08,
4.004,3.972,-3.12,
4.028,3.94,-3.08,
3.996,3.972,-3.12,
4.028,3.94,-3.08,
4.028,3.972,-3.12,
3.996,3.948,-3.04,
4.004,3.956,-3.08,
4.028,3.98,-3.12,
4.028,3.972,-3.12,
3.996,3.94,-3.04,
4.028,3.956,-3.08,
3.996,3.972,-3.12,
4.028,3.972,-3.12,
4.004,3.948,-3.04,
4.004,3.972,-3.12,
4.028,3.948,-3.04,
4.028,3.972,-3.08,
3.996,3.948,-3.12,
4.028,3.972,-3.12,
3.996,3.948,-3.04,
4.028,3.972,-3.12,
4.004,3.948,-3.04,
4.02,3.972,-3.08,
4.004,3.956,-3.12,
3.996,3.972,-3.12,
4.028,3.948,-3.04,
4.004,3.972,-3.12,
4.028,3.956,-3.04,
4.028,3.948,-3.12,
3.996,3.98,-3.04,
4.004,3.972,-3.12,
4.028,3.956,-3.04,
4.028,3.972,-3.12,
3.996,3.948,-3.04,
4.028,3.948,-3.12,
3.996,3.98,-3.04,
4.028,3.972,-3.12,
4.004,3.948,-3.04,
4.02,3.988,-3.12,
3.996,3.948,-3.04,
4.004,3.94,-3.08,
4.028,3.98,-3.12,
4.02,3.972,-3.12,
4.004,3.956,-3.04,
4.028,3.972,-3.12,
4.004,3.948,-3.04,
3.996,3.988,-3.12,
4.028,3.948,-3.04,
4.004,3.972,-3.12,
4.028,3.948,-3.04,
4.02,3.972,-3.12,
4.004,3.956,-3.08,
4.028,3.972,-3.12,
4.004,3.948,-3.04,
4.02,3.972,-3.04,
3.996,3.948,-3.12,
4.028,3.972,-3.12,
3.996,3.948,-3.04,
4.028,3.988,-3.12,
3.996,3.948,-3.04,
4.004,3.972,-3.12,
4.028,3.932,-3.04,
3.996,3.956,-3.12,
4.028,3.98,-3.04,
4.028,3.972,-3.12,
3.996,3.932,-3.04,
4.028,3.956,-3.12,
3.988,3.972,-3.04,
4.028,3.972,-3.12,
4.004,3.948,-3.04,
4.004,3.956,-3.04,
4.02,3.98,-3.12,
4.028,3.972,-3.12,
3.996,3.948,-3.04,
3.996,3.972,-3.12,
4.02,3.948,-3.04,
4.028,3.972,-3.04,
4.004,3.956,-3.12,
4.004,3.972,-3.12,
4.028,3.948,-3.04,
4.028,3.972,-3.12,
4.004,3.94,-3.04,
4.028,3.972,-3.12,
3.996,3.948,-3.08,
4.028,3.972,-3.12,
4.004,3.94,-3.04,
4.028,3.972,-3.12,
3.996,3.948,-3.04,
3.996,3.972,-3.12,
4.028,3.948,-3.04,
4.02,3.972,-3.12,
4.004,3.956,-3.04,
4.028,3.972,-3.12,
4.004,3.948,-3.04,
4.028,3.972,-3.12,
3.996,3.948,-3.08,
3.996,3.956,-3.12,
4.028,3.996,-3.04,
4.02,3.948,-3.08,
4.004,3.996,-3.12,
4.028,3.972,-3.12,
4.004,3.948,-3.08,
4.012,3.988,-3.12,
4.036,3.956,-3.04,
4.004,3.948,-3.12,
4.028,3.988,-3.04,
4.004,3.972,-3.12,
4.028,3.956,-3.04,
4.028,3.988,-3.12,
4.004,3.94,-3.04,
4.028,3.988,-3.12,
4.004,3.956,-3.04,
4.028,3.972,-3.12,
4.004,3.956,-3.04,
4.028,3.956,-3.12,
3.988,3.972,-3.08,
4.028,3.948,-3.12,
4.012,3.98,-3.04,
4.004,3.972,-3.12,
4.028,3.94,-3.04,
4.028,3.972,-3.12,
3.996,3.956,-3.04,
4.028,3.956,-3.12,
3.996,3.972,-3.04,
4.028,3.948,-3.08,
4.004,3.972,-3.12,
4.028,3.972,-3.12,
4.004,3.956,-3.04,
3.996,3.98,-3.12,
4.028,3.948,-3.08,
3.996,3.972,-3.12,
4.028,3.956,-3.04,
4.028,3.972,-3.12,
3.996,3.948,-3.04,
4.028,3.948,-3.12,
3.996,3.98,-3.08,
4.028,3.972,-3.12,
4.004,3.948,-3.04,
4.028,3.972,-3.08,
4.004,3.948,-3.12,
3.996,3.972,-3.12,
4.028,3.948,-3.04,
4.004,3.972,-3.12,
4.028,3.94,-3.04,
4.02,3.948,-3.12,
3.996,3.988,-3.04,
4.02,3.948,-3.08,
4.004,3.972,-3.12,
4.028,3.972,-3.12,
4.004,3.948,-3.04,
3.996,3.956,-3.12,
4.028,3.98,-3.04,
3.996,3.972,-3.12,
4.028,3.948,-3.04,
3.996,3.972,-3.12,
4.028,3.948,-3.04,
4.036,3.972,-3.08,
4.004,3.956,-3.12,
4.028,3.972,-3.12,
4.004,3.948,-3.04,
4.028,3.948,-3.12,
3.996,3.98,-3.04,
4.028,3.956,-3.12,
3.996,3.972,-3.04,
4.028,3.948,-3.12,
4.004,3.988,-3.04,
4.004,3.956,-3.12,
4.028,3.98,-3.04,
4.028,3.948,-3.12,
4.004,3.98,-3.04,
3.996,3.956,-3.12,
4.028,3.972,0.12,
3.996,3.972,0.12,
4.044,3.948,0,
4.028,3.972,0.04,
4.004,3.948,0.12,
4.028,3.972,0.12,
3.996,3.948,0,
4.028,3.972,0.12,
3.996,3.948,0,
4.028,3.94,0.04,
3.996,3.98,0.12,
3.996,3.988,0.04,
4.028,3.94,0.12,
4.02,3.972,0,
3.996,3.94,0.12,
4.004,3.972,0.12,
4.028,3.956,0,
4.028,3.972,0.04,
3.996,3.948,0.12,
4.02,3.948,0.12,
3.996,3.98,0,
4.004,3.972,0,
4.028,3.948,0.12,
4.028,3.956,0.12,
4.004,3.988,0,
4.028,3.972,0.12,
3.996,3.956,0,
4.028,3.972,0,
4.004,3.948,0.12,
4.004,3.972,0,
4.028,3.948,0.12,
4.028,3.972,0.12,
4.004,3.948,0,
4.028,3.948,0.12,
3.996,3.98,0,
4.028,3.956,0.12,
4.004,3.988,0,
4.004,3.948,0,
4.028,3.98,0.12,
3.996,3.972,0.12,
4.028,3.948,0,
4.028,3.972,0.12,
4.004,3.956,0,
3.996,3.972,0.12,
4.028,3.948,0,
4.028,3.972,0.12,
3.996,3.956,0,
4.012,3.972,0.12,
4.028,3.948,0,
4.028,3.948,0.12,
3.996,3.98,0.04,
4.012,3.972,0.12,
4.028,3.94,0,
