Measurements/Power Payload/Metingen 7/Payload 2 340.csv

CH1,CH2,CH3,Start,Increment,
Volt,Volt,Volt,-5.995,0.01
3.972,3.972,0.04,
3.94,3.956,0.12,
3.956,3.956,0.12,
3.884,3.98,0,
3.908,3.956,0.12,
3.94,3.98,0.04,
3.94,3.956,0.12,
3.924,3.988,0.04,
3.94,3.956,0.12,
3.924,3.988,0.04,
3.94,3.956,0.12,
3.924,3.988,0.04,
3.924,3.956,0.12,
3.948,3.988,0.04,
3.94,3.956,0.12,
3.924,4.028,0.04,
3.924,4.02,0.12,
3.948,3.988,0.04,
3.924,4.02,0.12,
3.948,3.988,0.04,
3.924,4.004,0.12,
3.996,3.94,0.04,
3.988,3.908,0.12,
3.956,3.972,0.04,
3.972,3.9,0.12,
3.948,4.02,0.04,
3.964,3.98,0.12,
3.9,3.948,0.04,
3.876,3.988,0.12,
3.932,3.948,0.04,
3.868,3.988,0.12,
3.988,3.948,0,
3.908,3.932,0.04,
3.94,3.996,0.12,
3.948,3.956,0.12,
3.908,4.004,0.08,
3.948,3.964,0.12,
3.9,3.988,0.04,
3.892,3.964,0.08,
3.948,3.988,0.12,
3.908,3.988,0.12,
3.972,3.948,0.04,
3.924,3.988,0.12,
3.948,3.956,0.04,
3.948,3.956,0.12,
3.924,3.988,0.04,
3.94,3.988,0.08,
3.916,3.964,0.12,
3.948,3.988,0.12,
3.924,3.956,0.08,
3.924,3.988,0.12,
3.948,3.964,0.04,
3.94,3.964,0.12,
3.924,3.988,0.04,
3.908,3.988,0.12,
3.948,3.964,0.04,
3.948,3.996,0.04,
3.924,3.924,0.12,
3.948,3.964,0.08,
3.924,3.988,0.12,
3.948,3.988,0.12,
3.932,3.964,0.04,
3.948,3.988,0.08,
3.892,3.964,0.12,
3.948,3.988,0.12,
3.924,3.964,0.04,
3.948,3.988,0.12,
3.924,3.964,0.04,
3.948,3.964,0.04,
3.924,3.996,0.12,
3.948,3.988,0.12,
3.932,3.956,0.04,
3.948,3.988,0.12,
3.924,3.94,0.04,
3.932,3.964,0.12,
3.964,4.028,0.04,
3.948,3.956,0.12,
3.924,4.028,0.04,
3.948,3.956,0.12,
3.908,4.028,0.04,
3.924,4.028,0.08,
3.988,3.956,0.12,
3.908,4.02,0.12,
3.988,3.956,0.04,
3.908,4.02,0.08,
3.988,3.956,0.12,
3.988,4.02,0.12,
3.908,3.948,0.04,
3.988,4.02,0.12,
3.908,3.956,0.04,
3.988,4.02,0.04,
3.908,3.956,0.12,
3.98,3.956,0.08,
3.908,4.028,0.12,
3.98,3.956,0.04,
3.916,4.028,0.12,
3.916,4.02,0.12,
3.98,3.948,0.04,
3.98,4.02,0.12,
3.908,3.956,0,
3.908,3.956,0.08,
3.988,4.028,0.12,
3.908,3.956,0.12,
3.988,4.028,0.04,
3.98,3.956,0.12,
3.908,4.028,0.04,
3.988,4.02,0.12,
3.916,3.956,0.04,
3.98,4.02,0.08,
3.908,3.948,0.12,
3.98,3.956,0.12,
3.908,4.028,0.04,
3.908,4.02,0.08,
3.988,3.948,0.12,
3.98,4.02,0.12,
3.908,3.956,0.04,
3.988,3.948,0.08,
3.908,4.028,0.12,
3.98,4.02,0.12,
3.908,3.956,0.04,
3.98,4.02,0.12,
3.908,3.956,0.04,
3.98,3.964,0.12,
3.908,3.892,0.04,
3.916,3.964,0.08,
3.988,3.94,0.12,
3.98,3.948,0.12,
3.916,3.972,0,
3.844,3.956,0.08,
3.932,3.972,0.12,
3.908,3.972,0.12,
3.932,3.948,0.04,
3.932,3.972,0.12,
3.908,3.932,0.04,
3.94,3.948,0.12,
3.908,3.98,0.04,
3.932,3.972,0.12,
3.908,3.948,0.04,
3.932,3.972,0.04,
3.9,3.948,0.12,
3.908,3.972,0.08,
3.94,3.932,0.12,
3.9,3.972,0.12,
3.932,3.948,0.04,
3.908,3.972,0.12,
3.94,3.956,0.04,
3.908,3.972,0.12,
3.94,3.94,0.04,
3.94,3.972,0.08,
3.908,3.956,0.12,
3.932,4.02,0.12,
3.908,3.212,0.04,
3.932,3.324,0.04,
3.9,3.404,0.12,
3.932,3.396,0.12,
3.908,3.436,0.04,
3.972,3.42,0.12,
3.172,3.444,0.04,
3.292,3.428,0.12,
3.364,3.452,0.04,
3.364,3.452,0.12,
3.404,3.428,0.04,
3.412,3.436,0.12,
3.38,3.46,0.04,
3.412,3.436,0.12,
3.396,3.46,0.04,
3.396,3.46,0.12,
3.42,3.436,0.04,
3.396,3.436,0.04,
3.42,4.196,0.12,
3.404,4.116,0.04,
3.42,4.036,0.12,
3.396,4.044,0.04,
3.42,4.012,0.12,
3.404,4.02,0.12,
4.148,3.948,0.04,
4.084,3.94,0.12,
3.996,3.972,0.04,
4.004,3.956,0.12,
3.964,4.028,0.04,
3.98,4.02,0.12,
3.908,3.94,0.04,
3.908,3.956,0.12,
3.94,4.028,0.04,
3.924,4.02,0.12,
3.988,3.988,0.04,
3.972,4.004,0.12,
3.9,3.988,0.04,
3.908,4.004,0.12,
3.996,3.988,0,
3.972,3.988,0.12,
3.956,4.02,0.04,
3.972,4.004,0.08,
3.94,3.932,0.12,
3.964,3.932,0.12,
3.94,4.02,0.04,
3.972,4.02,0.12,
3.94,3.188,0.04,
3.964,3.324,0.08,
3.9,3.436,0.12,
3.892,3.396,0.12,
3.98,3.46,0.04,
3.972,3.428,0.12,
3.148,4.172,0.04,
3.284,4.084,0.12,
3.396,3.988,0.04,
3.364,4.004,0.12,
3.42,3.972,0.04,
3.396,3.964,0.04,
4.14,4.028,0.12,
4.044,4.028,0.04,
3.956,3.948,0.12,
3.964,3.956,0.12,
3.932,3.98,0.04,
3.924,3.98,0.12,
3.988,3.948,0.04,
3.988,3.956,0.12,
3.9,4.028,0.04,
3.916,4.012,0.12,
3.94,3.988,0.04,
3.94,4.004,0.12,
3.908,3.988,0.04,
3.916,4.004,0.08,
3.988,3.98,0.12,
3.972,3.988,0.12,
3.956,4.004,0.04,
3.972,3.988,0.12,
3.94,4.004,-3.2,
3.948,3.988,-3.2,
3.972,4.004,-3.16,
3.964,4.004,-3.2,
3.94,3.98,-3.16,
3.94,4.004,-3.2,
3.972,3.98,-3.16,
3.94,3.988,-3.2,
3.964,4.004,-3.12,
3.932,4.004,-3.2,
3.972,3.98,-3.16,
3.964,4.004,-3.2,
3.932,3.98,-3.16,
3.948,4.004,-3.2,
3.972,3.98,-3.2,
3.932,3.988,-3.16,
3.972,4.004,-3.2,
3.948,4.004,-3.2,
3.972,3.94,-3.16,
3.972,4.02,-3.2,
3.932,3.932,-3.12,
3.964,4.02,-3.2,
3.948,3.228,-3.16,
3.964,3.98,-3.2,
3.9,4.044,-3.2,
3.972,4.028,-3.2,
3.884,3.956,-3.12,
3.972,3.956,-3.2,
3.204,4.028,-3.16,
3.94,4.028,-3.2,
4.004,3.996,-3.16,
3.98,4.012,-3.2,
3.924,3.228,-3.16,
3.924,3.372,-3.2,
3.996,3.46,-3.16,
3.996,3.444,-3.2,
3.94,3.5,-3.16,
3.972,3.452,-3.2,
3.196,3.532,-3.16,
3.332,3.476,-3.2,
3.42,4.188,-3.16,
3.412,4.084,-3.2,
3.468,3.996,-3.16,
3.436,3.98,-3.2,
3.5,4.036,-3.16,
3.428,4.028,-3.2,
4.14,3.996,-3.16,
4.044,4.004,-3.2,
3.956,3.988,-3.2,
3.932,4.004,-3.2,
3.996,3.948,-3.12,
3.996,3.94,-3.2,
3.956,3.972,-3.16,
3.972,3.94,-3.2,
3.948,4.028,-3.16,
3.964,4.02,-3.2,
3.908,3.964,-3.16,
3.9,4.004,-3.2,
3.932,3.276,-3.16,
3.9,3.404,-3.2,
3.98,3.508,-3.2,
3.98,3.452,-3.2,
3.924,3.532,-3.12,
3.964,3.484,-3.2,
3.244,3.548,-3.12,
3.364,3.5,-3.2,
3.468,4.18,-3.16,
3.428,4.06,-3.2,
3.492,3.964,-3.16,
3.452,3.964,-3.2,
3.516,4.044,-3.16,
3.46,4.028,-3.2,
4.14,3.996,-3.16,
4.02,4.004,-3.2,
3.932,3.98,-3.16,
3.932,4.004,-3.2,
3.996,3.932,-3.12,
3.98,3.94,-3.2,
3.956,3.972,-3.12,
3.972,3.948,-3.2,
3.932,4.028,-3.16,
3.964,4.012,-3.2,
3.9,3.284,-3.16,
3.908,3.316,-3.2,
3.94,3.5,-3.12,
3.908,3.476,-3.2,
3.988,3.556,-3.12,
3.972,3.508,-3.2,
3.252,3.572,-3.16,
3.292,3.508,-3.2,
3.452,4.164,-3.16,
3.428,4.172,-3.2,
3.524,4.036,-3.2,
3.46,4.036,-3.2,
3.532,3.972,-3.12,
3.476,3.98,-3.2,
4.116,4.036,-3.16,
4.14,4.02,-3.2,
3.988,3.996,-3.12,
3.996,4.004,-3.2,
3.932,3.98,-3.16,
3.932,4.004,-3.2,
3.996,3.932,-3.16,
3.98,3.94,-3.2,
3.956,3.972,-3.16,
3.972,3.948,-3.2,
3.94,4.028,-3.16,
3.964,4.02,-3.2,
3.9,3.276,-3.16,
3.9,3.38,-3.2,
3.932,3.5,-3.16,
3.916,3.476,-3.2,
3.988,3.54,-3.12,
3.98,3.508,-3.2,
3.244,4.172,-3.16,
3.34,4.052,-3.2,
3.468,3.988,-3.2,
3.444,3.996,-3.2,
3.508,3.964,-3.16,
3.484,3.956,-3.2,
4.132,3.988,-3.16,
4.004,3.964,-3.2,
3.948,3.988,-3.16,
3.956,3.988,-3.2,
3.932,3.956,-3.12,
3.94,3.964,-3.2,
3.924,3.988,-3.2,
3.94,3.956,-3.2,
3.916,4.028,-3.2,
3.94,3.98,-3.2,
3.924,3.956,-3.16,
3.94,3.98,-3.2,
3.924,3.932,-3.12,
3.916,3.924,-3.2,
3.988,3.996,-3.16,
3.94,3.956,-3.2,
3.908,3.988,-3.16,
3.94,3.98,-3.2,
3.9,3.956,-3.16,
3.884,3.972,-3.2,
3.948,3.932,-3.16,
3.94,3.948,-3.2,
3.916,3.988,-3.12,
3.924,3.98,-3.2,
3.948,3.948,-3.16,
3.94,3.98,-3.2,
3.892,3.94,-3.2,
3.908,3.956,-3.2,
3.948,3.988,-3.16,
3.94,3.956,-3.2,
3.908,3.988,-3.16,
3.94,3.98,-3.2,
3.908,3.956,-3.16,
3.924,3.988,-3.2,
3.94,3.956,-3.16,
3.94,3.956,-3.2,
3.908,4.028,-3.16,
3.94,4.028,-3.2,
3.924,3.988,-3.16,
3.94,4.004,-3.2,
3.908,3.94,-3.16,
3.908,3.948,-3.2,
3.98,3.972,-3.16,
3.988,3.972,-3.2,
3.956,3.956,-3.2,
3.972,3.956,-3.2,
3.9,3.988,-3.16,
3.908,3.956,-3.2,
3.94,4.02,-3.16,
3.94,4.02,-3.2,
3.908,3.988,-3.2,
3.94,4.012,-3.2,
3.908,3.98,-3.16,
3.908,4.004,-3.2,
3.988,3.98,-3.12,
3.98,3.988,-3.2,
3.956,4.004,-3.16,
3.972,3.98,-3.2,
3.94,4.004,-3.12,
3.94,4.004,-3.2,
3.972,3.98,-3.16,
3.964,4.004,-3.2,
3.94,3.98,-3.12,
3.94,4.004,-3.2,
3.964,3.98,-3.16,
3.972,4.004,-3.2,
3.932,3.98,-3.16,
3.964,3.988,-3.2,
3.94,4.004,-3.2,
3.964,4.004,-3.2,
3.94,3.98,-3.12,
3.94,4.004,-3.2,
3.964,3.98,-3.16,
3.948,4.004,-3.2,
3.964,3.98,-3.2,
3.972,4.004,-3.2,
3.94,3.98,-3.16,
3.964,3.932,-3.2,
3.94,4.02,-3.2,
3.964,4.02,-3.2,
3.94,3.988,-3.16,
3.948,3.988,-3.2,
3.964,4.004,-3.16,
3.9,4.004,-3.2,
3.972,3.924,-3.12,
3.972,3.94,-3.2,
3.94,4.02,-3.12,
3.964,4.004,-3.2,
3.94,3.98,-3.12,
3.964,4.004,-3.2,
3.892,3.98,-3.16,
3.9,3.988,-3.2,
3.972,4.004,-3.16,
3.972,4.004,-3.2,
3.948,3.98,-3.16,
3.94,4.004,-3.2,
3.972,3.932,-3.2,
3.964,3.94,-3.2,
3.94,4.028,-3.12,
3.964,4.02,-3.2,
3.932,3.284,-3.16,
3.964,3.996,-3.2,
3.9,3.964,-3.16,
3.9,3.964,-3.2,
3.98,4.044,-3.2,
3.988,4.02,-3.2,
3.26,3.988,-3.16,
3.948,4.004,-3.12,
3.924,3.988,-3.2,
3.932,4.004,-3.2,
3.996,3.932,-3.16,
3.98,3.956,-3.2,
3.956,3.98,-3.12,
3.956,3.956,-3.2,
3.972,4.028,-3.16,
3.972,4.02,-3.2,
3.9,3.94,-3.12,
3.908,3.956,-3.2,
3.94,3.98,-3.12,
3.924,3.98,-3.2,
3.996,3.908,-3.16,
3.972,3.948,-3.2,
3.9,4.028,-3.16,
3.908,4.02,-3.2,
3.94,3.988,-3.16,
3.948,4.004,-3.2,
3.876,3.988,-3.16,
3.916,4.004,-3.16,
3.988,3.988,-3.2,
3.988,4.004,-3.2,
3.948,3.98,-3.16,
3.972,3.988,-3.2,
3.948,4.004,-3.16,
3.964,4.004,-3.2,
3.94,3.98,-3.12,
3.964,3.988,-3.2,
3.94,4.004,-3.2,
3.964,4.004,-3.2,
3.94,3.988,-3.16,
3.972,4.004,-3.2,
3.94,3.98,-3.16,
3.948,4.004,-3.2,
3.972,3.98,-3.16,
3.948,4.004,-3.2,
3.972,3.988,-3.16,
3.972,4.004,-3.2,
3.94,3.98,-3.16,
3.948,4.004,-3.2,
3.972,3.98,-3.12,
3.964,4.004,-3.2,
3.94,3.956,-3.16,
3.964,3.932,-3.2,
3.94,4.02,-3.12,
3.94,4.004,-3.2,
3.972,3.98,-3.16,
3.964,4.004,-3.2,
3.916,3.988,-3.16,
3.9,4.004,-3.2,
3.972,3.932,-3.16,
3.972,4.02,-3.2,
3.94,3.94,-3.12,
3.964,3.948,-3.16,
3.948,4.02,-3.2,
3.964,3.276,-3.2,
3.9,4.02,-3.16,
3.908,3.988,-3.2,
3.972,3.964,-3.2,
3.9,3.988,-3.2,
3.988,3.956,-3.16,
3.252,3.956,-3.2,
3.972,4.036,-3.16,
3.948,4.012,-3.2,
3.932,3.956,-3.16,
3.924,3.956,-3.2,
3.948,3.98,-3.16,
3.924,3.956,-3.12,
3.988,3.988,-3.2,
3.98,3.948,-3.2,
3.908,4.028,-3.16,
3.924,4.02,-3.2,
3.94,3.98,-3.12,
3.924,4.012,-3.2,
3.948,3.988,-3.12,
3.908,4.004,-3.2,
3.996,3.98,-3.12,
3.988,3.988,-3.2,
3.948,4.004,-3.16,
3.972,3.98,-3.2,
3.94,4.004,-3.16,
3.932,4.004,-3.2,
3.972,3.98,-3.12,
3.964,4.004,-3.2,
3.94,3.988,-3.2,
3.964,4.004,-3.2,
3.94,3.98,-3.2,
3.964,4.004,-3.2,
3.94,3.988,-3.16,
3.948,3.988,-3.2,
3.964,4.012,-3.16,
3.964,4.004,-3.2,
3.94,3.988,-3.12,
3.94,4.004,-3.2,
3.964,3.988,-3.12,
3.948,4.004,-3.2,
3.98,3.98,-3.16,
3.964,4.004,-3.2,
3.94,3.94,-3.12,
3.972,3.94,-3.2,
3.94,4.02,-3.12,
3.972,3.988,-3.12,
3.94,4.004,-3.2,
3.964,4.004,-3.2,
3.9,3.98,-3.16,
3.9,4.004,-3.2,
3.98,3.932,-3.12,
3.972,4.02,-3.2,
3.948,3.94,-3.16,
3.948,4.028,-3.2,
3.964,3.3,-3.12,
3.964,3.348,-3.2,
3.9,4.012,-3.16,
3.988,3.996,-3.2,
3.9,3.964,-3.16,
3.98,3.988,-3.2,
3.26,3.956,-3.2,
3.316,3.964,-3.2,
3.972,4.028,-3.16,
3.956,4.02,-3.2,
3.932,3.284,-3.16,
3.924,4.052,-3.2,
3.948,3.988,-3.16,
3.932,3.98,-3.2,
3.996,4.044,-3.16,
3.972,4.028,-3.2,
3.252,3.988,-3.2,
4.004,4.004,-3.2,
3.948,3.98,-3.16,
3.94,4.004,-3.2,
3.996,3.932,-3.16,
3.988,3.94,-3.2,
3.956,3.972,-3.16,
3.972,3.956,-3.2,
3.948,3.988,-3.16,
3.964,3.988,-3.2,
3.9,3.956,-3.16,
3.908,3.956,-3.2,
3.94,3.988,-3.16,
3.924,3.988,-3.2,
3.948,3.956,-3.16,
3.94,3.956,-3.2,
3.908,3.988,-3.16,
3.924,3.988,-3.2,
3.948,3.956,-3.16,
3.924,3.988,-3.2,
3.948,3.956,-3.16,
3.948,3.988,-3.2,
3.916,3.956,-3.16,
3.924,3.964,-3.2,
3.948,4.028,-3.12,
3.94,4.02,-3.2,
3.924,3.988,-3.16,
3.924,4.004,-3.2,
3.94,3.988,-3.16,
3.924,4.004,-3.2,
3.988,3.932,-3.16,
3.972,3.94,-3.2,
3.948,3.98,-3.16,
3.964,3.956,-3.2,
3.948,3.98,-3.16,
3.964,3.956,-3.2,
3.9,3.98,-3.12,
3.908,3.988,-3.2,
3.94,3.956,-3.16,
3.94,3.988,-3.2,
3.924,3.956,-3.16,
3.94,3.956,-3.2,
3.908,3.988,-3.16,
3.924,3.988,-3.2,
3.948,3.956,-3.16,
3.948,3.988,-3.2,
3.916,3.956,-3.16,
3.908,3.964,-3.2,
3.948,4.004,-3.2,
3.94,4.028,-3.2,
3.924,3.996,-3.12,
3.94,4.004,-3.2,
3.924,3.988,-3.12,
3.924,4.004,-3.2,
3.964,3.988,-3.12,
3.988,3.996,-3.2,
3.956,3.932,-3.12,
3.972,3.948,-3.2,
3.948,3.972,-3.16,
3.964,3.956,-3.2,
3.94,3.98,-3.16,
3.956,3.956,-3.2,
3.892,3.988,-3.16,
3.908,3.964,-3.2,
3.94,3.988,-3.16,
3.94,3.956,-3.2,
3.908,3.988,-3.16,
3.916,3.988,-3.2,
3.948,3.956,-3.16,
3.948,3.988,-3.2,
3.924,3.956,-3.16,
3.94,3.988,-3.2,
3.908,3.956,-3.16,
3.924,3.956,-3.2,
3.948,4.044,-3.16,
3.924,4.028,-3.2,
3.948,3.98,-3.12,
3.924,4.02,-3.2,
3.948,3.988,-3.16,
3.924,4.02,-3.2,
3.996,3.94,-3.16,
3.988,3.932,-3.2,
3.948,3.972,-3.16,
3.972,3.972,-3.2,
3.948,3.948,-3.16,
3.972,3.972,-3.2,
3.9,3.956,-3.12,
3.9,3.956,-3.2,
3.932,3.988,-3.12,
3.908,3.956,-3.2,
3.94,3.98,-3.16,
3.94,3.956,-3.2,
3.908,3.988,-3.16,
3.94,3.956,-3.2,
3.924,3.98,-3.16,
3.924,3.956,-3.2,
3.94,3.98,-3.16,
3.916,3.956,-3.2,
3.948,3.988,-3.16,
3.94,3.956,-3.2,
3.924,4.028,-3.16,
3.94,4.028,-3.2,
3.924,3.988,-3.16,
3.94,4.004,-3.2,
3.924,3.988,-3.16,
3.924,4.004,-3.2,
3.988,3.94,-3.12,
3.988,3.932,-3.2,
3.956,3.972,-3.16,
3.972,3.956,-3.2,
3.948,3.972,-3.16,
3.972,3.956,-3.2,
3.9,3.988,-3.16,
3.9,3.98,-3.2,
3.932,3.956,-3.12,
3.908,3.98,-3.2,
3.94,3.948,-3.16,
3.94,3.956,-3.2,
3.916,3.988,-3.16,
3.94,3.956,-3.2,
3.924,3.988,-3.12,
3.94,3.948,-3.2,
3.916,3.988,-3.12,
3.924,3.956,-3.2,
3.94,3.988,-3.12,
3.924,3.956,-3.2,
3.94,4.036,-3.12,
3.94,4.02,-3.2,
3.908,3.988,-3.16,
3.924,4.004,-3.2,
3.948,3.98,-3.16,
3.924,4.004,-3.2,
3.996,3.932,-3.12,
3.972,3.932,-3.2,
3.956,3.972,-3.16,
3.948,3.972,-3.2,
3.972,3.956,-3.12,
3.964,3.956,-3.2,
3.9,3.988,-3.16,
3.9,3.98,-3.2,
3.94,3.956,-3.12,
3.94,3.956,-3.2,
3.908,3.988,-3.16,
3.94,3.988,-3.2,
3.916,3.956,-3.16,
3.94,3.956,-3.2,
3.916,3.988,-3.16,
3.908,3.988,-3.2,
3.948,3.956,-3.12,
3.924,3.988,-3.2,
3.948,3.956,-3.16,
3.924,3.956,-3.2,
3.948,4.028,-3.16,
3.94,4.02,-3.2,
3.908,3.988,-3.16,
3.94,4.004,-3.2,
3.908,3.98,-3.16,
3.924,4.004,-3.2,
3.996,3.94,-3.16,
3.972,3.972,-3.2,
3.948,3.94,-3.12,
3.972,3.956,-3.2,
3.94,3.98,-3.12,
3.964,3.956,-3.2,
3.9,3.988,-3.16,
3.908,3.956,-3.2,
3.932,3.988,-3.16,
3.916,3.956,-3.2,
3.94,3.988,-3.12,
3.94,3.98,-3.2,
3.908,3.956,-3.12,
3.94,3.956,-3.2,
3.924,3.988,-3.12,
3.94,3.956,-3.2,
3.924,3.988,-3.16,
3.924,3.956,-3.2,
3.94,4.004,-3.12,
3.924,4.028,-3.2,
3.94,3.996,-3.16,
3.94,4.004,-3.2,
3.924,3.988,-3.16,
3.916,4.004,-3.2,
3.972,3.98,-3.16,
3.996,4.004,-3.2,
3.956,3.932,-3.16,
3.972,3.948,-3.2,
3.948,3.972,-3.16,
3.972,3.948,-3.2,
3.948,3.98,-3.16,
3.964,3.956,-3.2,
3.9,3.996,-3.16,
3.908,3.956,-3.2,
3.94,3.988,-3.2,
3.94,3.956,-3.2,
3.908,3.988,-3.16,
3.948,3.956,-3.2,
3.916,3.988,-3.16,
3.94,3.956,-3.2,
3.908,3.98,-3.2,
3.94,3.98,-3.2,
3.924,3.956,-3.16,
3.94,3.956,-3.2,
3.924,4.028,-3.12,
3.94,4.028,-3.2,
3.924,3.996,-3.16,
3.924,4.02,-3.2,
3.94,3.988,-3.2,
3.924,4.004,-3.2,
3.996,3.932,-3.16,
3.988,3.94,-3.2,
3.956,3.972,-3.12,
3.972,3.948,-3.2,
3.94,3.972,-3.16,
3.972,3.988,-3.2,
3.9,3.948,-3.16,
3.9,3.948,-3.2,
3.932,3.988,-3.12,
3.94,3.98,-3.2,
3.9,3.956,-3.12,
3.94,3.98,-3.2,
3.9,3.956,-3.16,
3.94,3.956,-3.2,
3.908,3.988,-3.16,
3.94,3.956,-3.2,
3.908,3.98,-3.16,
3.94,3.988,-3.2,
3.908,3.956,-3.2,
3.94,3.956,-3.2,
3.924,4.028,-3.16,
3.94,4.028,-3.2,
3.916,3.988,-3.12,
3.94,4.004,-3.2,
3.908,3.988,-3.16,
3.924,4.004,-3.2,
3.988,3.94,-3.16,
3.988,3.94,-3.2,
3.956,3.972,-3.16,
3.972,3.956,-3.2,
3.94,3.98,-3.2,
3.964,3.98,-3.2,
3.9,3.948,-3.16,
3.9,3.956,-3.2,
3.94,3.988,-3.16,
3.94,3.956,-3.2,
3.916,3.988,-3.2,
3.94,3.956,-3.2,
3.908,3.98,-3.12,
3.94,3.98,-3.2,
3.908,3.956,-3.16,
3.924,3.956,-3.2,
3.94,3.98,-3.16,
3.94,3.956,-3.2,
3.924,3.988,-3.16,
3.94,3.956,-3.2,
3.924,4.028,-3.16,
3.94,4.02,-3.2,
3.924,3.988,-3.12,
3.94,4.004,-3.2,
3.924,3.988,-3.16,
3.924,4.004,-3.2,
3.996,3.932,-3.16,
3.972,3.94,-3.2,
3.948,3.972,-3.12,
3.964,3.956,-3.2,
3.948,3.98,-3.12,
3.964,3.988,-3.16,
3.892,3.956,-3.2,
3.908,3.956,-3.2,
3.94,3.988,-3.12,
3.94,3.988,-3.2,
3.924,3.956,-3.16,
3.924,3.996,-3.2,
3.948,3.956,-3.16,
3.924,3.948,-3.2,
3.948,3.988,-3.16,
3.94,3.956,-3.2,
3.924,3.988,-3.16,
3.924,3.956,-3.12,
3.948,3.988,-3.2,
3.908,3.988,-3.2,
3.948,3.956,-3.16,
3.948,3.98,-3.2,
3.924,3.956,-3.12,
3.924,3.972,-3.2,
3.948,3.956,-3.16,
3.924,4.028,-3.2,
3.948,3.956,-3.2,
3.94,3.956,-3.2,
3.924,3.98,-3.12,
3.94,3.98,-3.2,
3.924,3.956,-3.2,
3.996,3.956,-3.2,
3.916,3.988,-3.12,
3.94,3.956,-3.2,
3.908,3.98,-3.12,
3.94,3.956,-3.2,
3.916,3.988,-3.16,
3.94,3.956,-3.2,
3.924,3.988,-3.12,
3.94,3.98,-3.2,
3.924,3.956,-3.16,
3.94,3.98,-3.2,
3.924,3.94,-3.16,
3.94,3.988,-3.2,
3.924,3.956,-3.12,
3.948,3.988,-3.2,
3.916,3.956,-3.12,
3.94,3.956,-3.2,
3.9,3.988,-3.16,
3.94,3.98,-3.2,
3.924,3.956,-3.16,
3.94,3.956,-3.2,
3.908,3.98,-3.16,
3.924,3.956,-3.2,
3.94,3.98,-3.16,
3.94,3.956,-3.2,
3.924,3.988,-3.16,
3.924,3.956,-3.2,
3.94,3.98,-3.16,
3.94,3.956,-3.2,
3.924,3.988,-3.16,
3.94,3.956,-3.2,
3.916,3.98,-3.16,
3.924,3.98,-3.2,
3.94,3.956,-3.16,
3.94,3.98,-3.2,
3.908,3.956,-3.2,
3.94,3.956,-3.2,
3.924,3.988,-3.16,
3.94,3.956,-3.2,
3.924,3.988,-3.16,
3.94,3.956,-3.2,
3.916,3.988,-3.16,
3.94,3.956,-3.2,
3.924,3.996,-3.16,
3.94,3.956,-3.2,
3.924,3.988,-3.16,
3.924,3.956,-3.2,
3.948,3.988,-3.12,
3.948,3.988,-3.2,
3.908,3.948,-3.12,
3.916,3.988,-3.2,
3.948,3.956,-3.2,
3.948,3.956,-3.2,
3.908,3.98,-3.16,
3.94,3.956,-3.2,
3.916,3.98,-3.16,
3.94,3.988,-3.2,
3.924,3.956,-3.16,
3.924,3.98,-3.2,
3.948,3.956,-3.12,
3.94,3.956,-3.2,
3.924,3.988,-3.16,
3.94,3.98,-3.2,
3.924,3.956,-3.16,
3.94,3.956,-3.2,
3.908,3.98,-3.12,
3.94,3.956,-3.2,
3.924,3.988,-3.12,
3.94,3.988,-3.2,
3.924,3.956,-3.16,
3.924,3.956,-3.2,
3.94,3.988,-3.2,
3.94,3.948,-3.2,
3.924,3.98,-3.16,
3.94,3.956,-3.2,
3.908,3.988,-3.2,
3.94,3.98,-3.2,
3.924,3.956,-3.16,
3.94,3.98,-3.2,
3.908,3.956,-3.12,
3.94,3.98,-3.2,
3.908,3.956,-3.12,
3.94,3.964,-3.2,
3.924,3.988,-3.2,
3.94,3.98,-3.2,
3.916,3.956,-3.16,
3.94,3.98,-3.2,
3.916,3.956,-3.12,
3.924,3.956,-3.2,
3.94,3.98,-3.2,
3.94,3.956,-3.2,
3.916,4.028,-3.12,
3.94,4.02,-3.2,
3.924,3.988,-3.12,
3.94,4.004,-3.16,
3.924,3.988,-3.2,
3.924,4.004,-3.2,
3.996,3.932,-3.16,
3.988,3.94,-3.2,
3.956,3.972,-3.16,
3.972,3.972,-3.2,
3.94,3.948,-3.16,
3.964,3.956,-3.2,
3.9,3.98,-3.16,
3.908,3.988,-3.2,
3.932,3.956,-3.12,
3.908,3.988,-3.2,
3.94,3.956,-3.16,
3.94,3.956,-3.2,
3.916,3.988,-3.12,
3.94,3.988,-3.2,
3.916,3.956,-3.16,
3.948,3.956,-3.2,
3.916,3.996,-3.16,
3.94,3.956,-3.2,
3.908,3.988,-3.16,
3.948,3.956,-3.2,
3.908,4.028,-3.16,
3.924,4.012,-3.2,
3.948,3.988,-3.12,
3.94,4.004,-3.2,
3.924,3.988,-3.16,
3.908,4.004,-3.2,
3.996,3.94,-3.16,
3.972,3.948,-3.2,
3.94,3.972,-3.16,
3.964,3.972,-3.2,
3.948,3.956,-3.16,
3.964,3.98,-3.2,
3.9,3.948,-3.2,
3.9,3.98,-3.2,
3.94,3.956,-3.16,
3.94,3.98,-3.2,
3.908,3.956,-3.16,
3.94,3.956,-3.2,
3.908,3.988,-3.16,
3.94,3.956,-3.2,
3.924,3.988,-3.12,
3.916,3.98,-3.2,
3.948,3.956,-3.12,
3.94,3.956,-3.2,
3.924,4.004,-3.16,
3.94,4.028,-3.2,
3.916,3.996,-3.2,
3.94,4.02,-3.2,
3.924,3.988,-3.12,
3.924,4.004,-3.2,
3.956,3.988,-3.16,
3.988,4.004,-3.16,
3.956,3.932,-3.2,
3.972,3.948,-3.2,
3.94,3.972,-3.16,
3.972,3.956,-3.2,
3.94,3.98,-3.2,
3.964,3.956,-3.2,
3.9,3.988,-3.16,
3.908,3.98,-3.2,
3.94,3.956,-3.2,
3.94,3.988,-3.2,
3.924,3.956,-3.12,
3.94,3.956,-3.2,
3.916,3.988,-3.12,
3.924,3.98,-3.2,
3.94,3.956,-3.16,
3.924,3.956,-3.2,
3.948,3.988,-3.2,
3.94,3.956,-3.2,
3.924,4.028,-3.16,
3.94,4.028,-3.2,
3.924,3.988,-3.12,
3.94,3.988,-3.2,
3.924,4.02,-3.12,
3.924,4.012,-3.2,
3.996,3.948,-3.12,
3.988,3.94,-3.2,
3.956,3.972,-3.16,
3.972,3.948,-3.2,
3.948,3.988,-3.12,
3.98,3.988,-3.2,
3.9,3.956,-3.16,
3.9,3.956,-3.2,
3.94,3.988,-3.12,
3.9,3.964,-3.2,
3.948,3.988,-3.16,
3.924,3.98,-3.2,
3.948,3.956,-3.16,
3.916,3.988,-3.2,
3.948,3.956,-3.16,
3.94,3.988,-3.16,
3.924,3.956,-3.2,
3.94,3.988,-3.2,
3.908,3.956,-3.12,
3.948,3.956,-3.2,
3.924,4.028,0.12,
3.924,4.02,0.12,
3.948,3.988,0.04,
3.94,4.004,0.04,
3.916,3.98,0.12,
3.924,4.004,0.08,
3.98,3.932,0.12,
3.98,3.932,0.12,
3.956,3.972,0.08,
3.972,3.972,0.12,
3.948,3.956,0,
3.972,3.972,0.12,
3.892,3.94,0.04,
3.9,3.956,0.12,
3.932,3.988,0.04,
3.94,3.956,0.12,
3.908,3.98,0.08,
3.94,3.956,0.12,
3.908,3.988,0.04,
3.94,3.98,0.12,
3.908,3.956,0.04,
3.94,3.972,0.12,
3.924,3.948,0.04,
3.94,3.956,0.12,
3.908,3.988,0.04,
3.94,3.964,0.12,
3.924,4.028,0.04,
3.94,4.02,0.12,
3.908,3.988,0.04,
3.94,4.004,0.12,
3.924,3.988,0,
3.924,4.004,0,
3.996,3.932,0.12,
3.98,3.948,0.12,
3.956,3.972,0.04,
3.972,3.972,0.12,
3.948,3.956,0.04,
3.964,3.956,0.12,
3.884,3.98,0.04,
3.908,3.964,0.12,
3.94,3.98,0.04,
3.924,3.988,0.12,
3.94,3.956,0,
3.924,3.956,0.08,
3.94,3.988,0.12,
3.94,3.956,0.12,
3.916,3.988,0.04,
3.94,3.956,0.08,
3.924,3.988,0.12,
3.924,3.988,0.04,
3.94,3.956,0.12,
3.94,3.964,0.12,
3.924,4.028,0.04,
3.908,3.988,0.08,
3.948,4.012,0.12,
3.924,3.988,0.08,
3.948,4.004,0.12,
3.924,4.004,0.12,
