Power Reception/Metingen 3/Meting met pin 2 -116 -126 94 -10.csv

CH1,CH2,CH3,Start,Increment,
Volt,Volt,Volt,-29.975,0.05
2.7,2.7,0.08,
2.7,2.7,0.04,
2.7,2.7,0.08,
2.7,2.7,0.04,
2.7,2.7,0.08,
2.7,2.7,0.04,
2.7,2.7,0.08,
2.7,2.7,0,
2.7,2.7,0.04,
2.7,2.7,0.08,
2.7,2.7,0.08,
2.7,2.7,0,
2.7,2.7,0.08,
2.7,2.7,0.04,
2.7,2.7,0.08,
2.7,2.7,0.04,
2.7,2.7,0.08,
2.7,2.7,0.04,
2.7,2.7,0.08,
2.7,2.7,0.04,
2.7,2.7,0.08,
2.7,2.7,0,
2.7,2.7,0.08,
2.7,2.7,0.04,
2.7,2.7,0.08,
2.7,2.7,0.04,
2.7,2.7,0.08,
2.7,2.7,0.04,
2.7,2.7,0.08,
2.7,2.7,0.04,
2.7,2.7,0.08,
2.7,2.7,0.04,
2.7,2.7,0.08,
2.7,2.7,0.04,
2.7,2.7,0.08,
2.7,2.7,0.04,
2.7,2.7,0.08,
2.7,2.7,0,
2.7,2.7,0.04,
2.7,2.7,0.08,
2.7,2.7,0.08,
2.7,2.7,0.04,
2.7,2.7,0.04,
2.7,2.7,0.08,
2.7,2.7,0.08,
2.7,2.7,0.04,
2.7,2.7,0.08,
2.7,2.7,0.04,
2.7,2.7,0.08,
2.7,2.7,0,
2.7,2.7,0.08,
2.7,2.7,0.04,
2.7,2.7,0.08,
2.7,2.7,0.04,
2.7,2.7,0.08,
2.7,2.7,0.04,
2.7,2.7,0.08,
2.7,2.7,0.04,
2.7,2.7,0.08,
2.7,2.7,0.04,
2.7,2.7,0.08,
2.7,2.7,0.04,
2.7,2.7,0.08,
2.7,2.7,0.04,
2.7,2.7,0.08,
2.7,2.7,0.04,
2.7,2.7,0.08,
2.7,2.7,0,
2.7,2.7,0.04,
2.7,2.7,0.08,
2.7,2.7,0.04,
2.7,2.7,0.08,
2.7,2.7,0.08,
2.7,2.7,0,
2.7,2.7,0.08,
2.7,2.7,0.04,
2.7,2.7,0.04,
2.7,2.7,0.08,
2.7,2.7,0.08,
2.7,2.7,0.04,
2.7,2.7,0.08,
2.7,2.7,0.04,
2.7,2.7,0.08,
2.7,2.7,0.04,
2.7,2.7,0.08,
2.7,2.7,0.04,
2.7,2.7,0.08,
2.7,2.7,0.04,
2.7,2.7,0.08,
2.7,2.7,0.04,
2.7,2.7,0.04,
2.7,2.7,0.08,
2.7,2.7,0.08,
2.7,2.7,0.04,
2.7,2.7,0.08,
2.7,2.7,0.04,
2.7,2.7,0.08,
2.7,2.7,0.04,
2.7,2.7,0.08,
2.7,2.7,0.04,
2.7,2.7,0.08,
2.7,2.7,0.04,
2.7,2.7,0.08,
2.7,2.7,0.04,
2.7,2.7,0.08,
2.7,2.7,0,
2.7,2.7,0.08,
2.7,2.7,0.04,
2.7,2.7,0.08,
2.7,2.7,0.04,
2.7,2.7,0.08,
2.7,2.7,0,
2.7,2.7,0.08,
2.7,2.7,0.04,
2.7,2.7,0.08,
2.7,2.7,0.04,
2.7,2.7,0.08,
2.7,2.7,0.04,
2.7,2.7,0.08,
2.7,2.7,0.04,
2.7,2.7,0.08,
2.7,2.7,0.04,
2.7,2.7,0.08,
2.7,2.7,0.04,
2.7,2.7,0.08,
2.7,2.7,0.04,
2.7,2.7,0.04,
2.7,2.7,0.08,
2.7,2.7,0.08,
2.7,2.7,0,
2.7,2.7,0.08,
2.7,2.7,0.04,
2.7,2.7,0.08,
2.7,2.7,0.04,
2.7,2.7,0.08,
2.7,2.7,0,
2.7,2.7,0.08,
2.7,2.7,0.04,
2.7,2.7,0.08,
2.7,2.7,0.04,
2.7,2.7,0.08,
2.7,2.7,0,
2.7,2.7,0.08,
2.7,2.7,0.04,
2.7,2.7,0.08,
2.7,2.7,0.04,
2.7,2.7,0.08,
2.7,2.7,0.04,
2.7,2.7,0.08,
2.7,2.7,0.04,
2.7,2.7,0.08,
2.7,2.7,0.04,
2.7,2.7,0.04,
2.7,2.7,0.08,
2.7,2.7,0.08,
2.7,2.7,0.04,
2.7,2.7,0.08,
2.7,2.7,0.04,
2.7,2.7,0.08,
2.7,2.7,0,
2.7,2.7,0.08,
2.7,2.7,0.04,
2.7,2.7,0.08,
2.7,2.7,0.04,
2.7,2.7,0.04,
2.7,2.7,0.08,
2.7,2.7,0.08,
2.7,2.7,0.04,
2.7,2.7,0.08,
2.7,2.7,0.04,
2.7,2.7,0.04,
2.7,2.7,0.08,
2.7,2.7,0.08,
2.7,2.7,0.04,
2.7,2.7,0.08,
2.7,2.7,0.04,
2.7,2.7,0.08,
2.7,2.7,0.04,
2.7,2.7,0.08,
2.7,2.7,0,
2.7,2.7,0.08,
2.7,2.7,0.04,
2.7,2.7,0.08,
2.7,2.7,0.04,
2.7,2.7,0.04,
2.7,2.7,0.08,
2.7,2.7,0.08,
2.7,2.7,0.04,
2.7,2.7,0.08,
2.7,2.7,0,
2.7,2.7,0.08,
2.7,2.7,0.04,
2.7,2.7,0.08,
2.7,2.7,0,
2.7,2.7,0.08,
2.7,2.7,0.04,
2.7,2.7,0.08,
2.7,2.7,0.04,
2.7,2.7,0.08,
2.7,2.7,0,
2.7,2.7,0.08,
2.7,2.7,0.04,
2.7,2.7,0.08,
2.7,2.7,0.04,
2.7,2.7,0.04,
2.7,2.7,0.08,
2.7,2.7,0.08,
2.7,2.7,0,
2.7,2.7,0.08,
2.7,2.7,0.04,
2.7,2.7,0.08,
2.7,2.7,0.04,
2.7,2.7,0.08,
2.7,2.7,0.04,
2.7,2.7,0.08,
2.7,2.7,0.04,
2.7,2.7,0.08,
2.7,2.7,0.04,
2.7,2.7,0.04,
2.7,2.7,0.08,
2.7,2.7,0.08,
2.7,2.7,0,
2.7,2.7,0.04,
2.7,2.7,0.08,
2.7,2.7,0.08,
2.7,2.7,0,
2.7,2.7,0.08,
2.7,2.7,0.04,
2.7,2.7,0.08,
2.7,2.7,0.04,
2.7,2.7,0.08,
2.7,2.7,0.04,
2.7,2.7,0.04,
2.7,2.7,0.08,
2.7,2.7,0.08,
2.7,2.7,0.04,
2.7,2.7,0.08,
2.7,2.7,0,
2.7,2.7,0.08,
2.7,2.7,0.04,
2.7,2.7,0.08,
2.7,2.7,0.04,
2.7,2.7,0.08,
2.7,2.7,0,
2.7,2.7,0.08,
2.7,2.7,0.04,
2.7,2.7,0.08,
2.7,2.7,0.04,
2.7,2.7,0.08,
2.7,2.7,0.04,
2.7,2.7,0.08,
2.7,2.7,0.04,
2.7,2.7,0.08,
2.7,2.7,0.04,
2.7,2.7,0.08,
2.7,2.7,0.04,
2.7,2.7,0.08,
2.7,2.7,0.04,
2.7,2.7,0.08,
2.7,2.7,0.04,
2.7,2.7,0.08,
2.7,2.7,0.04,
2.7,2.7,0.08,
2.7,2.7,0,
2.7,2.7,0.08,
2.7,2.7,0.04,
2.7,2.7,0.08,
2.7,2.7,0.04,
2.7,2.7,0.08,
2.7,2.7,0.04,
2.7,2.7,0.08,
2.7,2.7,0.04,
2.7,2.7,0.04,
2.7,2.7,0.08,
2.7,2.7,0.04,
2.7,2.7,0.08,
2.7,2.7,0.08,
2.7,2.7,0.04,
2.7,2.7,0.08,
2.7,2.7,0.04,
2.7,2.7,0.04,
2.7,2.7,0.08,
2.7,2.7,0.08,
2.7,2.7,0.04,
2.7,2.7,0.08,
2.7,2.7,0.04,
2.7,2.7,0.08,
2.7,2.7,0.04,
2.7,2.7,0.08,
2.7,2.7,0.04,
2.7,2.7,0.08,
2.7,2.7,0,
2.7,2.7,0.08,
2.7,2.7,0,
2.7,2.7,0.08,
2.7,2.7,0.04,
2.7,2.7,0.08,
2.7,2.7,0,
2.7,2.7,0.08,
2.7,2.7,0.04,
2.7,2.7,0.08,
2.7,2.7,0,
2.7,2.7,0.08,
2.7,2.7,0.04,
2.7,2.7,0.04,
2.7,2.7,0.08,
2.7,2.7,0.08,
2.7,2.7,0.04,
2.7,2.7,0.04,
2.7,2.7,0.08,
2.7,2.7,0.08,
2.7,2.7,0.04,
2.7,2.7,0.08,
2.7,2.7,0.04,
2.7,2.7,0.04,
2.7,2.7,0.08,
2.7,2.7,0.08,
2.7,2.7,0.04,
2.7,2.7,0.04,
2.7,2.7,0.08,
2.7,2.7,0.08,
2.7,2.7,0,
2.7,2.7,0.08,
2.7,2.7,0.04,
2.7,2.7,0.08,
2.7,2.7,0.04,
2.7,2.7,0.08,
2.7,2.7,0.04,
2.7,2.7,0.04,
2.7,2.7,0.08,
2.7,2.7,0.08,
2.7,2.7,0.04,
2.7,2.7,0.08,
2.7,2.7,0.04,
2.7,2.7,0.04,
2.7,2.7,0.08,
2.7,2.7,0.08,
2.7,2.7,0.04,
2.7,2.7,0.08,
2.7,2.7,0.04,
2.7,2.7,0.08,
2.7,2.7,0.04,
2.7,2.7,0.08,
2.7,2.7,0.04,
2.7,2.7,0.08,
2.7,2.7,0.04,
2.7,2.7,0.08,
2.7,2.7,0.04,
2.7,2.7,0.08,
2.7,2.7,0.04,
2.7,2.7,0.08,
2.7,2.7,0.04,
2.7,2.7,0.08,
2.7,2.7,0.04,
2.7,2.7,0.08,
2.7,2.7,0.04,
2.7,2.7,0.04,
2.7,2.7,0.16,
2.7,2.7,0.08,
2.7,2.7,0,
2.7,2.7,0.08,
2.7,2.7,0,
2.7,2.7,0.08,
2.7,2.7,0,
2.7,2.7,0.08,
2.7,2.7,0,
2.7,2.7,0.08,
2.7,2.7,0,
2.7,2.7,0.08,
2.7,2.7,0,
2.7,2.7,0.08,
2.7,2.7,0,
2.7,2.7,0.08,
2.7,2.7,0,
2.7,2.7,0.08,
2.7,2.7,0,
2.7,2.7,0.08,
2.7,2.7,0,
2.7,2.7,0.08,
2.7,2.7,0,
2.7,2.7,0.08,
2.7,2.7,0,
2.7,2.7,0.08,
2.7,2.7,0,
2.7,2.7,0.08,
2.7,2.7,0,
2.7,2.7,0.08,
2.7,2.7,0.04,
2.7,2.7,0.08,
2.7,2.7,0.04,
2.7,2.7,0.08,
2.7,2.7,0,
2.7,2.7,0.04,
2.7,3.252,0.08,
2.7,3.348,0.08,
3.252,4.204,0,
3.34,4.188,0.08,
4.196,4.22,0,
4.188,4.22,0.08,
4.204,4.196,0,
4.188,4.204,0.04,
4.204,4.22,0.08,
4.204,4.22,0.08,
4.188,4.196,0,
4.204,4.22,0.08,
4.188,4.196,0.04,
4.188,4.22,0.08,
4.204,4.196,0.04,
4.204,4.22,0.08,
4.196,4.196,0,
4.204,4.196,0.08,
4.196,4.22,0.04,
4.196,4.22,0.08,
4.204,4.204,0,
4.22,4.22,0.08,
4.196,4.196,0,
4.204,4.22,0.08,
4.196,4.196,0,
4.204,4.22,0.08,
4.196,4.196,0,
4.204,4.22,0.08,
4.196,4.204,0,
4.196,4.22,0.08,
4.212,4.196,0.04,
4.204,4.22,0.08,
4.196,4.196,0,
4.204,4.22,0.08,
4.196,4.196,0,
4.196,4.22,0.08,
4.212,4.196,0.04,
4.204,4.22,0.08,
4.196,4.196,0,
4.204,4.204,0.08,
4.196,4.22,0,
4.196,4.196,0.08,
4.22,4.22,0.04,
4.204,4.22,0.08,
4.196,4.196,0,
4.204,4.196,0.08,
4.196,4.22,0,
4.22,4.22,0.08,
4.196,4.196,0,
4.22,4.22,0.08,
4.196,4.204,0,
4.196,4.22,0.08,
4.22,4.196,0,
4.196,4.204,0.08,
4.212,4.22,0,
4.196,4.22,0.08,
4.212,4.204,0,
4.204,4.196,0.08,
4.196,4.22,0,
4.204,4.22,0.08,
4.196,4.196,0,
4.204,4.22,0.08,
4.196,4.196,0,
4.204,4.22,0.08,
4.196,4.196,0,
4.196,4.22,0.08,
4.22,4.196,0.04,
4.196,4.204,0.08,
4.22,4.22,0.04,
4.196,4.22,0.08,
4.212,4.196,0,
4.196,4.22,0.08,
4.22,4.196,0.04,
4.196,4.22,0.08,
4.22,4.196,0,
4.196,4.22,0,
4.212,4.196,0.08,
4.196,4.22,0.08,
4.212,4.196,0,
4.212,4.22,0.08,
4.196,4.196,0,
4.204,4.22,0.08,
4.196,4.196,0,
4.196,4.22,0.08,
4.22,4.196,0.04,
4.204,4.22,0.08,
4.196,4.196,0.04,
4.196,4.204,0.08,
4.22,4.22,0,
4.196,4.204,0.04,
4.22,4.22,0.08,
4.196,4.22,0.08,
4.22,4.196,0,
4.196,4.22,0.08,
4.22,4.196,0,
4.196,4.22,0.08,
4.22,4.204,0,
4.196,4.22,0.08,
4.212,4.196,0,
4.196,4.22,0,
4.212,4.196,0.08,
4.196,4.22,0.04,
4.22,4.196,0.08,
4.196,4.22,0.08,
4.22,4.196,0,
4.212,4.22,0.08,
4.196,4.196,0,
4.196,4.22,0.08,
4.22,4.196,0.04,
4.212,4.204,0.08,
4.196,4.22,0,
4.196,4.196,0.08,
4.204,4.22,0,
4.196,4.22,0.08,
4.212,4.196,0,
4.196,4.22,0.08,
4.22,4.204,0,
4.196,4.22,0.08,
4.212,4.204,0,
4.212,4.22,0.08,
4.196,4.196,0,
4.22,4.22,0.08,
4.196,4.204,0,
4.204,4.22,0.08,
4.196,4.196,0,
4.212,4.22,0.08,
4.196,4.196,0,
4.204,4.22,0.08,
4.196,4.196,0,
4.204,4.22,0.08,
4.196,4.196,0,
4.196,4.204,0.08,
4.212,4.22,0.04,
4.196,4.22,0.08,
4.212,4.196,0,
4.196,4.22,0.08,
4.212,4.196,0,
4.204,4.22,0.04,
4.196,4.196,0.08,
4.22,4.22,0,
4.196,4.196,3.36,
4.22,4.22,3.36,
4.196,4.156,3.44,
4.204,4.172,3.36,
4.1,4.196,3.44,
4.124,4.18,3.32,
4.14,4.196,3.4,
4.124,4.18,3.32,
4.148,4.196,3.4,
4.148,4.164,3.4,
4.132,4.204,3.36,
4.164,4.164,3.32,
4.116,4.204,3.44,
4.164,4.252,3.44,
4.108,4.156,3.32,
4.124,4.196,3.36,
4.236,4.164,3.4,
4.172,4.196,3.36,
4.108,4.18,3.4,
4.124,4.18,3.32,
4.164,4.244,3.44,
4.132,4.236,3.36,
4.228,4.156,3.4,
4.236,4.172,3.4,
4.108,4.196,3.32,
4.124,4.18,3.32,
4.14,4.196,3.44,
4.124,4.18,3.36,
4.148,4.196,3.32,
4.132,4.204,3.36,
4.148,4.172,3.4,
4.156,4.164,3.32,
4.116,4.204,3.44,
4.108,4.164,3.32,
4.164,4.204,3.4,
4.124,4.196,3.36,
4.164,4.164,3.4,
4.148,4.164,3.36,
4.108,4.188,3.44,
4.108,4.188,3.44,
4.132,4.164,3.32,
4.132,4.164,3.36,
4.108,4.188,3.44,
4.108,4.188,3.32,
4.132,4.164,3.44,
4.132,4.188,3.32,
4.108,4.164,3.44,
4.108,4.164,3.32,
4.132,4.188,3.4,
4.108,4.164,3.44,
4.132,4.188,3.36,
4.108,4.188,3.36,
4.132,4.164,3.44,
4.108,4.164,3.44,
4.132,4.188,3.32,
4.132,4.188,3.32,
4.108,4.164,3.44,
4.108,4.188,3.36,
4.132,4.164,3.44,
4.132,4.172,3.4,
4.108,4.188,3.32,
4.108,4.188,3.4,
4.132,4.164,3.32,
4.108,4.164,3.36,
4.132,4.188,3.44,
4.108,4.164,3.36,
4.132,4.188,3.4,
4.132,4.164,3.36,
4.108,4.188,3.44,
4.132,4.164,3.36,
4.108,4.196,3.4,
4.108,4.124,3.36,
4.132,4.196,3.44,
4.036,4.188,3.32,
4.14,4.164,3.44,
4.132,4.164,3.36,
4.108,4.188,3.44,
4.132,4.188,3.32,
4.116,4.164,3.44,
4.108,4.188,3.44,
4.132,4.164,3.32,
4.108,4.164,3.36,
4.132,4.188,3.32,
4.108,4.188,3.36,
4.132,4.164,3.4,
4.108,4.108,3.36,
4.132,4.204,3.44,
4.036,4.188,3.32,
4.172,4.164,3.44,
4.132,4.164,3.36,
4.108,4.188,3.36,
4.108,4.188,3.36,
4.132,4.164,3.4,
4.132,4.164,3.44,
4.108,4.196,3.32,
4.132,4.164,3.36,
4.1,4.204,3.4,
4.108,4.196,3.36,
4.164,4.116,3.44,
4.164,4.156,3.44,
3.996,4.18,3.32,
4.084,4.156,3.32,
4.108,4.18,3.4,
4.116,4.132,3.32,
4.076,4.204,3.44,
4.02,4.196,3.36,
4.148,4.14,3.44,
4.044,4.18,3.32,
4.132,4.132,3.44,
4.116,4.18,3.4,
4.02,4.124,3.32,
4.108,4.124,3.44,
4.02,4.18,3.32,
4.108,4.172,3.44,
4.012,4.14,3.32,
4.052,4.18,3.4,
4.108,4.132,3.32,
4.108,4.172,3.36,
4.028,4.116,3.4,
4.092,4.172,3.36,
3.988,4.116,3.44,
3.988,4.108,3.32,
4.108,4.204,3.44,
3.98,4.156,3.36,
4.14,4.188,3.4,
4.084,4.164,3.44,
4.124,4.196,3.32,
4.1,4.188,3.44,
4.14,4.1,3.32,
4.132,4.1,3.36,
3.988,4.196,3.44,
3.964,4.196,3.44,
4.132,4.1,0.08,
3.98,4.132,0.08,
4.14,4.204,0,
4.044,4.124,0.08,
4.132,4.22,0.04,
4.012,4.196,0.04,
4.172,4.108,0.08,
4.148,4.18,0.04,
4.004,4.084,0.08,
4.124,4.132,0.08,
3.94,4.22,0.04,
4.02,4.148,0.08,
4.196,4.236,0,
4.196,4.22,0.04,
4.052,4.14,3.4,
4.188,4.156,3.44,
4.084,4.196,3.32,
4.1,4.196,3.32,
4.14,4.172,3.4,
4.14,4.196,3.4,
4.124,4.164,3.32,
4.14,4.196,3.36,
4.108,4.172,3.44,
4.14,4.164,3.44,
4.116,4.204,3.32,
4.164,4.196,3.32,
4.116,4.156,3.44,
4.092,4.164,3.36,
4.148,4.22,3.44,
4.108,4.204,3.32,
4.18,4.164,3.44,
4.108,4.22,3.4,
4.18,4.164,3.32,
4.18,4.156,3.36,
4.108,4.204,3.44,
4.164,4.196,3.36,
4.084,4.164,3.44,
4.14,4.188,3.32,
4.108,4.164,3.44,
4.14,4.172,3.4,
4.108,4.196,3.32,
4.14,4.196,3.32,
4.124,4.172,3.4,
4.14,4.204,3.44,
4.124,4.156,3.32,
4.164,4.196,3.44,
4.084,4.156,3.32,
4.148,4.164,3.36,
4.092,4.22,3.44,
4.124,4.164,3.44,
4.18,4.212,3.32,
4.172,4.18,3.32,
4.108,4.196,3.44,
4.124,4.196,3.36,
4.14,4.172,3.4,
4.124,4.196,3.36,
4.14,4.172,3.36,
4.124,4.18,3.4,
4.14,4.196,3.32,
4.14,4.196,3.36,
4.124,4.172,3.4,
4.124,4.196,3.32,
4.14,4.172,3.4,
4.124,4.196,3.36,
4.14,4.164,3.32,
4.124,4.18,3.32,
4.14,4.196,3.44,
4.124,4.188,3.36,
4.14,4.164,3.4,
4.14,4.196,3.36,
4.124,4.172,3.44,
4.124,4.084,3.32,
4.14,4.196,3.44,
4.148,4.188,3.36,
3.98,4.164,3.4,
4.116,4.188,3.36,
4.1,4.156,3.44,
4.1,4.156,3.32,
4.116,4.188,3.4,
4.1,4.164,3.32,
4.116,4.188,3.44,
4.1,4.164,3.4,
4.116,4.188,3.32,
4.116,3.596,3.36,
4.1,4.348,3.44,
3.068,3.596,3.32,
4.292,4.364,3.44,
3.076,3.604,3.36,
4.308,4.236,3.44,
3.124,4.372,3.44,
4.204,3.684,3.36,
3.196,4.316,3.44,
4.316,3.596,3.32,
4.268,3.548,3.36,
3.124,4.284,3.44,
3.084,4.196,3.36,
4.22,4.164,3.44,
4.14,4.164,3.4,
4.108,4.188,3.32,
4.132,4.164,3.32,
4.1,4.188,3.44,
4.132,4.188,3.44,
4.108,4.164,3.32,
4.116,4.188,3.36,
4.14,4.164,3.44,
4.132,4.164,3.32,
4.108,4.188,3.44,
4.108,4.164,3.4,
4.132,4.188,3.32,
4.132,3.46,3.36,
4.108,4.34,3.44,
2.988,3.676,3.44,
4.3,4.356,3.32,
3.188,3.628,3.36,
4.308,4.26,3.44,
3.156,4.3,3.36,
4.22,3.62,3.44,
4.26,3.628,3.36,
3.156,4.34,3.44,
3.156,4.228,3.32,
4.284,3.628,3.44,
4.188,3.564,3.44,
3.148,4.316,3.36,
3.028,4.284,3.32,
4.26,3.636,3.44,
4.228,4.148,3.32,
3.172,4.196,3.44,
4.076,4.196,3.32,
4.14,4.164,3.4,
4.108,4.188,3.36,
4.14,4.164,3.44,
4.132,4.164,3.4,
4.108,4.188,3.32,
4.108,4.148,3.44,
4.14,4.196,3.32,
4.068,4.188,3.44,
4.14,4.164,0.04,
4.108,4.188,0.08,
4.132,4.156,0,
4.132,4.188,0.08,
4.1,4.164,0.04,
4.132,4.188,0.04,
4.108,4.164,3.44,
4.132,4.164,3.36,
4.108,4.188,3.44,
4.108,4.188,3.4,
4.132,4.164,3.32,
4.132,4.164,3.36,
4.108,4.188,3.4,
4.108,4.164,3.32,
4.132,4.188,3.44,
4.132,4.164,3.36,
4.1,4.188,3.44,
4.132,4.188,3.4,
4.108,4.164,3.32,
4.14,4.188,3.36,
4.1,4.164,3.4,
4.132,4.164,3.32,
4.108,4.188,3.44,
4.108,4.164,3.32,
4.14,4.196,3.44,
4.14,4.164,3.4,
4.116,4.188,3.32,
4.14,4.188,3.36,
4.108,4.164,3.44,
4.14,4.116,3.36,
4.108,4.196,3.44,
4.028,4.148,3.44,
4.14,4.196,3.32,
4.068,4.164,3.36,
4.14,4.188,3.44,
4.14,4.164,3.36,
4.1,4.188,3.4,
4.108,4.148,3.44,
4.132,4.196,3.32,
4.068,4.188,3.32,
4.14,4.172,3.44,
4.108,4.1,3.36,
4.132,4.196,3.4,
3.988,4.188,3.44,
4.14,4.164,3.32,
4.132,4.156,3.36,
4.108,4.188,3.4,
4.132,4.188,3.36,
4.092,4.164,3.4,
4.108,4.204,3.36,
4.132,3.604,3.44,
4.172,3.564,3.44,
3.124,4.348,3.32,
3.084,4.292,3.36,
4.308,3.62,3.44,
4.236,4.348,3.32,
3.156,3.652,3.44,
4.292,3.62,3.44,
3.188,4.276,0.04,
3.148,3.548,0.04,
4.212,4.26,0.12,
3.092,4.244,0.08,
4.204,4.156,0.04,
4.172,4.196,0.08,
4.092,4.108,0,
4.148,4.164,0.08,
4.012,4.228,0.04,
4.1,4.204,0.08,
4.204,4.172,0,
4.124,4.204,0.08,
4.188,4.18,0.04,
4.148,4.204,0.08,
4.188,4.188,0,
4.164,4.204,0.04,
4.18,4.148,3.4,
4.076,4.188,3.36,
4.188,4.204,3.36,
4.172,4.188,3.44,
4.164,4.204,3.32,
4.164,4.188,3.36,
4.188,4.204,3.32,
4.18,4.204,3.36,
4.156,4.188,3.44,
4.164,4.188,3.36,
4.18,4.204,3.44,
4.164,4.204,3.32,
4.188,4.188,3.4,
4.18,4.204,3.32,
4.156,4.188,3.44,
4.164,4.204,3.36,
4.18,4.188,3.44,
4.156,4.188,3.44,
4.188,4.204,3.32,
4.188,4.204,3.36,
4.156,4.188,3.44,
4.18,4.204,3.36,
4.156,4.188,3.4,
4.164,4.204,3.36,
4.18,4.18,3.36,
4.132,4.204,3.32,
4.188,4.164,3.4,
4.1,4.204,3.32,
4.188,4.188,3.44,
4.156,4.204,3.44,
4.188,4.18,3.36,
4.156,4.188,3.36,
4.188,4.204,3.32,
4.188,4.188,3.36,
4.156,4.204,3.44,
4.172,4.204,3.36,
4.164,4.108,3.44,
4.188,4.164,3.4,
4.044,4.188,3.32,
4.132,4.22,3.32,
4.108,4.124,3.4,
4.18,4.156,3.44,
4.044,4.18,3.32,
4.116,4.156,3.36,
4.092,4.18,3.44,
4.116,4.156,3.44,
4.092,4.18,3.32,
4.116,4.18,3.36,
4.092,4.156,3.44,
4.116,4.156,3.36,
4.092,4.18,3.44,
4.116,4.156,3.4,
4.092,4.204,3.32,
4.092,3.452,3.36,
4.164,4.356,3.44,
2.94,4.356,3.36,
4.3,3.628,3.44,
4.308,4.34,3.44,
3.124,3.412,3.32,
4.284,3.524,3.44,
2.924,4.252,3.32,
3.02,4.132,3.36,
4.196,4.188,3.44,
4.068,4.188,3.4,
4.132,4.156,3.36,
4.124,4.188,3.44,
4.1,4.156,3.32,
4.1,4.188,3.32,
4.124,4.156,3.44,
4.1,4.188,3.44,
4.124,4.156,3.32,
4.124,4.188,3.44,
4.1,4.156,3.32,
4.1,4.156,3.36,
4.124,4.188,3.4,
4.1,4.18,3.36,
4.132,4.148,3.44,
4.124,4.188,3.44,
4.076,4.14,0,
4.068,4.188,0.08,
4.132,4.156,0,
4.1,4.164,0.08,
4.124,4.188,0,
4.124,4.172,0.04,
4.108,4.156,0.08,
4.124,4.156,0.08,
4.1,4.188,0,
4.1,4.188,0.08,
4.132,4.156,0,
4.124,4.188,0.08,
4.1,4.156,0,
4.116,4.164,0.08,
4.1,4.188,0.04,
4.132,4.164,0.08,
4.1,4.18,0.04,
4.132,4.172,0.08,
4.1,4.156,0,
4.1,4.188,0.08,
4.124,4.156,0.04,
4.116,4.18,0.08,
4.1,4.156,0,
4.116,4.156,0.08,
4.1,4.188,0.04,
4.116,4.156,0.08,
4.1,4.188,0.04,
4.116,4.164,0.08,
4.1,4.18,0,
4.116,4.156,0.08,
4.1,4.188,0,
4.1,4.156,0.08,
4.132,4.188,0,
4.1,4.18,0.08,
4.132,4.156,0,
4.116,4.188,0.08,
4.1,4.124,0,
4.124,4.156,0.08,
4.06,4.188,0.04,
4.1,4.156,0.08,
4.124,4.188,0,
4.084,4.156,0.08,
4.132,4.188,0.04,
4.092,4.164,0.08,
4.124,4.188,0,
4.1,4.156,0.08,
4.116,4.188,0.04,
4.1,4.156,0.08,
4.124,4.188,0.04,
4.1,4.18,0.08,
4.124,4.156,0.04,
4.1,4.156,0.08,
4.124,4.18,0.04,
4.1,4.188,0.08,
4.132,4.156,0.04,
4.1,4.188,0.08,
4.132,4.156,0,
4.132,4.156,0.04,
4.1,4.188,0.08,
4.092,4.188,0.08,
4.124,4.156,0,
4.1,4.156,0.08,
4.132,4.188,0.04,
4.1,4.156,0.08,
4.124,4.18,0.04,
4.1,4.156,0.04,
4.124,4.188,0.08,
4.1,4.18,0.08,
4.124,4.156,0.04,
4.116,4.156,0.08,
4.092,4.18,0,
4.116,4.156,0.08,
4.1,4.188,0.04,
4.1,4.156,0.08,
4.124,4.18,0.04,
4.1,4.156,0.08,
4.124,4.188,0,
4.116,4.156,0.08,
4.1,4.18,0,
4.1,4.188,0.08,
4.124,4.156,0.04,
4.1,4.156,0.08,
4.132,4.18,0.04,
4.1,4.188,0.04,
4.124,4.156,0.08,
4.1,4.188,0.08,
4.132,4.156,0,
4.132,4.18,0.08,
4.092,4.156,0,
4.1,4.18,0.08,
4.124,4.156,0.04,
4.1,4.164,0.08,
4.124,4.18,0.04,
4.1,4.188,0.08,
4.124,4.156,0.04,
4.132,4.164,0.08,
4.1,4.188,0.04,
4.132,4.18,0.08,
4.1,4.156,0.04,
4.1,4.148,0.08,
4.124,4.188,0,
4.076,4.156,0.08,
4.132,4.188,0.04,
4.132,4.18,0.08,
4.1,4.156,0.04,
4.124,4.156,0.08,
4.1,4.188,0.04,
4.124,4.18,0.08,
4.1,4.156,0.04,
4.1,4.18,0.08,
4.124,4.156,0,
4.124,4.18,0.08,
4.1,4.156,0.04,
4.132,4.188,0.08,
4.1,4.156,0.04,
4.124,4.18,0.08,
4.1,4.156,0.04,
4.116,4.156,0.08,
4.1,4.188,0,
4.1,4.156,0.08,
4.132,4.18,0,
4.124,4.18,0.08,
4.1,4.156,0.04,
4.1,4.164,0.08,
4.132,4.18,0.04,
4.124,4.18,0.04,
4.1,4.156,0.08,
4.124,4.164,0.08,
4.1,4.188,0.04,
4.132,4.18,0.08,
4.1,4.156,0,
4.108,4.18,0.08,
4.132,4.156,0.04,
4.124,4.188,0.04,
4.1,4.156,0.08,
4.132,4.188,0.04,
4.108,4.156,0.08,
4.132,4.156,0.08,
4.108,4.188,0.04,
4.1,4.164,0.08,
4.124,4.188,0.04,
4.108,4.18,0.08,
4.124,4.156,0.04,
4.1,4.164,0.08,
4.132,4.18,0.04,
4.1,4.156,0.08,
4.124,4.18,0.04,
4.1,4.156,0.08,
4.124,4.188,0,
4.1,4.18,0.08,
4.132,4.156,0.04,
4.132,4.18,0.08,
4.1,4.156,0,
4.124,4.156,0,
4.1,4.188,0.08,
4.1,4.188,0.08,
4.132,4.156,0.04,
4.1,4.188,0.08,
4.124,4.156,0,
4.132,4.156,0.08,
4.1,4.188,0,
4.1,4.156,0.08,
4.124,4.18,0,
4.124,4.156,0.08,
4.1,4.18,0,
4.124,4.156,0.08,
4.1,4.188,0.04,
4.124,4.18,0.08,
4.1,4.156,0.04,
4.1,4.18,0.08,
4.132,4.156,0,
4.1,4.156,0.08,
4.124,4.188,0.04,
4.108,4.18,0.08,
4.132,4.156,0.04,
4.108,4.188,0.08,
4.132,4.156,0,
4.132,4.156,0.08,
4.1,4.18,0.04,
4.1,4.156,0.04,
4.132,4.188,0.08,
4.132,4.164,0.08,
4.1,4.188,0.04,
4.124,4.132,0.08,
4.1,4.188,0,
4.068,4.188,0.08,
4.132,4.156,0,
4.1,4.156,0.08,
4.132,4.188,0.04,
4.1,4.188,0.08,
4.132,4.156,0.04,
4.132,4.18,0.08,
4.1,4.156,0.04,
4.1,4.156,0.08,
4.132,4.188,0.04,
4.124,4.156,0.08,
4.1,4.188,0,
4.1,4.188,0.08,
4.124,4.156,0.04,
4.1,3.452,0.04,
4.132,4.244,0.12,
2.964,4.228,0.08,
4.204,4.164,0.04,
4.172,4.124,0.08,
4.108,4.228,0.04,
4.044,4.228,0.08,
4.204,4.188,0,
4.204,4.188,0.08,
4.164,4.204,0.04,
4.164,4.204,0.08,
4.18,4.188,0.04,
4.156,4.204,0.08,
4.18,4.188,0,
4.164,4.204,0.04,
4.188,4.188,0.08,
4.188,4.204,0.08,
4.164,4.188,0.04,
4.164,4.188,0.08,
4.188,4.204,0,
4.172,4.204,0.08,
4.164,4.188,0,
4.18,4.204,0.08,
4.156,4.188,0.04,
4.156,4.204,0.04,
4.188,4.188,0.08,
4.188,4.188,0.08,
4.156,4.204,0,
4.18,4.204,0.08,
4.156,4.188,0,
4.156,4.188,0.08,
4.18,4.204,0,
4.164,4.204,0.04,
4.188,4.188,0.08,
4.18,4.188,0.08,
4.164,4.204,0,
4.156,4.188,0.08,
4.18,4.204,0,
4.156,4.204,0.08,
4.188,4.188,0.04,
4.188,4.204,0.08,
4.164,4.188,0,
4.164,4.204,0.08,
4.188,4.188,0,
4.18,4.204,0.08,
4.164,4.188,0.04,
4.164,4.204,0.08,
4.188,4.188,0.04,
