Power Reception/Metingen 3/Meting met pin 2 -116 -137 56 -20.csv

CH1,CH2,CH3,Start,Increment,
Volt,Volt,Volt,-29.975,0.05
2.7,2.7,0.08,
2.7,2.7,0,
2.7,2.7,0.08,
2.7,2.7,0,
2.7,2.7,0.08,
2.7,2.7,0,
2.7,2.7,0.08,
2.7,2.7,0,
2.7,2.7,0.08,
2.7,2.7,0,
2.7,2.7,0.16,
2.7,2.7,0,
2.7,2.7,0.08,
2.7,2.7,0,
2.7,2.7,0.08,
2.7,2.7,0,
2.7,2.7,0.08,
2.7,2.7,0,
2.7,2.7,0.08,
2.7,2.7,0,
2.7,2.7,0.08,
2.7,2.7,0,
2.7,2.7,0.08,
2.7,2.7,0,
2.7,2.7,0.08,
2.7,2.7,0,
2.7,2.7,0.08,
2.7,2.7,0,
2.7,2.7,0.08,
2.7,2.7,0,
2.7,2.7,0.08,
2.7,2.7,0,
2.7,2.7,0.08,
2.7,2.7,0,
2.7,2.7,0.08,
2.7,2.7,0,
2.7,2.7,0.08,
2.7,2.7,0,
2.7,2.7,0.08,
2.7,2.7,0,
2.7,2.7,0.08,
2.7,2.7,0,
2.7,2.7,0.08,
2.7,2.7,0,
2.7,2.7,0.08,
2.7,2.7,0,
2.7,2.7,0.08,
2.7,2.7,0,
2.7,2.7,0.08,
2.7,4.172,0,
2.7,4.164,0.08,
4.164,4.22,0,
4.164,4.22,0.08,
4.204,4.196,0,
4.204,4.22,0.08,
4.188,4.196,0,
4.204,4.22,0.08,
4.188,4.196,0,
4.204,4.22,0.08,
4.196,4.196,0,
4.204,4.22,0.08,
4.188,4.196,0,
4.204,4.204,0.08,
4.196,4.22,0,
4.204,4.22,0.08,
4.196,4.196,0,
4.204,4.196,0.08,
4.188,4.22,0,
4.204,4.22,0.08,
4.196,4.196,0,
4.204,4.22,0.08,
4.196,4.196,0,
4.196,4.196,0.08,
4.204,4.22,0,
4.204,4.22,0.08,
4.196,4.196,0,
4.204,4.204,0.08,
4.196,4.22,0,
4.204,4.22,0.08,
4.196,4.196,0,
4.196,4.22,0.08,
4.212,4.196,0,
4.204,4.196,0.08,
4.196,4.22,0,
4.196,4.22,0.08,
4.22,4.196,0,
4.204,4.196,0.08,
4.196,4.22,0,
4.196,4.22,0.08,
4.212,4.196,0,
4.204,4.22,0.08,
4.196,4.196,0,
4.204,4.22,0.08,
4.196,4.196,0,
4.196,4.22,0.08,
4.212,4.196,0,
4.22,4.204,0.08,
4.196,4.22,0,
4.204,4.22,0.08,
4.196,4.196,0,
4.204,4.22,0.08,
4.196,4.196,3.36,
4.204,4.22,3.4,
4.196,4.172,3.32,
4.204,4.204,3.44,
4.132,4.164,3.32,
4.18,4.188,3.36,
4.124,4.204,3.4,
4.132,4.204,3.36,
4.164,4.188,3.44,
4.164,4.188,3.32,
4.14,4.204,3.4,
4.14,4.18,3.36,
4.164,4.212,3.4,
4.172,4.18,3.32,
4.124,4.252,3.4,
4.116,4.22,3.44,
4.228,4.164,3.32,
4.204,4.188,3.4,
4.124,4.204,3.32,
4.156,4.204,3.32,
4.132,4.188,3.4,
4.132,4.244,3.44,
4.164,4.164,3.32,
4.228,4.204,3.32,
4.132,4.18,3.44,
4.172,4.188,3.36,
4.124,4.204,3.4,
4.132,4.204,3.36,
4.164,4.188,3.4,
4.164,4.204,3.44,
4.14,4.18,3.32,
4.14,4.204,3.32,
4.164,4.18,3.4,
4.172,4.22,3.36,
4.124,4.164,3.44,
4.172,4.204,3.36,
4.116,4.18,3.44,
4.164,4.18,3.32,
4.124,4.204,3.44,
4.14,4.18,3.36,
4.124,4.204,3.44,
4.14,4.196,3.32,
4.124,4.18,3.44,
4.132,4.18,3.4,
4.14,4.204,3.32,
4.14,4.204,3.36,
4.124,4.18,3.44,
4.14,4.18,3.36,
4.132,4.204,3.44,
4.14,4.18,3.44,
4.132,4.204,3.36,
4.14,4.204,3.36,
4.132,4.18,3.44,
4.124,4.204,3.44,
4.148,4.18,3.32,
4.14,4.204,3.36,
4.124,4.18,3.44,
4.14,4.204,3.36,
4.124,4.18,3.44,
4.14,4.18,3.36,
4.124,4.204,3.4,
4.132,4.18,3.36,
4.14,4.204,3.4,
4.14,4.196,3.32,
4.124,4.18,3.44,
4.14,4.196,3.32,
4.124,4.18,3.44,
4.132,4.18,3.36,
4.14,4.204,3.4,
4.14,4.204,3.4,
4.132,4.18,3.32,
4.14,4.204,3.32,
4.132,4.132,3.4,
4.06,4.204,3.4,
4.148,4.188,3.32,
4.132,4.18,3.36,
4.148,4.204,3.44,
4.14,4.204,3.4,
4.124,4.18,3.32,
4.132,4.204,3.32,
4.14,4.18,3.44,
4.14,4.188,3.36,
4.124,4.204,3.44,
4.14,4.18,3.44,
4.124,4.204,3.32,
4.14,4.204,3.44,
4.124,4.18,3.32,
4.132,4.14,3.36,
4.148,4.228,3.4,
4.052,4.204,3.36,
4.18,4.18,3.4,
4.14,4.196,3.4,
4.132,4.18,3.32,
4.14,4.204,3.36,
4.124,4.18,3.44,
4.148,4.18,3.44,
4.108,4.22,3.32,
4.132,4.204,3.4,
4.172,4.124,3.32,
4.164,4.196,3.32,
4.028,4.164,3.44,
4.1,4.18,3.36,
4.124,4.196,3.44,
4.1,4.156,3.36,
4.14,4.22,3.44,
4.172,4.204,3.32,
4.044,4.156,3.44,
4.14,4.18,3.32,
4.068,4.204,3.4,
4.1,4.196,3.32,
4.14,4.164,3.4,
4.044,4.196,3.44,
4.132,4.148,3.32,
4.124,4.196,3.32,
4.036,4.156,3.4,
4.116,4.196,3.44,
4.052,4.164,3.32,
4.116,4.196,3.44,
4.052,4.18,3.32,
4.084,4.148,3.36,
4.124,4.196,3.44,
4.02,4.196,3.36,
4.116,4.14,3.44,
4.116,4.164,3.36,
4.012,4.204,3.4,
4.068,4.18,3.32,
4.14,4.22,3.44,
4.108,4.204,3.32,
4.148,4.124,3.44,
4.148,4.156,3.36,
4.02,4.196,3.44,
4.036,4.156,3.44,
4.116,4.204,0.04,
4.036,4.156,0.08,
4.132,4.212,0,
4.148,4.156,0.08,
4.052,4.22,0,
4.164,4.228,0.08,
4.044,4.132,0,
4.172,4.22,0.08,
4.02,4.132,0.04,
4.148,4.156,0.08,
4.012,4.244,0,
4.044,4.244,0.04,
4.212,4.18,3.44,
4.204,4.172,3.4,
4.132,4.22,3.32,
4.1,4.22,3.32,
4.196,4.172,3.44,
4.188,4.172,3.44,
4.1,4.204,3.32,
4.1,4.188,3.36,
4.148,4.204,3.4,
4.132,4.188,3.32,
4.148,4.204,3.4,
4.132,4.18,3.36,
4.148,4.204,3.44,
4.132,4.18,3.36,
4.14,4.204,3.44,
4.132,4.156,3.44,
4.172,4.212,3.32,
4.084,4.18,3.32,
4.172,4.22,3.4,
4.124,4.18,3.36,
4.188,4.22,3.44,
4.124,4.18,3.32,
4.188,4.22,3.44,
4.124,4.204,3.32,
4.188,4.164,3.44,
4.172,4.204,3.44,
4.1,4.18,3.32,
4.14,4.204,3.44,
4.124,4.18,3.32,
4.132,4.204,3.32,
4.148,4.18,3.44,
4.132,4.188,3.36,
4.148,4.204,3.4,
4.148,4.164,3.4,
4.132,4.22,3.32,
4.1,4.172,3.4,
4.172,4.22,3.32,
4.116,4.22,3.44,
4.188,4.18,3.32,
4.188,4.22,3.4,
4.132,4.18,3.32,
4.196,4.212,3.44,
4.108,4.172,3.32,
4.188,4.172,3.32,
4.1,4.204,3.44,
4.1,4.228,3.32,
4.156,4.18,3.44,
4.124,4.18,3.36,
4.196,4.22,3.44,
4.188,4.164,3.4,
4.124,4.22,3.32,
4.18,4.204,3.36,
4.1,4.18,3.44,
4.132,4.188,3.36,
4.148,4.204,3.4,
4.132,4.204,3.44,
4.148,4.18,3.32,
4.132,4.204,3.32,
4.148,4.18,3.44,
4.148,4.22,3.4,
4.124,4.18,3.32,
4.172,4.204,3.36,
4.124,4.18,3.4,
4.148,4.204,3.4,
4.124,4.172,3.32,
4.1,4.188,3.36,
4.164,4.204,3.44,
4.132,4.204,3.36,
4.148,4.164,3.4,
4.148,4.188,3.44,
4.124,4.22,3.32,
4.132,4.18,3.32,
4.196,4.22,3.4,
4.124,4.22,3.36,
4.188,4.18,3.44,
4.132,4.132,3.36,
4.188,4.228,3.4,
4.052,4.22,3.32,
4.196,4.18,3.4,
4.132,4.18,3.36,
4.196,4.22,3.4,
4.132,4.204,3.36,
4.196,4.18,3.44,
4.148,4.188,3.32,
4.132,4.204,3.4,
4.148,4.204,3.36,
4.132,4.188,3.4,
4.132,4.188,3.32,
4.148,4.204,3.4,
4.148,4.204,3.4,
4.132,4.188,3.32,
4.148,4.204,3.32,
4.132,4.188,3.44,
4.132,4.188,3.44,
4.148,4.204,3.32,
4.148,4.188,3.36,
4.132,4.204,3.44,
4.148,4.188,3.44,
4.132,4.204,3.32,
4.148,4.18,3.36,
4.132,4.204,3.44,
4.148,4.188,3.36,
4.132,4.204,3.44,
4.148,4.204,3.44,
4.132,4.18,3.32,
4.148,4.188,3.32,
4.132,4.204,3.44,
4.148,4.188,3.4,
4.132,4.204,3.32,
4.148,4.188,3.36,
4.132,4.204,3.44,
4.148,4.188,3.32,
4.132,4.204,3.44,
4.148,4.188,3.36,
4.132,4.204,3.4,
4.132,4.204,3.4,
4.148,4.188,3.32,
4.132,4.188,3.44,
4.148,4.204,3.32,
4.132,4.188,3.36,
4.148,4.204,3.4,
4.148,4.188,3.36,
4.132,4.204,3.4,
4.148,4.204,3.4,
4.132,4.188,3.32,
4.148,4.188,3.36,
4.132,4.204,3.32,
4.132,4.188,3.44,
4.148,4.204,3.32,
4.148,4.204,3.36,
4.132,4.188,3.4,
4.148,4.204,3.32,
4.132,4.188,3.44,
4.148,4.204,3.36,
4.132,4.188,3.44,
4.148,4.188,3.36,
4.132,4.204,3.36,
4.148,4.188,3.44,
4.132,4.204,3.32,
4.148,4.204,3.36,
4.132,4.18,3.44,
4.148,4.188,3.36,
4.132,4.204,3.4,
4.148,4.188,3.36,
4.132,4.204,3.44,
4.148,4.204,3.32,
4.132,4.18,3.44,
4.148,4.204,3.36,
4.132,4.18,3.44,
4.148,4.204,3.36,
4.132,4.188,3.44,
4.148,4.188,3.4,
4.132,4.204,3.32,
4.148,4.188,3.36,
4.132,4.204,3.44,
4.132,4.204,3.36,
4.148,4.188,3.36,
4.148,4.204,3.36,
4.132,4.188,3.44,
4.148,4.188,3.36,
4.132,4.204,3.4,
4.148,4.18,3.36,
4.132,4.22,3.36,
4.132,4.18,3.36,
4.188,4.22,3.4,
4.132,4.22,3.44,
4.188,4.18,3.32,
4.124,4.18,3.36,
4.188,4.228,3.44,
4.124,4.116,3.36,
4.196,4.228,3.44,
4.188,4.196,3.44,
3.996,4.18,3.32,
4.124,4.196,3.36,
4.14,4.18,3.44,
4.124,4.228,3.4,
4.14,3.828,3.44,
4.18,3.988,3.44,
3.308,4.02,3.36,
3.46,3.996,3.32,
3.492,4.388,3.44,
3.476,4.22,3.36,
4.356,4.18,3.44,
4.196,4.22,3.44,
4.124,3.796,3.32,
4.196,3.996,3.44,
3.284,4.388,3.32,
3.484,4.164,3.32,
4.324,4.228,3.4,
4.092,4.212,3.44,
4.196,4.18,3.32,
4.188,3.844,3.36,
4.124,4.228,3.44,
3.348,3.828,3.32,
4.188,4.38,3.4,
3.324,4.364,3.36,
4.332,4.196,3.44,
4.316,4.22,3.44,
4.14,3.82,3.36,
4.188,3.988,3.4,
3.364,4.34,3.32,
3.532,4.22,3.36,
4.292,4.164,3.4,
4.188,4.22,3.36,
4.108,4.18,3.4,
4.188,4.22,3.4,
4.124,4.188,3.32,
4.188,3.828,3.36,
4.156,4.228,3.44,
4.188,4.228,3.44,
3.38,4.18,3.32,
4.196,4.204,3.36,
4.124,4.18,3.44,
4.132,3.828,3.32,
4.188,4.228,3.44,
4.188,3.844,3.36,
3.372,4.308,3.4,
3.372,4.22,3.44,
4.252,3.844,3.32,
4.188,3.9,3.32,
3.372,4.308,3.4,
3.436,4.22,3.32,
4.244,4.18,3.4,
4.188,4.18,3.36,
4.124,4.22,3.32,
4.124,4.172,3.36,
4.188,4.22,3.44,
4.1,3.852,3.32,
4.188,4.244,3.44,
4.188,3.844,3.36,
3.388,4.3,3.36,
3.372,4.22,3.32,
4.236,4.18,3.44,
4.188,3.844,3.44,
4.116,4.324,3.32,
3.372,4.252,3.32,
4.284,4.188,3.4,
4.196,4.22,3.44,
4.132,4.18,3.32,
4.18,4.22,3.44,
4.124,4.18,3.32,
4.188,4.18,3.44,
4.124,4.212,3.32,
4.124,3.844,3.36,
4.18,4.308,3.4,
3.396,4.252,3.36,
4.244,4.18,3.44,
4.204,4.22,3.44,
4.132,4.18,3.32,
4.188,3.828,3.36,
4.124,4.34,3.44,
3.38,4.188,3.36,
4.292,4.22,3.44,
4.132,4.22,3.44,
4.188,3.828,3.32,
4.188,4.308,3.36,
3.388,4.188,3.32,
4.252,4.212,3.44,
4.132,4.18,3.32,
4.188,4.22,3.44,
4.124,4.18,3.32,
4.188,4.22,3.32,
4.124,4.188,3.44,
4.188,4.22,3.36,
4.148,3.828,3.4,
4.18,4.22,3.36,
3.396,4.18,3.4,
4.188,4.188,3.44,
4.124,4.22,3.32,
4.124,4.204,3.44,
4.188,4.18,3.32,
4.172,4.22,3.36,
4.124,3.836,3.44,
4.188,4.228,3.44,
3.396,4.18,3.32,
4.172,4.204,3.36,
4.132,4.172,3.4,
4.148,4.204,3.36,
4.108,4.188,3.4,
4.148,4.22,3.32,
4.132,4.18,3.44,
4.188,4.188,3.32,
4.124,4.22,3.44,
4.132,4.204,3.36,
4.188,4.188,3.44,
4.18,3.828,3.36,
4.156,4.236,3.44,
4.188,4.228,3.36,
3.38,4.18,3.44,
4.188,4.188,3.36,
4.124,4.22,3.44,
4.132,3.836,3.4,
4.188,4.228,3.32,
4.18,4.228,3.44,
3.388,4.18,3.32,
4.204,4.22,3.32,
4.124,4.18,3.44,
4.188,4.22,3.36,
4.124,4.188,3.44,
4.188,3.836,3.36,
4.156,4.236,3.44,
3.38,4.204,3.4,
4.188,4.132,3.32,
4.164,4.156,3.44,
4.044,4.228,3.32,
4.092,3.852,3.36,
4.196,4.228,3.44,
4.18,3.924,3.32,
3.388,4.308,3.44,
3.468,3.852,3.32,
4.236,4.3,3.44,
3.396,4.268,3.32,
4.252,4.172,3.4,
4.212,4.22,3.36,
4.1,4.18,3.44,
4.18,3.828,3.32,
4.124,4.228,3.4,
4.18,4.188,3.32,
3.396,4.22,3.44,
4.124,4.212,3.36,
4.188,4.18,3.44,
4.172,4.18,3.44,
4.124,4.204,3.32,
4.124,4.18,3.36,
4.148,4.22,0.04,
4.132,4.204,0.08,
4.188,4.18,0.04,
4.172,4.18,0.04,
4.124,4.212,3.44,
4.124,4.22,3.4,
4.172,4.18,3.32,
4.18,4.18,3.36,
4.124,4.204,3.4,
4.124,4.188,3.4,
4.148,4.22,3.32,
4.124,4.204,3.36,
4.18,4.172,3.32,
4.172,4.204,3.44,
4.124,4.18,3.32,
4.148,4.228,3.36,
4.124,4.18,3.4,
4.196,4.18,3.44,
4.124,4.204,3.36,
4.148,4.18,3.32,
4.132,4.22,3.44,
4.124,4.204,3.32,
4.18,4.18,3.44,
4.172,4.204,3.36,
4.116,4.18,3.44,
4.124,4.22,3.32,
4.148,4.18,3.44,
4.124,4.18,3.44,
4.188,4.196,3.32,
4.124,4.148,3.36,
4.148,4.228,3.4,
4.052,4.22,3.4,
4.196,4.148,3.32,
4.188,4.18,3.32,
4.068,4.204,3.44,
4.148,4.18,3.44,
4.124,4.22,3.32,
4.18,4.204,3.36,
4.108,4.164,3.44,
4.14,4.18,3.32,
4.1,4.22,3.44,
4.124,4.204,3.32,
4.18,4.148,3.44,
4.172,4.18,3.36,
4.068,4.204,3.4,
4.14,4.204,3.44,
4.108,4.18,3.32,
4.148,4.22,3.32,
4.108,4.18,3.4,
4.188,4.18,3.36,
4.124,4.204,3.4,
4.14,4.132,3.36,
4.124,4.204,3.44,
4.044,4.204,3.32,
4.148,4.172,3.44,
4.14,4.212,3.44,
4.1,3.996,0.04,
4.18,3.86,0.04,
3.684,4.044,0.16,
3.396,4.028,0,
3.604,4.372,0.08,
3.596,4.252,0.04,
4.332,4.188,0.12,
4.196,4.22,0.12,
4.124,3.86,0.04,
4.18,3.956,0.04,
3.396,4.388,0.12,
3.484,4.22,0.12,
4.332,3.828,0.04,
4.18,4.012,0.04,
3.38,4.372,0.08,
3.556,4.204,0.08,
4.316,4.18,0,
4.172,4.124,0.08,
4.124,4.204,3.44,
4.036,4.188,3.36,
4.148,4.22,3.36,
4.116,4.212,3.36,
4.18,4.18,3.44,
4.172,4.204,3.44,
4.124,4.164,3.32,
4.148,4.22,3.44,
4.092,4.18,3.32,
4.124,3.844,3.36,
4.188,4.236,3.44,
4.18,4.156,3.36,
3.396,4.22,3.44,
4.076,3.844,3.4,
4.18,4.236,3.32,
3.396,3.876,3.36,
4.196,4.292,3.4,
3.428,4.188,3.32,
4.244,4.22,3.4,
4.132,4.18,3.44,
4.18,4.22,3.32,
4.116,3.836,3.36,
4.188,4.316,3.4,
3.396,4.252,3.4,
4.26,4.156,3.32,
4.204,4.172,3.44,
4.1,4.204,3.32,
4.148,4.18,3.36,
4.092,4.22,3.44,
4.124,4.212,3.36,
4.188,4.18,3.44,
4.172,4.204,3.32,
4.124,4.18,3.4,
4.124,4.22,3.44,
4.148,4.18,3.32,
4.188,4.132,3.36,
4.124,4.204,3.44,
4.044,4.188,3.4,
4.148,4.22,3.32,
4.124,4.22,3.44,
4.188,4.18,3.32,
4.172,4.196,3.32,
4.124,4.18,3.44,
4.148,4.22,3.36,
4.124,4.18,3.4,
4.124,4.18,3.36,
4.188,4.196,3.44,
4.124,4.18,3.32,
4.148,4.228,3.44,
4.124,4.204,3.32,
4.188,4.156,3.4,
4.172,4.204,3.36,
4.084,4.156,3.4,
4.076,4.164,3.32,
4.164,4.212,3.44,
4.1,4.188,3.36,
4.156,4.204,3.44,
4.148,4.164,3.36,
4.124,4.204,3.4,
4.148,4.22,3.36,
4.092,4.18,3.4,
4.188,4.18,3.32,
4.124,4.22,3.44,
4.132,4.22,3.36,
4.196,4.18,3.4,
4.188,4.18,3.32,
4.124,4.22,3.4,
4.132,4.18,3.32,
4.188,4.22,3.44,
4.132,4.22,3.44,
4.188,4.108,3.32,
4.188,4.156,3.36,
3.996,4.204,3.44,
4.1,4.18,3.4,
4.14,4.204,3.32,
4.124,4.18,3.44,
4.14,4.196,0.04,
4.14,4.18,0.08,
4.1,4.204,0,
4.1,4.196,0.08,
4.14,4.18,0.04,
4.124,4.18,0.08,
4.14,4.196,0,
4.132,4.18,0,
4.108,4.204,0.16,
4.108,4.22,0.04,
4.14,3.844,0.16,
4.188,3.996,0.08,
3.308,4.372,0,
3.468,4.388,0.08,
4.316,4.188,0.04,
4.332,4.22,0.04,
4.132,4.18,0.16,
4.188,3.812,0.08,
4.116,4.38,0.04,
3.276,4.252,0.08,
4.324,4.18,0,
4.204,4.18,0.04,
4.124,4.22,0.12,
4.124,3.82,0.04,
4.18,4.236,0.16,
3.324,4.228,0.12,
4.204,3.844,0.04,
4.188,3.98,0.08,
3.34,4.364,0.04,
3.492,4.22,0.08,
4.316,4.18,0.04,
4.188,4.22,0.08,
4.124,4.18,0,
4.188,4.22,0.12,
4.124,4.18,0,
4.172,3.836,0.08,
4.124,4.252,0,
3.356,4.236,0.08,
4.196,4.188,0,
4.18,4.228,0.08,
4.132,4.18,0.04,
4.124,4.18,0.08,
4.188,4.204,0.04,
4.148,4.188,0.04,
4.124,4.22,0.08,
4.132,4.204,0.08,
4.188,4.18,0.04,
4.172,4.204,0.08,
4.124,4.18,0,
4.132,4.22,0.08,
4.148,4.18,0.04,
4.188,4.18,0.08,
4.124,4.204,0.04,
4.124,4.18,0.08,
4.148,4.22,0,
4.124,4.204,0.08,
4.188,4.18,0,
4.172,4.18,0.08,
4.124,4.204,0,
4.124,4.18,0.08,
4.148,4.22,0.04,
4.124,4.172,0.08,
4.188,4.204,0.04,
4.116,4.18,0.08,
4.148,4.22,0,
4.124,4.22,0.08,
4.18,4.18,0,
4.18,4.204,0.08,
4.124,4.18,0,
4.148,4.188,0.08,
4.124,4.22,0.04,
4.132,4.204,0.04,
4.188,4.18,0.08,
4.172,4.18,0.08,
4.124,4.204,0.04,
4.124,4.22,0.08,
4.148,4.18,0,
4.188,4.18,0.08,
4.124,4.204,0.04,
4.124,4.18,0.08,
4.148,4.22,0.04,
4.124,4.204,0.04,
4.18,4.18,0.08,
4.172,4.18,0.08,
4.116,4.204,0,
4.148,4.22,0.08,
4.124,4.18,0,
4.124,4.18,0.08,
4.188,4.204,0.04,
4.124,4.18,0.08,
4.148,4.22,0,
4.132,4.212,0.08,
4.18,4.172,0.04,
4.172,4.204,0.08,
4.124,4.18,0.04,
4.148,4.22,0.08,
4.124,4.172,0,
4.18,4.18,0.08,
4.116,4.196,0.04,
4.124,4.204,0.08,
4.14,4.18,0,
4.14,4.18,0.08,
4.124,4.204,0,
4.172,4.18,0.04,
4.116,4.204,0.08,
4.14,4.18,0.08,
4.124,4.204,0,
4.14,4.196,0.08,
4.124,4.18,0,
4.124,4.18,0.08,
4.148,4.204,0,
4.14,4.196,0.08,
4.124,4.18,0.04,
4.14,4.204,0.08,
4.124,4.18,0,
4.14,4.18,0.08,
4.124,4.204,0.04,
4.14,4.18,0.08,
4.124,4.204,0,
4.14,4.204,0.08,
4.124,4.18,0,
4.14,4.212,0.08,
4.124,4.172,0,
4.18,4.18,0.08,
4.116,4.204,0,
4.124,4.18,0.08,
4.14,4.212,0,
4.124,4.204,0.08,
4.188,4.18,0,
4.18,4.204,0.08,
4.124,4.18,0,
4.132,4.18,0.08,
4.148,4.22,0,
4.188,4.18,0.08,
4.116,4.204,0,
4.124,4.18,0.08,
4.14,4.228,0,
4.124,4.204,0.08,
4.18,4.18,0,
4.172,4.18,0.08,
4.108,4.204,0.04,
4.14,4.18,0.08,
4.124,4.22,0,
4.124,4.18,0.08,
4.18,4.204,0,
4.124,4.18,0.08,
4.14,4.22,0.04,
4.124,4.204,0.04,
4.188,4.172,0.08,
4.18,4.18,0.08,
4.108,4.204,0,
4.14,4.18,0.08,
4.124,4.22,0,
4.124,4.204,0.08,
4.188,4.18,0.04,
4.164,4.196,0.08,
4.116,4.18,0,
4.124,4.22,0.08,
4.148,4.164,0.04,
4.18,4.18,0.08,
4.116,4.204,0,
4.14,4.18,0.08,
4.124,4.22,0,
4.124,4.204,0.04,
4.188,4.18,0.08,
4.172,4.18,0.08,
4.108,4.204,0,
4.14,4.18,0.08,
4.124,4.22,0,
4.124,4.18,0.08,
4.188,4.204,0,
4.124,4.18,0.08,
4.148,4.22,0,
4.124,4.204,0.08,
4.18,4.18,0.04,
4.172,4.204,0.08,
4.116,4.18,0,
4.124,4.18,0.08,
4.148,4.22,0.04,
4.124,4.18,0.08,
4.18,4.204,0.04,
4.124,4.164,0.08,
4.148,4.22,0,
4.1,4.204,0.08,
4.188,4.18,0,
4.172,4.18,0.08,
4.116,4.196,0.04,
4.14,4.18,0.08,
4.124,4.22,0.04,
4.124,4.18,0.08,
4.188,4.204,0.04,
4.116,4.18,0.08,
4.14,4.22,0.04,
4.124,4.212,0.08,
4.18,4.18,0,
4.18,4.196,0.08,
4.108,4.18,0,
4.14,4.18,0.08,
4.124,4.22,0.04,
4.124,4.204,0.08,
4.188,4.18,0.04,
4.172,4.18,0.08,
4.116,4.204,0,
4.148,4.18,0.08,
4.116,4.212,0,
4.124,4.18,0.08,
4.188,4.204,0,
4.124,4.18,0.08,
4.148,4.204,0.04,
4.124,4.18,0.08,
4.148,4.204,0,
4.132,4.18,0.08,
4.148,4.204,0,
4.148,4.204,0.08,
4.124,4.18,0.04,
4.148,4.18,0.08,
4.124,4.204,0,
4.148,4.18,0.04,
4.124,4.204,0.08,
4.124,4.204,0.08,
4.148,4.18,0,
4.124,4.18,0.08,
4.148,4.204,0,
4.124,4.18,0.08,
4.148,4.228,0.04,
4.124,4.18,0.08,
4.18,4.204,0,
4.14,4.18,0.08,
4.124,4.22,0,
4.124,4.22,0.08,
4.18,4.18,0,
4.172,4.18,0.08,
4.124,4.204,0,
4.124,4.188,0.08,
4.148,4.22,0.04,
4.124,4.204,0.08,
4.18,4.18,0,
4.172,4.18,0.08,
4.116,4.204,0,
4.124,4.22,0.08,
4.18,4.18,0.04,
4.188,4.22,0,
4.108,4.18,0.12,
4.188,3.852,0.04,
4.124,4.228,0.12,
4.188,3.852,0.08,
3.38,4.252,0.04,
3.372,4.228,0.08,
4.204,4.18,0,
4.172,4.22,0.08,
4.124,4.18,0.04,
4.188,4.196,0.04,
4.124,4.18,0.08,
4.148,4.18,0.08,
4.124,4.22,0.04,
4.124,4.204,0.08,
4.18,4.18,0.04,
4.172,4.18,0.08,
4.124,4.204,0.04,
4.14,4.22,0.08,
4.124,4.18,0,
4.124,4.18,0.08,
4.188,4.204,0.04,
4.14,4.18,0.08,
4.124,4.22,0.04,
4.124,4.204,0.08,
4.188,4.164,0,
4.172,4.196,0.08,
4.124,4.18,0,
4.14,4.18,0.08,
4.124,4.22,0,
4.124,4.18,0.08,
4.188,4.204,0,
4.124,4.18,0.08,
4.14,4.22,0,
4.124,4.204,0.08,
4.18,4.172,0,
4.172,4.148,0.08,
4.1,4.212,0,
4.084,4.18,0.08,
4.18,4.204,0.04,
4.148,4.18,0.08,
4.124,4.204,0.04,
4.148,4.164,0.08,
4.108,4.212,0,
4.084,4.18,0.08,
4.172,4.204,0,
4.116,4.188,0.08,
4.148,4.22,0,
4.132,4.22,0.08,
4.188,4.18,0,
4.132,4.18,0.08,
4.196,4.22,0,
4.132,4.22,0.08,
4.188,4.18,0,
4.188,4.18,0.08,
4.124,4.22,0,
4.188,4.18,0.08,
4.124,4.22,0,
4.188,4.22,0.08,
4.124,4.18,0,
4.188,4.22,0.08,
4.124,4.164,0.04,
4.188,4.22,0.08,
4.1,4.18,0,
4.188,4.18,0.08,
4.124,4.22,0.04,
4.124,4.22,0.08,
4.188,4.18,0.04,
4.124,4.18,0.04,
4.188,4.22,0.08,
4.188,4.18,0.08,
4.124,4.22,0.04,
4.188,4.22,0.08,
4.124,4.18,0,
4.18,4.204,0.08,
4.116,4.164,0.04,
4.148,4.172,0.08,
4.108,4.204,0,
4.1,4.204,0.08,
4.148,4.188,0.04,
4.148,4.188,0.08,
4.132,4.204,0.04,
4.132,4.18,0.08,
4.148,4.212,0,
4.132,4.172,0.08,
4.18,4.212,0,
4.1,4.18,0.08,
4.18,4.22,0,
4.108,4.22,0.08,
4.196,4.18,0,
4.124,4.22,0.08,
4.188,4.164,0.04,
4.188,4.22,0,
4.092,4.164,0.08,
4.172,4.18,0.08,
4.1,4.22,0,
4.124,4.18,0.08,
4.188,4.22,0.04,
4.124,4.22,0.08,
4.188,4.18,0.04,
4.188,4.164,0.08,
4.108,4.204,0.04,
4.084,4.188,0.08,
4.156,4.204,0.04,
4.148,4.188,0.08,
4.132,4.204,0.04,
4.148,4.18,0.04,
4.132,4.204,0.08,
4.148,4.148,0.08,
4.124,4.22,0.04,
4.068,4.204,0.08,
4.172,4.18,0,
4.108,4.18,0.08,
4.164,4.22,0,
4.1,4.18,0.04,
4.188,4.22,0.08,
4.18,4.22,0.08,
4.124,4.172,0.04,
4.188,4.204,0.08,
4.092,4.172,0.04,
4.148,4.204,0.08,
4.1,4.18,0,
4.148,4.188,0.08,
4.132,4.204,0.04,
4.148,4.204,0.08,
4.132,4.18,0,
4.148,4.188,0.08,
4.132,4.204,0,
4.148,4.204,0.08,
4.132,4.164,0,
4.172,4.172,0.08,
4.116,4.22,0,
4.116,4.204,0.08,
4.18,4.164,0.04,
4.172,4.18,0.08,
4.124,4.22,0,
4.18,4.212,0.08,
4.124,4.172,0,
4.18,4.172,0.08,
4.124,4.204,0.04,
4.1,4.188,0.08,
4.148,4.204,0.04,
4.148,4.188,0.08,
4.132,4.204,0.04,
4.148,4.188,0.08,
4.132,4.204,0.04,
4.148,4.204,0.04,
4.132,4.188,0.08,
4.172,4.204,0.08,
4.124,4.164,0,
4.1,4.18,0.08,
4.156,4.22,0,
4.108,4.22,0.08,
4.188,4.18,0,
4.188,4.22,0,
4.124,4.164,0.08,
4.188,4.22,0.08,
4.1,4.164,0,
4.172,4.18,0.08,
4.1,4.22,0.04,
4.124,4.18,0.08,
4.188,4.22,0,
4.124,4.22,0.08,
4.18,4.172,0.04,
4.188,4.204,0.08,
4.1,4.164,0.04,
4.148,4.188,0.08,
4.092,4.204,0,
4.132,4.188,0.08,
4.148,4.204,0,
4.148,4.204,0.08,
4.132,4.18,0,
4.148,4.188,0.08,
4.132,4.22,0,
4.132,4.204,0.08,
4.172,4.172,0.04,
4.148,4.204,0,
4.1,4.172,0.08,
4.148,4.18,0.08,
4.116,4.22,0,
4.124,4.18,0.08,
4.18,4.22,0,
4.124,4.18,0.08,
4.188,4.22,0,
4.188,4.18,0.08,
4.124,4.22,0,
4.188,4.18,0.08,
4.124,4.22,0,
4.188,4.132,0.04,
4.124,4.236,0.08,
4.036,4.188,0.08,
4.204,4.22,0,
4.188,4.188,0.08,
4.164,4.22,0,
4.164,4.204,0.08,
4.188,4.188,0,
4.188,4.22,0.08,
4.164,4.188,0.04,
4.164,4.188,0.08,
4.188,4.22,0,
4.188,4.196,0.08,
4.164,4.22,0.04,
4.188,4.22,0.08,
4.164,4.188,0,
4.188,4.196,0.08,
4.164,4.22,0,
4.164,4.22,0.08,
4.188,4.188,0,
4.172,4.196,0.04,
4.196,4.22,0.08,
4.188,4.188,0.08,
4.172,4.22,0,
4.164,4.22,0.08,
4.188,4.196,0,
4.188,4.188,0.08,
4.164,4.22,0,
4.164,4.188,0.08,
4.188,4.22,0.04,
4.188,4.196,0.08,
4.164,4.22,0.04,
4.164,4.188,0.08,
4.188,4.22,0,
4.188,4.22,0.04,
4.164,4.188,0.08,
4.188,4.22,0.08,
4.164,4.188,0,
4.164,4.196,0.08,
4.188,4.22,0.04,
4.164,4.22,0.08,
4.188,4.196,0,
4.188,4.188,0.08,
4.164,4.22,0,
4.188,4.22,0.08,
4.164,4.196,0,
4.164,4.188,0.08,
4.188,4.22,0,
4.164,4.188,0.08,
