Power Reception/Metingen 3/Meting met pin 0 -100 -111 156 -10.csv

CH1,CH2,CH3,Start,Increment,
Volt,Volt,Volt,-29.975,0.05
4.164,4.22,0.08,
4.188,4.18,0,
4.164,4.22,0,
4.188,4.188,0.08,
4.188,4.188,0.08,
4.164,4.22,0,
4.188,4.22,0.08,
4.164,4.188,0,
4.188,4.204,0.08,
4.164,4.188,0,
4.188,4.22,0.08,
4.164,4.188,0,
4.188,4.188,0.08,
4.164,4.22,0,
4.188,4.212,0.08,
4.164,4.188,0,
4.188,4.22,0.04,
4.164,4.188,0.08,
4.164,4.188,0.08,
4.188,4.212,0,
4.164,4.188,0.08,
4.188,4.22,0,
4.188,4.22,0.08,
4.164,4.188,0,
4.164,4.204,0.08,
4.188,4.188,0,
4.188,4.188,0.08,
4.164,4.22,0,
4.164,4.188,0.08,
4.188,4.22,0,
4.164,4.204,0.08,
4.188,4.188,0,
4.188,4.188,0.08,
4.164,4.212,0,
4.164,4.22,0,
4.188,4.18,0.08,
4.188,4.188,0.08,
4.164,4.22,0,
4.164,4.188,0.08,
4.188,4.212,0,
4.164,4.188,0.08,
4.188,4.22,0,
4.188,4.188,0.08,
4.164,4.22,0,
4.164,4.22,0.08,
4.188,4.188,0,
4.188,4.188,0,
4.164,4.22,0.08,
4.164,4.188,0.08,
4.188,4.22,0,
4.148,4.188,0.08,
4.188,4.22,0,
4.164,4.18,0.08,
4.188,4.22,0,
4.164,4.22,0.08,
4.188,4.188,0,
4.188,4.22,0.08,
4.164,4.188,0,
4.188,4.22,0.08,
4.164,4.188,0,
4.076,4.148,0.08,
4.188,4.22,0,
4.188,4.22,0.08,
4.092,4.148,0,
4.14,4.196,0.08,
4.124,4.18,0,
4.148,4.204,0.08,
4.108,4.164,0,
4.084,4.148,0.08,
4.148,4.204,0,
4.148,4.156,0.08,
4.092,4.204,0,
4.092,4.156,0,
4.18,4.212,0.08,
4.124,4.18,0.08,
4.196,4.22,0,
4.188,4.212,0.08,
4.164,4.188,0,
4.164,4.188,0.08,
4.188,4.212,0,
4.164,4.204,0.08,
4.188,4.188,0,
4.188,4.188,0.08,
4.164,4.22,0,
4.164,4.188,0.08,
4.188,4.22,0,
4.188,4.188,0.08,
4.164,4.212,0,
4.164,4.188,0,
4.188,4.212,0.08,
4.164,4.188,0.08,
4.188,4.204,0,
4.188,4.22,0.08,
4.164,4.18,0,
4.164,4.188,0.08,
4.188,4.22,0,
4.188,4.212,0.08,
4.164,4.188,0,
4.188,4.22,0.08,
4.164,4.188,0,
4.164,4.188,0.08,
4.188,4.204,0,
4.164,4.188,0.08,
4.188,4.22,0,
4.164,4.188,0,
4.188,4.22,0.08,
4.164,4.188,0.08,
4.188,4.212,0,
4.164,4.188,0.08,
4.188,4.212,0,
4.164,4.22,0,
4.188,4.188,0.08,
4.164,4.188,0,
4.188,4.22,0.08,
4.164,4.188,0,
4.188,4.22,0.08,
4.164,4.188,0,
4.188,4.22,0.08,
4.164,4.188,0.08,
4.188,4.22,0,
4.164,4.188,0.08,
4.188,4.22,0,
4.164,4.188,0.08,
4.188,4.22,0,
4.188,4.188,0.08,
4.164,4.212,0,
4.188,4.204,0.08,
4.164,4.188,0,
4.164,4.188,0.08,
4.188,4.22,0,
4.164,4.212,0.08,
4.188,4.188,0,
4.164,4.204,0.08,
4.188,4.188,0,
4.164,4.212,0,
4.188,4.188,0.08,
4.156,4.22,0.08,
4.188,4.188,0.04,
4.188,4.188,0.08,
4.164,4.22,0,
4.164,4.188,0.08,
4.188,4.22,0,
4.188,4.204,0.08,
4.164,4.188,0,
4.188,4.22,0,
4.164,4.188,0.08,
4.164,4.188,0.08,
4.188,4.212,0,
4.164,4.188,0.08,
4.188,4.204,0,
4.164,4.188,0,
4.188,4.22,0.08,
4.164,4.188,0.08,
4.188,4.22,0,
4.164,4.188,0.08,
4.188,4.22,0,
4.188,4.188,0.08,
4.164,4.22,0,
4.164,4.188,0.08,
4.188,4.22,0,
4.164,4.204,0.08,
4.188,4.188,0,
4.164,4.188,0.08,
4.188,4.22,0,
4.188,4.204,0.08,
4.164,4.188,0,
4.164,4.22,0,
4.188,4.188,0.08,
4.164,4.188,0.08,
4.188,4.22,0,
4.164,4.204,0.08,
4.188,4.188,0,
4.164,4.188,0.08,
4.188,4.212,0,
4.164,4.188,0,
4.196,4.22,0.08,
4.188,4.22,0.08,
4.164,4.188,0,
4.188,4.22,0.08,
4.156,4.188,0,
4.164,4.188,0.08,
4.188,4.22,0,
4.164,4.22,0.08,
4.188,4.188,0,
4.164,4.212,0.08,
4.188,4.188,0,
4.164,4.188,0.08,
4.188,4.22,0,
4.164,4.22,0.08,
4.188,4.188,0,
4.164,4.188,0.08,
4.188,4.22,0,
4.164,4.204,0.08,
4.188,4.188,0,
4.188,4.188,0.08,
4.156,4.212,0,
4.188,4.188,0.08,
4.164,4.22,0,
4.188,4.204,-0.04,
4.164,4.188,0.16,
4.164,4.204,-0.04,
4.188,4.188,0.12,
4.18,4.204,-0.04,
4.164,4.188,0.16,
4.164,4.204,-0.04,
4.188,4.188,0.16,
4.164,4.204,-0.04,
4.188,4.188,0.16,
4.164,4.204,-0.04,
4.188,4.188,0.16,
4.164,4.204,-0.04,
4.188,4.188,0.12,
4.164,4.204,-0.04,
4.188,4.188,0.16,
4.164,4.188,-0.04,
4.18,4.212,0.16,
4.188,4.212,-0.04,
4.164,4.188,0.12,
4.188,4.204,0.12,
4.164,4.188,-0.04,
4.164,4.188,-0.04,
4.188,4.204,0.16,
4.164,4.188,-0.04,
4.188,4.204,0.16,
4.164,4.204,-0.04,
4.188,4.188,0.16,
4.164,4.188,-0.04,
4.188,4.204,0.16,
4.164,4.204,0.16,
4.188,4.188,-0.04,
4.164,4.188,-0.04,
4.188,4.204,0.16,
4.164,4.204,-0.04,
4.188,4.188,0.16,
4.188,4.204,-0.04,
4.164,4.188,0.16,
4.164,4.204,-0.04,
4.188,4.188,0.16,
4.164,4.204,-0.04,
4.188,4.188,0.16,
4.18,4.188,-0.04,
4.164,4.22,0.16,
4.164,4.204,-0.04,
4.188,4.188,0.16,
4.18,4.204,0.16,
4.164,4.188,-0.04,
4.164,4.204,-0.04,
4.188,4.188,0.16,
4.164,4.204,-0.04,
4.188,4.188,0.16,
4.156,4.204,-0.04,
4.188,4.188,0.12,
4.188,4.204,0.12,
4.14,4.188,-0.04,
4.156,4.204,-0.04,
4.172,4.188,0.16,
4.18,4.204,-0.04,
4.164,4.188,0.2,
4.18,4.188,-0.04,
4.156,4.204,0.16,
4.172,4.188,-0.04,
4.156,4.204,0.12,
4.172,4.188,-0.04,
4.156,4.204,0.16,
4.172,4.204,-0.04,
4.156,4.188,0.16,
4.172,4.188,0.12,
4.156,4.204,-0.04,
4.156,4.188,-0.04,
4.188,4.212,0.12,
4.164,4.22,-0.04,
4.188,4.188,0.16,
4.164,4.204,-0.04,
4.188,4.188,0.16,
4.164,4.204,-0.04,
4.188,4.188,0.16,
4.164,4.204,-0.04,
4.188,4.188,0.12,
4.188,4.204,0.12,
4.164,4.188,-0.04,
4.164,4.204,-0.04,
4.188,4.188,0.16,
4.188,4.204,-0.04,
4.164,4.188,0.12,
4.164,4.204,-0.04,
4.188,4.188,0.16,
4.164,4.204,-0.04,
4.188,4.188,0.16,
4.164,4.204,0.16,
4.188,4.188,-0.04,
4.164,4.204,-0.04,
4.188,4.188,0.12,
4.188,4.204,-0.04,
4.164,4.188,0.12,
4.188,4.188,-0.04,
4.164,4.212,0.12,
4.188,4.204,0.12,
4.164,4.188,-0.04,
4.164,4.204,-0.04,
4.188,4.188,0.12,
4.164,4.204,-0.04,
4.188,4.188,0.16,
4.164,4.188,0.16,
4.188,4.204,-0.04,
4.164,4.204,-0.04,
4.188,4.188,0.16,
4.164,4.188,-0.04,
4.188,4.22,0.12,
4.188,4.204,0.16,
4.164,4.188,-0.04,
4.164,4.188,0.12,
4.188,4.204,-0.04,
4.164,4.204,0,
4.188,4.188,0.12,
4.164,4.204,-0.04,
4.188,4.188,0.16,
4.164,4.204,-0.04,
4.188,4.188,0.12,
4.164,4.204,-0.04,
4.188,4.188,0.16,
4.188,4.204,-0.04,
4.164,4.188,0.16,
4.164,4.204,-0.04,
4.188,4.188,0.12,
4.164,4.204,0.12,
4.188,4.188,-0.04,
4.164,4.204,-0.04,
4.188,4.188,0.12,
4.164,4.204,-0.04,
4.188,4.188,0.16,
4.164,4.204,-0.04,
4.188,4.188,0.16,
4.164,4.204,-0.04,
4.188,4.188,0.16,
4.164,4.204,-0.04,
4.188,4.188,0.16,
4.164,4.22,-0.04,
4.188,4.188,0.12,
4.188,4.188,-0.04,
4.164,4.22,0.16,
4.164,4.188,0.12,
4.188,4.204,-0.04,
4.164,4.188,-0.04,
4.18,4.204,0.16,
4.164,4.204,0.16,
4.188,4.188,-0.04,
4.164,4.188,-0.04,
4.188,4.212,0.16,
4.188,4.204,0.16,
4.148,4.188,-0.04,
4.148,4.204,-0.04,
4.188,4.18,0.16,
4.164,4.204,-0.04,
4.188,4.188,0.12,
4.164,4.204,-0.04,
4.188,4.188,0.16,
4.188,4.188,-0.04,
4.164,4.204,0.12,
4.188,4.188,0.12,
4.164,4.204,-0.04,
4.164,4.204,-0.04,
4.188,4.188,0.16,
4.164,4.188,-0.04,
4.188,4.204,0.16,
4.164,4.204,-0.04,
4.188,4.188,0.12,
4.164,4.204,-0.04,
4.188,4.188,0.2,
4.164,4.188,-0.04,
4.188,4.204,0.16,
4.164,4.188,0.08,
4.188,4.204,0,
4.164,4.204,0,
4.188,4.188,0.12,
4.164,4.204,0,
4.188,4.188,0.12,
4.164,4.204,0,
4.188,4.188,0.12,
4.188,4.204,0,
4.164,4.188,0.16,
4.164,4.188,0,
4.18,4.204,0.12,
4.164,4.188,0,
4.188,4.204,0.12,
4.164,4.188,0.08,
4.188,4.212,0,
4.164,4.188,0,
4.188,4.204,0.08,
4.164,4.204,0,
4.188,4.188,0.12,
4.164,4.204,0,
4.188,4.188,0.12,
4.164,4.188,0,
4.188,4.22,0.12,
4.164,4.204,0.08,
4.188,4.188,0,
4.188,4.204,0.08,
4.164,4.188,0,
4.164,4.188,0.08,
4.188,4.204,0,
4.164,4.204,0.08,
4.188,4.188,0,
4.164,4.188,0.08,
4.188,4.204,0,
4.164,4.204,0.08,
4.188,4.188,0,
4.164,4.204,0,
4.188,4.188,0.08,
4.164,4.212,0.08,
4.188,4.188,0,
4.164,4.204,0.08,
4.188,4.188,0,
4.164,4.204,0.08,
4.188,4.188,0,
4.164,4.188,0.08,
4.188,4.204,0,
4.188,4.22,0.08,
4.164,4.188,0,
4.188,4.204,0.08,
4.164,4.188,0,
4.164,4.188,0.08,
4.188,4.204,0,
4.164,4.188,0.08,
4.188,4.204,0,
4.188,4.204,0.08,
4.164,4.188,0,
4.164,4.204,0.08,
4.188,4.188,0,
4.164,4.204,0.08,
4.188,4.188,0,
4.164,4.188,0.08,
4.188,4.204,0,
4.164,4.204,0.08,
4.188,4.188,0,
4.164,4.204,0.08,
4.188,4.188,0,
4.164,4.204,0.08,
4.188,4.188,0,
4.164,4.204,0.08,
4.188,4.188,0,
4.164,4.204,0.08,
4.188,4.188,0,
4.164,4.188,0.08,
4.188,4.204,0,
4.164,4.204,0.08,
4.188,4.188,0,
4.164,4.204,0.08,
4.188,4.188,0,
4.188,4.22,0.08,
4.164,4.188,0,
4.164,4.204,0.08,
4.188,4.188,0,
4.164,4.204,0.08,
4.18,4.188,0,
4.188,4.204,0.08,
4.164,4.188,0,
4.1,4.156,0.08,
4.204,4.228,0,
4.196,4.228,0.08,
4.164,4.188,0,
4.164,4.204,0.08,
4.188,4.188,0,
4.164,4.204,0.08,
4.188,4.188,0,
4.164,4.204,0.08,
4.188,4.188,0,
4.164,4.188,0.08,
4.188,4.204,0,
4.164,4.204,0.08,
4.188,4.188,0,
4.188,4.204,0.08,
4.132,4.18,0,
4.092,4.156,0.08,
4.18,4.212,0,
4.14,4.196,0.08,
4.124,4.18,0,
4.108,4.204,0.08,
4.172,4.172,0,
4.14,4.196,0.08,
4.124,4.18,0,
4.132,4.18,0.08,
4.196,4.22,0,
4.196,4.22,0.08,
4.164,4.188,0,
4.164,4.188,0.08,
4.188,4.204,0,
4.164,4.204,0.08,
4.188,4.188,0,
4.188,4.204,0.08,
4.164,4.188,0,
4.164,4.204,0.08,
4.188,4.188,0,
4.164,4.204,0.08,
4.188,4.188,0,
4.188,4.204,0.08,
4.164,4.188,0,
4.188,4.22,0.08,
4.164,4.188,0,
4.188,4.204,0.08,
4.156,4.188,0,
4.164,4.188,0.08,
4.188,4.204,0,
4.188,4.204,0.08,
4.164,4.188,0,
4.164,4.188,0.08,
4.188,4.204,0,
4.164,4.204,0.08,
4.188,4.188,0,
4.188,4.204,0.08,
4.164,4.188,0,
4.164,4.188,0.08,
4.188,4.204,0,
4.164,4.204,0.08,
4.188,4.188,0,
4.188,4.204,0.08,
4.164,4.188,0,
4.164,4.204,0.08,
4.188,4.188,0,
4.164,4.204,0.08,
4.188,4.188,0,
4.164,4.204,0.08,
4.188,4.188,0,
4.188,4.204,0.08,
4.164,4.188,0,
4.164,4.188,0.08,
4.188,4.204,0,
4.18,4.204,0.08,
4.164,4.188,0,
4.164,4.204,0.08,
4.188,4.188,0,
4.164,4.188,0.08,
4.188,4.204,0,
4.188,4.204,0.08,
4.164,4.188,0,
4.164,4.204,0.08,
4.188,4.188,0,
4.188,4.22,0.08,
4.164,4.188,0,
4.164,4.188,0.08,
4.188,4.22,0,
4.164,4.188,0.08,
4.188,4.204,0,
4.164,4.204,0.08,
4.188,4.188,0,
4.164,4.204,0.08,
4.188,4.188,0,
4.164,4.204,0.08,
4.188,4.188,0,
4.164,4.188,0,
4.188,4.22,0.08,
4.156,4.204,0.08,
4.188,4.188,0,
4.164,4.204,0.08,
4.188,4.188,0,
4.164,4.204,0.08,
4.188,4.188,0,
4.164,4.204,0.08,
4.188,4.188,0,
4.164,4.204,0.08,
4.188,4.188,0,
4.164,4.188,0.08,
4.188,4.204,0,
4.188,4.204,0.08,
4.164,4.188,0,
4.164,4.204,0.08,
4.188,4.188,0,
4.164,4.204,0.08,
4.188,4.188,0,
4.164,4.188,0.08,
4.188,4.204,0,
4.164,4.204,0.08,
4.188,4.188,-0.08,
4.164,4.204,0.08,
4.188,4.188,0,
4.188,4.204,0.08,
4.164,4.188,0,
4.188,4.22,0.08,
4.164,4.188,0,
4.188,4.188,0.08,
4.164,4.22,0,
4.164,4.188,0.12,
4.188,4.204,0,
4.188,4.204,0.08,
4.164,4.188,0,
4.164,4.188,0,
4.188,4.212,0.12,
4.188,4.204,0.08,
4.164,4.188,0,
4.164,4.188,0.08,
4.188,4.212,0,
4.164,4.188,0.08,
4.188,4.204,0,
4.164,4.204,0.08,
4.188,4.188,0,
4.188,4.188,0.08,
4.164,4.204,0,
4.188,4.188,0.08,
4.164,4.22,0,
4.164,4.204,0.08,
4.188,4.188,0,
4.188,4.22,0.08,
4.164,4.188,0,
4.164,4.188,0.08,
4.188,4.22,0,
4.188,4.188,0,
4.164,4.22,0.12,
4.164,4.22,0.08,
4.188,4.188,0,
4.164,4.212,0.08,
4.188,4.188,0,
4.164,4.204,0.08,
4.188,4.188,0,
4.164,4.188,0.08,
4.188,4.204,0,
4.164,4.204,0,
4.188,4.188,3.44,
4.188,4.22,3.32,
4.132,4.18,3.44,
4.164,4.22,3.36,
4.188,4.18,3.44,
4.156,4.188,3.36,
4.188,4.212,3.4,
4.164,4.188,3.44,
4.188,4.22,3.32,
4.188,4.188,3.36,
4.14,4.22,3.44,
4.188,4.204,3.36,
4.012,4.116,3.44,
4.068,4.132,3.44,
4.236,4.26,3.32,
4.244,4.244,3.44,
4.116,4.156,3.32,
4.132,4.18,3.44,
4.148,4.204,3.32,
4.132,4.18,3.36,
4.164,4.204,3.44,
4.14,4.18,3.36,
4.236,4.244,3.44,
4.22,4.228,3.44,
4.116,4.164,3.32,
4.132,4.196,3.36,
4.148,4.18,3.44,
4.132,4.18,3.44,
4.164,4.204,3.32,
4.164,4.204,3.4,
4.14,4.18,3.32,
4.124,4.204,3.44,
4.172,4.164,3.36,
4.164,4.204,3.36,
4.124,4.18,3.44,
4.124,4.18,3.44,
4.164,4.204,3.32,
4.148,4.196,3.4,
4.124,4.18,3.36,
4.124,4.196,3.36,
4.14,4.164,3.44,
4.124,4.18,3.44,
4.14,4.196,3.32,
4.124,4.196,3.36,
4.14,4.18,3.44,
4.124,4.18,3.36,
4.14,4.196,3.44,
4.124,4.18,3.44,
4.14,4.196,3.32,
4.124,4.18,3.4,
4.14,4.196,3.32,
4.14,4.18,3.36,
4.124,4.196,3.44,
4.124,4.196,3.36,
4.14,4.18,3.4,
4.124,4.196,3.44,
4.14,4.18,3.32,
4.14,4.196,3.36,
4.124,4.18,3.44,
4.14,4.196,3.32,
4.124,4.18,3.44,
4.14,4.18,3.44,
4.124,4.196,3.32,
4.14,4.18,3.36,
4.124,4.196,3.44,
4.124,4.18,3.36,
4.14,4.196,3.4,
4.124,4.18,3.36,
4.14,4.196,3.44,
4.14,4.18,3.32,
4.124,4.196,3.4,
4.14,4.196,3.36,
4.124,4.18,3.44,
4.044,4.196,3.36,
4.148,4.132,3.44,
4.14,4.196,3.44,
4.124,4.18,3.32,
4.124,4.196,3.44,
4.14,4.18,3.36,
4.14,4.18,3.36,
4.124,4.196,3.44,
4.14,4.196,3.36,
4.124,4.18,3.44,
4.124,4.196,3.32,
4.14,4.18,3.44,
4.124,4.18,3.36,
4.14,4.196,3.44,
4.044,4.132,3.32,
4.172,4.22,3.4,
4.14,4.18,3.44,
4.124,4.196,3.32,
4.14,4.18,3.44,
4.124,4.196,3.32,
4.124,4.18,3.44,
4.14,4.196,3.36,
4.14,4.196,3.44,
4.1,4.172,3.32,
4.124,4.204,3.44,
4.164,4.18,3.32,
4.148,4.196,3.44,
4.02,4.116,3.32,
4.092,4.188,3.36,
4.124,4.164,3.44,
4.036,4.14,3.44,
4.148,4.212,3.32,
4.124,4.196,3.36,
4.036,4.14,3.44,
4.068,4.156,3.36,
4.124,4.196,3.4,
4.116,4.188,3.44,
4.02,4.148,3.32,
4.116,4.148,3.32,
4.06,4.196,3.44,
4.116,4.196,3.36,
4.02,4.14,3.44,
4.116,4.196,3.36,
4.068,4.156,3.44,
4.052,4.188,3.32,
4.108,4.156,3.44,
4.108,4.188,3.36,
3.996,4.124,3.44,
4.108,4.132,3.36,
3.996,4.188,3.44,
3.988,4.116,3.32,
4.14,4.204,3.44,
4.14,4.196,3.36,
4.1,4.164,3.44,
4.108,4.18,3.36,
4.148,4.204,3.44,
4.132,4.196,3.4,
4.004,4.116,3.32,
4.036,4.204,3.44,
4.14,4.14,0,
4.028,4.204,0.08,
4.148,4.14,0,
4.148,4.156,0.08,
4.044,4.204,0,
4.02,4.148,0.08,
4.172,4.228,0,
4.14,4.196,0.08,
3.972,4.108,0,
4.044,4.14,0.08,
4.1,4.188,0,
4.068,4.156,0,
4.204,4.236,3.4,
4.196,4.228,3.44,
4.124,4.18,3.32,
4.1,4.156,3.36,
4.188,4.22,3.44,
4.14,4.18,3.44,
4.124,4.196,3.32,
4.148,4.18,3.32,
4.124,4.204,3.44,
4.124,4.18,3.36,
4.148,4.196,3.44,
4.124,4.18,3.44,
4.148,4.196,3.32,
4.132,4.196,3.32,
4.148,4.18,3.44,
4.148,4.196,3.36,
4.124,4.18,3.44,
4.124,4.196,3.44,
4.148,4.18,3.32,
4.124,4.18,3.44,
4.148,4.196,3.32,
4.124,4.196,3.32,
4.148,4.18,3.44,
4.124,4.196,3.32,
4.148,4.18,3.44,
4.14,4.196,3.36,
4.124,4.18,3.4,
4.124,4.18,3.4,
4.14,4.196,3.32,
4.124,4.18,3.32,
4.148,4.196,3.44,
4.124,4.18,3.32,
4.148,4.196,3.44,
4.124,4.196,3.36,
4.148,4.18,3.44,
4.148,4.1,3.32,
3.988,4.204,3.44,
4.132,4.196,3.36,
4.076,4.148,3.44,
4.1,4.196,3.44,
4.132,4.172,3.32,
4.132,4.196,3.32,
4.108,4.164,3.44,
4.132,4.196,3.32,
4.1,4.164,3.44,
4.172,4.204,3.36,
3.74,3.98,3.44,
4.228,4.284,3.44,
4.124,4.18,3.32,
3.124,3.636,3.36,
4.204,4.26,3.44,
3.116,3.596,3.36,
4.268,4.324,3.44,
4.188,3.636,3.4,
3.156,4.244,3.32,
4.108,4.204,3.32,
4.148,4.172,3.44,
4.14,4.18,3.32,
4.124,4.196,3.44,
4.236,4.284,3.36,
3.116,3.604,3.44,
3.132,3.628,3.44,
4.212,4.252,3.32,
3.1,3.588,3.32,
4.212,4.252,3.44,
2.98,3.508,3.36,
4.196,4.236,3.44,
4.196,4.236,3.32,
3.02,3.508,3.44,
4.108,4.196,3.32,
4.14,4.164,3.44,
4.108,4.164,3.36,
4.14,4.196,3.44,
4.108,4.164,3.36,
4.14,4.196,3.44,
4.14,4.164,3.32,
4.1,4.196,3.44,
4.036,4.116,3.36,
4.14,4.196,3.44,
4.14,4.196,3.36,
4.108,4.164,3.44,
4.108,4.164,3.32,
4.132,4.196,3.44,
4.108,4.196,3.44,
4.14,4.164,0,
4.14,4.196,0.08,
4.108,4.164,0,
4.108,4.164,0,
4.14,4.196,3.36,
4.14,4.164,3.32,
4.1,4.196,3.4,
4.108,4.164,3.36,
4.14,4.188,3.44,
4.108,4.164,3.32,
4.14,4.196,3.44,
4.14,4.164,3.32,
4.1,4.196,3.44,
4.108,4.164,3.36,
4.14,4.196,3.44,
4.108,4.164,3.36,
4.14,4.196,3.44,
4.108,4.196,3.44,
4.14,4.164,3.32,
4.14,4.196,3.32,
4.108,4.164,3.44,
4.14,4.164,3.36,
4.108,4.196,3.44,
4.108,4.164,3.36,
4.132,4.196,3.4,
4.108,4.196,3.44,
4.14,4.164,3.32,
4.14,4.196,3.44,
4.108,4.164,3.32,
4.14,4.196,3.36,
4.036,4.124,3.44,
4.1,4.164,3.32,
4.14,4.204,3.44,
4.06,4.132,3.32,
4.14,4.196,3.44,
4.14,4.196,3.36,
4.1,4.164,3.44,
4.108,4.196,3.44,
4.14,4.164,3.32,
4.076,4.156,3.32,
4.14,4.196,3.44,
4.14,4.196,3.36,
4.004,4.116,3.44,
4.14,4.196,3.36,
4.1,4.164,3.44,
4.14,4.196,3.44,
4.092,4.156,3.32,
4.132,4.164,3.32,
4.1,4.196,3.44,
4.14,4.196,3.36,
4.1,4.164,3.44,
3.652,3.884,3.36,
4.22,4.252,3.44,
4.228,4.268,3.36,
2.964,3.436,3.44,
4.196,4.228,3.4,
3.068,3.508,0.04,
4.14,4.196,0.08,
4.012,4.108,0,
4.1,4.172,0.08,
4.212,4.236,0,
4.188,4.204,0,
4.164,4.188,0.08,
4.18,4.188,0.08,
4.156,4.204,0,
4.156,4.204,0.08,
4.18,4.188,0,
4.164,4.188,0.08,
4.18,4.204,0,
4.18,4.204,0.08,
4.148,4.18,0,
4.18,4.188,0.08,
4.156,4.204,0,
4.18,4.204,0,
4.156,4.188,3.44,
4.084,4.148,3.36,
4.18,4.204,3.44,
4.164,4.188,3.36,
4.18,4.204,3.4,
4.18,4.204,3.44,
4.156,4.188,3.32,
4.132,4.18,3.36,
4.18,4.212,3.44,
4.164,4.188,3.36,
4.18,4.204,3.44,
4.18,4.188,3.44,
4.156,4.204,3.32,
4.164,4.188,3.32,
4.18,4.204,3.4,
4.164,4.188,3.36,
4.18,4.204,3.44,
4.188,4.188,3.36,
4.156,4.204,3.44,
4.148,4.22,3.36,
4.18,4.18,3.32,
4.18,4.204,3.32,
4.156,4.188,3.44,
4.172,4.204,3.44,
4.156,4.188,3.32,
4.148,4.204,3.44,
4.188,4.18,3.32,
4.148,4.204,3.44,
4.188,4.18,3.32,
4.14,4.204,3.36,
4.188,4.18,3.44,
4.18,4.188,3.44,
4.156,4.204,3.32,
4.18,4.188,3.4,
4.156,4.204,3.32,
4.18,4.204,3.36,
4.02,4.108,3.44,
4.18,4.156,3.36,
4.092,4.212,3.4,
4.044,4.124,3.4,
4.108,4.18,3.32,
3.532,3.788,3.32,
4.204,4.26,3.44,
2.956,3.452,3.44,
4.228,4.284,3.36,
2.932,3.436,3.36,
4.204,4.236,3.44,
4.116,4.172,3.32,
4.084,4.148,3.44,
4.116,4.172,3.36,
4.084,4.148,3.44,
4.084,4.172,3.32,
4.116,4.148,3.44,
4.092,4.172,3.44,
4.116,4.156,3.32,
4.116,4.172,3.36,
4.092,4.156,3.44,
4.116,4.172,3.44,
4.084,4.148,3.32,
4.116,4.156,3.44,
4.084,4.172,3.32,
4.116,4.172,3.32,
4.092,4.148,3.44,
4.116,4.172,3.36,
4.084,4.148,3.44,
4.132,4.172,3.36,
4.092,4.156,3.44,
4.116,4.172,3.44,
4.076,4.148,3.32,
4.1,4.156,3.36,
4.124,4.172,3.44,
4.116,4.172,3.4,
4.092,4.156,3.32,
4.116,4.172,3.4,
4.084,4.148,3.32,
4.116,4.132,3.4,
4.052,4.18,0.04,
4.028,4.116,0.08,
4.124,4.188,0,
4.116,4.172,0,
4.1,4.148,0.08,
4.076,4.172,0.08,
4.124,4.148,0,
4.116,4.172,0.08,
4.092,4.156,0,
4.116,4.172,0.08,
4.084,4.156,0,
4.084,4.148,0,
4.124,4.188,0.08,
4.116,4.172,0.08,
4.092,4.156,0,
4.116,4.172,0.08,
4.084,4.148,0,
4.116,4.172,0.08,
4.084,4.156,0,
4.06,4.172,0.08,
4.124,4.132,0,
4.116,4.156,0.08,
4.084,4.172,0,
4.116,4.172,0.08,
4.092,4.148,0,
4.116,4.172,0.08,
4.084,4.156,0,
4.116,4.172,0.08,
4.084,4.14,0,
4.116,4.156,0.08,
4.092,4.172,0,
4.116,4.172,0.08,
4.092,4.148,0,
4.116,4.172,0.08,
4.084,4.14,0,
4.116,4.172,0.08,
4.084,4.14,0.04,
4.116,4.172,0.08,
4.092,4.156,0,
4.116,4.172,0.08,
4.092,4.148,0,
4.116,4.172,0,
4.092,4.148,0.08,
4.116,4.14,0.08,
4.076,4.18,0,
4.116,4.172,0.08,
4.092,4.156,0,
4.116,4.172,0.08,
4.084,4.148,0,
4.116,4.172,0.08,
4.092,4.156,0,
4.1,4.172,0.08,
4.124,4.156,0,
4.1,4.156,0,
4.124,4.172,0.08,
4.116,4.172,0.08,
4.092,4.148,0,
4.116,4.172,0.08,
4.092,4.148,0,
4.116,4.172,0.08,
4.1,4.14,0,
4.116,4.156,0.08,
4.084,4.172,0,
4.116,4.172,0.08,
4.092,4.148,0,
4.116,4.172,0.08,
4.1,4.156,0,
4.116,4.148,0,
4.084,4.188,0.08,
4.116,4.172,0.08,
4.092,4.156,0,
4.116,4.172,0.08,
4.092,4.156,0,
4.116,4.172,0.08,
4.1,4.148,0,
4.116,4.172,0,
4.092,4.148,0.08,
4.116,4.172,0.08,
4.092,4.156,0,
4.036,4.172,0.08,
4.124,4.124,0,
4.116,4.156,0.08,
4.1,4.172,0,
4.116,4.172,0.08,
4.092,4.148,0,
4.116,4.156,0.08,
4.084,4.172,0,
4.116,4.18,0.08,
4.092,4.148,0,
4.1,4.172,0.08,
4.116,4.156,0,
4.092,4.156,0.08,
4.124,4.18,0,
4.124,4.156,0,
4.1,4.188,0.08,
4.124,4.188,0.08,
4.1,4.148,0,
4.116,4.172,0.08,
4.084,4.148,0,
4.116,4.172,0.08,
4.1,4.156,0,
4.116,4.172,0.08,
4.092,4.148,0,
4.116,4.172,0.08,
4.084,4.148,0,
4.116,4.172,0,
4.092,4.148,0.08,
4.116,4.156,0.08,
4.092,4.172,0,
4.116,4.172,0.08,
4.092,4.156,0,
4.116,4.172,0.08,
4.092,4.148,0,
4.116,4.172,0.08,
4.1,4.148,0,
4.116,4.156,0.08,
4.092,4.18,0,
4.116,4.172,0.08,
4.084,4.14,0,
4.116,4.172,0.08,
4.092,4.148,0,
4.116,4.172,0.08,
4.092,4.148,0,
4.116,4.172,0.08,
4.084,4.14,0,
4.116,4.172,0.08,
4.092,4.148,0,
4.116,4.172,0.08,
4.084,4.14,0,
4.116,4.172,0.08,
4.084,4.14,0,
4.092,4.156,0.08,
4.124,4.188,0,
4.116,4.172,0.08,
4.1,4.156,0,
4.116,4.172,0.08,
4.092,4.14,0,
4.116,4.172,0.08,
4.092,4.156,0,
4.116,4.156,0.08,
4.092,4.172,0,
4.116,4.172,0.08,
4.092,4.148,0,
4.116,4.132,0.04,
4.076,4.188,0.08,
4.116,4.156,0.08,
4.084,4.18,0,
4.116,4.148,0.08,
4.084,4.18,0,
4.116,4.172,0.08,
4.084,4.156,0,
4.116,4.172,0.08,
4.084,4.148,0,
4.116,4.156,0,
4.092,4.172,0.08,
4.116,4.172,0.08,
4.092,4.148,0,
4.116,4.172,0.08,
4.084,4.156,0,
4.116,4.172,0.08,
4.092,4.148,0,
4.116,4.172,0.08,
4.092,4.148,0,
4.116,4.172,0.08,
4.084,4.148,0,
4.116,4.172,0.08,
4.084,4.156,0,
4.116,4.172,0.08,
4.092,4.148,0,
4.092,4.156,0.08,
4.116,4.172,0,
4.116,4.172,0.08,
4.092,4.156,0,
4.116,4.18,0.08,
4.092,4.156,0,
4.116,4.172,0,
4.092,4.156,0.08,
4.084,4.172,0.08,
4.116,4.14,0,
4.116,4.172,0.08,
4.092,4.14,0,
4.116,4.156,0.08,
4.092,4.172,0,
4.116,4.172,0.08,
4.084,4.156,0,
4.116,4.172,0.08,
4.092,4.14,0,
