Power Reception/Metingen 3/Meting met pin 2 -115 -129 91 -14.csv

CH1,CH2,CH3,Start,Increment,
Volt,Volt,Volt,-29.975,0.05
4.204,4.22,0.08,
4.196,4.196,0,
4.204,4.22,0.08,
4.196,4.196,0,
4.204,4.22,0.08,
4.196,4.196,0,
4.196,4.204,0.08,
4.212,4.22,0,
4.212,4.22,0.08,
4.196,4.196,0,
4.196,4.22,0.08,
4.22,4.196,0,
4.196,4.22,0.08,
4.22,4.196,0,
4.196,4.22,0.08,
4.22,4.196,0,
4.204,4.196,0.08,
4.196,4.22,0,
4.196,4.22,0.08,
4.22,4.204,0,
4.196,4.204,0.08,
4.22,4.22,0,
4.212,4.22,0.08,
4.196,4.196,0,
4.196,4.204,0.08,
4.212,4.22,0.04,
4.196,4.22,0.08,
4.212,4.196,0,
4.212,4.22,0.08,
4.196,4.196,0,
4.204,4.22,0,
4.196,4.196,0.08,
4.196,4.196,0.08,
4.22,4.22,0,
4.204,4.204,0,
4.196,4.22,0.08,
4.196,4.22,0.08,
4.22,4.196,0,
4.204,4.22,0.08,
4.196,4.196,0,
4.196,4.22,0.08,
4.212,4.204,0,
4.196,4.22,0.08,
4.22,4.196,0,
4.196,4.22,0.08,
4.212,4.196,0,
4.196,4.22,0.08,
4.212,4.196,0,
4.204,4.22,0.08,
4.196,4.196,0,
4.196,4.22,0.08,
4.212,4.196,0,
4.204,4.22,0,
4.196,4.196,0.08,
4.212,4.204,0.08,
4.196,4.22,0,
4.196,4.22,0.08,
4.22,4.196,0,
4.204,4.22,0.08,
4.196,4.196,0,
4.196,4.22,0.08,
4.22,4.196,0,
4.204,4.22,0.08,
4.196,4.196,0,
4.212,4.22,0.08,
4.196,4.204,0,
4.196,4.22,0.08,
4.212,4.196,0,
4.196,4.22,0.08,
4.22,4.196,0,
4.204,4.22,0.08,
4.196,4.196,0,
4.196,4.22,0.08,
4.204,4.196,0,
4.204,4.22,0.08,
4.196,4.204,0,
4.22,4.22,0.08,
4.196,4.196,0,
4.196,4.22,0.08,
4.212,4.196,0,
4.204,4.22,0.08,
4.196,4.196,0,
4.204,4.22,0.08,
4.196,4.196,0,
4.196,4.22,0.08,
4.212,4.196,0,
4.196,4.22,0.08,
4.212,4.196,0,
4.196,4.204,0.08,
4.22,4.22,0,
4.196,4.196,0.08,
4.22,4.22,0,
4.196,4.22,0.08,
4.22,4.204,0,
4.204,4.196,0.08,
4.196,4.22,0,
4.204,4.22,0.08,
4.196,4.196,0,
4.196,4.22,0.08,
4.22,4.204,0,
4.204,4.22,0.08,
4.196,4.204,0,
4.196,4.22,0.08,
4.22,4.204,0,
4.204,4.196,0.08,
4.196,4.22,0,
4.204,4.22,0.08,
4.196,4.196,0,
4.204,4.22,0.08,
4.196,4.204,0,
4.204,4.22,0.08,
4.196,4.196,0,
4.204,4.22,0.08,
4.196,4.196,0,
4.204,4.22,0.08,
4.196,4.196,0,
4.204,4.22,0.08,
4.196,4.196,0,
4.204,4.22,0,
4.196,4.196,0.08,
4.196,4.22,0.08,
4.212,4.196,0,
4.196,4.22,0.08,
4.22,4.196,0,
4.196,4.22,0.08,
4.22,4.196,0,
4.196,4.22,0.08,
4.204,4.204,0,
4.204,4.22,0.08,
4.196,4.196,0,
4.196,4.22,0.08,
4.204,4.196,0,
4.196,4.22,0.08,
4.212,4.196,0,
4.204,4.22,0.08,
4.196,4.196,0,
4.196,4.204,0.08,
4.22,4.22,0,
4.196,4.22,0.08,
4.22,4.196,0,
4.196,4.22,0.08,
4.22,4.196,0,
4.204,4.22,0.08,
4.196,4.196,0,
4.196,4.22,0.08,
4.212,4.196,0,
4.196,4.22,0.08,
4.22,4.196,0,
4.196,4.22,0.08,
4.22,4.196,0,
4.196,4.22,0.08,
4.212,4.196,0,
4.196,4.22,0.08,
4.22,4.196,0,
4.196,4.22,0.08,
4.22,4.196,0,
4.204,4.22,0.08,
4.196,4.196,0,
4.212,4.22,0.08,
4.196,4.196,0,
4.196,4.22,0.08,
4.22,4.196,0,
4.196,4.22,0.08,
4.22,4.196,0,
4.196,4.204,0.08,
4.22,4.22,0,
4.196,4.22,0.08,
4.212,4.196,0,
4.212,4.22,0.08,
4.196,4.196,0,
4.196,4.22,0.08,
4.212,4.196,0,
4.204,4.22,0.08,
4.196,4.196,0,
4.196,4.22,0.08,
4.22,4.196,0,
4.196,4.204,0.08,
4.22,4.22,0,
4.196,4.22,0,
4.212,4.196,0.08,
4.204,4.22,0.08,
4.196,4.196,0,
4.196,4.22,0.08,
4.22,4.196,0,
4.196,4.22,0.08,
4.212,4.196,0,
4.196,4.204,0.08,
4.22,4.22,0,
4.196,4.22,0.08,
4.212,4.196,0,
4.204,4.22,0.08,
4.196,4.204,0,
4.196,4.22,0.08,
4.212,4.196,0,
4.196,4.22,0.08,
4.22,4.196,0,
4.204,4.22,0.08,
4.196,4.196,0,
4.196,4.22,0.08,
4.22,4.196,0,
4.212,4.22,0.08,
4.196,4.196,0,
4.196,4.22,0.08,
4.22,4.196,0,
4.204,4.22,0.08,
4.196,4.196,0,
4.196,4.22,0.08,
4.22,4.196,0,
4.204,4.22,0.08,
4.196,4.196,0,
4.196,4.22,0.08,
4.22,4.196,0,
4.196,4.22,0.08,
4.212,4.196,0,
4.22,4.22,0.08,
4.196,4.196,0,
4.196,4.22,0.08,
4.22,4.196,0,
4.196,4.22,0.08,
4.212,4.204,0,
4.204,4.196,0.08,
4.196,4.22,0,
4.204,4.22,0.08,
4.196,4.204,0,
4.196,4.22,0.08,
4.22,4.204,0,
4.22,4.22,0.08,
4.196,4.196,0,
4.204,4.22,0.08,
4.196,4.196,0,
4.196,4.22,0.08,
4.22,4.196,0,
4.22,4.22,0.08,
4.196,4.196,0,
4.196,4.22,0.08,
4.212,4.196,0,
4.204,4.22,0.08,
4.196,4.196,0,
4.196,4.204,0.08,
4.22,4.22,0,
4.204,4.196,0.08,
4.196,4.22,0,
4.196,4.204,0,
4.22,4.22,0.08,
4.196,4.22,0.08,
4.212,4.196,0,
4.204,4.22,0.08,
4.196,4.196,0,
4.22,4.22,0.08,
4.196,4.196,0,
4.196,4.22,0.08,
4.22,4.196,0,
4.204,4.22,0.08,
4.196,4.204,0,
4.212,4.22,0.08,
4.196,4.196,0,
4.196,4.22,0.08,
4.212,4.196,0,
4.204,4.22,0.08,
4.196,4.196,0,
4.204,4.22,0.08,
4.196,4.196,0,
4.212,4.22,0.08,
4.196,4.196,0,
4.204,4.22,0.08,
4.196,4.196,0,
4.196,4.196,0.08,
4.22,4.22,0,
4.204,4.22,0,
4.196,4.204,0.08,
4.204,4.22,0.08,
4.196,4.204,0.04,
4.22,4.22,0.08,
4.196,4.196,0,
4.204,4.22,0.08,
4.196,4.196,0,
4.196,4.22,0.08,
4.22,4.196,0,
4.196,4.204,0.08,
4.22,4.22,0,
4.196,4.22,0.08,
4.22,4.196,0,
4.204,4.22,0.08,
4.196,4.196,0,
4.196,4.22,0.08,
4.22,4.196,0,
4.204,4.22,0,
4.196,4.196,0.08,
4.196,4.22,0,
4.204,4.196,0.08,
4.196,4.22,0.08,
4.22,4.196,0,
4.204,4.22,0.08,
4.196,4.196,0,
4.196,4.22,0.08,
4.212,4.196,0,
4.196,4.22,0.08,
4.22,4.196,0,
4.196,4.22,0.08,
4.22,4.204,0,
4.212,4.22,0.08,
4.196,4.196,0,
4.196,4.22,0.08,
4.212,4.196,0,
4.196,4.22,0,
4.204,4.196,0.08,
4.196,4.204,0.08,
4.22,4.22,0,
4.196,4.22,0.08,
4.204,4.196,0,
4.204,4.22,0.08,
4.196,4.204,0,
4.196,4.22,0.08,
4.22,4.196,0,
4.204,4.22,0.08,
4.196,4.196,0,
4.204,4.22,0.08,
4.196,4.196,0,
4.196,4.204,0.08,
4.22,4.22,0.04,
4.204,4.196,0,
4.196,4.22,0.08,
4.204,4.22,0.08,
4.196,4.196,0,
4.196,4.22,0.08,
4.212,4.196,0,
4.204,4.22,0.08,
4.196,4.196,0,
4.204,4.22,0.08,
4.196,4.196,0,
4.196,4.22,0.08,
4.22,4.196,0,
4.196,4.22,0.08,
4.22,4.196,0,
4.204,4.22,0.04,
4.196,4.196,0.08,
4.196,4.22,0.08,
4.22,4.196,0.04,
4.196,4.22,0.08,
4.204,4.196,0,
4.204,4.22,0,
4.196,4.196,3.36,
4.196,4.22,3.32,
4.212,4.196,3.4,
4.204,4.212,3.36,
4.196,4.156,3.44,
4.204,4.204,3.44,
4.124,4.18,3.32,
4.148,4.188,3.32,
4.132,4.204,3.44,
4.132,4.188,3.4,
4.164,4.204,3.32,
4.14,4.204,3.36,
4.164,4.18,3.4,
4.172,4.18,3.44,
4.124,4.252,3.32,
4.124,4.228,3.36,
4.236,4.172,3.44,
4.22,4.204,3.36,
4.124,4.18,3.44,
4.132,4.188,3.36,
4.148,4.204,3.32,
4.132,4.188,3.4,
4.164,4.244,3.32,
4.14,4.22,3.36,
4.236,4.164,3.32,
4.204,4.188,3.4,
4.108,4.204,3.32,
4.148,4.188,3.32,
4.132,4.204,3.44,
4.132,4.188,3.36,
4.164,4.204,3.4,
4.14,4.204,3.32,
4.164,4.18,3.44,
4.172,4.18,3.32,
4.124,4.204,3.44,
4.124,4.18,3.36,
4.172,4.204,3.4,
4.172,4.196,3.36,
4.124,4.18,3.4,
4.124,4.196,3.44,
4.14,4.18,3.32,
4.14,4.196,3.4,
4.124,4.18,3.32,
4.14,4.196,3.44,
4.124,4.18,3.32,
4.14,4.196,3.36,
4.124,4.18,3.4,
4.14,4.196,3.44,
4.124,4.18,3.32,
4.14,4.196,3.36,
4.124,4.18,3.44,
4.14,4.196,3.36,
4.124,4.18,3.4,
4.14,4.18,3.44,
4.124,4.196,3.32,
4.14,4.196,3.32,
4.124,4.18,3.44,
4.124,4.196,3.36,
4.14,4.18,3.4,
4.14,4.196,3.36,
4.124,4.18,3.44,
4.14,4.18,3.32,
4.124,4.196,3.44,
4.124,4.196,3.36,
4.14,4.18,3.4,
4.14,4.204,3.36,
4.124,4.18,3.4,
4.14,4.196,3.32,
4.124,4.18,3.4,
4.14,4.196,3.32,
4.124,4.18,3.44,
4.14,4.196,3.36,
4.124,4.18,3.44,
4.14,4.14,3.4,
4.124,4.204,3.32,
4.052,4.18,3.44,
4.148,4.196,3.32,
4.14,4.196,3.4,
4.124,4.18,3.32,
4.14,4.196,3.36,
4.124,4.18,3.44,
4.14,4.18,3.32,
4.124,4.196,3.44,
4.14,4.196,3.36,
4.124,4.18,3.44,
4.14,4.196,3.36,
4.124,4.18,3.44,
4.124,4.148,3.4,
4.14,4.228,3.32,
4.044,4.196,3.44,
4.18,4.18,3.32,
4.14,4.18,3.36,
4.124,4.196,3.4,
4.14,4.196,3.44,
4.124,4.18,3.32,
4.14,4.164,3.44,
4.124,4.22,3.32,
4.108,4.204,3.36,
4.172,4.18,3.4,
4.164,4.132,3.36,
4.124,4.196,3.44,
4.028,4.172,3.4,
4.14,4.196,3.32,
4.1,4.156,3.44,
4.124,4.22,3.32,
4.044,4.156,3.36,
4.164,4.204,3.4,
4.14,4.164,3.36,
4.052,4.196,3.32,
4.076,4.196,3.36,
4.124,4.148,3.44,
4.132,4.196,3.32,
4.036,4.156,3.44,
4.116,4.156,3.36,
4.028,4.196,3.44,
4.044,4.164,3.44,
4.116,4.196,3.32,
4.076,4.196,3.32,
4.116,4.156,3.44,
4.116,4.132,3.36,
4.052,4.196,3.44,
4.116,4.196,3.4,
4.02,4.132,3.32,
4.116,4.148,3.32,
4.012,4.22,3.4,
4.02,4.18,3.44,
4.148,4.204,3.32,
4.108,4.204,3.36,
4.148,4.124,3.44,
4.148,4.188,3.44,
4.02,4.148,3.32,
4.116,4.156,3.4,
4.036,4.204,0.04,
4.036,4.156,0.08,
4.14,4.212,0,
4.148,4.156,0.08,
4.052,4.212,0,
4.148,4.156,0.08,
4.036,4.236,0,
4.028,4.132,0.08,
4.196,4.204,0.04,
4.148,4.156,0.08,
4.02,4.212,0,
4.06,4.252,0,
4.148,4.148,3.44,
4.068,4.22,3.36,
4.204,4.172,3.44,
4.18,4.204,3.36,
4.108,4.188,3.44,
4.156,4.204,3.4,
4.132,4.18,3.32,
4.148,4.188,3.32,
4.132,4.204,3.44,
4.148,4.204,3.36,
4.132,4.188,3.44,
4.148,4.204,3.44,
4.132,4.18,3.32,
4.132,4.204,3.32,
4.172,4.18,3.44,
4.164,4.164,3.36,
4.124,4.22,3.32,
4.108,4.22,3.36,
4.18,4.18,3.44,
4.188,4.22,3.4,
4.124,4.18,3.32,
4.188,4.204,3.36,
4.124,4.164,3.4,
4.172,4.188,3.36,
4.1,4.204,3.44,
4.148,4.18,3.32,
4.132,4.204,3.44,
4.132,4.188,3.44,
4.148,4.204,3.32,
4.132,4.204,3.36,
4.148,4.18,3.4,
4.148,4.204,3.36,
4.124,4.172,3.44,
4.172,4.204,3.32,
4.1,4.18,3.44,
4.164,4.204,3.36,
4.132,4.18,3.4,
4.148,4.22,3.36,
4.108,4.164,3.44,
4.196,4.18,3.36,
4.124,4.22,3.32,
4.132,4.18,3.4,
4.188,4.22,3.32,
4.188,4.22,3.36,
4.124,4.172,3.4,
4.188,4.18,3.44,
4.108,4.204,3.32,
4.132,4.188,3.32,
4.148,4.204,3.4,
4.132,4.204,3.36,
4.148,4.18,3.44,
4.148,4.204,3.36,
4.132,4.18,3.44,
4.148,4.204,3.32,
4.132,4.188,3.44,
4.148,4.204,3.36,
4.132,4.18,3.44,
4.148,4.204,3.36,
4.132,4.18,3.44,
4.148,4.188,3.44,
4.132,4.204,3.32,
4.148,4.18,3.36,
4.132,4.204,3.4,
4.148,4.204,3.36,
4.132,4.18,3.44,
4.132,4.18,3.44,
4.148,4.204,3.32,
4.132,4.18,3.32,
4.148,4.204,3.4,
4.148,4.204,3.36,
4.124,4.18,3.44,
4.148,4.204,3.36,
4.132,4.18,3.32,
4.132,4.204,3.44,
4.148,4.18,3.32,
4.148,4.204,3.32,
4.132,4.148,3.4,
4.052,4.204,3.32,
4.156,4.18,3.44,
4.164,4.188,3.44,
4.132,4.204,3.32,
4.148,4.204,3.44,
4.132,4.18,3.32,
4.148,4.204,3.36,
4.124,4.18,3.44,
4.148,4.18,3.32,
4.132,4.204,3.4,
4.148,4.188,3.32,
4.132,4.204,3.44,
4.148,4.204,3.32,
4.132,4.18,3.4,
4.148,4.188,3.44,
4.132,4.204,3.36,
4.148,4.18,3.44,
4.132,4.22,3.32,
4.132,4.212,3.44,
4.196,4.108,3.32,
4.18,4.196,3.44,
3.988,4.18,3.32,
4.14,4.18,3.36,
4.108,4.196,3.4,
4.108,4.196,3.32,
4.14,4.18,3.44,
4.14,4.196,3.36,
4.108,4.18,3.4,
4.14,4.212,3.44,
4.108,3.812,3.36,
4.172,3.82,3.44,
3.324,4.372,3.32,
3.292,3.932,3.36,
4.316,4.364,3.44,
3.42,3.828,3.44,
4.316,4.236,3.36,
3.364,4.38,3.44,
4.196,3.908,3.32,
4.332,4.26,3.44,
3.468,3.828,3.32,
4.204,3.86,3.32,
3.396,4.308,3.4,
3.42,4.22,3.36,
4.252,4.18,3.44,
4.156,4.18,3.32,
4.124,4.204,3.44,
4.148,4.18,3.32,
4.124,4.204,3.4,
4.148,4.18,3.36,
4.124,4.204,3.44,
4.148,4.204,3.44,
4.124,4.18,3.32,
4.148,4.18,3.44,
4.124,4.204,3.32,
4.148,4.196,3.36,
4.124,4.18,3.44,
4.148,4.22,3.44,
4.132,3.852,3.36,
4.188,4.012,3.44,
3.404,4.036,3.36,
3.572,4.02,3.36,
3.604,4.388,3.44,
3.596,4.18,3.32,
4.348,4.22,3.44,
4.124,3.844,3.4,
4.188,4.372,3.32,
3.404,4.316,3.4,
4.324,4.18,3.32,
4.276,3.836,3.36,
4.132,4.3,3.4,
3.388,4.22,3.36,
4.236,3.852,3.44,
4.188,3.844,3.32,
3.404,4.308,3.44,
3.404,3.844,3.36,
4.252,4.324,3.44,
3.38,4.228,3.36,
4.276,3.852,3.44,
4.196,3.852,3.44,
3.42,4.308,3.32,
3.404,3.836,3.36,
4.252,4.348,3.44,
3.396,3.836,3.44,
4.292,4.308,3.36,
3.388,3.852,3.44,
4.26,4.236,3.32,
4.196,3.828,3.32,
3.412,4.228,3.4,
3.396,3.852,3.36,
4.196,4.236,3.44,
3.42,3.836,3.36,
4.196,4.236,3.44,
3.396,3.836,3.44,
4.196,4.252,3.32,
3.364,4.308,3.32,
4.22,3.844,3.4,
4.252,4.236,3.4,
3.404,4.18,3.36,
4.18,4.196,3.4,
4.124,4.156,3.32,
4.148,4.204,3.36,
4.076,4.18,3.44,
4.148,4.164,3.36,
4.124,4.204,3.32,
4.1,4.196,3.36,
4.148,4.18,3.44,
4.14,4.204,3.36,
4.124,4.164,0,
4.148,4.196,0.08,
4.1,4.18,0,
4.148,4.164,0,
4.124,4.204,3.4,
4.1,4.196,3.44,
4.148,4.18,3.32,
4.148,4.196,3.36,
4.116,4.18,3.4,
4.14,4.164,3.36,
4.108,4.204,3.44,
4.092,4.196,3.4,
4.148,4.18,3.32,
4.124,4.18,3.32,
4.148,4.204,3.4,
4.14,4.196,3.36,
4.124,4.18,3.4,
4.124,4.204,3.36,
4.148,4.18,3.4,
4.14,4.196,3.4,
4.124,4.18,3.32,
4.148,4.18,3.36,
4.124,4.204,3.36,
4.124,4.204,3.4,
4.148,4.18,3.32,
4.132,4.18,3.4,
4.148,4.204,3.32,
4.148,4.196,3.32,
4.124,4.18,3.44,
4.124,4.204,3.4,
4.148,4.14,3.32,
4.148,4.204,3.44,
4.052,4.148,3.32,
4.148,4.204,3.32,
4.052,4.18,3.44,
4.148,4.18,3.36,
4.124,4.204,3.4,
4.124,4.196,3.44,
4.148,4.18,3.32,
4.124,4.156,3.4,
4.148,4.204,3.32,
4.092,4.132,3.44,
4.148,4.204,3.32,
4.044,4.196,3.36,
4.148,4.172,3.4,
4.14,4.196,3.36,
4.1,4.18,3.32,
4.14,4.204,3.32,
4.124,4.172,3.44,
4.14,4.196,3.36,
4.108,4.18,3.44,
4.148,4.22,3.44,
4.124,3.844,3.36,
4.18,3.996,3.44,
3.404,4.036,3.32,
3.556,4.02,3.4,
3.604,4.38,0.04,
3.58,4.22,0.04,
4.34,4.164,0.12,
4.18,4.212,0.12,
4.124,3.844,0.04,
4.18,4.012,0.04,
3.404,4.372,0.12,
3.572,3.828,0.08,
4.316,4.388,0,
3.38,4.3,0.04,
4.324,4.18,0.12,
4.252,3.844,0.04,
4.124,4.292,0.08,
3.404,4.252,0,
4.252,3.844,0.12,
4.204,4.228,0.04,
3.412,3.828,0.16,
4.196,3.844,0.04,
3.396,4.308,3.44,
3.364,3.844,3.36,
4.252,4.3,3.44,
3.396,3.844,3.36,
4.244,4.236,3.44,
4.196,3.828,3.4,
3.396,4.308,3.32,
3.404,4.204,3.32,
4.252,4.188,3.4,
4.148,4.156,3.36,
4.124,4.204,3.4,
4.084,4.204,3.36,
4.148,4.164,3.4,
4.092,4.196,3.32,
4.172,4.18,3.44,
4.14,4.204,3.4,
4.108,4.156,3.32,
4.092,4.204,3.32,
4.156,4.172,3.4,
4.148,4.204,3.32,
4.108,4.18,3.4,
4.148,4.196,3.32,
4.124,4.18,3.4,
4.148,4.204,3.36,
4.124,4.164,3.44,
4.148,4.204,3.36,
4.108,4.156,3.44,
4.148,4.18,3.32,
4.092,4.204,3.44,
4.148,4.18,3.36,
4.124,4.204,3.4,
4.148,4.204,3.36,
4.132,4.18,3.44,
4.148,4.18,3.4,
4.132,4.204,3.32,
4.148,4.204,3.32,
4.132,4.132,3.4,
4.148,4.204,3.36,
4.028,4.18,3.44,
4.148,4.204,3.44,
4.132,4.18,3.32,
4.148,4.204,3.32,
4.124,4.18,3.4,
4.148,4.18,3.36,
4.132,4.204,3.44,
4.132,4.18,3.36,
4.148,4.204,3.4,
4.132,4.18,3.4,
4.148,4.22,3.32,
4.116,4.18,3.32,
4.188,4.22,3.44,
4.124,4.18,3.44,
4.188,4.22,3.32,
4.188,4.22,3.44,
4.124,4.18,3.32,
4.18,4.172,3.32,
4.124,4.22,3.44,
4.092,4.18,3.36,
4.188,4.22,3.44,
4.188,4.18,3.36,
4.124,4.22,3.44,
4.188,4.18,3.32,
4.124,4.22,3.44,
4.124,4.18,3.32,
4.188,4.22,3.44,
4.124,4.18,3.36,
4.188,4.22,3.44,
4.124,4.18,3.44,
4.188,4.22,3.32,
4.188,4.18,3.36,
4.124,4.22,3.4,
4.188,4.18,3.4,
4.124,4.22,3.36,
4.124,4.18,3.36,
4.188,4.22,3.36,
4.188,4.18,3.4,
4.124,4.22,0.04,
4.196,4.18,0.08,
4.124,4.22,0,
4.124,4.22,0.08,
4.188,4.18,0,
4.124,4.18,0.08,
4.188,4.22,0.04,
4.124,4.22,0.08,
4.196,4.116,0.04,
4.18,4.196,0.08,
4.004,4.18,0,
4.108,4.196,0.08,
4.132,4.18,0.04,
4.132,4.18,0.08,
4.108,4.196,0,
4.108,4.196,0.04,
4.132,4.18,0.16,
4.132,4.228,0.16,
4.108,3.796,0.04,
4.172,3.98,0.12,
3.284,4.004,0,
3.46,3.988,0.04,
3.476,4.396,0.16,
3.46,4.22,0.16,
4.34,3.796,0,
4.188,3.956,0.08,
3.26,4.388,0,
3.428,4.18,0.04,
4.332,4.22,0.12,
4.124,4.204,0.04,
4.188,3.82,0.12,
4.172,4.236,0.12,
3.34,3.796,0,
4.196,3.948,0.08,
3.316,4.372,0,
3.46,4.228,0.08,
4.316,4.18,0.04,
4.18,4.18,0.08,
4.116,4.22,0.04,
4.124,4.212,0.08,
4.18,4.172,0,
4.18,3.828,0.16,
4.108,4.228,0.04,
4.18,3.908,0.08,
3.372,4.292,0.04,
3.46,4.22,0.08,
4.236,4.172,0.04,
4.18,4.18,0.04,
4.108,4.196,0.08,
4.124,4.18,0.08,
4.14,4.22,0,
4.124,4.212,0.08,
4.188,4.18,0,
4.172,4.196,0.08,
4.108,4.18,0,
4.14,4.212,0.08,
4.124,4.18,0.04,
4.18,4.18,0.08,
4.124,4.196,0.04,
4.124,4.18,0.08,
4.14,4.22,0.04,
4.124,4.204,0.08,
4.18,4.164,0,
4.172,4.196,0.08,
4.108,4.18,0,
4.14,4.18,0.08,
4.124,4.22,0.04,
4.124,4.204,0.08,
4.18,4.164,0,
4.172,4.196,0.08,
4.116,4.18,0,
4.14,4.18,0.08,
4.124,4.196,0.04,
4.14,4.196,0.08,
4.124,4.18,0,
4.14,4.18,0.08,
4.124,4.204,0,
4.14,4.196,0.08,
4.124,4.18,0.04,
4.14,4.196,0.08,
4.124,4.18,0,
4.14,4.196,0.08,
4.124,4.18,0.04,
4.14,4.196,0.08,
4.124,4.18,0.04,
4.124,4.196,0.08,
4.148,4.18,0.04,
4.14,4.18,0.08,
4.124,4.204,0.04,
4.124,4.196,0.08,
4.156,4.18,0.04,
4.14,4.212,0.08,
4.124,4.164,0.04,
4.188,4.18,0.08,
4.108,4.204,0,
4.124,4.18,0.08,
4.14,4.212,0.04,
4.124,4.22,0.08,
4.18,4.172,0,
4.188,4.18,0.08,
4.124,4.196,0.04,
4.14,4.18,0.08,
4.124,4.22,0.04,
4.124,4.18,0.08,
4.188,4.196,0,
4.124,4.196,0.08,
4.14,4.18,0,
4.14,4.22,0.08,
4.124,4.172,0,
4.188,4.18,0.08,
4.108,4.204,0,
4.14,4.18,0.04,
4.124,4.22,0.08,
4.124,4.204,0.08,
4.188,4.172,0.04,
4.172,4.196,0.08,
4.108,4.18,0,
4.14,4.212,0,
4.124,4.172,0.08,
4.18,4.196,0.04,
4.116,4.18,0.08,
4.14,4.18,0.08,
4.124,4.22,0,
4.124,4.204,0.08,
4.18,4.164,0,
4.172,4.196,0.08,
4.116,4.18,0,
4.14,4.18,0.08,
4.124,4.22,0.04,
4.18,4.18,0.08,
4.108,4.196,0,
4.14,4.18,0.08,
4.124,4.22,0,
4.124,4.204,0.08,
4.18,4.18,0.04,
4.172,4.196,0.08,
4.108,4.18,0,
4.14,4.212,0.08,
4.124,4.164,0,
4.18,4.18,0.08,
4.108,4.196,0.04,
4.124,4.18,0.08,
4.14,4.212,0,
4.124,4.212,0.08,
4.18,4.18,0,
4.172,4.196,0.08,
4.108,4.18,0.04,
4.14,4.18,0.08,
4.124,4.22,0,
4.124,4.204,0.08,
4.18,4.156,0.04,
4.164,4.18,0.08,
4.084,4.212,0,
4.124,4.22,0.08,
4.18,4.18,0.04,
4.188,4.18,0.08,
4.124,4.196,0,
4.14,4.18,0.08,
4.124,4.22,0,
4.124,4.204,0.08,
4.18,4.172,0.04,
4.172,4.196,0.08,
4.116,4.18,0.04,
4.124,4.22,0.08,
4.14,4.18,0,
4.188,4.196,0.08,
4.108,4.18,0,
4.124,4.18,0,
4.14,4.22,0.08,
4.124,4.204,0.08,
4.18,4.164,0,
4.172,4.196,0.08,
4.108,4.18,0,
4.14,4.18,0.08,
4.124,4.204,0,
4.124,4.204,0.08,
4.148,4.18,0,
4.148,4.204,0.08,
4.132,4.18,0,
4.148,4.18,0.08,
4.124,4.196,0.04,
4.14,4.18,0.08,
4.124,4.204,0.04,
4.14,4.18,0.08,
4.116,4.204,0,
4.14,4.204,0.08,
4.124,4.18,0,
4.14,4.196,0.08,
4.124,4.18,0,
4.14,4.18,0.08,
4.124,4.212,0,
4.124,4.18,0.08,
4.188,4.196,0.04,
4.124,4.18,0.08,
4.14,4.22,0,
4.124,4.204,0.08,
4.18,4.164,0,
4.172,4.18,0.08,
4.124,4.196,0,
4.14,4.212,0.08,
4.124,4.164,0,
4.18,4.196,0.08,
4.124,4.18,0,
4.14,4.18,0.04,
4.124,4.22,0.08,
4.124,4.204,0.08,
4.18,4.18,0,
4.172,4.196,0.08,
4.116,4.18,0,
4.14,4.22,0.08,
4.124,4.164,0.04,
4.18,4.18,0.08,
4.116,4.204,0,
4.124,4.18,0.08,
4.14,4.22,0,
4.124,4.204,0.08,
4.18,4.18,0,
4.18,4.204,0.08,
4.124,4.18,0.04,
4.124,4.18,0.04,
4.148,4.22,0.08,
4.124,4.18,0.08,
4.18,4.204,0,
4.124,4.18,0.08,
4.14,4.22,0.04,
4.124,4.204,0.08,
4.188,4.18,0.04,
4.172,4.196,0.08,
4.124,4.18,0,
4.14,4.172,0.08,
4.124,4.22,0,
4.1,4.18,0.08,
4.18,4.196,0.04,
4.124,4.18,0.08,
4.14,4.22,0,
4.124,4.22,0.08,
4.18,4.172,0,
4.188,4.196,0.08,
4.116,4.18,0,
4.14,4.18,0.08,
4.124,4.212,0,
4.124,4.204,0.08,
4.18,4.164,0,
4.172,4.18,0.08,
4.108,4.204,0.04,
4.14,4.22,0.04,
4.124,4.18,0.08,
4.124,4.22,0,
4.18,4.164,0.12,
4.18,3.82,0,
4.116,4.228,0.12,
3.388,4.22,0.12,
4.188,3.828,0.04,
4.188,3.924,0,
3.372,4.3,0.08,
3.476,4.22,0.08,
4.244,4.18,0,
4.188,4.196,0.08,
4.124,4.18,0,
4.124,4.18,0.08,
4.148,4.212,0,
4.124,4.204,0.08,
4.18,4.18,0,
4.172,4.196,0.08,
4.108,4.18,0,
4.14,4.18,0.08,
4.124,4.22,0,
4.18,4.18,0.08,
4.116,4.196,0,
4.124,4.18,0.08,
4.14,4.22,0,
4.124,4.22,0.08,
4.188,4.172,0.04,
4.172,4.196,0.08,
4.124,4.18,0,
4.14,4.18,0.08,
4.124,4.204,0,
4.14,4.196,0.08,
4.124,4.18,0,
4.14,4.18,0.08,
4.124,4.204,0,
4.14,4.172,0.08,
4.124,4.204,0.04,
4.092,4.148,0.08,
4.148,4.22,0,
4.068,4.156,0.08,
4.172,4.204,0.04,
4.092,4.204,0.04,
4.156,4.18,0.08,
4.148,4.18,0.08,
4.108,4.22,0,
4.188,4.22,0.08,
4.124,4.18,0,
4.188,4.18,0.08,
4.124,4.22,0,
4.124,4.22,0.08,
4.188,4.18,0.04,
4.132,4.18,0.08,
4.196,4.22,0,
4.188,4.124,0.08,
4.124,4.228,0,
4.036,4.188,0.08,
4.204,4.22,0,
4.164,4.204,0.08,
4.188,4.188,0,
4.164,4.204,0.08,
4.188,4.188,0.04,
4.164,4.204,0.08,
4.188,4.188,0,
4.188,4.204,0.08,
4.164,4.188,0,
4.164,4.204,0.08,
4.188,4.188,0,
4.164,4.22,0.08,
4.188,4.188,0,
4.164,4.204,0.08,
4.188,4.188,0,
4.164,4.204,0.04,
4.188,4.188,0.08,
4.164,4.188,0.08,
4.188,4.212,0,
4.164,4.204,0.08,
4.188,4.188,0,
4.188,4.212,0.08,
4.164,4.188,0,
4.164,4.204,0.08,
4.188,4.188,0,
4.164,4.204,0.08,
4.188,4.188,0,
4.164,4.188,0.08,
4.188,4.22,0,
4.164,4.204,0.08,
4.188,4.188,0,
4.164,4.188,0.08,
4.188,4.212,0,
4.164,4.22,0.08,
4.188,4.196,0,
4.188,4.188,0.08,
4.164,4.22,0,
4.188,4.188,0.08,
4.164,4.22,0.04,
4.164,4.204,0.08,
4.188,4.188,0,
4.188,4.22,0.08,
4.148,4.188,0,
4.188,4.22,0.08,
4.164,4.188,0,
4.164,4.204,0,
4.188,4.188,0.08,
4.188,4.188,0,
4.164,4.212,0.08,
4.164,4.188,0.08,
4.188,4.22,0,
4.188,4.22,0.08,
4.164,4.188,0,
4.188,4.22,0.08,
4.164,4.188,0,
4.164,4.188,0.08,
4.188,4.22,0,
4.164,4.196,0.08,
4.188,4.22,0,
4.164,4.188,0.08,
4.188,4.212,0.04,
4.164,4.212,0.08,
4.188,4.188,0,
4.188,4.188,0.08,
4.164,4.212,0,
4.188,4.212,0.08,
4.164,4.188,0,
4.188,4.188,0.08,
4.164,4.22,0,
4.188,4.188,0.08,
4.164,4.22,0,
4.188,4.204,0.08,
4.164,4.188,0,
4.188,4.22,0.08,
4.164,4.188,0,
4.188,4.212,0.08,
4.164,4.188,0,
4.188,4.188,0.08,
4.164,4.22,0.04,
