Power Reception/Metingen 3/Meting met pin 2 -115 -130 87 -15.csv

CH1,CH2,CH3,Start,Increment,
Volt,Volt,Volt,-29.975,0.05
2.7,2.7,0.08,
2.7,2.7,0,
2.7,2.7,0.08,
2.7,2.7,0,
2.7,2.7,0.08,
2.7,2.7,0.04,
2.7,2.7,0.08,
2.7,2.7,0,
2.7,2.7,0.08,
2.7,2.7,0,
2.7,2.7,0.08,
2.7,2.7,0,
2.7,2.7,0.08,
2.7,2.7,0.04,
2.7,2.7,0.08,
2.7,2.7,0.04,
2.7,2.7,0.08,
2.7,2.7,0.04,
2.7,2.7,0.08,
2.7,2.7,0.04,
2.7,2.7,0.08,
2.7,2.7,0,
2.7,2.7,0.08,
2.7,2.7,0,
2.7,2.7,0.08,
2.7,2.7,0,
2.7,2.7,0.08,
2.7,2.7,0.04,
2.7,2.7,0.04,
2.7,2.7,0.08,
2.7,2.7,0.08,
2.7,2.7,0.04,
2.7,2.7,0.08,
2.7,2.7,0,
2.7,2.7,0.08,
2.7,2.7,0.04,
2.7,2.7,0.08,
2.7,2.7,0,
2.7,2.7,0.08,
2.7,2.7,0.04,
2.7,2.7,0.08,
2.7,2.7,0.04,
2.7,2.7,0.08,
2.7,2.7,0,
2.7,2.7,0.08,
2.7,2.7,0.04,
2.7,2.7,0.08,
2.7,2.7,0.04,
2.7,2.7,0.08,
2.7,2.7,0.04,
2.7,2.7,0.08,
2.7,2.7,0.04,
2.7,2.7,0.08,
2.7,2.7,0,
2.7,2.7,0.08,
2.7,2.7,0.04,
2.7,2.7,0.08,
2.7,2.7,0,
2.7,2.7,0.08,
2.7,2.7,0.04,
2.7,2.7,0.08,
2.7,2.7,0.04,
2.7,2.7,0.08,
2.7,2.7,0,
2.7,2.7,0.08,
2.7,2.7,0,
2.7,2.7,0.08,
2.7,2.7,0.04,
2.7,2.7,0.04,
2.7,2.7,0.08,
2.7,2.7,0.08,
2.7,2.7,0.04,
2.7,2.7,0.08,
2.7,2.7,0.04,
2.7,2.7,0.08,
2.7,2.7,0,
2.7,2.7,0.08,
2.7,2.7,0,
2.7,2.7,0.08,
2.7,2.7,0,
2.7,2.7,0.08,
2.7,2.7,0,
2.7,2.7,0.08,
2.7,2.7,0,
2.7,2.7,0.08,
2.7,2.7,0.04,
2.7,2.7,0.04,
2.7,2.7,0.08,
2.7,2.7,0.08,
2.7,2.7,0.04,
2.7,2.7,0.08,
2.7,2.7,0.04,
2.7,2.7,0.08,
2.7,2.7,0,
2.7,2.7,0.08,
2.7,2.7,0.04,
2.7,2.7,0.08,
2.7,2.7,0.04,
2.7,2.7,0,
2.7,2.7,0.2,
2.7,2.7,0.08,
2.7,2.7,0.04,
2.7,2.7,0.08,
2.7,2.7,0,
2.7,2.7,0.08,
2.7,2.7,0,
2.7,2.7,0.04,
2.7,2.7,0.08,
2.7,2.7,0.08,
2.7,2.7,0,
2.7,2.7,0.08,
2.7,2.7,0.04,
2.7,2.7,0.08,
2.7,2.7,0,
2.7,2.7,0.08,
2.7,2.7,0.04,
2.7,2.7,0.08,
2.7,2.7,0,
2.7,2.7,0.08,
2.7,2.7,0,
2.7,2.7,0.08,
2.7,2.7,0,
2.7,2.7,0.08,
2.7,2.7,0,
2.7,2.7,0.08,
2.7,2.7,0.04,
2.7,2.7,0.08,
2.7,2.7,0.04,
2.7,2.7,0.08,
2.7,2.7,0.04,
2.7,2.7,0.08,
2.7,2.7,0.04,
2.7,2.7,0.08,
2.7,2.7,0,
2.7,2.7,0.08,
2.7,2.7,0,
2.7,2.7,0.08,
2.7,2.7,0,
2.7,2.7,0.08,
2.7,2.7,0,
2.7,2.7,0.04,
2.7,2.7,0.08,
2.7,2.7,0.08,
2.7,2.7,0,
2.7,2.7,0.08,
2.7,2.7,0,
2.7,2.7,0.08,
2.7,4.108,0,
2.7,4.108,0.08,
4.092,4.204,0,
4.1,4.196,0.08,
4.204,4.22,0,
4.204,4.22,0.08,
4.188,4.196,0,
4.204,4.196,0.08,
4.188,4.22,0,
4.204,4.22,0,
4.188,4.196,0.08,
4.204,4.22,0.08,
4.188,4.196,0,
4.204,4.22,0.08,
4.196,4.196,0,
4.204,4.22,0,
4.196,4.204,0.08,
4.204,4.196,0.08,
4.196,4.22,0.04,
4.204,4.196,0.08,
4.196,4.22,0,
4.204,4.22,0.08,
4.196,4.196,0.04,
4.204,4.196,0.08,
4.196,4.22,0,
4.204,4.22,0.08,
4.196,4.196,0,
4.204,4.196,0.08,
4.196,4.22,0,
4.196,4.22,0.08,
4.204,4.196,0,
4.204,4.196,0.08,
4.196,4.22,0,
4.204,4.22,0.08,
4.196,4.196,0.04,
4.196,4.22,0.08,
4.212,4.196,0,
4.196,4.196,0.08,
4.204,4.22,0,
4.204,4.22,0.08,
4.196,4.196,0,
4.204,4.22,0.08,
4.196,4.196,0,
4.196,4.22,0.08,
4.22,4.196,0,
4.196,4.22,0.08,
4.22,4.196,0,
4.204,4.22,0.08,
4.196,4.196,0,
4.22,4.22,0.08,
4.196,4.196,0,
4.196,4.22,0.08,
4.22,4.204,0,
4.196,4.22,0.08,
4.22,4.196,0,
4.204,4.22,0.08,
4.196,4.204,0,
4.196,4.22,0.08,
4.22,4.196,0,
4.204,4.22,0.08,
4.196,4.196,0,
4.196,4.196,0.08,
4.212,4.22,0,
4.204,4.22,0.08,
4.196,4.196,0,
4.204,4.22,0.08,
4.196,4.196,0,
4.196,4.22,0.08,
4.22,4.196,0,
4.196,4.22,0.08,
4.204,4.196,0,
4.204,4.204,0.08,
4.196,4.22,0,
4.204,4.22,0.08,
4.196,4.196,0,
4.204,4.22,0.08,
4.196,4.196,0,
4.196,4.22,0.08,
4.22,4.196,0,
4.196,4.22,0.08,
4.212,4.204,0,
4.204,4.22,0.08,
4.196,4.196,0,
4.204,4.204,0.04,
4.196,4.22,0.08,
4.196,4.22,0.08,
4.212,4.196,0,
4.196,4.22,0,
4.204,4.196,3.36,
4.204,4.22,3.36,
4.196,4.196,3.4,
4.204,4.22,3.36,
4.196,4.172,3.4,
4.204,4.188,3.36,
4.124,4.204,3.32,
4.148,4.188,3.36,
4.132,4.204,3.44,
4.132,4.204,3.36,
4.164,4.188,3.4,
4.164,4.204,3.44,
4.14,4.18,3.32,
4.172,4.18,3.32,
4.124,4.252,3.44,
4.124,4.236,3.44,
4.228,4.164,3.32,
4.228,4.188,3.4,
4.124,4.204,3.32,
4.132,4.188,3.36,
4.148,4.204,3.4,
4.132,4.188,3.32,
4.164,4.244,3.44,
4.14,4.22,3.36,
4.228,4.156,3.4,
4.204,4.188,3.4,
4.124,4.204,3.32,
4.148,4.204,3.32,
4.132,4.188,3.44,
4.132,4.188,3.36,
4.164,4.204,3.4,
4.14,4.204,3.44,
4.164,4.18,3.32,
4.172,4.18,3.32,
4.124,4.22,3.4,
4.132,4.18,3.36,
4.172,4.212,3.4,
4.132,4.196,3.44,
4.172,4.18,3.32,
4.14,4.204,3.32,
4.124,4.18,3.44,
4.132,4.204,3.36,
4.148,4.18,3.4,
4.132,4.196,3.36,
4.148,4.188,3.44,
4.132,4.204,3.4,
4.14,4.18,3.32,
4.14,4.18,3.44,
4.124,4.204,3.32,
4.14,4.204,3.32,
4.124,4.18,3.44,
4.14,4.18,3.44,
4.132,4.204,3.32,
4.14,4.18,3.32,
4.124,4.204,3.44,
4.14,4.18,3.36,
4.124,4.204,3.44,
4.14,4.204,3.4,
4.124,4.18,3.36,
4.132,4.204,3.44,
4.14,4.18,3.32,
4.14,4.188,3.44,
4.124,4.204,3.32,
4.124,4.196,3.32,
4.14,4.18,3.44,
4.132,4.188,3.44,
4.14,4.204,3.32,
4.14,4.204,3.36,
4.124,4.18,3.4,
4.124,4.18,3.36,
4.148,4.204,3.44,
4.14,4.196,3.36,
4.132,4.18,3.44,
4.132,4.148,3.4,
4.148,4.204,3.32,
4.052,4.204,3.36,
4.148,4.188,3.44,
4.14,4.188,3.36,
4.124,4.204,3.44,
4.14,4.204,3.4,
4.124,4.18,3.32,
4.14,4.196,3.36,
4.132,4.18,3.4,
4.132,4.204,3.36,
4.14,4.18,3.4,
4.14,4.204,3.36,
4.124,4.18,3.44,
4.132,4.148,3.32,
4.148,4.228,3.44,
4.052,4.196,3.36,
4.172,4.18,3.44,
4.148,4.196,3.36,
4.124,4.18,3.44,
4.132,4.204,3.32,
4.14,4.18,3.44,
4.14,4.172,3.44,
4.124,4.204,3.32,
4.116,4.212,3.44,
4.164,4.18,3.32,
4.172,4.204,3.32,
4.124,4.132,3.44,
4.148,4.196,3.44,
4.036,4.18,3.32,
4.132,4.156,3.36,
4.1,4.212,3.44,
4.044,4.196,3.36,
4.156,4.156,3.44,
4.036,4.204,3.44,
4.132,4.164,3.32,
4.076,4.196,3.32,
4.14,4.156,3.44,
4.132,4.196,3.36,
4.044,4.156,3.44,
4.124,4.196,3.44,
4.044,4.156,3.32,
4.052,4.164,3.32,
4.132,4.196,3.44,
4.116,4.196,3.36,
4.076,4.156,3.44,
4.124,4.196,3.36,
4.052,4.148,3.44,
4.116,4.204,3.4,
4.012,4.148,3.32,
4.124,4.148,3.36,
4.02,4.22,3.44,
4.02,4.18,3.44,
4.148,4.204,3.32,
4.14,4.22,3.44,
4.108,4.124,3.32,
4.148,4.156,3.32,
4.012,4.196,3.44,
4.116,4.156,3.44,
4.044,4.204,0.04,
4.044,4.148,0.08,
4.14,4.204,0,
4.036,4.156,0.08,
4.148,4.22,0.04,
4.06,4.164,0.08,
4.148,4.228,0.04,
4.06,4.204,0.08,
4.18,4.132,0,
4.148,4.164,0.08,
4.028,4.212,0,
4.044,4.156,0,
4.156,4.236,3.36,
4.068,4.22,3.36,
4.204,4.172,3.44,
4.196,4.156,3.4,
4.108,4.204,3.32,
4.068,4.204,3.4,
4.164,4.18,3.32,
4.148,4.188,3.44,
4.132,4.204,3.32,
4.148,4.188,3.36,
4.132,4.204,3.44,
4.148,4.204,3.4,
4.132,4.18,3.32,
4.188,4.204,3.36,
4.124,4.18,3.44,
4.116,4.22,3.36,
4.172,4.18,3.36,
4.196,4.22,3.44,
4.124,4.18,3.32,
4.132,4.204,3.36,
4.188,4.164,3.44,
4.188,4.204,3.36,
4.1,4.18,3.44,
4.148,4.204,3.36,
4.132,4.18,3.32,
4.148,4.188,3.36,
4.132,4.204,3.32,
4.148,4.204,3.36,
4.132,4.18,3.44,
4.148,4.22,3.36,
4.132,4.164,3.44,
4.172,4.18,3.36,
4.092,4.228,3.32,
4.124,4.22,3.44,
4.196,4.196,3.32,
4.188,4.18,3.32,
4.164,4.22,3.4,
4.124,4.22,3.44,
4.196,4.172,3.32,
4.18,4.204,3.36,
4.1,4.164,3.32,
4.148,4.188,3.36,
4.108,4.204,3.44,
4.148,4.188,3.44,
4.124,4.204,3.32,
4.148,4.204,3.32,
4.132,4.188,3.4,
4.148,4.204,3.36,
4.132,4.188,3.44,
4.132,4.22,3.32,
4.164,4.172,3.4,
4.116,4.18,3.36,
4.18,4.22,3.4,
4.124,4.22,3.36,
4.188,4.18,3.4,
4.124,4.18,3.4,
4.188,4.22,3.32,
4.196,4.204,3.44,
4.116,4.172,3.32,
4.148,4.204,3.32,
4.116,4.188,3.44,
4.148,4.188,3.36,
4.132,4.204,3.44,
4.148,4.188,3.32,
4.124,4.204,3.4,
4.148,4.204,3.4,
4.132,4.18,3.32,
4.132,4.172,3.32,
4.172,4.212,3.44,
4.1,4.204,3.36,
4.18,4.18,3.44,
4.148,4.188,3.4,
4.116,4.22,3.32,
4.132,4.22,3.32,
4.196,4.18,3.4,
4.188,4.156,3.44,
4.132,4.228,3.32,
4.076,4.22,3.36,
4.196,4.172,3.44,
4.188,4.22,3.32,
4.108,4.18,3.4,
4.132,4.204,3.4,
4.188,4.18,3.36,
4.148,4.188,3.36,
4.132,4.204,3.4,
4.148,4.188,3.4,
4.132,4.204,3.32,
4.148,4.188,3.36,
4.132,4.204,3.44,
4.148,4.188,3.44,
4.132,4.204,3.32,
4.148,4.188,3.36,
4.132,4.204,3.4,
4.148,4.204,3.36,
4.132,4.188,3.44,
4.148,4.204,3.36,
4.132,4.188,3.44,
4.148,4.204,3.36,
4.132,4.18,3.36,
4.148,4.204,3.44,
4.132,4.18,3.32,
4.132,4.188,3.32,
4.148,4.204,3.4,
4.148,4.188,3.36,
4.132,4.204,3.44,
4.148,4.204,3.32,
4.132,4.188,3.4,
4.148,4.22,3.32,
4.132,4.18,3.44,
4.188,4.204,3.44,
4.124,4.124,3.32,
4.148,4.196,3.44,
4.02,4.18,3.36,
4.124,4.196,3.44,
4.14,4.18,3.32,
4.124,4.196,3.36,
4.14,4.18,3.44,
4.14,4.172,3.36,
4.1,4.196,3.44,
4.1,4.164,3.36,
4.14,4.204,3.44,
4.14,4.22,3.44,
4.1,3.82,3.36,
4.18,3.996,3.44,
3.292,4.396,3.32,
3.468,4.308,3.32,
4.34,4.188,3.44,
4.26,4.22,3.44,
4.132,3.804,3.36,
4.188,3.836,3.36,
3.284,4.38,3.44,
3.292,4.236,3.36,
4.324,4.18,3.44,
4.204,4.188,3.32,
4.132,4.22,3.44,
4.132,3.836,3.32,
4.196,4.236,3.44,
3.372,4.22,3.44,
4.204,3.836,3.36,
4.188,3.868,3.44,
3.356,4.388,3.32,
3.372,4.244,3.32,
4.332,4.18,3.4,
4.196,4.18,3.36,
4.124,4.22,3.36,
4.124,4.18,3.36,
4.188,4.22,3.4,
4.124,3.844,3.32,
4.188,4.228,3.44,
4.188,4.228,3.36,
3.404,4.18,3.44,
4.196,4.18,3.36,
4.124,4.22,3.44,
4.108,3.844,3.32,
4.18,4.236,3.44,
4.18,3.844,3.32,
3.396,4.26,3.4,
3.396,4.22,3.44,
4.204,4.18,3.32,
4.196,3.844,3.36,
4.124,4.308,3.36,
3.396,4.18,3.36,
4.26,4.22,3.32,
4.124,4.18,3.44,
4.188,4.22,3.32,
4.108,4.22,3.36,
4.18,4.164,3.4,
4.1,4.204,3.32,
4.188,4.18,3.44,
4.172,3.836,3.32,
4.124,4.26,3.4,
3.396,4.22,3.36,
4.22,4.188,3.44,
4.132,4.22,3.44,
4.188,3.844,3.36,
4.18,3.924,3.32,
3.372,4.308,3.4,
3.46,4.18,3.32,
4.244,4.22,3.44,
4.116,4.18,3.36,
4.18,4.22,3.4,
4.124,4.212,3.4,
4.18,4.188,3.32,
4.18,3.844,3.32,
4.156,4.228,3.44,
3.38,3.828,3.32,
4.188,4.26,3.4,
3.38,4.164,3.36,
4.22,4.228,3.44,
4.108,3.836,3.32,
4.196,4.348,3.4,
3.38,4.276,3.4,
4.292,4.188,3.32,
4.228,4.18,3.36,
4.132,4.22,3.44,
4.124,4.18,3.32,
4.188,4.22,3.4,
4.124,4.204,3.44,
4.188,4.188,3.32,
4.18,3.844,3.32,
4.156,4.236,3.4,
3.428,4.18,3.32,
4.196,4.22,3.44,
4.132,4.188,3.4,
4.196,4.22,3.32,
4.172,3.852,3.4,
4.156,4.236,3.32,
4.188,4.22,3.36,
3.42,4.18,3.32,
4.188,4.204,3.32,
4.132,4.188,3.44,
4.188,4.22,3.44,
4.156,4.164,3.36,
4.188,3.852,3.32,
4.044,4.236,3.44,
3.412,4.204,3.44,
4.18,4.18,3.32,
4.148,4.204,3.36,
4.132,4.18,3.44,
4.148,4.228,3.36,
4.132,4.18,3.44,
4.132,4.18,3.44,
4.18,4.22,3.32,
4.124,4.22,3.36,
4.188,4.188,3.4,
4.172,4.18,3.36,
4.156,4.22,3.44,
4.124,3.852,3.36,
4.18,4.228,3.44,
4.18,4.22,3.4,
3.412,4.18,3.32,
4.188,4.22,3.36,
4.124,4.188,3.4,
4.188,3.844,3.36,
4.156,4.236,3.44,
4.188,4.22,3.44,
3.42,4.18,3.32,
4.188,4.132,3.32,
4.124,4.228,3.44,
4.028,4.22,3.44,
4.196,3.852,3.32,
4.18,3.844,3.32,
3.396,4.252,3.44,
3.396,4.188,3.4,
4.204,4.22,0,
4.132,3.844,0.08,
4.188,4.308,0.04,
3.396,4.252,0,
4.252,4.18,3.36,
4.196,4.22,3.44,
4.132,4.18,3.32,
4.188,3.844,3.36,
4.124,4.236,3.4,
3.412,4.156,3.36,
4.188,4.22,3.4,
4.108,4.204,3.32,
4.188,4.164,3.44,
4.172,4.204,3.44,
4.116,4.18,3.32,
4.14,4.18,3.36,
4.124,4.22,3.44,
4.124,4.18,3.36,
4.18,4.204,3.4,
4.14,4.18,3.32,
4.124,4.22,3.4,
4.124,4.204,3.36,
4.188,4.18,3.44,
4.172,4.204,3.36,
4.124,4.18,3.44,
4.14,4.22,3.44,
4.124,4.18,3.32,
4.18,4.18,3.36,
4.108,4.204,3.44,
4.124,4.22,3.36,
4.148,4.164,3.36,
4.18,4.22,3.36,
4.1,4.172,3.4,
4.188,4.156,3.36,
4.092,4.212,3.32,
4.076,4.22,3.32,
4.156,4.18,3.44,
4.124,4.18,3.36,
4.18,4.196,3.44,
4.108,4.156,3.32,
4.14,4.22,3.4,
4.092,4.22,3.36,
4.188,4.132,3.44,
4.188,4.204,3.36,
4.02,4.18,3.4,
4.14,4.188,3.4,
4.108,4.22,3.32,
4.124,4.204,3.32,
4.18,4.18,3.44,
4.172,4.204,3.32,
4.108,4.18,3.4,
4.14,4.22,3.36,
4.124,4.156,3.44,
4.18,4.18,3.32,
4.092,4.204,3.44,
4.14,4.22,3.44,
4.124,3.852,0.04,
4.18,3.996,0.16,
3.396,4.052,0.04,
3.548,4.028,0.08,
3.612,4.38,0,
3.596,4.22,0.04,
4.332,4.18,0.16,
4.188,4.22,0.12,
4.124,3.852,0.04,
4.18,4.012,0.04,
3.396,4.388,0.12,
3.572,3.828,0.04,
4.324,4.364,0.08,
3.396,4.268,0.04,
4.308,4.164,0.08,
4.204,4.204,0.08,
4.1,4.18,0.04,
4.108,4.204,0.04,
4.148,4.148,3.44,
4.148,4.156,3.32,
4.052,4.204,3.4,
4.092,4.204,3.36,
4.148,4.18,3.44,
4.14,4.188,3.4,
4.124,4.22,3.32,
4.124,4.22,3.4,
4.188,4.188,3.32,
4.172,4.18,3.36,
4.156,4.22,3.44,
4.108,3.86,3.36,
4.188,4.228,3.4,
4.18,4.156,3.32,
3.396,4.22,3.44,
4.076,3.852,3.32,
4.188,4.228,3.44,
3.396,3.86,3.36,
4.196,4.26,3.4,
3.388,3.844,3.36,
4.204,4.26,3.44,
3.404,4.204,3.36,
4.204,4.188,3.4,
4.148,4.22,3.4,
4.124,4.18,3.32,
4.124,4.22,3.4,
4.18,4.108,3.32,
4.188,3.86,3.44,
3.932,4.228,3.32,
3.38,3.852,3.36,
4.18,4.26,3.4,
3.396,4.22,3.36,
4.204,4.18,3.44,
4.148,4.228,3.44,
4.124,4.18,3.32,
4.18,3.852,3.36,
4.116,4.26,3.32,
3.396,4.188,3.36,
4.204,4.22,3.36,
4.132,4.212,3.36,
4.188,4.172,3.44,
4.172,4.204,3.32,
4.116,4.18,3.44,
4.124,4.22,3.36,
4.148,4.18,3.44,
4.188,4.196,3.32,
4.116,4.18,3.4,
4.108,4.188,3.32,
4.14,4.22,3.4,
4.124,4.22,3.44,
4.188,4.18,3.32,
4.188,4.188,3.36,
4.124,4.204,3.44,
4.124,4.188,3.44,
4.148,4.22,3.32,
4.124,4.204,3.4,
4.188,4.18,3.32,
4.172,4.188,3.44,
4.124,4.204,3.32,
4.124,4.22,3.36,
4.148,4.18,3.44,
4.188,4.196,3.32,
4.124,4.18,3.44,
4.124,4.188,3.36,
4.148,4.22,3.4,
4.124,4.156,3.36,
4.188,4.22,3.4,
4.172,4.204,3.4,
4.092,4.132,3.32,
4.148,4.196,3.32,
4.02,4.18,3.44,
4.108,4.228,3.44,
4.132,3.852,3.36,
4.172,4.004,3.44,
3.34,4.028,3.32,
3.516,4.012,3.44,
3.548,4.38,0.04,
3.524,4.22,0.04,
4.34,3.812,0.16,
4.188,3.844,0.08,
3.316,4.372,0,
3.332,4.244,0.08,
4.316,4.18,0,
4.204,4.204,0.04,
4.124,4.172,0.12,
4.188,3.812,0.04,
4.124,4.236,0.16,
3.316,3.82,0.08,
4.18,4.372,0.04,
3.316,4.236,0.08,
4.316,4.18,0.04,
4.204,4.22,0.04,
4.124,4.18,0.08,
4.188,4.22,0,
4.124,4.164,0.16,
4.172,3.804,0.08,
4.124,4.26,0.04,
3.324,4.252,0.04,
4.204,4.188,0.08,
4.188,4.212,0.08,
4.124,4.18,0.04,
4.124,4.18,0.08,
4.18,4.204,0.04,
4.124,4.204,0.08,
4.148,4.18,0,
4.148,4.204,0.08,
4.132,4.18,0.04,
4.148,4.204,0.08,
4.124,4.18,0.04,
4.148,4.204,0.08,
4.124,4.18,0,
4.124,4.18,0.08,
4.148,4.204,0,
4.148,4.204,0.08,
4.124,4.18,0.04,
4.124,4.188,0.08,
4.148,4.204,0,
4.148,4.18,0.08,
4.124,4.204,0.04,
4.124,4.188,0.08,
4.148,4.22,0,
4.132,4.204,0.08,
4.188,4.18,0.04,
4.172,4.188,0.08,
4.124,4.212,0,
4.124,4.212,0.04,
4.18,4.164,0.08,
4.18,4.204,0.08,
4.116,4.18,0,
4.124,4.18,0.08,
4.14,4.22,0,
4.124,4.204,0.08,
4.18,4.18,0,
4.172,4.18,0.08,
4.124,4.204,0.04,
4.14,4.22,0.08,
4.124,4.172,0.04,
4.188,4.196,0.08,
4.116,4.18,0,
4.124,4.18,0.08,
4.148,4.22,0.04,
4.132,4.204,0.04,
4.18,4.18,0.08,
4.172,4.204,0.08,
4.124,4.188,0,
4.132,4.22,0.08,
4.148,4.172,0.04,
4.18,4.18,0.08,
4.108,4.204,0,
4.124,4.18,0.08,
4.148,4.22,0.04,
4.124,4.204,0.08,
4.18,4.172,0.04,
4.18,4.204,0.08,
4.116,4.18,0,
4.14,4.212,0.08,
4.124,4.18,0.04,
4.124,4.18,0.08,
4.188,4.204,0,
4.116,4.172,0.08,
4.148,4.22,0,
4.108,4.22,0.08,
4.18,4.18,0,
4.188,4.18,0.08,
4.124,4.204,0,
4.124,4.18,0.08,
4.148,4.22,0,
4.124,4.204,0.08,
4.18,4.172,0.04,
4.172,4.204,0,
4.124,4.18,0.08,
4.124,4.22,0.08,
4.148,4.18,0.04,
4.188,4.204,0.08,
4.124,4.18,0,
4.124,4.18,0.08,
4.148,4.22,0,
4.124,4.204,0.08,
4.18,4.164,0.04,
4.172,4.18,0.08,
4.124,4.204,0,
4.132,4.22,0.08,
4.148,4.18,0.04,
4.18,4.22,0.08,
4.124,4.18,0,
4.188,4.22,0.04,
4.124,4.188,0.08,
4.188,3.828,0.08,
4.156,4.228,0,
4.18,4.228,0.08,
3.34,4.18,0,
4.196,4.22,0,
4.124,4.18,0.12,
4.18,3.812,0.08,
4.124,4.236,0.04,
3.332,4.228,0,
4.188,4.18,0.12,
4.188,3.82,0.04,
4.124,4.228,0.12,
3.324,3.836,0.08,
4.196,4.26,0,
3.324,4.18,0.08,
4.204,4.22,0,
4.124,4.18,0.08,
4.18,4.204,0.04,
4.124,4.18,0.08,
4.148,4.204,0,
4.124,4.204,0.08,
4.148,4.18,0.04,
4.148,4.204,0.08,
4.124,4.18,0.04,
4.148,4.204,0.08,
4.124,4.18,0.04,
4.148,4.18,0,
4.124,4.204,0.12,
4.124,4.22,0.04,
4.148,3.828,0.12,
4.18,3.98,0.04,
3.332,4.356,0.16,
3.484,3.82,0.08,
4.308,4.228,0,
4.188,4.18,0.08,
3.34,4.22,0,
4.132,4.22,0.08,
4.188,4.18,0,
4.172,4.18,0,
4.124,4.204,0.08,
4.124,4.22,0.08,
4.148,4.18,0.04,
4.188,4.18,0.08,
4.124,4.204,0,
4.148,4.18,0.08,
4.124,4.22,0,
4.124,4.22,0.08,
4.188,4.18,0,
4.172,4.204,0.08,
4.124,4.18,0.04,
4.148,4.22,0,
4.124,4.172,0.08,
4.18,4.18,0.08,
4.124,4.204,0,
4.124,4.18,0.08,
4.148,4.212,0.04,
4.124,4.22,0.08,
4.188,4.18,0,
4.172,4.204,0.08,
4.124,4.172,0,
4.148,4.188,0.04,
4.1,4.22,0.08,
4.132,4.204,0.08,
4.18,4.18,0,
4.156,4.188,0.08,
4.124,4.212,0,
4.124,4.22,0,
4.18,4.164,0.08,
4.188,4.18,0.08,
4.116,4.204,0.04,
4.14,4.188,0.04,
4.124,4.22,0.08,
4.124,4.204,0.08,
4.18,4.18,0,
4.172,4.204,0.08,
4.124,4.18,0,
4.148,4.22,0.08,
4.124,4.164,0.04,
4.188,4.18,0.08,
4.108,4.196,0,
4.14,4.18,0.08,
4.124,4.22,0,
4.124,4.204,0.08,
4.18,4.172,0,
4.172,4.204,0.08,
4.124,4.18,0.04,
4.124,4.22,0.04,
4.148,4.172,0.08,
4.188,4.18,0.08,
4.124,4.204,0,
4.124,4.18,0.08,
4.148,4.22,0.04,
4.124,4.204,0.08,
4.188,4.18,0.04,
4.172,4.18,0.08,
4.124,4.204,0,
4.132,4.22,0.08,
4.148,4.18,0,
4.18,4.18,0.08,
4.108,4.204,0,
4.124,4.188,0.08,
4.148,4.22,0.04,
4.132,4.22,0.08,
4.18,4.18,0,
4.172,4.204,0.08,
4.124,4.18,0,
4.148,4.18,0.08,
4.124,4.22,0.04,
4.124,4.204,0.08,
4.188,4.18,0.04,
4.172,4.18,0.08,
4.124,4.204,0,
4.148,4.22,0.08,
4.124,4.172,0,
4.188,4.204,0.08,
4.124,4.18,0.04,
4.124,4.204,0.08,
4.148,4.18,0,
4.148,4.22,0.08,
4.124,4.18,0,
4.18,4.204,0.08,
4.124,4.18,0,
4.124,4.204,0.08,
4.148,4.18,0.04,
4.124,4.204,0.08,
4.148,4.18,0,
4.132,4.204,0.08,
4.148,4.18,0.04,
4.124,4.204,0.08,
4.148,4.18,0.04,
4.148,4.204,0.08,
4.124,4.18,0,
4.124,4.204,0.08,
4.148,4.18,0,
4.148,4.204,0.08,
4.124,4.18,0,
4.14,4.18,0.08,
4.124,4.22,0,
4.124,4.22,0.08,
4.18,4.18,0,
4.172,4.204,0.08,
4.108,4.18,0,
4.148,4.18,0.08,
4.124,4.22,0.04,
4.124,4.164,0.08,
4.18,4.204,0,
4.124,4.18,0.08,
4.14,4.22,0,
4.124,4.22,0.08,
4.172,4.18,0.04,
4.18,4.18,0.08,
4.124,4.204,0.04,
4.14,4.18,0.08,
4.124,4.22,0,
4.124,4.204,0.08,
4.188,4.172,0,
4.172,4.18,0.08,
4.116,4.204,0.04,
4.124,4.22,0.08,
4.148,4.172,0.04,
4.18,4.196,0.08,
4.116,4.18,0,
4.14,4.18,0.08,
4.124,4.22,0,
4.124,4.204,0.08,
4.18,4.18,0.04,
4.172,4.204,0,
4.124,4.18,0.08,
4.124,4.18,0.08,
4.148,4.22,0.04,
4.188,4.18,0.08,
4.116,4.204,0,
4.124,4.164,0.08,
4.148,4.22,0,
4.1,4.204,0.08,
4.188,4.18,0,
4.172,4.204,0.08,
4.124,4.18,0,
4.14,4.22,0.08,
4.124,4.172,0,
4.18,4.18,0.08,
4.116,4.204,0,
4.124,4.18,0.08,
4.148,4.22,0,
4.124,4.22,0.08,
4.18,4.18,0,
4.172,4.204,0.08,
4.124,4.18,0,
4.148,4.18,0.08,
4.124,4.22,0,
4.132,4.204,0.08,
4.18,4.18,0,
4.172,4.18,0.08,
4.124,4.22,0,
4.124,4.22,0.08,
4.18,4.18,0,
4.188,4.204,0.08,
4.124,4.18,0.04,
4.14,4.188,0.08,
4.124,4.22,0,
4.124,4.204,0.08,
4.18,4.18,0,
4.172,4.18,0.04,
4.124,4.204,0.08,
4.124,4.22,0.08,
4.148,4.18,0.04,
4.188,4.18,0.08,
4.124,4.204,0.04,
4.124,4.18,0.08,
4.148,4.22,0,
4.124,4.204,0.08,
4.188,4.18,0.04,
4.172,4.18,0.08,
4.124,4.204,0.04,
4.148,4.22,0.08,
4.124,4.18,0,
4.188,4.18,0.04,
4.124,4.204,0.08,
4.124,4.18,0.08,
4.148,4.204,0.04,
4.132,4.212,0.08,
4.148,4.18,0,
4.132,4.18,0.08,
4.188,4.204,0.04,
4.148,4.18,0.08,
4.124,4.204,0,
4.132,4.18,0.08,
4.148,4.204,0.04,
4.148,4.18,0.08,
4.124,4.204,0,
4.148,4.204,0.08,
4.124,4.18,0,
4.148,4.18,0.08,
4.124,4.204,0.04,
4.124,4.18,0.08,
4.148,4.204,0,
4.124,4.22,0.04,
4.148,4.18,0.12,
4.188,3.82,0.08,
4.124,4.228,0,
4.18,4.228,0.04,
3.332,4.18,0.12,
4.196,3.828,0.08,
4.124,4.26,0,
3.34,4.188,0.08,
4.204,4.22,0.04,
4.124,4.204,0.08,
4.18,4.18,0,
4.172,4.18,0.08,
4.124,4.204,0,
4.132,4.18,0.08,
4.148,4.22,0,
4.124,4.18,0.08,
4.188,4.204,0,
4.124,4.188,0.08,
4.148,4.22,0,
4.124,4.204,0.04,
4.18,4.164,0.08,
4.172,4.204,0.08,
4.124,4.18,0,
4.148,4.22,0.08,
4.124,4.164,0,
4.18,4.18,0.08,
4.124,4.204,0.04,
4.124,4.18,0.08,
4.148,4.22,0,
4.124,4.204,0.08,
4.188,4.172,0.04,
4.172,4.18,0.08,
4.116,4.204,0.04,
4.124,4.18,0.08,
4.148,4.22,0,
4.124,4.156,0.08,
4.188,4.204,0.04,
4.084,4.14,0.08,
4.148,4.236,0.04,
4.044,4.188,0.08,
4.204,4.22,0.04,
4.164,4.196,0.08,
4.188,4.22,0,
4.164,4.196,0.08,
4.188,4.22,0,
4.188,4.196,0.08,
4.164,4.212,0,
4.188,4.188,0.08,
4.164,4.22,0,
4.164,4.204,0.08,
4.188,4.188,0.04,
4.164,4.22,0,
4.188,4.196,0.08,
4.164,4.188,0.08,
4.188,4.22,0.04,
4.164,4.22,0.08,
4.188,4.188,0,
4.164,4.196,0.08,
4.188,4.22,0,
4.164,4.212,0.08,
4.188,4.188,0,
4.188,4.22,0.08,
4.164,4.196,0,
4.188,4.212,0.08,
4.164,4.196,0,
4.188,4.188,0.08,
4.164,4.22,0,
4.164,4.22,0.08,
4.188,4.196,0,
4.188,4.22,0.08,
4.164,4.188,0,
4.164,4.188,0.08,
4.188,4.22,0,
4.164,4.196,0.08,
4.188,4.212,0,
4.164,4.188,0.08,
4.188,4.22,0,
4.164,4.204,0.08,
4.188,4.188,0,
