Power Reception/Metingen 3/Meting met pin 0 -104 -114 141 -10.csv

CH1,CH2,CH3,Start,Increment,
Volt,Volt,Volt,-29.975,0.05
4.22,4.22,0.12,
4.196,4.196,-0.04,
4.22,4.22,0,
4.196,4.196,0.12,
4.196,4.22,0,
4.22,4.196,0.12,
4.196,4.22,0.16,
4.22,4.196,-0.04,
4.196,4.22,0.12,
4.22,4.196,-0.04,
4.22,4.204,0,
4.196,4.22,0.12,
4.22,4.22,0,
4.196,4.196,0.12,
4.22,4.22,0.08,
4.196,4.196,0,
4.196,4.22,0,
4.22,4.196,0.12,
4.196,4.22,0.08,
4.22,4.204,0,
4.22,4.22,0.08,
4.196,4.196,0,
4.22,4.22,0.08,
4.196,4.196,0,
4.196,4.22,0,
4.22,4.196,0.12,
4.22,4.22,0.08,
4.196,4.196,0,
4.22,4.22,0,
4.196,4.196,0.12,
4.196,4.22,0.08,
4.22,4.204,0,
4.196,4.204,0,
4.22,4.22,0.08,
4.196,4.22,0.08,
4.22,4.196,0,
4.196,4.204,0,
4.22,4.22,0.08,
4.196,4.196,0.08,
4.22,4.228,0,
4.196,4.22,0.08,
4.22,4.196,0,
4.196,4.22,0,
4.22,4.196,0.08,
4.196,4.22,0,
4.22,4.196,0.08,
4.196,4.204,0.08,
4.22,4.22,0,
4.196,4.196,0,
4.22,4.22,0.08,
4.196,4.196,0.08,
4.22,4.22,0,
4.22,4.22,0.08,
4.196,4.196,0,
4.196,4.22,0.08,
4.22,4.196,0,
4.22,4.22,0,
4.196,4.196,0.08,
4.22,4.22,0,
4.196,4.196,0.08,
4.212,4.22,0,
4.196,4.196,0.08,
4.22,4.22,0.12,
4.196,4.196,0,
4.22,4.22,0,
4.196,4.204,0.08,
4.196,4.22,0,
4.22,4.196,0.12,
4.196,4.22,0,
4.22,4.196,0.08,
4.22,4.22,0,
4.196,4.204,0.12,
4.22,4.22,0.08,
4.196,4.196,0,
4.22,4.22,0.12,
4.196,4.196,0,
4.196,4.204,0.12,
4.22,4.22,0,
4.196,4.22,0.12,
4.22,4.196,0,
4.196,4.22,0,
4.22,4.196,0.12,
4.22,4.22,0,
4.196,4.196,0.12,
4.196,4.22,0.08,
4.22,4.196,0,
4.196,4.22,0.12,
4.22,4.196,0,
4.22,4.22,0.08,
4.196,4.196,0,
4.196,4.22,0.12,
4.22,4.196,0,
4.196,4.204,0,
4.22,4.22,0.16,
4.22,4.22,0,
4.196,4.196,0.12,
4.22,4.22,0,
4.196,4.196,0.12,
4.196,4.22,0,
4.22,4.196,0.12,
4.22,4.22,0,
4.196,4.196,0.08,
4.22,4.22,0.12,
4.196,4.204,0,
4.22,4.196,0.08,
4.196,4.22,0,
4.196,4.22,0.12,
4.22,4.196,0,
4.212,4.22,0.12,
4.196,4.196,0,
4.22,4.22,0,
4.196,4.196,0.12,
4.22,4.22,0.12,
4.196,4.196,0,
4.196,4.204,0.12,
4.22,4.22,0,
4.196,4.22,0,
4.22,4.196,0.12,
4.204,4.196,0,
4.196,4.22,0.12,
4.196,4.22,0.12,
4.22,4.196,0,
4.196,4.22,0,
4.22,4.196,0.12,
4.22,4.22,0,
4.196,4.204,0.12,
4.196,4.22,0.08,
4.22,4.196,0,
4.196,4.22,0.12,
4.22,4.196,0,
4.196,4.22,0,
4.22,4.196,0.08,
4.196,4.22,0.08,
4.22,4.196,0,
4.22,4.22,0,
4.196,4.196,0.12,
4.196,4.22,0.12,
4.22,4.196,0,
4.196,4.22,0,
4.22,4.204,0.12,
4.196,4.22,0.12,
4.22,4.204,0,
4.22,4.22,0,
4.196,4.196,0.12,
4.196,4.196,0,
4.22,4.22,0.12,
4.196,4.22,0,
4.22,4.196,0.12,
4.196,4.22,0,
4.22,4.196,0.16,
4.196,4.22,0.08,
4.22,4.196,0,
4.196,4.22,0,
4.22,4.196,0.12,
4.22,4.22,0.12,
4.196,4.196,0,
4.196,4.22,0,
4.22,4.196,0.12,
4.196,4.22,0,
4.22,4.196,0.12,
4.196,4.22,0,
4.22,4.196,0.12,
4.196,4.22,0.08,
4.22,4.196,0,
4.196,4.196,0.12,
4.22,4.22,0,
4.196,4.22,0.12,
4.212,4.196,0,
4.196,4.22,0,
4.22,4.196,0.12,
4.196,4.22,0.12,
4.22,4.196,0,
4.196,4.22,0.08,
4.22,4.196,0,
4.22,4.22,0,
4.196,4.196,0.12,
4.22,4.22,0,
4.196,4.196,0.16,
4.22,4.196,0.12,
4.196,4.228,0,
4.22,4.22,0,
4.196,4.204,0.12,
4.196,4.22,0,
4.22,4.196,0.12,
4.196,4.22,0.08,
4.22,4.196,0,
4.196,4.196,0,
4.22,4.22,0.12,
4.22,4.22,0.08,
4.196,4.196,0,
4.196,4.22,0.08,
4.22,4.196,0,
4.196,4.22,0.12,
4.22,4.196,0,
4.204,4.22,0,
4.196,4.196,0.16,
4.196,4.204,0.12,
4.22,4.22,0,
4.22,4.196,0,
4.196,4.22,0.12,
4.196,4.22,0,
4.22,4.196,0.12,
4.196,4.22,0.08,
4.22,4.196,0,
4.22,4.22,0,
4.196,4.196,0.12,
4.196,4.196,0,
4.22,4.228,0.12,
4.196,4.22,0.08,
4.22,4.196,0,
4.22,4.22,0,
4.196,4.196,0.12,
4.196,4.22,0.12,
4.22,4.196,0,
4.212,4.22,0.12,
4.196,4.196,0,
4.196,4.22,0,
4.22,4.196,0.12,
4.196,4.22,0.08,
4.22,4.196,0,
4.196,4.22,0,
4.22,4.196,0.12,
4.196,4.22,0,
4.212,4.196,0.12,
4.196,4.22,0,
4.22,4.196,0.12,
4.22,4.22,0,
4.196,4.196,0.12,
4.196,4.22,0,
4.22,4.196,0.08,
4.196,4.22,0,
4.22,4.196,0.08,
4.196,4.22,0,
4.22,4.196,0.12,
4.196,4.22,0.08,
4.22,4.196,0,
4.196,4.228,0,
4.22,4.196,0.12,
4.22,4.22,0.08,
4.196,4.196,0,
4.22,4.22,0,
4.196,4.196,0.08,
4.196,4.22,0.08,
4.22,4.196,0,
4.22,4.22,0,
4.196,4.196,0.12,
4.196,4.22,0,
4.22,4.196,0.12,
4.196,4.22,0,
4.22,4.196,0.08,
4.196,4.22,0,
4.22,4.196,0.12,
4.196,4.22,0,
4.22,4.196,0.08,
4.196,4.22,0,
4.22,4.196,0.12,
4.196,4.196,0,
4.22,4.22,0.08,
4.196,4.22,0,
4.22,4.196,0.12,
4.22,4.196,0.08,
4.196,4.22,0,
4.22,4.22,0.12,
4.196,4.196,0,
4.196,4.22,0.08,
4.22,4.196,0,
4.22,4.22,0,
4.196,4.204,0.12,
4.22,4.204,0.08,
4.196,4.22,0,
4.196,4.22,0,
4.22,4.196,0.12,
4.212,4.22,0,
4.196,4.196,0.12,
4.22,4.22,0,
4.196,4.196,0.12,
4.196,4.22,0,
4.22,4.196,0.12,
4.22,4.22,0,
4.196,4.196,0.16,
4.196,4.22,0,
4.22,4.196,0.12,
4.196,4.22,0,
4.22,4.196,0.12,
4.196,4.196,0.08,
4.22,4.22,0,
4.196,4.22,0.08,
4.22,4.196,0,
4.204,4.22,0,
4.196,4.196,0.08,
4.196,4.22,0.12,
4.22,4.196,0,
4.22,4.22,0,
4.196,4.196,0.16,
4.196,4.196,0.12,
4.212,4.22,0,
4.196,4.22,0,
4.22,4.196,0.12,
4.196,4.22,0,
4.212,4.196,0.08,
4.196,4.22,0,
4.22,4.196,0.12,
4.196,4.22,0.08,
4.22,4.196,0,
4.196,4.196,0.08,
4.22,4.22,0,
4.196,4.204,0,
4.22,4.22,0.08,
4.196,4.22,0,
4.22,4.196,0.12,
4.196,4.22,0,
4.22,4.196,0.16,
4.196,4.22,0.08,
4.22,4.196,0,
4.196,4.196,0,
4.22,4.22,0.08,
4.196,4.22,0.08,
4.212,4.196,0,
4.196,4.196,0,
4.22,4.22,0.12,
4.22,4.22,0,
4.196,4.196,0.16,
4.196,4.22,0,
4.22,4.196,0.08,
4.22,4.22,0,
4.196,4.196,0.12,
4.196,4.22,0.08,
4.22,4.196,0,
4.22,4.22,0.12,
4.196,4.196,0,
4.196,4.204,0,
4.22,4.228,0.08,
4.22,4.204,0.08,
4.196,4.228,0,
4.22,4.228,0,
4.196,4.204,0.12,
4.196,4.204,0.12,
4.22,4.228,0,
4.22,4.204,0.12,
4.196,4.228,0,
4.204,4.22,0,
4.22,4.204,0.12,
4.22,4.22,0.12,
4.196,4.196,0,
4.22,4.22,0,
4.196,4.204,0.12,
4.22,4.22,0,
4.196,4.204,0.12,
4.22,4.196,0,
4.196,4.228,0.12,
4.196,4.22,0,
4.22,4.196,0.12,
4.196,4.22,0,
4.22,4.196,0.12,
4.22,4.204,0,
4.196,4.22,0.16,
4.196,4.22,0,
4.22,4.196,0.08,
4.196,4.22,0.12,
4.22,4.196,0,
4.196,4.22,0,
4.22,4.196,0.16,
4.196,4.22,0,
4.22,4.196,0.12,
4.196,4.22,0,
4.22,4.204,0.12,
4.22,4.204,0,
4.196,4.22,0.12,
4.196,4.204,0,
4.22,4.228,0.12,
4.196,4.22,0,
4.212,4.196,0.12,
4.196,4.204,0,
4.22,4.22,0.16,
4.196,4.22,0,
4.22,4.196,0.16,
4.22,4.22,0,
4.196,4.196,0.12,
4.22,4.22,0,
4.196,4.196,0.08,
4.196,4.22,0,
4.22,4.196,0.08,
4.196,4.22,0.12,
4.22,4.196,0,
4.196,4.22,0.08,
4.22,4.196,0,
4.196,4.204,0,
4.22,4.22,0.12,
4.196,4.22,0.08,
4.22,4.196,0,
4.22,4.196,0,
4.196,4.22,0.12,
4.196,4.204,0,
4.22,4.228,0.12,
4.22,4.22,0,
4.196,4.196,0.08,
4.196,4.22,0,
4.22,4.196,3.4,
4.196,4.22,3.36,
4.22,4.164,3.4,
4.22,4.188,3.36,
4.124,4.204,3.44,
4.14,4.188,3.32,
4.164,4.22,3.44,
4.14,4.188,3.36,
4.172,4.22,3.44,
4.164,4.188,3.36,
4.14,4.212,3.44,
4.132,4.188,3.4,
4.172,4.212,3.32,
4.132,4.18,3.36,
4.172,4.252,3.44,
4.132,4.172,3.44,
4.244,4.212,3.32,
4.124,4.22,3.44,
4.18,4.188,3.32,
4.164,4.204,3.4,
4.14,4.188,3.32,
4.164,4.244,3.4,
4.14,4.164,3.36,
4.228,4.18,3.36,
4.124,4.22,3.44,
4.132,4.204,3.44,
4.164,4.188,3.32,
4.14,4.188,3.32,
4.164,4.22,3.44,
4.164,4.188,3.36,
4.148,4.22,3.44,
4.132,4.22,3.36,
4.172,4.18,3.44,
4.172,4.188,3.44,
4.132,4.22,3.32,
4.172,4.188,3.36,
4.124,4.204,3.44,
4.132,4.188,3.32,
4.164,4.204,3.44,
4.132,4.18,3.4,
4.148,4.212,3.32,
4.148,4.204,3.44,
4.132,4.188,3.32,
4.148,4.204,3.32,
4.132,4.188,3.44,
4.148,4.188,3.44,
4.132,4.204,3.32,
4.132,4.188,3.36,
4.148,4.204,3.4,
4.132,4.188,3.36,
4.148,4.204,3.44,
4.132,4.188,3.36,
4.148,4.212,3.44,
4.132,4.204,3.32,
4.148,4.188,3.44,
4.132,4.188,3.36,
4.148,4.204,3.44,
4.148,4.204,3.44,
4.132,4.188,3.36,
4.148,4.204,3.36,
4.132,4.188,3.44,
4.132,4.188,3.32,
4.148,4.22,3.44,
4.148,4.204,3.44,
4.132,4.18,3.32,
4.148,4.204,3.36,
4.132,4.188,3.44,
4.132,4.188,3.32,
4.148,4.204,3.44,
4.132,4.18,3.36,
4.148,4.22,3.44,
4.148,4.156,3.44,
4.132,4.22,3.32,
4.148,4.188,3.4,
4.052,4.204,3.32,
4.148,4.22,3.32,
4.132,4.18,3.44,
4.148,4.188,3.36,
4.132,4.22,3.44,
4.132,4.204,3.44,
4.148,4.188,3.32,
4.132,4.204,3.32,
4.148,4.188,3.44,
4.148,4.204,3.36,
4.132,4.18,3.44,
4.148,4.212,3.36,
4.132,4.148,3.44,
4.148,4.236,3.32,
4.068,4.188,3.44,
4.188,4.188,3.32,
4.132,4.204,3.44,
4.148,4.204,3.36,
4.132,4.188,3.44,
4.148,4.18,3.44,
4.132,4.22,3.32,
4.148,4.188,3.32,
4.108,4.22,3.44,
4.132,4.22,3.44,
4.172,4.14,3.36,
4.172,4.18,3.36,
4.036,4.204,3.44,
4.132,4.18,3.32,
4.108,4.204,3.44,
4.108,4.228,3.36,
4.132,4.164,3.44,
4.06,4.172,3.36,
4.172,4.22,3.44,
4.084,4.204,3.36,
4.148,4.18,3.44,
4.14,4.164,3.36,
4.1,4.204,3.44,
4.124,4.204,3.32,
4.044,4.156,3.44,
4.124,4.204,3.44,
4.044,4.164,3.32,
4.132,4.204,3.4,
4.06,4.164,3.32,
4.124,4.18,3.44,
4.068,4.204,3.32,
4.084,4.204,3.36,
4.124,4.148,3.44,
4.116,4.204,3.44,
4.02,4.164,3.32,
4.124,4.148,3.36,
4.036,4.228,3.44,
4.012,4.188,3.36,
4.156,4.22,3.44,
4.124,4.204,3.36,
4.148,4.132,3.44,
4.148,4.164,3.44,
4.02,4.204,3.32,
4.116,4.22,3.36,
4.044,4.164,3.44,
4.148,4.156,3.36,
4.068,4.228,0,
4.028,4.18,0.08,
4.156,4.228,0,
4.052,4.22,0.08,
4.172,4.148,0.04,
4.044,4.212,0.08,
4.164,4.132,0,
4.148,4.164,0,
3.996,4.228,0.08,
4.044,4.228,0.08,
4.172,4.188,0,
4.196,4.22,0.04,
4.132,4.172,3.44,
4.196,4.212,3.44,
4.108,4.18,3.32,
4.132,4.204,3.32,
4.18,4.188,3.4,
4.132,4.204,3.36,
4.164,4.188,3.4,
4.148,4.204,3.36,
4.132,4.188,3.44,
4.164,4.188,3.4,
4.132,4.22,3.32,
4.148,4.204,3.36,
4.132,4.188,3.44,
4.148,4.188,3.36,
4.132,4.204,3.4,
4.148,4.188,3.36,
4.132,4.204,3.32,
4.148,4.204,3.32,
4.132,4.188,3.44,
4.148,4.204,3.36,
4.132,4.188,3.44,
4.148,4.204,3.36,
4.132,4.188,3.44,
4.156,4.188,3.32,
4.132,4.204,3.4,
4.148,4.204,3.36,
4.132,4.188,3.44,
4.132,4.204,3.32,
4.148,4.188,3.4,
4.164,4.204,3.32,
4.14,4.188,3.4,
4.148,4.204,3.32,
4.132,4.188,3.4,
4.14,4.188,3.36,
4.156,4.22,3.44,
4.14,4.188,3.44,
4.164,4.204,3.32,
4.132,4.204,3.4,
4.164,4.18,3.32,
4.148,4.188,3.32,
4.132,4.204,3.44,
4.132,4.188,3.36,
4.156,4.204,3.4,
4.148,4.204,3.44,
4.132,4.188,3.32,
4.164,4.188,3.32,
4.132,4.204,3.44,
4.148,4.204,3.36,
4.132,4.188,3.44,
4.148,4.188,3.4,
4.132,4.204,3.32,
4.132,4.204,3.32,
4.156,4.18,3.44,
4.164,4.204,3.4,
4.132,4.188,3.32,
4.156,4.204,3.4,
4.132,4.188,3.32,
4.164,4.204,3.44,
4.132,4.188,3.32,
4.148,4.188,3.32,
4.132,4.212,3.44,
4.132,4.204,3.44,
4.164,4.188,3.32,
4.14,4.204,3.44,
4.164,4.188,3.32,
4.148,4.204,3.36,
4.132,4.188,3.44,
4.148,4.204,3.4,
4.132,4.18,3.32,
4.132,4.204,3.44,
4.164,4.188,3.32,
4.132,4.204,3.32,
4.164,4.188,3.44,
4.148,4.156,3.36,
4.132,4.22,3.44,
4.164,4.164,3.32,
4.084,4.22,3.44,
4.164,4.188,3.44,
4.1,4.204,3.32,
4.14,4.188,3.44,
4.164,4.204,3.32,
4.132,4.204,3.36,
4.164,4.188,3.44,
4.164,4.188,3.44,
4.132,4.212,3.32,
4.148,4.188,3.32,
4.132,4.212,3.4,
4.148,4.204,3.36,
4.132,4.188,3.44,
4.148,4.204,3.36,
4.14,4.188,3.44,
4.164,4.204,3.32,
4.132,4.188,3.44,
4.14,4.204,3.44,
4.164,4.188,3.32,
4.164,4.204,3.36,
4.132,4.188,3.44,
4.14,4.204,3.44,
4.164,4.188,3.32,
4.164,4.188,3.4,
4.132,4.204,3.32,
4.148,4.204,3.44,
4.132,4.124,3.32,
4.156,4.212,3.44,
4.02,4.188,3.32,
4.148,4.188,3.4,
4.124,4.204,3.32,
4.14,4.204,3.36,
4.116,4.188,3.44,
4.124,4.204,3.32,
4.148,4.18,3.44,
4.124,4.18,3.44,
4.14,4.204,3.32,
4.124,4.308,3.36,
4.14,3.884,3.44,
4.26,3.884,3.36,
3.38,4.34,3.44,
3.412,4.26,3.44,
4.284,3.876,3.32,
3.412,3.876,3.44,
4.22,4.252,3.32,
4.196,3.884,3.36,
3.404,4.276,3.44,
3.34,4.204,3.36,
4.204,4.188,3.44,
4.148,4.204,3.44,
4.124,4.18,3.32,
4.148,4.204,3.36,
4.124,4.18,3.44,
4.148,4.204,3.32,
4.124,4.188,3.44,
4.148,4.204,3.44,
4.132,4.188,3.32,
4.148,4.204,3.36,
4.124,4.18,3.4,
4.148,4.188,3.36,
4.124,4.204,3.44,
4.148,4.18,3.36,
4.124,4.22,3.44,
4.132,4.204,3.32,
4.148,4.18,3.44,
4.148,4.188,3.44,
4.124,4.204,0,
4.148,4.188,0.08,
4.124,4.204,0,
4.148,4.188,0.08,
4.124,4.212,0,
4.148,4.204,0,
4.132,4.18,3.44,
4.148,4.204,3.44,
4.124,4.188,3.32,
4.148,4.204,3.44,
4.124,4.18,3.32,
4.148,4.204,3.32,
4.124,4.188,3.44,
4.148,4.188,3.36,
4.132,4.204,3.44,
4.148,4.188,3.36,
4.132,4.204,3.44,
4.124,4.204,3.44,
4.156,4.188,3.32,
4.156,4.204,3.36,
4.124,4.188,3.44,
4.148,4.204,3.44,
4.132,4.188,3.32,
4.148,4.212,3.44,
4.132,4.18,3.32,
4.132,4.204,3.44,
4.148,4.18,3.32,
4.148,4.204,3.36,
4.124,4.188,3.44,
4.148,4.14,3.36,
4.132,4.212,3.44,
4.052,4.156,3.44,
4.164,4.22,3.32,
4.148,4.156,3.36,
4.068,4.212,3.44,
4.068,4.18,3.32,
4.164,4.212,3.44,
4.148,4.204,3.36,
4.1,4.164,3.44,
4.148,4.204,3.32,
4.1,4.164,3.44,
4.148,4.22,3.36,
4.092,4.148,3.44,
4.06,4.204,3.36,
4.164,4.188,3.44,
4.148,4.204,3.32,
4.132,4.18,3.44,
4.148,3.996,3.32,
4.124,4.308,3.44,
3.708,4.276,3.36,
4.252,3.9,3.44,
4.236,4.252,3.44,
3.396,3.892,3.32,
3.404,4.156,3.36,
4.22,4.244,3.44,
4.06,4.244,3.36,
4.204,4.196,3.4,
4.22,4.22,3.36,
4.164,4.188,0,
4.196,4.22,0.08,
4.164,4.188,0,
4.164,4.196,0.08,
4.188,4.22,0,
4.172,4.22,0.08,
4.188,4.188,0,
4.188,4.196,0.08,
4.164,4.22,0,
4.188,4.188,0.08,
4.164,4.22,0,
4.188,4.188,0.08,
4.164,4.22,0,
4.156,4.22,0.08,
4.188,4.188,0,
4.172,4.22,0,
4.188,4.172,3.4,
4.188,4.22,3.36,
4.116,4.196,3.4,
4.188,4.22,3.36,
4.164,4.196,3.44,
4.188,4.22,3.32,
4.164,4.188,3.44,
4.164,4.22,3.32,
4.188,4.196,3.44,
4.188,4.188,3.32,
4.164,4.22,3.4,
4.164,4.196,3.44,
4.188,4.22,3.32,
4.188,4.22,3.4,
4.164,4.188,3.32,
4.188,4.22,3.32,
4.172,4.188,3.44,
4.188,4.188,3.44,
4.164,4.22,3.32,
4.164,4.22,3.36,
4.196,4.196,3.4,
4.188,4.22,3.44,
4.164,4.188,3.32,
4.172,4.22,3.36,
4.196,4.188,3.44,
4.196,4.22,3.4,
4.156,4.18,3.32,
4.196,4.188,3.36,
4.148,4.22,3.4,
4.164,4.22,3.36,
4.188,4.188,3.44,
4.188,4.22,3.36,
4.164,4.196,3.44,
4.188,4.22,3.36,
4.164,4.188,3.44,
4.148,4.148,3.44,
4.196,4.228,3.32,
4.076,4.004,3.36,
4.196,4.308,3.44,
3.692,3.892,3.32,
4.26,4.308,3.44,
3.396,3.884,3.44,
4.244,4.26,3.36,
3.404,4.204,3.32,
4.22,4.188,3.44,
4.148,4.204,3.44,
4.132,4.188,3.32,
4.148,4.188,3.36,
4.132,4.22,3.44,
4.148,4.188,3.36,
4.132,4.204,3.44,
4.132,4.204,3.44,
4.148,4.188,3.32,
4.148,4.204,3.32,
4.124,4.18,3.44,
4.148,4.204,3.44,
4.124,4.18,3.32,
4.148,4.204,3.36,
4.124,4.18,3.44,
4.148,4.204,3.44,
4.132,4.18,3.32,
4.148,4.188,3.36,
4.124,4.204,3.44,
4.148,4.204,3.36,
4.124,4.18,3.44,
4.148,4.204,3.44,
4.132,4.18,3.32,
4.148,4.204,3.32,
4.132,4.188,3.44,
4.132,4.204,3.44,
4.164,4.18,3.32,
4.148,4.212,3.36,
4.132,4.18,3.4,
4.148,4.204,3.32,
4.132,4.188,3.44,
4.148,4.204,3.36,
4.132,4.18,3.44,
4.148,4.22,3.44,
4.124,4.18,0.04,
4.148,4.204,0.08,
4.124,4.18,0,
4.148,4.188,0.08,
4.132,4.204,0,
4.148,4.204,0,
4.132,4.18,0.08,
4.132,4.204,0.08,
4.148,4.156,0,
4.092,4.204,0.08,
4.156,4.18,0,
4.148,4.204,0.08,
4.132,4.188,0,
4.148,4.204,0.08,
4.132,4.18,0,
4.148,4.204,0.08,
4.124,4.172,0,
4.1,4.204,0.08,
4.164,4.188,0,
4.148,4.188,0.08,
4.124,4.22,0,
4.148,4.188,0.08,
4.132,4.212,0,
4.132,4.204,0,
4.148,4.18,0.08,
4.132,4.204,0.08,
4.148,4.18,0,
4.148,4.204,0.08,
4.132,4.18,0,
4.148,4.188,0.08,
4.132,4.22,0,
4.148,4.188,0.08,
4.132,4.22,0.04,
4.132,4.188,0.08,
4.148,4.212,0,
4.148,4.188,0.08,
4.132,4.204,0,
4.148,4.204,0.08,
4.132,4.188,0.04,
4.148,4.204,0.08,
4.124,4.18,0,
4.148,4.188,0.08,
4.124,4.212,0,
4.148,4.188,0,
4.132,4.204,0.08,
4.132,4.204,0.08,
4.148,4.188,0,
4.132,4.204,0.08,
4.156,4.188,0,
4.148,4.204,0.08,
4.132,4.18,0,
4.148,4.188,0.08,
4.132,4.212,0,
4.148,4.204,0.08,
4.132,4.18,0,
4.148,4.22,0.08,
4.124,4.18,0,
4.148,4.204,0.08,
4.124,4.188,0,
4.148,4.204,0.08,
4.124,4.18,0,
4.148,4.188,0.08,
4.132,4.22,0,
4.148,4.204,0.08,
4.124,4.188,0,
4.148,4.22,0.08,
4.124,4.18,0.04,
4.148,4.204,0.08,
4.132,4.188,0,
4.148,4.188,0.08,
4.132,4.204,0,
4.132,4.22,0.08,
4.148,4.18,0,
4.132,4.204,0.08,
4.148,4.188,0,
4.132,4.204,0.08,
4.148,4.188,0,
4.148,4.188,0.08,
4.132,4.212,0,
4.148,4.204,0.08,
4.132,4.188,0,
4.148,4.22,0.08,
4.132,4.164,0.04,
4.148,4.204,0.08,
4.124,4.188,0,
4.148,4.188,0.08,
4.132,4.212,0,
4.132,4.204,0.08,
4.156,4.18,0,
4.148,4.204,0.08,
4.132,4.188,0,
4.148,4.204,0.08,
4.124,4.18,0,
4.148,4.204,0.08,
4.132,4.18,0,
4.148,4.204,0.08,
4.124,4.188,0,
4.148,4.204,0.08,
4.124,4.18,0,
4.148,4.188,0.08,
4.124,4.204,0,
4.132,4.188,0.08,
4.148,4.204,0,
4.132,4.188,0.08,
4.148,4.212,0,
4.148,4.204,0.08,
4.124,4.188,0,
4.148,4.188,0.08,
4.132,4.22,0,
4.148,4.188,0.08,
4.132,4.212,0,
4.132,4.204,0.08,
4.148,4.18,0,
4.132,4.204,0.08,
4.148,4.18,0,
4.148,4.18,0.08,
4.132,4.212,0,
4.132,4.204,0,
4.148,4.18,0.08,
4.148,4.188,0.08,
4.124,4.22,0,
4.148,4.204,0.08,
4.124,4.188,0,
4.148,4.204,0.08,
4.132,4.18,0,
4.132,4.188,0.08,
4.148,4.212,0,
4.148,4.204,0.08,
4.132,4.188,0,
4.132,4.188,0.08,
4.164,4.204,0,
4.148,4.188,0.08,
4.132,4.212,0,
4.148,4.18,0,
4.132,4.212,0.08,
4.132,4.204,0.08,
4.148,4.18,0,
4.148,4.204,0.08,
4.124,4.188,0,
4.132,4.188,0.08,
4.148,4.204,0,
4.132,4.204,0.08,
4.148,4.188,0,
4.132,4.188,0.08,
4.148,4.22,0,
4.132,4.188,0.08,
4.148,4.212,0,
4.148,4.204,0.08,
4.132,4.188,0,
4.148,4.188,0.08,
4.132,4.204,0,
4.148,4.188,0.08,
4.124,4.212,0,
4.148,4.204,0.08,
4.124,4.188,0,
4.132,4.204,0.08,
4.148,4.188,0,
4.148,4.188,0.08,
4.124,4.204,0,
4.148,4.188,0.08,
4.124,4.204,0,
4.148,4.204,0.08,
4.124,4.18,0,
4.148,4.204,0.08,
4.132,4.18,0,
4.132,4.188,0.08,
4.148,4.204,0.04,
4.132,4.212,0.08,
4.148,4.18,0,
4.148,4.188,0.08,
4.124,4.204,0,
4.148,4.18,0.08,
4.132,4.22,0,
4.148,4.204,0.08,
4.132,4.18,0,
4.148,4.204,0.08,
4.132,4.188,0,
4.148,4.204,0.08,
4.124,4.188,0,
4.132,4.204,0.08,
4.148,4.18,0,
4.148,3.876,0,
4.132,4.244,0.12,
3.388,4.22,0.08,
4.204,4.156,0,
4.164,4.18,0.08,
4.084,4.244,0,
4.132,4.22,0.08,
4.204,4.188,0,
4.188,4.196,0.08,
4.164,4.22,0,
4.172,4.22,0.08,
4.188,4.188,0,
4.188,4.196,0.08,
4.164,4.22,0,
4.188,4.22,0.08,
4.164,4.196,0,
4.164,4.22,0.08,
4.188,4.188,0,
4.164,4.196,0.08,
4.188,4.22,0,
4.188,4.196,0.08,
4.164,4.228,0,
4.188,4.22,0.08,
4.164,4.188,0,
4.188,4.22,0.08,
4.164,4.188,0,
4.164,4.196,0.08,
4.196,4.22,0,
4.196,4.22,0.08,
4.18,4.188,0,
4.196,4.22,0.08,
4.164,4.188,0,
4.164,4.196,0.08,
4.188,4.22,0,
4.188,4.22,0.08,
4.164,4.188,0,
4.188,4.22,0.08,
4.164,4.188,0,
4.188,4.188,0.08,
4.164,4.22,0,
4.188,4.22,0.08,
4.164,4.188,0,
4.188,4.22,0.08,
4.164,4.196,0,
4.188,4.196,0.08,
4.164,4.22,0,
4.188,4.22,0.08,
4.164,4.188,0,
4.188,4.22,0,
4.164,4.196,0.08,
4.188,4.196,0.08,
4.164,4.22,0,
4.188,4.22,0.08,
4.164,4.188,0,
4.188,4.188,0.08,
4.164,4.22,0,
4.188,4.22,0.08,
4.172,4.196,0,
4.188,4.22,0,
4.164,4.196,0.08,
4.188,4.22,0.08,
4.164,4.196,0,
4.164,4.22,0.08,
4.188,4.188,0,
4.164,4.22,0.08,
4.188,4.188,0,
4.172,4.22,0.08,
4.196,4.188,0,
4.18,4.22,0.08,
4.196,4.188,0,
4.196,4.22,0.08,
4.164,4.156,0,
4.188,4.228,0.08,
4.092,4.156,0,
4.196,4.204,0.08,
4.084,4.188,0,
4.148,4.188,0.08,
4.132,4.228,0,
4.124,4.22,0.08,
4.204,4.196,0,
4.196,4.22,0.08,
4.164,4.196,0,
4.164,4.22,0.08,
4.188,4.188,0,
4.188,4.22,0,
4.164,4.188,0.08,
4.188,4.188,0.08,
4.164,4.22,0,
4.188,4.22,0.08,
4.164,4.196,0,
4.164,4.22,0.08,
4.188,4.188,0,
4.188,4.22,0.08,
4.164,4.188,0,
4.188,4.188,0,
4.164,4.22,0.08,
4.188,4.22,0.08,
4.164,4.188,0,
4.188,4.196,0.08,
4.164,4.22,0,
4.188,4.188,0.08,
4.164,4.22,0,
4.188,4.196,0.08,
4.148,4.22,0,
4.188,4.22,0.08,
4.164,4.196,0,
4.18,4.22,0,
4.196,4.188,0.08,
4.196,4.188,0,
4.172,4.22,0.08,
4.196,4.188,0.08,
4.164,4.22,0,
4.188,4.188,0.08,
4.164,4.22,0,
4.188,4.196,0.08,
4.164,4.22,0,
4.188,4.188,0.08,
4.164,4.22,0,
4.188,4.196,0.08,
4.164,4.22,0,
4.188,4.22,0.08,
4.164,4.196,0,
4.164,4.22,0.08,
4.196,4.188,0,
4.188,4.22,0.08,
4.164,4.196,0,
4.188,4.188,0.08,
4.164,4.22,0,
4.188,4.188,0.08,
4.164,4.22,0,
4.196,4.188,0.08,
4.164,4.22,0,
4.188,4.22,0.08,
4.172,4.188,0,
4.188,4.22,0.08,
4.164,4.188,0,
4.188,4.22,0.08,
4.164,4.188,0,
4.164,4.22,0.08,
4.188,4.188,0,
4.172,4.22,0.08,
4.188,4.188,0,
4.188,4.188,0,
4.164,4.22,0.08,
4.164,4.22,0,
4.188,4.188,0.08,
4.164,4.22,0.08,
4.196,4.188,0,
4.196,4.22,0.08,
4.164,4.188,0,
4.188,4.22,0.08,
4.164,4.196,0,
4.188,4.22,0.08,
4.164,4.196,0,
4.188,4.22,0.08,
4.172,4.188,0.04,
4.188,4.22,0.08,
4.164,4.188,0,
4.188,4.22,0.08,
4.164,4.188,0,
4.188,4.22,0.08,
4.164,4.188,0.04,
4.188,4.188,0.08,
4.164,4.22,0.04,
4.164,4.22,0.08,
4.188,4.188,0,
4.188,4.196,0.08,
4.164,4.22,0,
4.188,4.22,0.08,
4.164,4.188,0,
4.188,4.22,0.08,
4.164,4.196,0,
4.188,4.196,0.08,
4.164,4.22,0,
4.164,4.22,0.08,
4.188,4.188,0,
4.188,4.22,0.08,
4.164,4.188,0,
4.188,4.22,0.08,
4.164,4.188,0,
4.188,4.22,0.08,
4.164,4.196,0.04,
