Power Reception/Metingen 3/Meting met pin 0 -68 -72 142 0.csv

CH1,CH2,CH3,Start,Increment,
Volt,Volt,Volt,-29.975,0.05
4.124,4.196,0.08,
4.148,4.18,0.04,
4.14,4.196,0.08,
4.124,4.18,0,
4.124,4.18,0.08,
4.148,4.204,0.04,
4.148,4.18,0.08,
4.124,4.204,0.04,
4.124,4.196,0.08,
4.14,4.172,0,
4.124,4.18,0.08,
4.148,4.204,0,
4.148,4.18,0.08,
4.124,4.204,0.04,
4.14,4.196,0.04,
4.124,4.18,0.08,
4.124,4.18,0.08,
4.148,4.204,0,
4.124,4.196,0.08,
4.148,4.18,0,
3.876,4.22,0,
4.18,4.044,0.08,
4.18,4.22,0.08,
3.876,4.044,0.04,
3.876,4.22,0.08,
4.188,4.044,0,
4.148,4.204,0.08,
4.124,4.18,0,
4.108,4.196,0.08,
4.148,4.18,0.04,
4.124,4.18,0.08,
4.148,4.204,0,
4.148,4.196,0.08,
4.124,4.18,0,
4.14,4.196,0.08,
4.124,4.18,0,
4.124,4.196,0.08,
4.148,4.18,0,
4.148,4.172,0.08,
4.108,4.204,0,
4.124,4.196,0.08,
4.148,4.18,0,
4.148,4.204,0.08,
4.124,4.18,0,
4.148,4.18,0.08,
4.124,4.204,0.04,
4.124,4.18,0.08,
4.148,4.196,0,
4.172,4.212,0.08,
3.876,4.044,0,
4.172,4.204,0.08,
3.964,4.1,0.04,
4.172,4.204,0.08,
3.884,4.044,0,
4.148,4.196,0.08,
4.124,4.18,0.04,
4.14,4.196,0.08,
4.116,4.18,0.04,
4.124,4.18,0.08,
4.148,4.204,0,
4.124,4.196,0.08,
4.148,4.18,0,
4.14,4.196,0.08,
4.124,4.18,0.04,
4.148,4.196,0.04,
4.124,4.18,0.08,
4.14,4.196,0.08,
4.124,4.18,0,
4.14,4.18,0.08,
4.116,4.204,0,
4.148,4.18,0.08,
4.124,4.196,0,
4.124,4.18,0.04,
4.188,4.204,0.08,
3.876,4.044,0.08,
4.18,4.22,0.04,
4.18,4.22,0.08,
3.876,4.044,0,
4.124,4.18,0.08,
4.14,4.196,0.04,
4.124,4.18,0.08,
4.148,4.204,0.04,
4.148,4.18,0.08,
4.108,4.204,0,
4.108,4.18,0.08,
4.148,4.204,0.04,
4.124,4.18,0,
4.148,4.196,0.08,
4.108,4.196,0.08,
4.148,4.164,0,
4.124,4.196,0.08,
4.148,4.18,0.04,
4.14,4.196,0.08,
4.124,4.18,0,
4.116,4.196,0.08,
4.148,4.18,0,
4.18,4.212,0.08,
3.964,4.1,0,
3.876,4.228,0.08,
4.188,4.044,0.04,
4.124,4.18,0.08,
4.148,4.204,0.04,
4.148,4.196,0.08,
4.124,4.18,0,
4.14,4.18,0.08,
4.116,4.204,0,
4.14,4.196,0.08,
4.124,4.18,0,
4.14,4.18,0.08,
4.116,4.196,0.04,
4.14,4.196,0.08,
4.124,4.18,0,
4.108,4.18,0.08,
4.148,4.204,0,
4.14,4.196,0.08,
4.124,4.18,0.04,
4.116,4.18,0.08,
4.14,4.196,0.04,
4.124,4.18,0.08,
4.148,4.196,0,
4.188,4.22,0.08,
3.876,4.036,0,
4.188,4.22,0.08,
3.884,4.044,0,
3.868,4.036,0.08,
4.188,4.22,0,
4.124,4.18,0.08,
4.148,4.196,0,
4.124,4.196,0.08,
4.148,4.18,0.04,
4.14,4.196,0.08,
4.124,4.18,0,
4.124,4.18,0.08,
4.148,4.196,0,
4.14,4.196,0.08,
4.124,4.18,0.04,
4.124,4.18,0.08,
4.148,4.196,0,
4.124,4.18,0.04,
4.148,4.196,0.08,
4.108,4.18,0.04,
4.14,4.196,0.08,
4.116,4.18,0.08,
4.148,4.204,0.04,
4.124,4.196,0.08,
4.148,4.18,0,
4.18,4.22,0.04,
3.876,4.052,0.08,
4.172,4.204,0.08,
3.964,4.092,0,
4.172,4.204,0.08,
3.956,4.092,0.04,
4.188,4.22,0.08,
3.876,4.036,0,
4.148,4.196,0.08,
4.124,4.18,0.04,
4.124,4.196,0.08,
4.148,4.18,0.04,
4.124,4.18,0.08,
4.148,4.204,0,
4.124,4.18,0.08,
4.148,4.204,0,
4.124,4.18,0.08,
4.148,4.204,0.04,
4.124,4.18,0,
4.148,4.204,0.08,
4.14,4.196,0.08,
4.124,4.18,0.04,
4.124,4.18,0.08,
4.148,4.204,0.04,
4.124,4.18,0.08,
4.148,4.196,0,
4.18,4.22,0.08,
3.876,4.044,0,
4.18,4.06,0.08,
3.884,4.22,0,
4.124,4.18,0.08,
4.148,4.196,0,
4.124,4.196,0.08,
4.148,4.18,0,
4.116,4.196,0.04,
4.148,4.18,0.08,
4.14,4.196,0.08,
4.124,4.172,0,
4.14,4.196,0.08,
4.124,4.18,0,
4.124,4.204,0.08,
4.148,4.18,0,
4.116,4.18,0.08,
4.148,4.204,0,
4.124,4.18,0.08,
4.148,4.204,0,
4.132,4.18,0.08,
4.148,4.196,0,
4.108,4.172,0.08,
4.18,4.212,0,
3.876,4.044,0.08,
4.196,4.228,0,
4.148,4.204,0.08,
4.124,4.172,0.04,
4.124,4.18,0.08,
4.148,4.196,0.04,
4.108,4.18,0.08,
4.148,4.204,0,
4.14,4.18,0.08,
4.124,4.204,0.04,
4.14,4.18,0,
4.124,4.204,0.08,
4.148,4.196,0,
4.124,4.18,0.08,
4.148,4.204,0.08,
4.124,4.18,0,
4.14,4.18,0.08,
4.124,4.204,0,
4.148,4.18,0.08,
4.124,4.196,0,
4.124,4.18,0.08,
4.148,4.196,0,
3.884,4.044,0.08,
4.196,4.228,0,
3.876,4.044,0.08,
4.188,4.22,0,
4.18,4.044,0,
3.876,4.22,0.08,
4.18,4.22,0.08,
3.876,4.044,0,
4.148,4.18,0.04,
4.124,4.204,0.08,
4.14,4.18,0.08,
4.124,4.196,0,
4.124,4.18,0,
4.148,4.196,0.08,
4.124,4.18,0.08,
4.148,4.196,0,
4.124,4.18,0.08,
4.148,4.204,0,
4.108,4.196,0.04,
4.148,4.18,0.08,
4.14,4.196,0.08,
4.124,4.18,0,
4.124,4.18,0.08,
4.148,4.204,0,
4.124,4.18,0.08,
4.148,4.196,0.04,
4.124,4.18,0,
4.148,4.196,0.08,
4.148,4.18,0,
4.124,4.204,0.08,
4.18,4.22,0.08,
3.876,4.044,0,
4.172,4.204,0.08,
3.94,4.092,0.04,
4.18,4.212,0.08,
3.876,4.044,0,
4.148,4.196,0.08,
4.124,4.18,0,
4.124,4.18,0.08,
4.148,4.204,0.04,
4.148,4.196,0.08,
4.124,4.18,0.04,
4.124,4.18,0.08,
4.148,4.196,0.04,
4.124,4.196,0.08,
4.148,4.18,0.04,
4.148,4.196,0.08,
4.124,4.164,0,
4.124,4.196,0.08,
4.148,4.18,0,
4.124,4.196,0.04,
4.148,4.18,0.08,
4.14,4.196,0.08,
4.124,4.18,0.04,
4.148,4.196,0.08,
4.092,4.172,0,
3.876,4.028,0.08,
4.196,4.228,0,
4.148,4.204,0.08,
4.124,4.18,0.04,
4.124,4.18,0.08,
4.148,4.204,0,
4.148,4.18,0.08,
4.108,4.196,0,
4.14,4.196,0.08,
4.124,4.172,0,
4.124,4.196,0.08,
4.148,4.18,0,
4.14,4.18,0.08,
4.124,4.196,0,
4.124,4.196,0.08,
4.148,4.18,0,
4.124,4.196,0.08,
4.148,4.18,0.04,
4.124,4.172,0,
4.148,4.196,0.08,
4.14,4.172,0.08,
4.116,4.204,0.04,
4.18,4.212,0.08,
3.876,4.044,0.04,
4.196,4.22,0.08,
3.876,4.044,0,
4.124,4.18,0.08,
4.148,4.204,0,
4.14,4.18,0.08,
4.124,4.204,0,
4.148,4.196,0.08,
4.124,4.18,0.04,
4.124,4.196,0.08,
4.148,4.18,0,
4.14,4.196,0.08,
4.124,4.164,0.04,
4.124,4.18,0.08,
4.148,4.196,0,
4.148,4.196,0.08,
4.124,4.18,0,
4.124,4.18,0.08,
4.148,4.196,0,
4.124,4.18,0.08,
4.148,4.204,0,
4.14,4.196,0.08,
4.124,4.18,0,
4.18,4.22,0.08,
3.884,4.044,0,
4.188,4.212,0.08,
3.876,4.044,0,
4.18,4.044,0.08,
3.884,4.228,0,
4.18,4.212,0.08,
3.876,4.044,0,
4.148,4.196,0.08,
4.124,4.18,0.04,
4.148,4.196,0.08,
4.124,4.18,0,
4.124,4.196,0.08,
4.148,4.18,0,
4.124,4.18,0.08,
4.148,4.204,0.04,
4.14,4.18,0.08,
4.124,4.204,0.04,
4.124,4.196,0.08,
4.148,4.18,0,
4.124,4.18,0.08,
4.148,4.196,0,
4.124,4.18,0,
4.148,4.196,0.08,
4.148,4.196,0.08,
4.124,4.18,0,
4.124,4.196,0.08,
4.148,4.18,0,
4.172,4.212,0.08,
3.876,4.044,0,
4.172,4.212,0.08,
3.932,4.076,0,
4.172,4.076,0.08,
3.932,4.22,0,
4.148,4.036,0.08,
3.876,4.204,0,
4.124,4.18,0.08,
4.148,4.196,0,
4.124,4.18,0.08,
4.148,4.204,0,
4.124,4.196,0.08,
4.148,4.18,0,
4.124,4.18,0.08,
4.148,4.196,0,
4.124,4.18,0.08,
4.148,4.204,0.04,
4.148,4.196,0.08,
4.124,4.18,0.04,
4.124,4.18,0.08,
4.148,4.204,0.04,
4.132,4.196,0.08,
4.148,4.18,0.04,
4.124,4.18,0.08,
4.148,4.204,0.04,
4.18,4.044,0.08,
3.884,4.228,0,
4.18,4.212,0.08,
3.876,4.044,0,
4.14,4.196,0.08,
4.108,4.172,0,
4.108,4.196,0.08,
4.148,4.18,0,
4.116,4.196,0.08,
4.148,4.18,0,
4.124,4.18,0.08,
4.148,4.196,0,
4.148,4.196,0.08,
4.124,4.18,0,
4.14,4.18,0.08,
4.124,4.196,0,
4.124,4.18,0.08,
4.148,4.196,0,
4.124,4.196,0.08,
4.148,4.18,0,
4.1,4.172,0.08,
4.148,4.204,0,
4.18,4.212,0.08,
3.884,4.044,0,
4.188,4.22,0.08,
3.876,4.044,0,
4.148,4.196,0.08,
4.124,4.18,0,
4.148,4.18,0.08,
4.124,4.196,0,
4.124,4.196,0.08,
4.148,4.18,0,
4.148,4.196,0.08,
4.124,4.18,0,
4.148,4.18,0.08,
4.124,4.196,0,
4.124,4.196,0.08,
4.148,4.18,0,
4.124,4.196,0,
4.148,4.18,0.08,
4.124,4.18,0.08,
4.148,4.196,0,
4.148,4.196,0.08,
4.124,4.18,0,
4.148,4.196,0.08,
4.124,4.18,0,
3.876,4.044,0.08,
4.188,4.228,0,
4.18,4.22,0.08,
3.876,4.052,0,
4.188,4.044,0.08,
3.876,4.22,0,
4.18,4.228,0.08,
3.884,4.06,0,
4.14,4.196,0.08,
4.124,4.164,0,
4.124,4.196,0.08,
4.14,4.18,0.04,
4.14,4.18,0.08,
4.116,4.196,0,
4.14,4.18,0.08,
4.108,4.196,0,
4.108,4.18,0.08,
4.14,4.196,0,
4.124,4.196,0.08,
4.14,4.18,0,
4.14,4.196,0.08,
4.124,4.18,0,
4.14,4.196,0.08,
4.108,4.164,0,
4.124,4.18,0.08,
4.148,4.196,0,
4.132,4.18,0,
4.148,4.196,0.08,
3.876,4.044,0,
4.18,4.22,0.08,
4.172,4.22,0.08,
3.876,4.044,0,
4.18,4.212,0.08,
3.876,4.044,0,
4.124,4.196,0.08,
4.148,4.18,0,
4.148,4.196,0.08,
4.124,4.18,0,
4.14,4.18,0.08,
4.124,4.196,0,
4.14,4.196,0.08,
4.124,4.18,0,
4.132,4.196,0.08,
4.148,4.18,0,
4.148,4.196,0.08,
4.124,4.18,0,
4.124,4.196,0.08,
4.148,4.18,0,
4.148,4.18,0.08,
4.124,4.196,0,
4.14,4.196,0,
4.124,4.18,0.08,
4.1,4.164,0.08,
4.18,4.204,0,
3.876,4.22,0.08,
4.188,4.044,0,
4.188,4.204,0.08,
3.876,4.044,0,
4.124,4.196,0.08,
4.148,4.18,0,
4.124,4.18,0.08,
4.148,4.196,0,
4.14,4.196,0.08,
4.124,4.18,0,
4.148,4.196,0,
4.124,4.18,0.08,
4.148,4.18,0.08,
4.124,4.196,0,
4.124,4.18,0.08,
4.148,4.196,0,
4.148,4.196,0.08,
4.124,4.18,0,
4.14,4.196,0.08,
4.124,4.18,0,
4.092,4.156,0.08,
4.148,4.204,0,
4.092,4.164,0.08,
4.18,4.212,0,
4.196,4.044,0.08,
3.876,4.228,0,
4.148,4.204,0.08,
4.124,4.18,0,
4.14,4.18,0.08,
4.108,4.196,0,
4.132,4.18,0.08,
4.148,4.196,0,
4.148,4.196,0.08,
4.124,4.18,0,
4.116,4.196,0,
4.148,4.18,0.08,
4.148,4.18,0.08,
4.124,4.204,0,
4.132,4.196,0,
4.148,4.18,0.08,
4.148,4.196,0.08,
4.124,4.18,0,
4.124,4.196,0.08,
4.148,4.18,0,
4.148,4.196,0.08,
4.132,4.18,0,
4.18,4.212,0.08,
3.876,4.052,0,
4.188,4.22,0.08,
3.876,4.044,0,
3.876,4.044,0.08,
4.18,4.22,0,
4.188,4.22,0,
3.884,4.06,0.08,
4.148,4.196,0.08,
4.124,4.18,0,
4.148,4.196,0.08,
4.124,4.18,0,
4.148,4.196,0.08,
4.132,4.18,0,
4.148,4.18,0.08,
4.124,4.204,0,
3.868,4.036,0.08,
4.18,4.22,0,
4.188,4.22,0.08,
3.876,4.052,0,
4.148,4.196,0.08,
4.124,4.18,0,
4.148,4.196,0.08,
4.124,4.18,0,
4.124,4.18,0.08,
4.148,4.196,0,
4.092,4.164,0.08,
4.172,4.212,0,
3.876,4.044,0.08,
4.18,4.228,0,
4.148,4.204,0.08,
4.132,4.18,0,
4.14,4.196,0.08,
4.124,4.18,0,
4.124,4.196,0.08,
4.148,4.18,0,
4.148,4.196,0.08,
4.124,4.18,0,
4.14,4.18,0.08,
4.132,4.196,0,
4.124,4.196,0.08,
4.148,4.18,0,
4.148,4.196,0.08,
4.124,4.164,0,
4.148,4.196,0.08,
4.124,4.18,0,
4.132,4.196,0.08,
4.148,4.18,0,
4.148,4.196,0.08,
4.124,4.18,0,
4.1,4.18,0.08,
4.18,4.204,0,
3.876,4.22,0.08,
4.196,4.036,0,
4.132,4.204,0.08,
4.148,4.18,0.04,
4.124,4.18,0.08,
4.148,4.196,0,
4.148,4.196,0.08,
4.124,4.18,0,
4.148,4.196,0.08,
4.124,4.18,0,
4.124,4.18,0.08,
4.148,4.196,0,
4.148,4.196,0.08,
4.124,4.18,0,
4.14,4.18,0.08,
4.124,4.196,0,
4.132,4.196,0.08,
4.148,4.18,0,
4.148,4.196,0.08,
4.124,4.18,0,
4.124,4.196,0.08,
4.148,4.18,0,
3.884,4.044,0.08,
4.188,4.22,0,
4.18,4.044,0,
3.892,4.22,0.08,
4.124,4.196,0.08,
4.148,4.18,0,
4.148,4.18,0,
4.124,4.204,3.36,
4.148,4.148,3.4,
4.084,4.204,3.32,
4.148,4.204,3.36,
4.132,4.18,3.44,
4.14,4.196,3.36,
4.124,4.18,3.4,
4.124,4.18,3.36,
4.148,4.196,3.4,
4.148,4.196,3.32,
4.084,4.156,3.44,
4.036,4.132,3.32,
4.164,4.212,3.44,
3.884,4.044,3.4,
4.212,4.26,3.32,
4.252,4.26,3.32,
4.124,4.156,3.44,
4.132,4.18,3.36,
4.148,4.196,3.4,
4.132,4.18,3.4,
4.164,4.204,3.32,
4.14,4.18,3.36,
4.228,4.244,3.32,
4.22,4.228,3.36,
4.116,4.164,3.4,
4.148,4.18,3.36,
4.132,4.204,3.4,
4.132,4.18,3.36,
4.164,4.204,3.32,
4.14,4.188,3.44,
4.164,4.204,3.32,
4.124,4.204,3.36,
4.172,4.18,3.4,
4.164,4.18,3.44,
4.124,4.212,3.32,
4.164,4.204,3.36,
4.124,4.18,3.44,
4.14,4.18,3.4,
4.124,4.196,3.32,
4.124,4.18,3.36,
4.14,4.196,3.44,
4.124,4.18,3.36,
4.14,4.196,3.32,
4.124,4.196,3.36,
4.14,4.18,3.32,
4.124,4.18,3.36,
4.14,4.196,3.4,
4.124,4.196,3.32,
4.14,4.18,3.4,
4.14,4.18,3.36,
4.124,4.196,3.36,
4.14,4.196,3.44,
4.124,4.18,3.32,
4.124,4.196,3.36,
4.14,4.18,3.4,
4.124,4.196,3.32,
4.14,4.18,3.4,
4.124,4.18,3.36,
4.14,4.196,3.44,
4.14,4.18,3.36,
4.124,4.196,3.4,
4.14,4.18,3.32,
4.124,4.196,3.4,
4.124,4.18,3.36,
4.14,4.196,3.44,
4.124,4.196,3.36,
4.14,4.18,3.36,
4.124,4.196,3.44,
4.14,4.18,3.32,
4.14,4.196,3.32,
4.124,4.18,3.44,
4.14,4.18,3.36,
4.124,4.196,3.4,
4.044,4.132,3.36,
4.148,4.204,3.4,
4.124,4.18,3.32,
4.14,4.196,3.4,
4.124,4.18,3.36,
4.14,4.196,3.4,
4.124,4.196,3.4,
4.14,4.18,3.32,
4.124,4.18,3.36,
4.14,4.196,3.32,
4.14,4.196,3.36,
4.124,4.18,3.36,
4.124,4.18,3.36,
4.14,4.196,3.44,
4.044,4.132,3.36,
4.172,4.22,3.36,
4.124,4.196,3.32,
4.14,4.18,3.4,
4.124,4.18,3.36,
4.14,4.196,3.44,
4.124,4.196,3.32,
4.14,4.18,3.4,
4.14,4.196,3.32,
4.1,4.172,3.44,
4.124,4.18,3.32,
4.164,4.204,3.4,
4.148,4.196,3.36,
4.02,4.124,3.44,
4.116,4.164,3.44,
4.092,4.196,3.32,
4.124,4.188,3.32,
4.044,4.148,3.4,
4.156,4.212,3.36,
4.02,4.14,3.4,
4.124,4.156,3.36,
4.06,4.204,3.4,
4.116,4.148,3.32,
4.052,4.196,3.4,
4.116,4.148,3.32,
4.036,4.196,3.4,
4.036,4.196,3.36,
4.116,4.14,3.44,
4.116,4.156,3.44,
4.06,4.196,3.32,
4.116,4.156,3.32,
4.052,4.188,3.44,
4.108,4.188,3.36,
4.012,4.132,3.4,
4.02,4.14,3.36,
4.108,4.188,3.44,
3.988,4.132,3.32,
4.14,4.204,3.4,
4.1,4.196,3.36,
4.132,4.172,3.4,
4.108,4.204,3.32,
4.14,4.164,3.44,
4.14,4.196,3.44,
3.996,4.124,3.32,
3.996,4.14,3.36,
4.124,4.204,0.04,
4.02,4.204,0.08,
4.14,4.132,0,
4.052,4.204,0.08,
4.148,4.156,0,
4.044,4.148,0.08,
4.172,4.228,0,
4.148,4.204,0.08,
3.996,4.108,0,
4.036,4.148,0.08,
4.14,4.204,0,
4.196,4.228,0,
4.076,4.148,3.44,
4.196,4.228,3.36,
4.124,4.18,3.4,
4.188,4.204,3.36,
4.1,4.164,3.44,
4.132,4.18,3.44,
4.148,4.196,3.32,
4.132,4.18,3.32,
4.148,4.204,3.4,
4.148,4.196,3.36,
4.132,4.18,3.4,
4.148,4.108,3.44,
4.012,4.204,3.32,
4.14,4.18,3.4,
4.108,4.196,3.32,
4.108,4.196,3.32,
4.14,4.18,3.4,
4.092,4.196,3.36,
4.14,4.156,3.44,
4.14,4.196,3.32,
4.084,4.164,3.44,
4.164,4.204,3.36,
3.9,4.06,3.44,
4.212,4.26,3.36,
3.876,4.044,3.4,
4.18,4.228,3.4,
3.876,4.044,3.32,
3.868,4.044,3.32,
4.18,4.228,3.44,
4.148,4.204,3.36,
4.108,4.18,3.4,
4.124,4.196,3.32,
4.148,4.18,3.4,
4.148,4.18,3.32,
4.124,4.204,3.44,
3.876,4.044,3.36,
4.212,4.26,3.4,
4.18,4.228,3.36,
3.876,4.044,3.44,
3.876,4.044,3.44,
4.196,4.22,3.32,
4.188,4.22,3.32,
3.812,4.02,3.44,
4.18,4.228,3.36,
3.876,4.044,3.4,
4.124,4.18,3.36,
4.148,4.196,3.36,
4.124,4.204,3.4,
4.14,4.164,0.04,
4.14,4.196,0.08,
4.124,4.172,0,
4.124,4.196,0.04,
4.14,4.18,3.4,
4.124,4.18,3.32,
4.14,4.196,3.4,
4.108,4.164,3.36,
4.148,4.204,3.44,
4.14,4.196,3.36,
4.124,4.18,3.36,
4.124,4.18,3.36,
4.148,4.196,3.44,
4.124,4.164,3.32,
4.14,4.204,3.44,
4.124,4.18,3.32,
4.14,4.204,3.44,
4.124,4.18,3.36,
4.148,4.196,3.44,
4.14,4.196,3.32,
4.116,4.18,3.44,
4.14,4.18,3.36,
4.108,4.196,3.44,
4.124,4.18,3.4,
4.148,4.196,3.32,
4.14,4.18,3.32,
4.124,4.196,3.4,
4.14,4.18,3.32,
4.124,4.196,3.4,
4.148,4.204,3.36,
4.052,4.132,3.36,
4.052,4.148,3.36,
4.148,4.204,3.44,
4.148,4.132,3.32,
4.052,4.204,3.44,
4.14,4.196,3.36,
4.124,4.172,3.4,
4.124,4.18,3.36,
4.14,4.196,3.36,
4.084,4.156,3.4,
4.148,4.204,3.32,
4.036,4.196,3.36,
4.148,4.132,3.44,
4.148,4.18,3.36,
4.1,4.204,3.4,
4.148,4.196,3.4,
4.092,4.156,3.36,
4.092,4.156,3.32,
4.148,4.204,3.4,
4.124,4.18,3.36,
4.148,4.196,3.44,
3.852,4.044,3.36,
4.204,4.252,3.44,
4.196,4.228,3.36,
3.876,4.052,3.4,
4.188,4.22,3.44,
3.892,4.052,0.08,
4.028,4.14,0.08,
4.204,4.228,0.04,
4.188,4.22,0.08,
4.164,4.188,0,
4.164,4.188,0.08,
4.188,4.204,0,
4.164,4.188,0.08,
4.188,4.22,0,
4.164,4.204,0.08,
4.188,4.188,0,
4.164,4.188,0.08,
4.18,4.204,0,
4.164,4.204,0.08,
4.188,4.188,0,
4.164,4.212,0.08,
4.188,4.188,0,
4.188,4.188,0.04,
4.164,4.22,3.44,
4.124,4.204,3.36,
4.188,4.172,3.44,
4.164,4.204,3.36,
4.188,4.188,3.32,
4.164,4.204,3.36,
4.188,4.188,3.44,
4.164,4.188,3.32,
4.188,4.204,3.4,
4.052,4.148,3.36,
4.196,4.22,3.4,
4.076,4.148,3.36,
4.196,4.22,3.44,
4.164,4.204,3.36,
4.188,4.188,3.32,
4.188,4.188,3.36,
4.164,4.204,3.44,
4.164,4.188,3.36,
4.188,4.212,3.36,
4.188,4.204,3.44,
4.164,4.188,3.32,
4.164,4.188,3.36,
4.188,4.22,3.4,
4.164,4.188,3.44,
4.188,4.22,3.32,
4.188,4.204,3.36,
4.092,4.156,3.36,
4.196,4.156,3.32,
4.092,4.22,3.44,
4.124,4.172,3.36,
4.148,4.196,3.4,
4.124,4.18,3.36,
4.196,4.228,3.4,
4.188,4.22,3.4,
4.164,4.188,3.32,
4.188,4.204,3.32,
4.06,4.132,3.4,
4.196,4.228,3.36,
4.092,4.156,3.44,
4.132,4.196,3.44,
4.1,4.164,3.32,
4.212,4.052,3.4,
3.884,4.26,3.32,
3.876,4.228,3.44,
4.196,4.028,3.32,
4.188,4.22,3.36,
3.972,4.092,3.44,
4.124,4.18,3.44,
4.148,4.196,3.32,
4.124,4.18,3.32,
4.148,4.204,3.4,
4.148,4.18,3.36,
4.124,4.204,3.4,
4.124,4.196,3.4,
4.148,4.18,3.32,
4.148,4.196,3.36,
4.116,4.18,3.4,
4.148,4.18,3.36,
4.124,4.196,3.44,
4.124,4.18,3.36,
4.148,4.204,3.4,
4.148,4.18,3.32,
4.124,4.196,3.44,
4.148,4.196,3.32,
4.076,4.148,3.44,
4.148,4.156,3.36,
4.092,4.204,3.44,
4.124,4.18,3.44,
4.148,4.196,3.32,
4.148,4.196,3.36,
4.124,4.18,3.32,
4.076,4.156,3.36,
4.148,4.204,3.36,
4.124,4.196,3.36,
4.148,4.18,3.44,
4.124,4.196,3.44,
4.148,4.18,0.04,
4.108,4.196,0.08,
4.148,4.164,0.04,
4.14,4.18,0.08,
4.124,4.196,0,
4.124,4.18,0.08,
4.148,4.204,0,
4.116,4.18,0.08,
4.148,4.196,0,
4.124,4.18,0.08,
4.148,4.204,0,
4.14,4.18,0.08,
4.124,4.196,0,
4.092,4.196,0.08,
4.148,4.156,0,
4.108,4.196,0.08,
4.148,4.164,0,
4.124,4.196,0.08,
4.148,4.18,0.04,
4.124,4.18,0,
4.148,4.196,0.08,
4.124,4.196,0.08,
4.148,4.18,0,
4.124,4.196,0.08,
4.148,4.18,0,
4.148,4.18,0.08,
4.124,4.196,0,
4.148,4.196,0.08,
4.108,4.172,0,
4.124,4.18,0.08,
4.148,4.196,0,
4.124,4.196,0.08,
4.148,4.18,0,
4.124,4.18,0.08,
4.14,4.204,0,
4.124,4.196,0.08,
4.148,4.18,0.04,
4.14,4.18,0.08,
4.124,4.196,0,
4.124,4.196,0.08,
4.148,4.172,0,
4.124,4.196,0.08,
4.148,4.18,0,
4.124,4.196,0.08,
4.148,4.18,0,
4.124,4.18,0.08,
4.148,4.196,0,
4.124,4.18,0.08,
4.14,4.196,0,
4.124,4.18,0.08,
4.14,4.204,0,
4.14,4.196,0.08,
4.124,4.18,0.04,
4.124,4.18,0.08,
4.148,4.204,0,
4.076,4.156,0.08,
4.148,4.204,0,
4.124,4.196,0.08,
4.148,4.18,0,
4.148,4.196,0.08,
4.124,4.18,0,
4.14,4.196,0.08,
4.124,4.18,0,
4.124,4.18,0.08,
4.148,4.204,0.04,
4.148,4.18,0.08,
4.124,4.204,0.04,
4.124,4.18,0.08,
4.148,4.196,0.04,
4.14,4.196,0.08,
4.124,4.18,0.04,
4.124,4.18,0.08,
4.148,4.204,0,
4.14,4.18,0.08,
4.124,4.196,0,
4.14,4.18,0.08,
4.124,4.196,0,
4.124,4.196,0.04,
4.148,4.18,0.08,
4.108,4.196,0.08,
4.148,4.172,0,
4.124,4.196,0.08,
4.14,4.18,0,
4.124,4.196,0.08,
4.14,4.18,0.04,
4.124,4.18,0.08,
4.148,4.196,0.04,
4.14,4.196,0.08,
4.124,4.164,0.04,
4.14,4.196,0.08,
4.116,4.18,0,
4.14,4.196,0.08,
4.124,4.18,0.04,
4.124,4.18,0.08,
4.148,4.204,0,
4.14,4.18,0,
4.124,4.196,0.08,
4.124,4.18,0.08,
4.148,4.196,0,
4.14,4.196,0,
4.124,4.18,0.08,
4.124,4.18,0.08,
4.148,4.204,0.04,
4.124,4.18,0.08,
4.148,4.204,0.04,
4.148,4.18,0.08,
4.124,4.204,0.04,
4.148,4.18,0.08,
4.124,4.196,0,
4.14,4.196,0.08,
4.124,4.18,0,
4.124,4.164,0.08,
4.14,4.204,0.04,
4.14,4.18,0.08,
4.124,4.196,0,
4.092,4.204,0.08,
4.148,4.156,0,
4.124,4.196,0.08,
4.14,4.172,0.04,
4.124,4.18,0.08,
4.14,4.196,0.04,
4.124,4.18,0.08,
4.148,4.196,0,
4.124,4.18,0.08,
4.148,4.196,0,
4.124,4.18,0.08,
4.148,4.204,0,
4.124,4.18,0.08,
4.148,4.196,0.04,
4.14,4.18,0.04,
4.124,4.196,0.08,
4.124,4.196,0.08,
4.148,4.18,0,
4.124,4.18,0.08,
4.148,4.204,0,
4.124,4.196,0.08,
4.148,4.18,0,
4.14,4.196,0.08,
4.124,4.18,0,
4.124,4.196,0.08,
4.148,4.18,0.04,
4.124,4.18,0,
4.148,4.196,0.08,
4.124,4.18,0.08,
4.148,4.204,0,
4.148,4.18,0.08,
4.124,4.196,0,
4.124,4.196,0.08,
4.148,4.18,0.04,
4.124,4.196,0.04,
4.148,4.18,0.08,
4.124,4.18,0.08,
4.148,4.204,0,
4.124,4.196,0.08,
4.148,4.18,0.04,
4.148,4.18,0.08,
4.124,4.204,0.04,
4.124,4.18,0.08,
4.148,4.196,0.04,
4.14,4.18,0.08,
4.124,4.204,0.04,
4.124,4.18,0.08,
4.148,4.196,0,
4.124,4.196,0.08,
4.148,4.18,0,
4.124,4.196,0.08,
4.148,4.18,0,
4.124,4.18,0.08,
4.148,4.204,0,
4.14,4.196,0.04,
4.124,4.18,0.08,
4.124,4.18,0.04,
4.148,4.204,0.08,
4.124,4.196,0.08,
4.148,4.18,0,
4.124,4.18,0.08,
4.14,4.196,0,
4.148,4.196,0.08,
4.124,4.18,0,
4.1,4.196,0.08,
4.148,4.172,0,
4.14,4.18,0.08,
4.124,4.204,0.04,
4.116,4.18,0.08,
4.148,4.204,0.04,
4.148,4.18,0.08,
4.124,4.196,0,
4.18,4.22,0.08,
3.876,4.036,0,
4.068,4.148,0.08,
4.204,4.228,0,
4.164,4.188,0.08,
4.188,4.22,0,
4.188,4.204,0.08,
4.164,4.188,0.04,
4.164,4.204,0.08,
4.188,4.188,0,
4.164,4.188,0.08,
4.188,4.212,0,
4.164,4.188,0.08,
4.188,4.212,0,
4.164,4.204,0.08,
4.188,4.188,0.04,
4.164,4.188,0.08,
4.18,4.212,0,
4.164,4.188,0.08,
4.188,4.212,0.04,
4.188,4.204,0.08,
4.156,4.188,0,
4.164,4.204,0.08,
4.188,4.18,0,
4.164,4.204,0.08,
4.188,4.188,0,
4.164,4.188,0.08,
4.188,4.212,0,
4.164,4.204,0.08,
4.188,4.188,0,
4.164,4.188,0.08,
4.188,4.212,0,
4.164,4.188,0.08,
4.188,4.204,0,
4.164,4.188,0.08,
4.188,4.22,0,
4.164,4.188,0.08,
4.188,4.22,0,
4.164,4.188,0,
4.188,4.22,0.08,
4.164,4.188,0.08,
4.188,4.204,0,
4.164,4.204,0.08,
4.188,4.188,0.04,
4.164,4.188,0.08,
4.188,4.22,0,
4.164,4.204,0.08,
4.188,4.188,0,
4.164,4.204,0.04,
4.188,4.188,0.08,
4.188,4.188,0.04,
4.164,4.22,0.08,
4.164,4.22,0.08,
4.188,4.188,0,
4.188,4.188,0.08,
4.164,4.212,0,
4.164,4.188,0.08,
4.188,4.204,0,
4.164,4.188,0.08,
4.188,4.22,0,
4.164,4.188,0.08,
4.18,4.22,0,
4.164,4.188,0.08,
4.188,4.204,0,
4.164,4.188,0.08,
4.188,4.22,0,
4.188,4.204,0.08,
4.164,4.188,0,
4.164,4.204,0.08,
4.188,4.188,0.04,
