Power Reception/Metingen 3/Meting met pin 1 -112 -123 113 -11.csv

CH1,CH2,CH3,Start,Increment,
Volt,Volt,Volt,-29.975,0.05
4.164,4.188,0.08,
4.188,4.22,0,
4.164,4.22,0.08,
4.188,4.196,0,
4.164,4.196,0.08,
4.188,4.22,0,
4.164,4.22,0.08,
4.196,4.196,0,
4.18,4.22,0.08,
4.196,4.196,0,
4.196,4.196,0.08,
4.164,4.22,0,
4.188,4.188,0.08,
4.164,4.22,0,
4.164,4.22,0.08,
4.188,4.196,0,
4.188,4.22,0.08,
4.164,4.188,0,
4.164,4.196,0.08,
4.196,4.22,0,
4.188,4.22,0.08,
4.164,4.188,0,
4.164,4.22,0.08,
4.188,4.196,0,
4.188,4.196,0.08,
4.164,4.22,0,
4.188,4.22,0.08,
4.164,4.196,0,
4.188,4.22,0.08,
4.164,4.196,0,
4.188,4.22,0.08,
4.164,4.188,0,
4.188,4.196,0.08,
4.156,4.22,0,
4.164,4.196,0.08,
4.188,4.22,0,
4.164,4.22,0.08,
4.188,4.188,0,
4.188,4.22,0,
4.164,4.196,0.08,
4.188,4.188,0.08,
4.164,4.22,0,
4.164,4.22,0.08,
4.188,4.196,0,
4.188,4.196,0.08,
4.164,4.22,0,
4.172,4.22,0.08,
4.196,4.196,0,
4.18,4.22,0.08,
4.196,4.188,0.04,
4.196,4.22,0.08,
4.164,4.204,0,
4.164,4.196,0.08,
4.188,4.22,0,
4.188,4.22,0.08,
4.164,4.196,0,
4.188,4.22,0.08,
4.164,4.188,0,
4.164,4.22,0.08,
4.188,4.196,0,
4.188,4.22,0.08,
4.164,4.196,0,
4.164,4.22,0.08,
4.188,4.196,0,
4.164,4.196,0.08,
4.188,4.22,0,
4.188,4.22,0.08,
4.164,4.196,0,
4.188,4.188,0.08,
4.164,4.22,0,
4.188,4.22,0.08,
4.164,4.188,0,
4.188,4.196,0.08,
4.164,4.22,0,
4.188,4.196,0.08,
4.164,4.22,0,
4.164,4.22,0.08,
4.188,4.188,0,
4.188,4.22,0,
4.172,4.196,0.08,
4.188,4.196,0.08,
4.172,4.22,0,
4.164,4.196,0,
4.188,4.22,0.08,
4.188,4.196,0.08,
4.164,4.22,0,
4.172,4.196,0.08,
4.196,4.22,0,
4.18,4.22,0.08,
4.196,4.188,0,
4.196,4.22,0.08,
4.164,4.188,0,
4.188,4.22,0,
4.164,4.196,0.08,
4.188,4.196,0.08,
4.172,4.22,0,
4.188,4.164,0.08,
4.164,4.228,0,
4.108,4.22,0.08,
4.204,4.196,0,
4.196,4.188,0.08,
4.172,4.22,0,
4.188,4.22,0.08,
4.164,4.188,0,
4.188,4.196,0.08,
4.156,4.22,0,
4.188,4.22,0.08,
4.172,4.188,0,
4.188,4.204,0.08,
4.164,4.22,0,
4.188,4.172,0,
4.164,4.228,0.08,
4.116,4.204,0.08,
4.196,4.156,0,
4.188,4.228,0.08,
4.1,4.164,0,
4.196,4.188,0.08,
4.092,4.204,0,
4.124,4.204,0.08,
4.14,4.188,0,
4.124,4.188,0.08,
4.14,4.204,0,
4.124,4.204,0,
4.14,4.18,0.12,
4.124,3.956,0,
4.14,4.348,0.12,
3.54,4.292,0.12,
4.292,3.884,0,
4.236,4.252,0.08,
3.404,3.892,0,
4.204,4.204,0.08,
3.42,4.188,0,
4.148,4.188,0.08,
4.124,4.204,0,
4.132,4.188,0.08,
4.148,4.22,0,
4.148,4.204,0.08,
4.132,4.188,0,
4.132,4.188,0.08,
4.148,4.212,0,
4.132,4.188,0.08,
4.148,4.22,0.04,
4.148,4.188,0.08,
4.132,4.22,0,
4.148,4.204,0.08,
4.124,4.188,0,
4.148,4.204,0.08,
4.132,4.188,0,
4.148,4.204,0.08,
4.132,4.18,0,
4.148,4.204,0.08,
4.132,4.188,0,
4.148,4.188,0.08,
4.124,4.204,0,
4.148,4.204,0,
4.132,4.188,0.08,
4.132,4.188,0.08,
4.148,4.212,0,
4.148,4.188,0,
4.132,4.204,0.08,
4.132,4.18,0.08,
4.148,4.204,0,
4.132,4.204,0.08,
4.148,4.188,0,
4.132,4.188,0.08,
4.148,4.204,0,
4.132,4.188,0.08,
4.148,4.204,0,
4.148,4.188,0.08,
4.132,4.204,0,
4.132,4.204,0,
4.148,4.188,0.12,
4.148,4.204,0.12,
4.132,4.188,-0.04,
4.148,4.188,0.12,
4.132,4.204,0,
4.148,4.204,0.12,
4.132,4.188,-0.04,
4.124,4.188,-0.04,
4.148,4.204,0.16,
4.132,4.188,0.12,
4.148,4.204,0,
4.132,4.188,0.16,
4.148,4.204,-0.04,
4.148,4.204,0.12,
4.124,4.188,-0.04,
4.148,4.204,0.12,
4.124,4.188,-0.04,
4.132,4.204,0.12,
4.148,4.188,-0.04,
4.132,4.204,0.12,
4.148,4.188,0,
4.132,4.204,0.16,
4.148,4.188,-0.04,
4.124,4.204,0.12,
4.148,4.188,-0.04,
4.148,4.188,0.12,
4.132,4.204,-0.04,
4.132,4.188,-0.04,
4.148,4.204,0.16,
4.132,4.188,0.16,
4.148,4.204,-0.04,
4.124,4.188,0.12,
4.148,4.204,-0.04,
4.132,4.204,0,
4.148,4.188,0.12,
4.132,4.204,0,
4.148,4.188,0.16,
4.148,4.204,0,
4.132,4.188,0.16,
4.148,4.204,0.12,
4.132,4.188,-0.04,
4.132,4.188,0.16,
4.148,4.204,-0.04,
4.148,4.204,0.16,
4.132,4.188,-0.04,
4.148,4.204,0.12,
4.124,4.18,-0.04,
4.148,4.204,0,
4.116,4.188,0.12,
4.124,4.204,0.16,
4.148,4.188,0,
4.148,4.204,-0.04,
4.124,4.18,0.12,
4.148,4.18,0,
4.124,4.204,0.16,
4.124,4.204,0.12,
4.148,4.18,0,
4.124,4.188,0.12,
4.148,4.204,0,
4.124,4.164,0,
4.148,4.212,0.12,
4.084,4.204,0.12,
4.148,4.18,0,
4.148,4.188,0.12,
4.124,4.204,0,
4.124,4.204,0.12,
4.14,4.188,0,
4.124,4.188,0.12,
4.148,4.204,-0.04,
4.148,4.188,0.12,
4.124,4.204,-0.04,
4.132,4.204,0.12,
4.148,4.188,0,
4.132,4.188,0,
4.148,4.204,0.12,
4.148,3.876,0.16,
4.132,4.26,-0.04,
3.404,4.212,0.12,
4.22,4.188,-0.04,
4.164,4.204,0.12,
4.132,4.188,-0.04,
4.132,4.204,0.12,
4.156,4.188,-0.04,
4.148,4.188,-0.04,
4.132,4.204,0.16,
4.148,4.188,0.16,
4.124,4.204,-0.04,
4.132,4.204,0.12,
4.148,4.188,-0.04,
4.148,4.188,-0.04,
4.124,4.204,0.16,
4.148,3.876,-0.04,
4.132,4.276,0.16,
3.396,4.212,-0.04,
4.22,4.188,0.24,
4.156,4.204,0.12,
4.132,4.188,-0.04,
4.148,4.204,0,
4.132,4.188,0.16,
4.148,4.188,0.16,
4.124,4.212,0,
4.148,4.204,0.12,
4.124,4.188,-0.04,
4.148,4.188,-0.04,
4.132,4.204,0.16,
4.148,4.204,0.12,
4.132,4.188,-0.04,
4.148,4.188,-0.04,
4.132,4.204,0.16,
4.148,4.204,-0.04,
4.124,4.188,0.16,
4.132,4.204,0.16,
4.148,4.188,-0.04,
4.148,4.204,0.16,
4.132,4.188,-0.04,
4.148,4.204,0.16,
4.132,4.188,-0.04,
4.124,4.204,0.12,
4.156,4.188,-0.04,
4.148,4.204,0.12,
4.132,4.188,-0.04,
4.148,4.204,-0.04,
4.132,4.188,0.16,
4.148,4.188,-0.04,
4.132,4.204,0.12,
4.148,4.188,0.16,
4.124,4.204,-0.04,
4.132,4.188,0.12,
4.148,4.204,-0.04,
4.148,4.188,0.16,
4.124,4.204,-0.04,
4.132,4.204,0.16,
4.148,4.18,-0.04,
4.148,4.188,-0.04,
4.124,4.204,0.2,
4.132,4.204,0,
4.148,4.188,0.12,
4.132,4.204,0,
4.148,4.18,0.12,
4.148,4.204,0,
4.124,4.18,0.12,
4.148,4.204,0.12,
4.124,4.188,0,
4.132,4.204,0.12,
4.148,4.188,-0.04,
4.148,4.188,0.16,
4.132,4.204,-0.04,
4.148,4.204,0.12,
4.132,4.188,0,
4.148,4.188,0,
4.124,4.204,0.12,
4.132,4.204,0.12,
4.148,4.188,0,
4.132,4.188,-0.04,
4.148,4.204,0.12,
4.148,4.188,0,
4.132,4.204,0.12,
4.148,4.204,0.08,
4.124,4.188,0,
4.132,4.204,0,
4.148,4.18,0.12,
4.148,4.204,0.08,
4.108,4.188,0,
4.148,4.204,0,
4.124,4.188,0.12,
4.148,4.204,0.16,
4.124,4.188,0,
4.132,4.188,0.12,
4.148,4.204,0,
4.132,4.204,0,
4.148,4.188,0.12,
4.148,4.188,0.08,
4.132,4.204,0,
4.148,4.204,0,
4.124,4.188,0.12,
4.148,4.204,0,
4.124,4.188,0.12,
4.132,4.188,0,
4.148,4.204,0.12,
4.148,4.188,0,
4.124,4.204,0.12,
4.148,4.204,0,
4.124,4.188,0.12,
4.132,4.188,0,
4.148,4.204,0.12,
4.132,4.204,0.08,
4.148,4.188,0,
4.148,4.204,0,
4.132,4.188,0.12,
4.148,4.188,0,
4.124,4.204,0.12,
4.148,4.204,0.16,
4.132,4.18,0,
4.132,4.204,0.16,
4.148,4.188,0,
4.148,4.188,0,
4.132,4.204,0.12,
4.148,4.188,0.08,
4.124,4.204,0,
4.148,4.204,0,
4.132,4.188,0.12,
4.148,4.188,0,
4.124,4.204,0.12,
4.148,3.876,0.08,
4.132,4.252,0,
3.396,4.252,0,
4.204,3.884,0.12,
4.204,3.892,0.12,
3.396,4.252,0,
4.204,3.884,0.12,
3.404,4.252,0,
3.396,3.916,0,
4.212,4.324,0.12,
3.436,4.308,0.08,
4.26,3.916,0,
4.26,4.284,0.08,
3.444,3.884,0,
4.228,4.204,0,
3.388,4.188,0.12,
4.148,4.188,0.12,
4.132,4.204,-0.04,
4.148,4.188,0.12,
4.124,4.204,0,
4.124,4.204,0.12,
4.148,4.188,0,
4.132,4.188,0,
4.148,4.204,0.12,
4.148,4.204,0.12,
4.132,4.188,0,
4.132,4.188,0,
4.148,4.204,0.12,
4.132,4.204,-0.04,
4.148,4.188,0.12,
4.148,4.204,0.08,
4.124,4.188,0,
4.148,4.188,0.12,
4.132,4.204,0,
4.148,4.204,0.16,
4.124,4.188,-0.04,
4.148,4.204,0.08,
4.132,4.188,0,
4.124,4.188,0,
4.156,4.204,0.12,
4.148,4.204,0,
4.132,4.188,3.44,
4.148,4.22,3.32,
4.132,4.156,3.44,
4.148,4.188,3.4,
4.092,4.204,3.32,
4.132,4.204,3.32,
4.164,4.18,3.44,
4.148,4.204,3.32,
4.132,4.18,3.44,
4.148,4.212,3.44,
4.124,4.18,3.32,
4.108,4.148,3.32,
4.156,4.228,3.4,
4.044,4.164,3.4,
4.156,4.252,3.32,
4.092,4.236,3.36,
4.22,4.164,3.44,
4.244,4.204,3.32,
4.124,4.188,3.44,
4.14,4.188,3.32,
4.164,4.204,3.44,
4.14,4.188,3.36,
4.172,4.244,3.4,
4.14,4.228,3.44,
4.236,4.164,3.32,
4.22,4.204,3.4,
4.124,4.188,3.32,
4.164,4.188,3.36,
4.14,4.212,3.44,
4.14,4.204,3.36,
4.172,4.188,3.44,
4.164,4.18,3.32,
4.14,4.22,3.44,
4.132,4.22,3.44,
4.172,4.188,3.32,
4.172,4.204,3.36,
4.132,4.188,3.44,
4.172,4.188,3.36,
4.132,4.204,3.44,
4.148,4.188,3.32,
4.132,4.22,3.4,
4.148,4.188,3.4,
4.132,4.204,3.32,
4.132,4.204,3.44,
4.148,4.188,3.32,
4.148,4.188,3.44,
4.132,4.204,3.32,
4.132,4.188,3.36,
4.148,4.204,3.4,
4.132,4.188,3.36,
4.148,4.204,3.44,
4.132,4.188,3.4,
4.148,4.204,3.32,
4.148,4.188,3.4,
4.132,4.204,3.32,
4.148,4.204,3.36,
4.132,4.188,3.44,
4.132,4.188,3.44,
4.148,4.204,3.32,
4.132,4.204,3.44,
4.148,4.188,3.32,
4.132,4.188,3.36,
4.148,4.204,3.44,
4.132,4.188,3.36,
4.148,4.22,3.44,
4.132,4.204,3.32,
4.148,4.188,3.44,
4.148,4.204,3.32,
4.132,4.188,3.4,
4.148,4.188,3.4,
4.132,4.204,3.32,
4.132,4.204,3.44,
4.148,4.188,3.32,
4.148,4.156,3.44,
4.132,4.22,3.32,
4.068,4.188,3.44,
4.164,4.204,3.32,
4.132,4.204,3.44,
4.148,4.188,3.32,
4.132,4.204,3.44,
4.148,4.188,3.32,
4.148,4.188,3.4,
4.132,4.22,3.36,
4.148,4.204,3.36,
4.132,4.188,3.44,
4.148,4.204,3.44,
4.132,4.188,3.32,
4.132,4.148,3.36,
4.148,4.22,3.44,
4.068,4.204,3.36,
4.18,4.188,3.4,
4.148,4.204,3.44,
4.132,4.188,3.32,
4.132,4.188,3.44,
4.148,4.204,3.32,
4.132,4.204,3.36,
4.148,4.18,3.44,
4.148,4.188,3.36,
4.124,4.22,3.44,
4.132,4.204,3.32,
4.172,4.132,3.44,
4.164,4.188,3.36,
4.036,4.204,3.44,
4.108,4.172,3.36,
4.132,4.212,3.44,
4.14,4.22,3.44,
4.068,4.164,3.32,
4.172,4.18,3.32,
4.052,4.22,3.44,
4.092,4.204,3.36,
4.148,4.172,3.44,
4.132,4.204,3.36,
4.068,4.164,3.4,
4.132,4.204,3.32,
4.052,4.172,3.44,
4.132,4.18,3.36,
4.044,4.204,3.44,
4.124,4.204,3.44,
4.076,4.164,3.36,
4.132,4.204,3.44,
4.068,4.156,3.32,
4.124,4.204,3.36,
4.036,4.164,3.44,
4.132,4.156,3.36,
4.036,4.22,3.44,
4.028,4.18,3.44,
4.156,4.22,3.32,
4.116,4.22,3.44,
4.156,4.132,3.32,
4.148,4.196,3.36,
4.02,4.164,3.44,
4.116,4.204,3.44,
4.044,4.172,0,
4.116,4.164,0.08,
4.06,4.22,0,
4.068,4.172,0.08,
4.164,4.22,0,
4.164,4.172,0.08,
4.068,4.228,0,
4.052,4.22,0.08,
4.18,4.148,0,
4.036,4.172,0.08,
4.164,4.212,0,
4.068,4.236,0,
4.148,4.164,3.36,
4.092,4.188,3.36,
4.204,4.228,3.44,
4.196,4.204,3.32,
4.132,4.172,3.44,
4.1,4.188,3.36,
4.164,4.212,3.44,
4.14,4.204,3.36,
4.164,4.188,3.44,
4.14,4.188,3.32,
4.164,4.204,3.44,
4.132,4.204,3.36,
4.164,4.188,3.4,
4.14,4.22,3.44,
4.164,4.18,3.32,
4.172,4.188,3.44,
4.124,4.228,3.32,
4.124,4.22,3.44,
4.196,4.18,3.32,
4.132,4.18,3.36,
4.196,4.228,3.44,
4.196,4.204,3.36,
4.124,4.188,3.44,
4.132,4.204,3.44,
4.164,4.188,3.32,
4.132,4.204,3.44,
4.164,4.188,3.32,
4.132,4.204,3.36,
4.148,4.132,3.44,
4.172,4.156,3.4,
4.036,4.22,3.32,
4.044,4.204,3.44,
4.156,4.188,3.32,
4.124,4.188,3.36,
4.14,4.22,3.44,
4.14,4.188,3.36,
4.124,4.204,3.44,
4.14,4.172,3.44,
4.124,4.204,3.32,
4.1,4.18,3.36,
4.148,4.228,3.44,
4.124,3.884,3.44,
4.18,4.372,3.36,
3.38,4.012,3.44,
4.332,4.372,3.36,
3.508,3.884,3.32,
4.316,4.364,3.44,
3.404,4.356,3.36,
4.308,3.916,3.44,
4.292,3.908,3.44,
3.444,4.276,3.32,
3.444,4.204,3.32,
4.22,4.188,3.44,
4.164,4.204,3.32,
4.132,4.188,3.44,
4.148,4.188,3.36,
4.132,4.204,3.44,
4.148,4.204,3.44,
4.132,4.188,3.32,
4.148,4.188,3.36,
4.132,4.204,3.44,
4.148,4.188,3.36,
4.132,4.22,3.44,
4.148,4.188,3.36,
4.132,4.204,3.44,
4.132,4.212,3.44,
4.148,3.892,3.32,
4.18,4.372,3.44,
3.428,3.924,3.36,
4.316,4.372,3.36,
3.46,3.9,3.44,
4.316,3.9,3.4,
3.444,4.252,3.32,
4.204,3.9,3.32,
3.444,4.284,3.44,
3.436,4.252,3.44,
4.228,3.892,3.32,
4.204,3.9,3.44,
3.436,4.252,3.32,
4.204,4.252,3.32,
3.404,3.9,3.44,
3.412,4.204,3.4,
4.196,4.188,3.32,
4.148,4.204,3.36,
4.132,4.18,0,
4.148,4.204,0.08,
4.124,4.18,0,
4.148,4.204,0.04,
4.132,4.18,3.44,
4.148,4.188,3.36,
4.124,4.22,3.44,
4.132,4.204,3.44,
4.148,4.188,3.32,
4.132,4.188,3.32,
4.148,4.204,3.44,
4.132,4.188,3.36,
4.148,4.204,3.44,
4.148,4.204,3.4,
4.132,4.188,3.32,
4.148,4.188,3.32,
4.132,4.212,3.44,
4.148,3.884,3.44,
4.124,4.228,3.32,
4.172,3.908,3.36,
3.428,4.244,3.44,
4.204,4.188,3.32,
3.46,4.204,3.44,
4.148,4.188,3.32,
4.132,4.212,3.44,
4.132,4.188,3.44,
4.148,4.204,3.32,
4.148,4.204,3.44,
4.132,4.188,3.32,
4.132,4.212,3.36,
4.148,4.156,3.44,
4.148,4.18,3.36,
4.068,4.22,3.44,
4.116,3.892,3.36,
4.164,4.372,3.44,
3.436,3.924,3.32,
4.316,4.372,3.44,
3.46,4.268,3.36,
4.316,3.9,3.44,
4.22,4.228,3.32,
3.436,4.18,3.44,
4.172,4.148,3.44,
4.116,4.22,3.32,
4.044,4.204,3.36,
4.164,4.188,3.44,
4.164,4.22,3.44,
4.108,3.9,3.32,
4.18,4.372,3.36,
3.428,3.924,3.44,
4.316,4.372,3.36,
3.452,3.908,3.44,
4.316,4.308,3.36,
3.46,3.932,3.44,
4.26,3.924,3.36,
3.468,4.26,3.44,
3.452,4.228,3.44,
4.22,4.18,0.04,
4.172,3.9,0.08,
4.116,4.252,0,
3.428,4.204,0.08,
4.196,4.188,0,
4.132,4.156,0.08,
4.148,4.244,0,
4.068,4.22,0.08,
4.204,4.196,0,
4.188,4.22,0.08,
4.164,4.196,0,
4.188,4.196,0.08,
4.164,4.22,0,
4.188,4.196,0.08,
4.164,4.22,0,
4.188,4.196,0.08,
4.164,4.22,0,
4.164,4.22,0,
4.188,4.188,3.44,
4.164,4.22,3.36,
4.188,4.172,3.4,
4.188,4.188,3.36,
4.108,4.22,3.44,
4.188,4.22,3.36,
4.164,4.188,3.4,
4.164,4.188,3.44,
4.188,4.22,3.32,
4.188,4.188,3.44,
4.156,4.22,3.32,
4.188,4.22,3.36,
4.164,4.188,3.4,
4.164,4.22,3.36,
4.188,4.196,3.44,
4.164,4.22,3.36,
4.188,4.188,3.44,
4.164,4.22,3.36,
4.188,4.188,3.44,
4.164,4.196,3.36,
4.188,4.22,3.44,
4.156,4.188,3.44,
4.196,4.22,3.32,
4.172,4.22,3.36,
4.196,4.188,3.44,
4.196,4.22,3.4,
4.164,4.18,3.32,
4.188,4.188,3.36,
4.148,4.22,3.44,
4.156,4.188,3.32,
4.188,4.228,3.44,
4.188,4.22,3.44,
4.156,4.188,3.36,
4.188,4.22,3.36,
4.164,4.188,3.44,
4.164,4.22,3.44,
4.188,4.148,3.32,
4.188,4.228,3.36,
4.068,4.164,3.44,
4.188,4.18,3.44,
4.092,4.204,3.32,
4.108,4.204,3.44,
4.14,4.18,3.32,
4.124,4.188,3.32,
4.14,4.204,3.44,
4.124,4.188,3.36,
4.14,4.204,3.4,
4.14,4.204,3.36,
4.116,4.18,3.44,
4.124,3.9,3.44,
4.132,4.372,3.36,
3.42,4.372,3.44,
4.316,3.932,3.36,
4.316,3.9,3.36,
3.452,4.356,3.44,
3.428,3.916,3.44,
4.292,4.284,3.32,
3.436,4.204,3.32,
4.228,4.18,3.44,
4.148,4.188,3.44,
4.132,4.212,3.32,
4.132,4.204,3.36,
4.148,4.188,3.44,
4.132,4.188,3.32,
4.148,4.204,3.44,
4.132,4.204,3.36,
4.148,4.188,3.44,
4.148,4.18,3.36,
4.132,4.204,3.44,
4.148,4.188,3.4,
4.124,4.204,3.32,
4.132,4.148,3.32,
4.148,4.212,3.44,
4.06,4.204,3.36,
4.148,4.188,3.44,
4.148,4.204,3.44,
4.132,4.188,0.04,
4.132,4.204,0.08,
4.148,4.18,0,
4.148,4.204,0.04,
4.108,4.18,0.08,
4.132,4.188,0.08,
4.148,4.212,0,
4.132,4.204,0.08,
4.148,4.188,0,
4.132,4.204,0.08,
4.148,4.188,0,
4.148,4.204,0.08,
4.132,4.188,0,
4.132,4.188,0.08,
4.148,4.204,0,
4.132,4.204,0.08,
4.148,4.188,0,
4.132,4.204,0.08,
4.148,4.188,0,
4.132,4.172,0.08,
4.148,4.212,0,
4.148,4.204,0.08,
4.1,4.188,0,
4.132,4.204,0.08,
4.148,4.188,0.04,
4.132,4.204,0.08,
4.148,4.188,0.04,
4.132,4.204,0.08,
4.148,4.188,0,
4.132,4.204,0.08,
4.148,4.188,0.04,
4.132,4.204,0.08,
4.148,4.188,0.04,
4.148,4.204,0.08,
4.132,4.188,0,
4.148,4.188,0.08,
4.132,4.204,0,
4.132,4.204,0.08,
4.148,4.188,0,
4.132,4.204,0.08,
4.148,4.188,0.04,
4.132,4.188,0.08,
4.148,4.204,0.04,
4.132,4.18,0.08,
4.148,4.204,0,
4.1,4.188,0.08,
4.148,4.204,0,
4.132,4.204,0.08,
4.148,4.18,0,
4.148,4.188,0.08,
4.132,4.212,0,
4.148,4.204,0.08,
4.132,4.188,0,
4.124,4.188,0.08,
4.148,4.204,0,
4.132,4.188,0.08,
4.148,4.204,0,
4.132,4.188,0.08,
4.148,4.204,0,
4.148,4.188,0.08,
4.124,4.204,0,
4.132,4.188,0.08,
4.148,4.204,0,
4.148,4.188,0.08,
4.124,4.204,0,
4.148,4.188,0.08,
4.124,4.212,0,
4.148,4.204,0.08,
4.132,4.188,0.04,
4.148,4.188,0.08,
4.132,4.204,0,
4.132,4.188,0.08,
4.148,4.204,0,
4.148,4.204,0.08,
4.124,4.188,0,
4.132,4.204,0.08,
4.148,4.188,0,
4.148,4.22,0.08,
4.132,4.18,0,
4.148,4.164,0.08,
4.124,4.212,0,
4.148,4.204,0.08,
4.092,4.188,0,
4.148,4.204,0.08,
4.132,4.188,0,
4.148,4.204,0.08,
4.132,4.188,0,
4.148,4.204,0.08,
4.132,4.188,0,
4.132,4.188,0.08,
4.148,4.204,0,
4.132,4.188,0.08,
4.148,4.204,0,
4.132,4.188,0.08,
4.148,4.204,0,
4.132,4.188,0.08,
4.148,4.204,0,
4.132,4.204,0.08,
4.148,4.18,0,
4.148,4.204,0.08,
4.132,4.18,0,
4.132,4.204,0.08,
4.148,4.188,0,
4.148,4.204,0.08,
4.124,4.18,0,
4.132,4.188,0.08,
4.148,4.204,0,
4.148,4.188,0.08,
4.124,4.204,0,
4.148,4.204,0.08,
4.132,4.188,0,
4.148,4.188,0.08,
4.132,4.204,0,
4.148,4.204,0.08,
4.124,4.188,0,
4.148,4.188,0.08,
4.124,4.22,0,
4.148,4.204,0.08,
4.124,4.188,0,
4.132,4.188,0.08,
4.148,4.204,0,
4.148,4.204,0.08,
4.124,4.18,0,
4.148,4.204,0.08,
4.124,4.188,0,
4.148,4.204,0.08,
4.132,4.18,0,
4.148,4.188,0.08,
4.124,4.22,0,
4.148,4.188,0.08,
4.124,4.204,0,
4.148,4.188,0.08,
4.132,4.204,0,
4.132,4.188,0.08,
4.148,4.204,0,
4.148,4.204,0.08,
4.132,4.188,0,
4.132,4.204,0.08,
4.148,4.188,0,
4.132,4.188,0.08,
4.148,4.204,0,
4.148,4.204,0.08,
4.132,4.188,0,
4.148,4.22,0.08,
4.124,4.18,0,
4.148,4.188,0.08,
4.124,4.212,0,
4.132,4.188,0.08,
4.148,4.204,0,
4.148,4.204,0.08,
4.132,4.18,0,
4.132,4.204,0,
4.148,4.188,0.08,
4.148,4.204,0.08,
4.132,4.188,0,
4.148,4.188,0.08,
4.124,4.204,0,
4.148,4.188,0.08,
4.124,4.204,0,
4.148,4.204,0.08,
4.132,4.18,0,
4.148,4.204,0.08,
4.132,4.188,0,
4.148,4.204,0,
4.124,4.188,0.08,
4.148,4.188,0.08,
4.132,4.22,0,
4.132,4.204,0.08,
4.164,4.188,0,
4.148,4.204,0.08,
4.132,4.188,0,
4.148,4.204,0.08,
4.132,4.18,0,
4.148,4.188,0.08,
4.124,4.204,0,
4.148,4.204,0.08,
4.124,4.188,0,
4.148,4.204,0.08,
4.132,4.188,0,
4.148,4.188,0.08,
4.132,4.204,0,
4.148,4.188,0,
4.132,4.22,0.08,
4.148,4.188,0,
4.132,4.22,0.08,
4.132,4.188,0.08,
4.148,4.204,0,
4.148,4.188,0.08,
4.132,4.22,0,
4.148,4.188,0.08,
4.132,4.204,0,
4.148,4.204,0.08,
4.132,4.188,0,
4.148,4.204,0,
4.132,4.188,0.12,
4.148,3.908,0,
4.132,4.244,0.12,
4.196,3.932,0.08,
3.428,4.26,0,
3.46,4.204,0.08,
4.204,4.18,0,
4.148,4.156,0.08,
4.108,4.244,0,
4.076,4.196,0.08,
4.22,4.22,0,
4.188,4.22,0.08,
4.164,4.188,0,
4.164,4.196,0.08,
4.196,4.22,0,
4.196,4.196,0.08,
4.164,4.22,0,
4.196,4.196,0.08,
4.164,4.22,0,
4.164,4.22,0.08,
4.188,4.188,0,
4.164,4.196,0.08,
4.188,4.22,0,
4.188,4.22,0.08,
4.164,4.196,0,
4.188,4.22,0,
4.164,4.188,0.08,
4.188,4.22,0.08,
4.164,4.196,0,
4.188,4.188,0.08,
4.164,4.22,0,
4.164,4.22,0.08,
4.188,4.188,0,
4.164,4.22,0.08,
4.188,4.188,0,
4.164,4.196,0.08,
4.188,4.22,0,
4.164,4.22,0.08,
4.188,4.188,0,
4.164,4.196,0.08,
4.188,4.22,0,
4.188,4.22,0.08,
4.164,4.188,0,
4.164,4.196,0.08,
4.188,4.22,0,
4.164,4.188,0.08,
4.188,4.22,0,
4.164,4.196,0.08,
4.188,4.22,0,
4.188,4.188,0.08,
4.164,4.22,0,
4.148,4.196,0.08,
4.188,4.228,0,
4.164,4.22,0.08,
4.196,4.188,0,
4.164,4.188,0,
4.196,4.228,0.08,
4.196,4.188,0.08,
4.164,4.22,0,
4.188,4.22,0.08,
4.164,4.196,0,
4.164,4.196,0.08,
4.188,4.22,0,
4.188,4.22,0.08,
4.164,4.188,0,
4.188,4.22,0.08,
4.164,4.188,0,
4.188,4.22,0.08,
4.164,4.196,0,
4.188,4.22,0.08,
4.164,4.188,0,
4.164,4.22,0.08,
4.188,4.188,0,
4.164,4.22,0.08,
4.188,4.188,0,
4.188,4.196,0,
4.164,4.22,0.08,
4.188,4.22,0.08,
4.164,4.196,0,
4.164,4.196,0.08,
4.188,4.22,0,
4.188,4.22,0.08,
4.164,4.188,0,
4.188,4.22,0.08,
4.164,4.188,0,
4.164,4.22,0.16,
4.188,4.188,0,
4.188,4.188,0.08,
4.164,4.268,0,
4.188,4.22,0.08,
4.164,4.188,0,
4.164,4.22,0.08,
4.188,4.196,0,
4.164,4.22,0.08,
4.196,4.188,0,
4.172,4.22,0.08,
4.196,4.188,0,
4.188,4.188,0.08,
4.164,4.22,0,
4.188,4.196,0.08,
4.164,4.22,0,
4.188,4.22,0.08,
4.164,4.188,0,
4.164,4.22,0.08,
4.188,4.188,0,
4.164,4.22,0.08,
4.188,4.188,0,
4.164,4.22,0.08,
4.188,4.196,0,
4.188,4.22,0.08,
4.164,4.188,0,
4.164,4.188,0,
4.188,4.22,0.08,
4.164,4.22,0.08,
4.188,4.188,0,
4.188,4.22,0.08,
4.164,4.188,0,
4.164,4.22,0.08,
4.188,4.196,0,
4.188,4.22,0.08,
4.164,4.188,0,
4.188,4.196,0.08,
4.164,4.22,0,
4.188,4.22,0.08,
4.164,4.196,0,
4.164,4.188,0.08,
4.188,4.22,0,
4.188,4.22,0.08,
4.164,4.188,0,
4.188,4.188,0.08,
4.164,4.22,0,
4.164,4.196,0.08,
4.188,4.22,0,
4.164,4.22,0.08,
4.196,4.188,0,
4.196,4.22,0.08,
4.164,4.188,0,
4.196,4.22,0.08,
4.164,4.188,0,
4.188,4.22,0.08,
4.164,4.188,0,
4.188,4.22,0.08,
4.164,4.188,0,
4.188,4.196,0,
4.164,4.22,0.08,
4.164,4.196,0.08,
4.188,4.22,0,
4.188,4.22,0.08,
4.164,4.196,0,
4.164,4.22,0.08,
4.188,4.188,0,
4.188,4.22,0.08,
4.164,4.188,0,
4.164,4.228,0.08,
4.188,4.188,0,
4.164,4.22,0.08,
4.188,4.188,0,
4.164,4.22,0.08,
4.188,4.188,0,
4.164,4.22,0.08,
4.188,4.188,0,
4.188,4.22,0.08,
4.164,4.196,0,
4.164,4.196,0,
4.188,4.22,0.08,
4.188,4.22,0.08,
4.164,4.188,0,
4.164,4.22,0.08,
4.188,4.188,0,
4.164,4.22,0.08,
4.188,4.188,0,
4.188,4.22,0,
4.164,4.188,0.08,
4.172,4.196,0.08,
4.196,4.22,0,
4.18,4.22,0.08,
4.196,4.196,0,
4.188,4.196,0.08,
4.164,4.22,0,
4.164,4.22,0.08,
4.188,4.188,0,
4.164,4.22,0.08,
4.188,4.188,0,
4.188,4.22,0.08,
4.164,4.196,0,
4.188,4.22,0.08,
4.164,4.188,0,
4.164,4.22,0.08,
4.188,4.196,0,
4.188,4.196,0,
4.164,4.22,0.08,
4.188,4.188,0.08,
4.164,4.22,0,
4.188,4.22,0,
4.164,4.188,0.08,
4.188,4.22,0.08,
4.164,4.188,0,
4.164,4.22,0,
