Power Reception/Metingen 3/Meting met pin 2 -116 -131 65 -15.csv

CH1,CH2,CH3,Start,Increment,
Volt,Volt,Volt,-29.975,0.05
2.7,2.7,0.08,
2.7,2.7,0.04,
2.7,2.7,0.08,
2.7,2.7,0.04,
2.7,2.7,0.04,
2.7,2.7,0.08,
2.7,2.7,0.08,
2.7,2.7,0,
2.7,2.7,0.08,
2.7,2.7,0.04,
2.7,2.7,0.08,
2.7,2.7,0.04,
2.7,2.7,0.08,
2.7,2.7,0.04,
2.7,2.7,0.08,
2.7,2.7,0,
2.7,2.7,0.08,
2.7,2.7,0,
2.7,2.7,0.08,
2.7,2.7,0.04,
2.7,2.7,0.08,
2.7,2.7,0,
2.7,2.7,0.04,
2.7,2.7,0.08,
2.7,2.7,0.08,
2.7,2.7,0.04,
2.7,2.7,0.08,
2.7,2.7,0.04,
2.7,2.7,0.08,
2.7,2.7,0,
2.7,2.7,0.08,
2.7,2.7,0.04,
2.7,2.7,0.08,
2.7,2.7,0.04,
2.7,2.7,0.08,
2.7,2.7,0.04,
2.7,2.7,0.08,
2.7,2.7,0.04,
2.7,2.7,0.08,
2.7,2.7,0.04,
2.7,2.7,0.08,
2.7,2.7,0.04,
2.7,2.7,0.08,
2.7,2.7,0,
2.7,2.7,0.08,
2.7,2.7,0.04,
2.7,2.7,0.08,
2.7,2.7,0,
2.7,2.7,0.04,
2.7,2.7,0.08,
2.7,2.7,0.08,
2.7,2.7,0.04,
2.7,2.7,0.08,
2.7,2.7,0.04,
2.7,2.7,0.04,
2.7,2.7,0.12,
2.7,2.7,0.08,
2.7,2.7,0,
2.7,2.7,0.08,
2.7,2.7,0.04,
2.7,2.7,0.08,
2.7,2.7,0,
2.7,2.7,0.08,
2.7,2.7,0,
2.7,2.7,0.08,
2.7,2.7,0.04,
2.7,2.7,0.08,
2.7,2.7,0,
2.7,2.7,0.08,
2.7,2.7,0,
2.7,2.7,0.08,
2.7,2.7,0.04,
2.7,2.7,0.08,
2.7,2.7,0,
2.7,2.7,0.08,
2.7,2.7,0,
2.7,2.7,0.08,
2.7,2.7,0.04,
2.7,2.7,0.08,
2.7,2.7,0,
2.7,2.7,0.08,
2.7,2.7,0.04,
2.7,2.7,0.08,
2.7,2.7,0,
2.7,2.7,0.08,
2.7,2.7,0,
2.7,2.7,0.08,
2.7,2.7,0,
2.7,2.7,0.08,
2.7,2.7,0,
2.7,2.7,0.08,
2.7,4.18,0,
2.7,4.18,0.08,
4.172,4.204,0,
4.164,4.22,0,
4.204,4.196,0.08,
4.188,4.22,0.08,
4.204,4.196,0,
4.204,4.22,0.08,
4.188,4.196,0,
4.204,4.22,0.08,
4.188,4.196,0,
4.204,4.22,0.08,
4.196,4.196,0,
4.204,4.22,0.08,
4.188,4.196,0,
4.204,4.22,0.08,
4.196,4.196,0,
4.204,4.196,0,
4.196,4.22,0.08,
4.188,4.22,0.08,
4.204,4.196,0,
4.204,4.22,0.08,
4.196,4.196,0,
4.204,4.22,0.08,
4.196,4.196,0,
4.204,4.22,0.08,
4.196,4.196,0,
4.204,4.22,0.08,
4.196,4.196,0,
4.204,4.22,0.08,
4.196,4.196,0,
4.204,4.196,0.04,
4.196,4.22,0.08,
4.204,4.22,0.08,
4.196,4.196,0,
4.204,4.22,0.08,
4.196,4.196,0,
4.212,4.196,0.08,
4.196,4.22,0,
4.22,4.22,0.08,
4.196,4.196,0.04,
4.204,4.22,0.08,
4.196,4.196,0,
4.196,4.22,0,
4.22,4.196,0.08,
4.196,4.22,0,
4.212,4.204,0.08,
4.204,4.22,0.08,
4.196,4.204,0,
4.22,4.22,0.08,
4.196,4.196,0.04,
4.22,4.22,0.04,
4.196,4.164,3.36,
4.204,4.196,3.36,
4.124,4.164,3.44,
4.172,4.18,3.36,
4.108,4.204,3.44,
4.132,4.204,3.4,
4.164,4.18,3.32,
4.14,4.196,3.36,
4.164,4.18,3.44,
4.164,4.204,3.36,
4.124,4.172,3.4,
4.164,4.18,3.36,
4.124,4.252,3.32,
4.124,4.22,3.32,
4.236,4.156,3.44,
4.204,4.196,3.36,
4.108,4.18,3.44,
4.132,4.18,3.36,
4.148,4.204,3.44,
4.132,4.252,3.32,
4.164,4.164,3.4,
4.236,4.204,3.36,
4.132,4.164,3.44,
4.172,4.18,3.32,
4.116,4.204,3.4,
4.132,4.196,3.44,
4.164,4.18,3.32,
4.14,4.18,3.32,
4.156,4.204,3.44,
4.164,4.204,3.36,
4.124,4.172,3.4,
4.164,4.204,3.36,
4.124,4.172,3.44,
4.164,4.196,3.32,
4.108,4.18,3.4,
4.164,4.18,3.36,
4.124,4.196,3.44,
4.14,4.196,3.36,
4.124,4.18,3.36,
4.124,4.18,3.4,
4.14,4.196,3.32,
4.124,4.18,3.32,
4.14,4.196,3.44,
4.124,4.18,3.32,
4.14,4.196,3.4,
4.124,4.18,3.4,
4.14,4.196,3.32,
4.124,4.18,3.32,
4.14,4.196,3.44,
4.124,4.18,3.36,
4.14,4.196,3.44,
4.124,4.18,3.36,
4.14,4.196,3.44,
4.124,4.18,3.44,
4.14,4.196,3.32,
4.124,4.18,3.32,
4.14,4.196,3.44,
4.14,4.18,3.36,
4.124,4.196,3.4,
4.124,4.196,3.4,
4.14,4.18,3.32,
4.124,4.196,3.32,
4.14,4.18,3.44,
4.124,4.18,3.36,
4.14,4.196,3.44,
4.124,4.196,3.36,
4.14,4.18,3.44,
4.14,4.196,3.32,
4.124,4.18,3.4,
4.124,4.196,3.36,
4.14,4.132,3.4,
4.14,4.196,3.36,
4.044,4.18,3.44,
4.14,4.18,3.44,
4.124,4.196,3.32,
4.124,4.18,3.32,
4.14,4.196,3.44,
4.124,4.18,3.32,
4.14,4.196,3.44,
4.124,4.18,3.44,
4.14,4.196,3.32,
4.124,4.18,3.32,
4.14,4.196,3.44,
4.14,4.18,3.32,
4.124,4.196,3.44,
4.14,4.124,3.36,
4.124,4.22,3.44,
4.036,4.18,3.32,
4.172,4.196,3.44,
4.124,4.18,3.44,
4.14,4.196,3.32,
4.124,4.196,3.36,
4.14,4.172,3.44,
4.14,4.18,3.4,
4.1,4.204,3.32,
4.124,4.204,3.4,
4.164,4.108,3.32,
4.156,4.156,3.36,
4.012,4.18,3.44,
4.116,4.164,3.36,
4.084,4.196,3.44,
4.084,4.14,3.4,
4.124,4.22,3.32,
4.028,4.196,3.36,
4.156,4.148,3.4,
4.052,4.164,3.36,
4.124,4.196,3.4,
4.092,4.188,3.4,
4.124,4.132,3.32,
4.116,4.188,3.44,
4.036,4.132,3.32,
4.116,4.156,3.32,
4.02,4.188,3.44,
4.036,4.188,3.36,
4.108,4.148,3.44,
4.116,4.156,3.4,
4.044,4.188,3.32,
4.068,4.18,3.44,
4.108,4.132,3.36,
3.996,4.188,3.36,
4.1,4.124,3.44,
4.108,4.156,3.44,
3.988,4.204,3.32,
4.132,4.164,3.4,
4.044,4.204,3.32,
4.1,4.196,3.44,
4.14,4.116,3.32,
4.14,4.188,3.44,
4.004,4.132,3.32,
4.1,4.204,3.4,
4.012,4.14,3.32,
4.14,4.148,3.4,
4.044,4.204,0.04,
4.036,4.204,0.08,
4.14,4.14,0.04,
4.14,4.228,0.04,
4.02,4.116,0.08,
4.172,4.196,0.08,
3.988,4.148,0.04,
4.14,4.204,0.08,
4.044,4.132,0.04,
4.02,4.228,0.08,
4.14,4.14,0,
4.196,4.22,0.04,
4.068,4.156,3.44,
4.188,4.196,3.4,
4.076,4.18,3.32,
4.148,4.18,3.36,
4.124,4.196,3.44,
4.14,4.196,3.36,
4.124,4.18,3.32,
4.124,4.196,3.32,
4.14,4.18,3.4,
4.14,4.18,3.36,
4.124,4.204,3.44,
4.124,4.164,3.32,
4.172,4.22,3.4,
4.108,4.172,3.36,
4.188,4.22,3.44,
4.124,4.18,3.4,
4.18,4.22,3.32,
4.124,4.204,3.4,
4.188,4.156,3.32,
4.18,4.196,3.4,
4.092,4.18,3.32,
4.14,4.196,3.36,
4.124,4.18,3.32,
4.14,4.196,3.36,
4.124,4.18,3.44,
4.14,4.18,3.32,
4.124,4.196,3.4,
4.14,4.156,3.36,
4.124,4.22,3.32,
4.172,4.172,3.36,
4.092,4.22,3.44,
4.1,4.22,3.36,
4.188,4.188,3.32,
4.18,4.164,3.4,
4.156,4.212,3.32,
4.108,4.22,3.44,
4.18,4.164,3.32,
4.18,4.196,3.36,
4.1,4.156,3.44,
4.1,4.196,3.32,
4.148,4.18,3.4,
4.14,4.18,3.36,
4.124,4.196,3.36,
4.14,4.18,3.32,
4.132,4.196,3.44,
4.14,4.172,3.32,
4.124,4.204,3.4,
4.124,4.204,3.32,
4.172,4.164,3.44,
4.164,4.156,3.36,
4.1,4.22,3.4,
4.092,4.18,3.36,
4.196,4.22,3.36,
4.124,4.22,3.36,
4.188,4.164,3.32,
4.18,4.164,3.4,
4.108,4.196,3.32,
4.1,4.196,3.36,
4.148,4.18,3.4,
4.14,4.196,3.4,
4.124,4.164,3.32,
4.14,4.196,3.36,
4.108,4.18,3.4,
4.124,4.18,3.36,
4.14,4.204,3.4,
4.172,4.196,3.36,
4.116,4.172,3.32,
4.1,4.164,3.32,
4.14,4.204,3.4,
4.1,4.18,3.36,
4.164,4.196,3.4,
4.148,4.18,3.44,
4.124,4.196,3.32,
4.148,4.132,3.44,
4.124,4.204,3.32,
4.148,4.172,3.36,
4.052,4.212,3.32,
4.1,4.18,3.36,
4.196,4.22,3.36,
4.188,4.22,3.32,
4.124,4.164,3.44,
4.188,4.172,3.32,
4.108,4.22,3.4,
4.18,4.164,3.36,
4.124,4.22,3.36,
4.124,4.18,3.36,
4.188,4.22,3.32,
4.124,4.18,3.32,
4.188,4.22,3.44,
4.18,4.164,3.36,
4.124,4.22,3.4,
4.124,4.22,3.36,
4.188,4.172,3.4,
4.188,4.18,3.4,
4.124,4.22,3.32,
4.124,4.172,3.36,
4.18,4.22,3.4,
4.124,4.18,3.44,
4.188,4.22,3.32,
4.124,4.172,3.36,
4.188,4.22,3.32,
4.188,4.22,3.32,
4.124,4.172,3.4,
4.124,4.18,3.36,
4.188,4.22,3.44,
4.124,4.22,3.36,
4.188,4.164,3.4,
4.124,4.18,3.4,
4.188,4.22,3.32,
4.18,4.22,3.44,
4.124,4.164,3.32,
4.124,4.22,3.36,
4.188,4.156,3.4,
4.188,4.196,3.4,
4.092,4.164,3.32,
4.1,4.196,3.36,
4.148,4.18,3.44,
4.14,4.196,3.36,
4.124,4.18,3.4,
4.14,4.18,3.36,
4.124,4.196,3.44,
4.14,4.204,3.36,
4.124,4.172,3.32,
4.124,4.156,3.32,
4.172,4.204,3.4,
4.084,4.196,3.4,
4.156,4.18,3.36,
4.148,4.196,3.36,
4.124,4.18,3.32,
4.148,4.196,3.36,
4.124,4.156,3.4,
4.148,4.196,3.32,
4.092,4.18,3.4,
4.132,4.18,3.4,
4.148,4.196,3.32,
4.148,4.18,3.36,
4.124,4.196,3.32,
4.148,4.164,3.36,
4.124,4.22,3.4,
4.108,4.18,3.36,
4.188,4.22,3.36,
4.124,4.164,3.44,
4.188,4.22,3.32,
4.188,4.18,3.36,
4.124,4.22,3.4,
4.124,4.22,3.36,
4.188,4.172,3.4,
4.124,4.22,3.44,
4.188,4.18,3.32,
4.18,4.18,3.32,
4.124,4.22,3.44,
4.124,4.18,3.36,
4.188,4.196,3.44,
4.132,4.18,3.44,
4.148,4.22,3.32,
4.124,4.212,3.32,
4.188,4.164,3.44,
4.188,4.196,3.36,
4.1,4.18,3.4,
4.132,4.196,3.36,
4.148,4.18,3.44,
4.148,4.18,3.36,
4.124,4.196,3.32,
4.14,4.18,3.32,
4.132,4.196,3.44,
4.124,4.18,3.36,
4.148,4.196,3.4,
4.14,4.196,3.32,
4.132,4.18,3.4,
4.132,4.18,3.32,
4.148,4.196,3.4,
4.14,4.18,3.36,
4.124,4.196,3.44,
4.132,4.196,3.36,
4.148,4.18,3.44,
4.148,4.196,3.32,
4.116,4.18,3.44,
4.124,4.18,3.32,
4.148,4.196,3.44,
4.14,4.18,3.32,
4.124,4.196,3.44,
4.132,4.196,3.44,
4.14,4.18,3.32,
4.148,4.18,3.32,
4.124,4.196,3.4,
4.14,4.18,3.36,
4.124,4.196,3.44,
4.124,4.196,3.36,
4.148,4.18,3.4,
4.148,4.196,3.4,
4.124,4.156,3.32,
4.148,4.196,3.44,
4.092,4.18,3.32,
4.148,4.196,3.32,
4.132,4.18,3.44,
4.124,4.18,3.4,
4.148,4.196,3.32,
4.14,4.196,3.36,
4.124,4.18,3.36,
4.124,4.196,3.44,
4.148,4.18,3.32,
4.148,4.196,3.44,
4.124,4.18,3.32,
4.148,4.196,3.36,
4.124,4.18,3.44,
4.124,4.18,3.36,
4.148,4.196,3.4,
4.14,4.18,3.36,
4.124,4.196,3.44,
4.132,4.196,3.36,
4.148,4.18,3.4,
4.148,4.196,3.36,
4.124,4.18,3.44,
4.132,4.18,3.4,
4.148,4.196,3.32,
4.132,4.18,3.4,
4.148,4.196,3.32,
4.132,4.196,3.32,
4.148,4.18,3.4,
4.132,4.18,3.36,
4.148,4.196,3.4,
4.14,4.196,3.36,
4.124,4.18,3.44,
4.14,4.18,3.32,
4.124,4.196,3.44,
4.14,4.196,3.36,
4.124,4.18,3.4,
4.14,4.18,3.32,
4.124,4.196,3.4,
4.14,4.196,3.4,
4.124,4.18,3.32,
4.14,4.196,3.36,
4.124,4.18,3.4,
4.14,4.18,3.4,
4.132,4.196,3.32,
4.148,4.196,3.44,
4.124,4.18,3.32,
4.14,4.212,3.32,
4.124,4.172,3.44,
4.18,4.22,3.36,
4.124,4.164,3.4,
4.116,4.108,3.36,
4.188,4.212,3.4,
3.996,4.18,3.44,
4.172,4.196,3.32,
4.14,4.204,3.36,
4.124,4.124,3.4,
4.148,4.172,3.36,
4.028,4.196,3.4,
4.108,4.14,3.36,
4.124,4.196,3.44,
4.124,4.212,3.36,
4.068,3.74,3.44,
4.172,3.94,3.44,
3.228,3.916,3.4,
3.404,3.932,3.44,
3.42,4.396,3.36,
3.412,4.22,3.32,
4.34,4.164,3.44,
4.188,3.732,3.36,
4.116,4.372,3.44,
3.204,4.308,3.36,
4.316,4.18,3.32,
4.284,4.18,3.44,
4.124,4.22,3.32,
4.124,4.22,3.4,
4.172,3.756,3.32,
4.172,4.236,3.32,
3.276,3.74,3.44,
4.196,3.828,3.44,
3.26,4.356,3.36,
3.34,4.212,3.32,
4.308,4.164,3.4,
4.18,4.22,3.36,
4.116,4.172,3.4,
4.188,4.212,3.4,
4.1,4.188,3.32,
4.148,3.756,3.32,
4.18,4.228,3.44,
4.172,4.22,3.36,
3.284,4.18,3.36,
4.188,4.18,3.36,
4.116,4.22,3.36,
4.18,3.772,3.44,
4.116,4.228,3.32,
4.18,3.756,3.32,
3.292,4.252,3.44,
3.268,4.22,3.36,
4.204,4.164,3.36,
4.188,3.756,3.36,
4.116,4.22,3.44,
4.172,4.18,3.32,
3.308,4.22,3.44,
4.124,4.204,3.36,
4.18,4.164,3.36,
4.18,4.172,3.36,
4.116,4.22,3.4,
4.108,4.204,3.36,
4.18,4.164,3.32,
4.172,4.228,3.36,
4.108,3.764,3.44,
3.292,4.18,3.36,
4.188,4.22,3.4,
4.124,4.22,3.36,
4.188,3.924,3.4,
4.172,4.196,3.32,
3.596,4.18,3.4,
4.14,4.212,3.32,
4.108,4.172,3.4,
4.18,4.22,3.32,
4.116,3.756,3.44,
4.172,4.18,3.36,
3.308,4.22,3.32,
4.124,4.172,3.32,
4.18,4.212,3.4,
4.116,4.204,3.36,
4.18,3.764,3.4,
4.172,4.18,3.4,
3.308,4.22,3.32,
4.124,4.22,3.36,
4.188,4.172,3.32,
4.18,4.188,3.36,
4.116,4.212,3.4,
4.156,3.748,3.36,
4.188,4.228,3.4,
3.284,3.764,3.44,
4.188,4.228,3.32,
4.172,4.18,3.36,
3.324,4.212,3.44,
4.124,3.788,3.36,
4.18,4.252,3.44,
3.316,4.18,3.36,
4.196,4.22,3.32,
4.124,4.172,3.32,
4.188,4.212,3.4,
4.124,4.204,3.36,
4.188,4.172,3.4,
4.172,4.18,3.36,
4.116,4.22,3.4,
4.124,3.78,3.32,
4.188,4.228,3.44,
4.18,4.22,3.36,
3.3,4.164,3.4,
4.18,4.18,3.32,
4.1,4.196,3.44,
4.14,4.204,3.36,
4.108,4.164,3.32,
4.18,3.78,3.32,
4.124,4.228,3.44,
4.172,4.204,3.36,
3.292,4.18,3.4,
4.148,4.18,3.44,
4.124,4.196,3.32,
4.14,4.18,3.44,
4.124,4.196,3.32,
4.14,4.18,3.32,
4.124,4.22,3.4,
4.124,4.212,3.36,
4.18,4.164,3.4,
4.18,4.196,3.32,
4.124,4.18,3.44,
4.14,4.22,3.32,
4.108,3.78,3.4,
4.188,4.228,3.36,
3.292,4.164,3.4,
4.124,4.164,3.32,
4.196,4.22,3.4,
4.124,4.18,3.32,
4.188,4.212,3.4,
4.124,3.772,3.36,
4.18,4.228,3.44,
4.172,4.22,3.44,
3.292,4.18,3.32,
4.18,4.18,3.36,
4.124,4.204,3.32,
4.124,4.212,3.36,
4.18,3.772,3.44,
4.188,4.228,3.36,
3.292,4.116,3.44,
4.172,4.132,3.4,
4.02,4.228,3.32,
4.036,3.756,3.32,
4.196,4.22,3.4,
4.172,4.22,3.44,
3.276,3.764,3.32,
4.188,4.22,3.36,
3.3,3.764,0.04,
4.172,4.18,0.08,
3.3,4.196,0,
4.14,4.22,0.04,
4.116,4.164,3.4,
4.172,3.78,3.32,
4.108,4.228,3.44,
4.172,4.18,3.4,
3.292,4.22,3.32,
4.124,4.204,3.36,
4.172,4.164,3.44,
4.172,4.18,3.36,
4.108,4.196,3.44,
4.14,4.212,3.44,
4.108,4.164,3.32,
4.188,4.172,3.32,
4.108,4.196,3.4,
4.116,4.18,3.36,
4.14,4.204,3.32,
4.124,4.204,3.36,
4.172,4.164,3.44,
4.172,4.196,3.4,
4.108,4.18,3.32,
4.124,4.22,3.44,
4.14,4.164,3.32,
4.188,4.172,3.36,
4.108,4.196,3.44,
4.14,4.18,3.4,
4.108,4.212,3.32,
4.124,4.164,3.44,
4.172,4.212,3.32,
4.1,4.132,3.32,
4.18,4.204,3.44,
4.052,4.18,3.36,
4.148,4.22,3.36,
4.108,4.204,3.4,
4.18,4.164,3.32,
4.172,4.196,3.36,
4.108,4.156,3.44,
4.14,4.22,3.36,
4.084,4.124,3.44,
4.18,4.196,3.44,
4.02,4.164,3.32,
4.14,4.22,3.44,
4.084,3.756,3.32,
4.172,3.788,3.44,
3.276,3.972,3.36,
3.292,3.956,3.44,
3.5,4.38,3.32,
3.468,4.26,3.32,
4.332,4.124,3.44,
4.22,4.204,3.36,
4.036,3.748,3.44,
4.172,3.884,3.44,
3.268,4.364,3.36,
3.404,4.196,3.4,
4.308,4.164,0.08,
4.14,4.196,0.08,
4.116,4.18,0,
4.124,4.22,0.08,
4.14,4.172,0,
4.172,3.78,0.04,
4.108,4.276,0.12,
3.324,4.204,0.08,
4.22,4.188,0,
4.156,4.204,0.08,
4.172,4.164,0,
4.164,4.18,0.08,
4.1,4.196,0,
4.14,4.18,0.08,
4.116,4.196,0.04,
4.124,3.772,0.08,
4.14,4.276,0,
3.324,4.124,0.04,
4.228,4.204,3.44,
4.14,4.18,3.4,
4.028,4.22,3.32,
4.116,3.788,3.32,
4.172,4.22,3.44,
4.172,4.212,3.36,
3.324,4.18,3.4,
4.164,4.18,3.4,
4.1,4.22,3.32,
4.116,3.788,3.44,
4.18,4.22,3.32,
4.172,4.204,3.36,
3.332,4.172,3.44,
4.172,4.116,3.36,
4.108,4.22,3.4,
4.172,3.78,3.44,
4.02,4.228,3.32,
3.316,3.796,3.32,
4.196,4.228,3.44,
4.172,4.196,3.36,
3.356,4.18,3.4,
4.14,4.212,3.4,
4.108,4.164,3.32,
4.172,4.22,3.4,
4.108,3.876,3.32,
4.18,3.788,3.44,
3.516,4.228,3.36,
3.332,3.78,3.44,
4.172,4.22,3.32,
4.172,4.196,3.32,
3.324,4.18,3.44,
4.14,4.22,3.44,
4.108,4.172,3.32,
4.108,4.196,3.32,
4.172,4.124,3.4,
4.132,4.156,3.4,
4.02,4.22,3.32,
4.092,4.204,3.36,
4.188,4.164,3.36,
4.172,4.18,3.4,
4.1,4.196,3.32,
4.124,4.18,3.4,
4.14,4.22,3.32,
4.124,4.164,3.32,
4.18,4.196,3.44,
4.156,4.148,3.36,
4.108,4.22,3.44,
4.068,4.212,3.36,
4.172,4.164,3.44,
4.18,4.18,3.4,
4.108,4.196,3.32,
4.14,4.18,3.32,
4.108,4.22,3.4,
4.116,4.204,3.36,
4.188,4.164,3.36,
4.172,4.18,3.44,
4.108,4.196,3.32,
4.14,4.212,3.44,
4.108,4.14,3.32,
4.18,4.196,3.36,
4.076,4.18,3.4,
4.148,4.204,3.36,
4.124,4.156,3.44,
4.172,4.196,3.44,
4.092,4.156,3.32,
4.092,4.18,3.4,
4.148,4.204,3.36,
4.124,4.196,3.36,
4.164,4.18,3.4,
4.124,4.18,3.36,
4.14,4.196,3.32,
4.14,4.18,3.32,
4.124,4.196,3.44,
4.124,4.18,3.36,
4.14,4.196,3.4,
4.14,4.196,3.4,
4.124,4.172,0.08,
4.14,4.18,0.08,
4.1,4.196,0.04,
4.14,4.148,0.08,
4.124,4.204,0.04,
4.068,4.18,0.08,
4.148,4.196,0.04,
4.14,4.18,0.04,
4.124,4.196,0.08,
4.124,4.18,0.08,
4.14,4.196,0,
4.14,4.22,0.08,
4.116,4.172,0,
4.124,4.18,0.08,
4.188,4.22,0,
4.124,4.22,0.08,
4.188,4.172,0,
4.188,4.22,0.08,
4.108,4.164,0,
4.124,4.18,0.08,
4.188,4.204,0.04,
4.124,4.18,0.08,
4.18,4.22,0.04,
4.124,4.22,0.08,
4.188,4.1,0.04,
4.188,4.188,0.04,
3.988,4.164,0.08,
4.132,4.164,0.08,
4.1,4.188,0.04,
4.116,4.164,0.08,
4.1,4.196,0.04,
4.116,4.188,0.08,
4.108,4.164,0.04,
4.116,4.188,0.04,
4.1,4.164,0.08,
4.116,4.212,0.04,
4.1,3.748,0.16,
4.164,3.916,0.04,
3.228,3.948,0.16,
3.396,3.932,0.12,
3.42,4.388,0.04,
3.412,4.212,0.08,
4.324,3.804,0.04,
4.188,3.756,0.04,
3.364,4.372,0.16,
3.22,4.244,0.08,
4.316,4.18,0,
4.204,4.204,0.08,
4.124,4.164,0.04,
4.172,4.228,0.12,
4.108,3.756,0,
4.18,3.796,0.12,
3.26,4.332,0,
3.292,4.22,0.08,
4.276,4.164,0.04,
4.188,4.164,0.08,
4.108,4.22,0.04,
4.108,4.212,0.04,
4.172,4.188,0.08,
4.18,3.764,0.08,
4.156,4.228,0.04,
3.284,3.772,0.12,
4.18,4.26,0.04,
3.284,4.22,0.08,
4.204,4.172,0.04,
4.124,4.164,0.08,
4.18,4.196,0,
4.108,4.164,0.08,
4.14,4.204,0,
4.124,4.22,0.08,
4.172,4.172,0,
4.172,4.18,0.08,
4.108,4.196,0.04,
4.124,4.18,0.08,
4.14,4.22,0.04,
4.108,4.204,0.08,
4.188,4.164,0.04,
4.172,4.18,0.08,
4.108,4.196,0.04,
4.124,4.22,0.08,
4.14,4.164,0,
4.18,4.196,0.08,
4.108,4.172,0,
4.14,4.18,0.08,
4.116,4.22,0,
4.124,4.204,0.08,
4.172,4.164,0,
4.164,4.18,0.08,
4.1,4.196,0.04,
4.124,4.22,0.08,
4.14,4.164,0,
4.116,4.196,0.08,
4.188,4.164,0,
4.116,4.18,0.08,
4.14,4.212,0.04,
4.116,4.204,0.08,
4.18,4.164,0.04,
4.172,4.18,0.08,
4.108,4.196,0,
4.14,4.22,0.08,
4.108,4.164,0.04,
4.188,4.172,0.08,
4.108,4.196,0.04,
4.124,4.18,0.04,
4.14,4.212,0.08,
4.124,4.204,0.08,
4.18,4.172,0.04,
4.172,4.196,0.08,
4.1,4.18,0,
4.14,4.18,0.08,
4.108,4.22,0.04,
4.108,4.196,0.08,
4.18,4.164,0.04,
4.164,4.196,0.08,
4.108,4.18,0,
4.14,4.18,0.08,
4.116,4.196,0,
4.14,4.18,0.08,
4.124,4.196,0,
4.14,4.18,0.08,
4.116,4.196,0.04,
4.14,4.18,0.08,
4.108,4.196,0.04,
4.14,4.196,0.08,
4.124,4.18,0,
4.14,4.196,0.08,
4.124,4.18,0,
4.124,4.18,0.08,
4.14,4.196,0,
4.124,4.196,0.08,
4.14,4.18,0,
4.14,4.18,0.04,
4.116,4.204,0.08,
4.124,4.18,0.08,
4.172,4.196,0,
4.124,4.22,0.08,
4.14,4.164,0,
4.172,4.196,0.08,
4.116,4.172,0.04,
4.108,4.18,0.08,
4.14,4.22,0.04,
4.124,4.204,0.04,
4.18,4.172,0.08,
4.172,4.18,0.08,
4.108,4.196,0.04,
4.14,4.22,0.08,
4.124,4.172,0,
4.18,4.164,0.08,
4.116,4.196,0.04,
4.108,4.18,0.08,
4.14,4.22,0,
4.124,4.204,0.08,
4.18,4.164,0,
4.172,4.196,0.08,
4.108,4.172,0,
4.14,4.18,0.08,
4.124,4.212,0.04,
4.124,4.204,0.08,
4.172,4.164,0.04,
4.172,4.196,0.08,
4.108,4.18,0,
4.124,4.22,0.08,
4.14,4.164,0,
4.188,4.18,0.08,
4.108,4.196,0,
4.124,4.18,0.04,
4.14,4.22,0.08,
4.116,4.204,0.08,
4.18,4.164,0,
4.172,4.18,0.08,
4.116,4.196,0.04,
4.14,4.22,0.08,
4.108,4.164,0.04,
4.188,4.18,0.08,
4.108,4.196,0.04,
4.14,4.18,0.04,
4.124,4.22,0.08,
4.124,4.204,0.08,
4.18,4.164,0.04,
4.172,4.18,0.08,
4.124,4.196,0,
4.124,4.22,0.08,
4.14,4.164,0,
4.124,4.18,0.08,
4.18,4.196,0,
4.124,4.18,0.08,
4.14,4.212,0,
4.124,4.204,0.08,
4.188,4.164,0,
4.172,4.18,0.08,
4.108,4.196,0.04,
4.14,4.212,0.08,
4.124,4.164,0.04,
4.124,4.164,0.08,
4.172,4.196,0,
4.108,4.18,0.08,
4.14,4.22,0.04,
4.124,4.22,0.08,
4.18,4.172,0,
4.108,4.164,0.08,
4.18,4.22,0,
4.116,4.204,0.08,
4.188,4.188,0,
4.172,3.772,0,
4.148,4.228,0.12,
3.292,4.172,0.08,
4.188,4.22,0,
4.18,4.204,0.08,
4.108,4.188,0,
4.156,3.78,0.08,
4.172,4.228,0.04,
3.292,4.212,0.08,
4.18,4.164,0.04,
4.18,4.22,0.04,
4.116,3.764,0.12,
4.188,4.196,0.08,
3.284,4.18,0.04,
4.14,4.196,0.08,
4.124,4.172,0.04,
4.14,4.196,0.08,
4.116,4.18,0,
4.14,4.196,0.04,
4.124,4.164,0.08,
4.14,4.18,0.08,
4.108,4.212,0.04,
4.124,3.772,0.12,
4.18,4.22,0,
4.164,4.18,0.04,
3.3,4.196,0.08,
4.14,4.196,0.08,
4.124,4.164,0,
4.124,4.196,0.08,
4.14,4.172,0.04,
4.14,4.18,0.08,
4.124,4.22,0.04,
4.108,4.18,0.04,
4.172,4.196,0.08,
4.14,4.164,0.08,
4.124,4.22,0.04,
4.108,4.196,0.08,
4.188,4.164,0,
4.148,4.18,0.08,
4.108,4.212,0.04,
4.108,4.204,0.08,
4.18,4.164,0,
4.172,4.18,0.08,
4.108,4.196,0.04,
4.124,4.18,0.08,
4.14,4.212,0,
4.124,4.204,0.08,
4.18,4.164,0.04,
4.172,4.196,0.08,
4.108,4.18,0.04,
4.14,4.212,0.08,
4.124,4.164,0,
4.18,4.18,0.08,
4.108,4.196,0.04,
4.124,4.18,0.08,
4.14,4.22,0.04,
4.116,4.204,0.08,
4.188,4.164,0,
4.172,4.18,0.04,
4.108,4.196,0.08,
4.14,4.204,0.08,
4.124,4.164,0,
4.172,4.196,0.08,
4.108,4.164,0.04,
4.108,4.18,0.08,
4.14,4.212,0,
4.124,4.204,0.08,
4.18,4.164,0.04,
4.172,4.196,0.08,
4.108,4.18,0,
4.124,4.22,0.08,
4.14,4.164,0,
4.188,4.172,0.08,
4.108,4.196,0,
4.108,4.18,0.08,
4.14,4.22,0,
4.108,4.204,0.08,
4.18,4.164,0,
4.172,4.196,0.08,
4.108,4.172,0.04,
4.14,4.18,0.08,
4.108,4.22,0.04,
4.124,4.196,0.08,
4.18,4.164,0.04,
4.156,4.18,0.08,
4.108,4.196,0.04,
4.14,4.22,0.08,
4.108,4.164,0.04,
4.18,4.18,0.08,
4.116,4.196,0.04,
4.124,4.18,0.08,
4.14,4.22,0,
4.124,4.204,0.08,
4.18,4.164,0,
4.172,4.196,0.04,
4.108,4.172,0.08,
4.14,4.22,0.08,
4.108,4.164,0,
4.18,4.196,0.08,
4.108,4.172,0,
4.14,4.18,0.08,
4.108,4.212,0.04,
4.124,4.204,0.08,
4.172,4.164,0.04,
4.172,4.196,0.08,
4.108,4.172,0,
4.14,4.22,0.08,
4.116,4.164,0,
4.172,4.164,0.08,
4.108,4.196,0.04,
4.108,4.18,0.08,
4.14,4.212,0.04,
4.108,4.204,0.08,
4.18,4.164,0,
4.172,4.18,0.04,
4.116,4.196,0.08,
4.14,4.196,0.08,
4.116,4.172,0,
4.14,4.196,0.08,
4.124,4.172,0.04,
4.108,4.196,0.04,
4.14,4.18,0.08,
4.124,4.196,0.04,
4.14,4.18,0.08,
4.124,4.196,0.08,
4.14,4.164,0,
4.14,4.18,0.08,
4.116,4.196,0,
4.14,4.18,0.08,
4.108,4.196,0.04,
4.124,4.18,0.08,
4.14,4.196,0.04,
4.14,4.18,0.08,
4.116,4.204,0.04,
4.108,4.196,0.08,
4.172,4.172,0.04,
4.14,4.18,0.08,
4.1,4.212,0.04,
4.124,4.204,0.08,
4.18,4.164,0,
4.172,4.196,0.08,
4.108,4.18,0.04,
4.14,4.212,0.08,
4.124,4.164,0,
4.188,4.18,0.08,
4.1,4.196,0.04,
4.14,4.18,0.04,
4.108,4.22,0.08,
4.108,4.204,0.08,
4.18,4.164,0.04,
4.172,4.196,0.08,
4.108,4.172,0.04,
4.14,4.212,0.08,
4.108,4.164,0,
4.18,4.164,0.08,
4.116,4.196,0,
4.108,4.18,0.08,
4.14,4.22,0.04,
4.108,4.204,0.08,
4.18,4.164,0,
4.172,4.196,0.08,
4.108,4.18,0,
4.14,4.18,0.08,
4.116,4.22,0,
4.124,4.196,0.04,
4.18,4.164,0.08,
4.148,4.164,0.08,
4.116,4.22,0,
4.108,4.22,0.08,
4.18,4.164,0,
4.188,4.18,0.08,
4.108,4.196,0.04,
4.14,4.18,0.08,
4.116,4.212,0.04,
