Power Reception/Metingen 3/Meting met pin 1 -115 -129 99 -14.csv

CH1,CH2,CH3,Start,Increment,
Volt,Volt,Volt,-29.975,0.05
2.7,2.7,0.08,
2.7,2.7,0.04,
2.7,2.7,0.08,
2.7,2.7,0,
2.7,2.7,0.04,
2.7,2.7,0.08,
2.7,2.7,0.08,
2.7,2.7,0,
2.7,2.7,0.04,
2.7,2.7,0.08,
2.7,2.7,0.08,
2.7,2.7,0,
2.7,2.7,0.08,
2.7,2.7,0.04,
2.7,2.7,0.08,
2.7,2.7,0.04,
2.7,2.7,0.08,
2.7,2.7,0.04,
2.7,2.7,0.08,
2.7,2.7,0.04,
2.7,2.7,0.08,
2.7,2.7,0.04,
2.7,2.7,0.04,
2.7,2.7,0.08,
2.7,2.7,0.08,
2.7,2.7,0.04,
2.7,2.7,0.08,
2.7,2.7,0.04,
2.7,2.7,0.08,
2.7,2.7,0.04,
2.7,2.7,0.08,
2.7,2.7,0,
2.7,2.7,0.08,
2.7,2.7,0.04,
2.7,2.7,0.08,
2.7,2.7,0.04,
2.7,2.7,0.08,
2.7,2.7,0.04,
2.7,2.7,0.08,
2.7,2.7,0.04,
2.7,2.7,0.04,
2.7,2.7,0.08,
2.7,2.7,0.08,
2.7,2.7,0.04,
2.7,2.7,0.08,
2.7,2.7,0.04,
2.7,2.7,0.08,
2.7,2.7,0.04,
2.7,2.7,0.08,
2.7,2.7,0.04,
2.7,2.7,0.08,
2.7,2.7,0.04,
2.7,2.7,0.04,
2.7,2.7,0.08,
2.7,2.7,0.04,
2.7,2.7,0.08,
2.7,2.7,0.08,
2.7,2.7,0.04,
2.7,2.7,0.08,
2.7,2.7,0,
2.7,2.7,0.08,
2.7,2.7,0.04,
2.7,2.7,0.08,
2.7,2.7,0.04,
2.7,2.7,0.08,
2.7,2.7,0,
2.7,2.7,0.08,
2.7,2.7,0.04,
2.7,2.7,0.04,
2.7,2.7,0.08,
2.7,2.7,0.08,
2.7,2.7,0.04,
2.7,2.7,0.08,
2.7,2.7,0.04,
2.7,2.7,0.08,
2.7,2.7,0,
2.7,2.7,0.08,
2.7,2.7,0.04,
2.7,2.7,0.04,
2.7,2.7,0.08,
2.7,2.7,0.04,
2.7,2.7,0.08,
2.7,2.7,0.08,
2.7,2.7,0,
2.7,2.7,0.08,
2.7,2.7,0.04,
2.7,2.7,0.04,
2.7,2.7,0.08,
2.7,2.7,0.08,
2.7,2.7,0.04,
2.7,2.7,0.08,
2.7,2.7,0,
2.7,2.7,0.08,
2.7,2.7,0.04,
2.7,2.7,0.08,
2.7,2.7,0.04,
2.7,2.7,0.08,
2.7,2.7,0.04,
2.7,2.7,0.04,
2.7,2.7,0.08,
2.7,2.7,0.08,
2.7,2.7,0.04,
2.7,2.7,0.08,
2.7,2.7,0,
2.7,2.7,0.08,
2.7,2.7,0.04,
2.7,2.7,0.08,
2.7,2.7,0.04,
2.7,2.7,0.08,
2.7,2.7,0.04,
2.7,2.7,0.08,
2.7,2.7,0.04,
2.7,2.7,0.08,
2.7,2.7,0.04,
2.7,2.7,0.04,
2.7,2.7,0.08,
2.7,2.7,0.08,
2.7,2.7,0.04,
2.7,2.7,0.08,
2.7,2.7,0,
2.7,2.7,0.08,
2.7,2.7,0.04,
2.7,2.7,0.08,
2.7,2.7,0,
2.7,2.7,0.08,
2.7,2.7,0.04,
2.7,2.7,0.04,
2.7,2.7,0.08,
2.7,2.7,0.08,
2.7,2.7,0.04,
2.7,2.7,0.08,
2.7,2.7,0.04,
2.7,2.7,0.04,
2.7,2.7,0.08,
2.7,2.7,0.08,
2.7,2.7,0.04,
2.7,2.7,0.08,
2.7,2.7,0.04,
2.7,2.7,0.08,
2.7,2.7,0,
2.7,2.7,0.08,
2.7,2.7,0.04,
2.7,2.7,0.08,
2.7,2.7,0.04,
2.7,2.7,0.08,
2.7,2.7,0,
2.7,2.7,0.04,
2.7,2.7,0.08,
2.7,2.7,0.08,
2.7,2.7,0.04,
2.7,2.7,0.08,
2.7,2.7,0.04,
2.7,2.7,0.08,
2.7,2.7,0.04,
2.7,2.7,0.08,
2.7,2.7,0.04,
2.7,2.7,0.08,
2.7,2.7,0,
2.7,2.7,0.08,
2.7,2.7,0.04,
2.7,2.7,0.08,
2.7,2.7,0.04,
2.7,2.7,0.08,
2.7,2.7,0.04,
2.7,2.7,0.08,
2.7,2.7,0.04,
2.7,2.7,0.08,
2.7,2.7,0.04,
2.7,2.7,0.08,
2.7,2.7,0,
2.7,2.7,0.08,
2.7,2.7,0.04,
2.7,2.7,0.08,
2.7,2.7,0.04,
2.7,2.7,0.08,
2.7,2.7,0,
2.7,2.7,0.04,
2.7,2.7,0.08,
2.7,2.7,0.08,
2.7,2.7,0.04,
2.7,2.7,0.08,
2.7,2.7,0,
2.7,2.7,0.08,
2.7,2.7,0,
2.7,2.7,0.08,
2.7,2.7,0.04,
2.7,2.7,0.08,
2.7,2.7,0.04,
2.7,2.7,0.04,
2.7,2.7,0.08,
2.7,2.7,0.04,
2.7,2.7,0.08,
2.7,2.7,0.08,
2.7,2.7,0.04,
2.7,2.7,0.08,
2.7,2.7,0.04,
2.7,2.7,0.08,
2.7,2.7,0.04,
2.7,2.7,0.08,
2.7,2.7,0.04,
2.7,2.7,0.08,
2.7,2.7,0.04,
2.7,2.7,0.08,
2.7,2.7,0.04,
2.7,2.7,0.04,
2.7,2.7,0.08,
2.7,2.7,0.08,
2.7,2.7,0.04,
2.7,2.7,0.08,
2.7,2.7,0.04,
2.7,2.7,0,
2.7,2.7,0.08,
2.7,2.7,0.08,
2.7,2.7,0.04,
2.7,2.7,0.08,
2.7,2.7,0,
2.7,2.7,0.08,
2.7,2.7,0.04,
2.7,2.7,0.08,
2.7,2.7,0.04,
2.7,2.7,0.08,
2.7,2.7,0.04,
2.7,2.7,0.08,
2.7,2.7,0.04,
2.7,2.7,0.08,
2.7,2.7,0.04,
2.7,2.7,0.08,
2.7,2.7,0.04,
2.7,2.7,0.08,
2.7,2.7,0.04,
2.7,2.7,0.08,
2.7,2.7,0.04,
2.7,2.7,0.08,
2.7,2.7,0,
2.7,2.7,0.08,
2.7,2.7,0.04,
2.7,2.7,0.08,
2.7,2.7,0.04,
2.7,2.7,0.08,
2.7,2.7,0.04,
2.7,2.7,0.08,
2.7,2.7,0.04,
2.7,2.7,0.08,
2.7,2.7,0.04,
2.7,2.7,0.04,
2.7,2.7,0.08,
2.7,2.7,0.08,
2.7,2.7,0.04,
2.7,2.7,0.04,
2.7,2.7,0.08,
2.7,2.7,0.08,
2.7,2.7,0.04,
2.7,2.7,0.08,
2.7,2.7,0.04,
2.7,2.7,0.08,
2.7,2.7,0.04,
2.7,2.7,0.08,
2.7,2.7,0.04,
2.7,2.7,0.08,
2.7,2.7,0.04,
2.7,2.7,0.08,
2.7,2.7,0.04,
2.7,2.7,0.08,
2.7,2.7,0,
2.7,2.7,0.08,
2.7,2.7,0,
2.7,2.7,0.08,
2.7,2.7,0.04,
2.7,2.7,0.08,
2.7,2.7,0.04,
2.7,2.7,0.08,
2.7,2.7,0,
2.7,2.7,0.08,
2.7,2.7,0.04,
2.7,2.7,0.08,
2.7,2.7,0.04,
2.7,2.7,0.04,
2.7,2.7,0.08,
2.7,2.7,0.08,
2.7,2.7,0.04,
2.7,2.7,0.08,
2.7,2.7,0.04,
2.7,2.7,0.08,
2.7,2.7,0,
2.7,2.7,0.08,
2.7,2.7,0,
2.7,2.7,0.08,
2.7,2.7,0.04,
2.7,2.7,0.08,
2.7,2.7,0.04,
2.7,2.7,0.08,
2.7,2.7,0,
2.7,2.7,0.08,
2.7,2.7,0.04,
2.7,2.7,0.08,
2.7,2.7,0.04,
2.7,2.7,0.08,
2.7,2.7,0.04,
2.7,2.7,0.08,
2.7,2.7,0.04,
2.7,2.7,0.08,
2.7,2.7,0.04,
2.7,2.7,0.08,
2.7,2.7,0.04,
2.7,2.7,0.08,
2.7,2.7,0.04,
2.7,2.7,0.08,
2.7,2.7,0,
2.7,2.7,0.08,
2.7,2.7,0,
2.7,2.7,0.04,
2.7,2.7,0.08,
2.7,2.7,0.04,
2.7,2.7,0.08,
2.7,2.7,0.08,
2.7,2.7,0,
2.7,2.7,0.08,
2.7,2.7,0.04,
2.7,2.7,0.08,
2.7,2.7,0.04,
2.7,2.7,0.08,
2.7,2.7,0.04,
2.7,2.7,0.04,
2.7,2.7,0.08,
2.7,2.7,0.04,
2.7,2.7,0.08,
2.7,2.7,0.08,
2.7,2.7,0.04,
2.7,2.7,0,
2.7,2.7,0.08,
2.7,2.7,0.08,
2.7,2.7,0.04,
2.7,2.7,0.08,
2.7,2.7,0,
2.7,2.7,0.16,
2.7,2.7,0,
2.7,2.7,0.08,
2.7,2.7,0.04,
2.7,2.7,0.08,
2.7,2.7,0,
2.7,2.7,0.08,
2.7,2.7,0,
2.7,2.7,0.08,
2.7,2.7,0.04,
2.7,2.7,0.04,
2.7,2.7,0.08,
2.7,2.7,0.08,
2.7,2.7,0,
2.7,2.7,0.08,
2.7,2.7,0.04,
2.7,2.7,0.08,
2.7,2.7,0.04,
2.7,2.7,0.08,
2.7,2.7,0,
2.7,2.7,0.08,
2.7,2.7,0,
2.7,2.7,0.08,
2.7,2.7,0,
2.7,2.7,0.08,
2.7,2.7,0,
2.7,2.7,0.08,
2.7,2.7,0.04,
2.7,2.7,0.08,
2.7,2.7,0.04,
2.7,2.7,0.04,
2.7,2.7,0.08,
2.7,2.7,0.08,
2.7,2.7,0,
2.7,2.7,0.08,
2.7,4.036,0,
2.7,4.036,0.08,
4.028,4.204,0.04,
4.036,4.196,0.04,
4.196,4.22,0.08,
4.188,4.22,0.08,
4.204,4.196,0,
4.204,4.22,0.08,
4.188,4.196,0,
4.204,4.22,0.04,
4.196,4.196,0.08,
4.204,4.196,0.08,
4.196,4.22,0,
4.204,4.22,0.04,
4.196,4.196,0.08,
4.204,4.22,0.08,
4.196,4.196,0,
4.204,4.22,0.08,
4.196,4.196,0.04,
4.204,4.22,0.08,
4.196,4.196,0,
4.204,4.22,0.08,
4.196,4.196,0.04,
4.204,4.22,0.08,
4.196,4.204,0,
4.204,4.22,0.08,
4.196,4.196,0,
4.204,4.22,0.08,
4.196,4.196,0.04,
4.204,4.22,0.04,
4.196,4.196,0.08,
4.204,4.196,0.08,
4.196,4.22,0.04,
4.196,4.22,0.08,
4.204,4.196,0.04,
4.196,4.22,0.08,
4.212,4.196,0.04,
4.204,4.22,0.08,
4.196,4.196,0.04,
4.196,4.22,0.08,
4.212,4.204,0,
4.196,4.22,0.08,
4.204,4.196,0.04,
4.196,4.22,0.08,
4.212,4.196,0,
4.212,4.22,0.08,
4.196,4.196,0,
4.196,4.22,0.08,
4.22,4.196,0.04,
4.196,4.204,0.08,
4.22,4.22,0,
4.196,4.22,0.08,
4.22,4.196,0,
4.196,4.196,0.08,
4.212,4.22,0,
4.204,4.22,0.08,
4.196,4.196,0,
4.196,4.22,0.08,
4.212,4.196,0,
4.212,4.22,0.08,
4.196,4.196,0,
4.196,4.22,0.08,
4.22,4.196,0.04,
4.196,4.22,0.08,
4.22,4.196,0,
4.196,4.22,0.08,
4.212,4.196,0,
4.196,4.22,0.08,
4.212,4.196,0,
4.204,4.22,0.08,
4.196,4.196,0,
4.204,4.22,0.08,
4.196,4.196,0,
4.196,4.22,0.08,
4.212,4.196,0,
4.196,4.22,0.08,
4.204,4.196,0,
4.22,4.22,0.08,
4.196,4.196,0,
4.22,4.22,0.08,
4.196,4.196,0,
4.196,4.22,0.08,
4.212,4.196,0,
4.204,4.22,0.08,
4.196,4.196,0,
4.204,4.204,0.08,
4.196,4.22,0,
4.212,4.22,0,
4.196,4.204,0.08,
4.196,4.204,0.08,
4.212,4.22,0.04,
4.196,4.22,0.08,
4.204,4.196,0,
4.204,4.196,0.08,
4.196,4.22,0,
4.196,4.196,0.08,
4.22,4.22,0,
4.204,4.22,0.08,
4.196,4.204,0,
4.204,4.22,0.04,
4.196,4.196,0.08,
4.196,4.196,0.08,
4.22,4.22,0,
4.204,4.22,0.08,
4.196,4.196,0,
4.204,4.22,0.08,
4.196,4.196,0,
4.212,4.204,0.08,
4.196,4.22,0,
4.196,4.22,0.08,
4.212,4.204,0,
4.196,4.22,0.08,
4.22,4.196,0,
4.196,4.22,0,
4.22,4.196,3.44,
4.204,4.22,3.36,
4.196,4.196,3.44,
4.196,4.22,3.44,
4.204,4.156,3.32,
4.204,4.196,3.36,
4.108,4.18,3.4,
4.148,4.18,3.36,
4.124,4.204,3.44,
4.132,4.196,3.4,
4.164,4.18,3.32,
4.148,4.204,3.32,
4.132,4.164,3.4,
4.124,4.172,3.4,
4.164,4.252,3.32,
4.1,4.236,3.36,
4.236,4.164,3.4,
4.228,4.18,3.32,
4.108,4.196,3.4,
4.132,4.18,3.32,
4.148,4.196,3.44,
4.124,4.18,3.36,
4.164,4.244,3.44,
4.132,4.22,3.44,
4.228,4.164,3.32,
4.204,4.18,3.44,
4.108,4.196,3.32,
4.148,4.196,3.36,
4.124,4.18,3.4,
4.132,4.196,3.36,
4.156,4.18,3.32,
4.148,4.204,3.4,
4.132,4.172,3.32,
4.164,4.204,3.36,
4.116,4.164,3.44,
4.164,4.18,3.36,
4.108,4.196,3.44,
4.124,4.164,3.32,
4.148,4.196,3.44,
4.124,4.18,3.4,
4.14,4.196,3.32,
4.124,4.18,3.36,
4.14,4.196,3.44,
4.124,4.18,3.4,
4.14,4.196,3.32,
4.124,4.18,3.4,
4.14,4.196,3.32,
4.124,4.18,3.36,
4.14,4.196,3.44,
4.124,4.18,3.36,
4.14,4.196,3.4,
4.124,4.18,3.32,
4.14,4.196,3.44,
4.124,4.18,3.32,
4.14,4.196,3.4,
4.124,4.18,3.36,
4.14,4.196,3.4,
4.124,4.18,3.44,
4.14,4.196,3.32,
4.124,4.18,3.36,
4.14,4.196,3.4,
4.124,4.196,3.36,
4.14,4.18,3.4,
4.124,4.196,3.44,
4.14,4.18,3.32,
4.124,4.18,3.32,
4.14,4.196,3.4,
4.124,4.18,3.36,
4.14,4.196,3.44,
4.124,4.196,3.36,
4.14,4.18,3.44,
4.124,4.18,3.32,
4.14,4.196,3.4,
4.124,4.124,3.36,
4.14,4.196,3.44,
4.044,4.18,3.44,
4.14,4.196,3.32,
4.124,4.18,3.36,
4.14,4.196,3.4,
4.124,4.18,3.32,
4.14,4.196,3.44,
4.124,4.18,3.36,
4.14,4.196,3.4,
4.124,4.18,3.36,
4.14,4.196,3.4,
4.124,4.18,3.4,
4.14,4.196,3.32,
4.124,4.124,3.32,
4.14,4.212,3.44,
4.036,4.18,3.36,
4.172,4.196,3.44,
4.124,4.18,3.4,
4.14,4.196,3.32,
4.124,4.18,3.4,
4.132,4.196,3.32,
4.124,4.196,3.36,
4.14,4.164,3.44,
4.1,4.204,3.44,
4.14,4.18,3.32,
4.164,4.196,3.4,
4.124,4.108,3.32,
4.148,4.164,3.36,
4.012,4.188,3.4,
4.092,4.132,3.36,
4.124,4.22,3.44,
4.036,4.18,3.44,
4.156,4.148,3.32,
4.124,4.148,3.32,
4.052,4.196,3.44,
4.06,4.188,3.36,
4.124,4.132,3.36,
4.116,4.14,3.4,
4.02,4.188,3.32,
4.116,4.188,3.32,
4.02,4.132,3.44,
4.116,4.156,3.36,
4.02,4.18,3.4,
4.068,4.132,3.36,
4.108,4.188,3.44,
4.012,4.18,3.44,
4.108,4.124,3.32,
4.108,4.172,3.32,
3.996,4.124,3.44,
3.996,4.116,3.36,
4.1,4.204,3.44,
3.98,4.196,3.44,
4.14,4.164,3.32,
4.132,4.172,3.32,
4.1,4.204,3.44,
4.1,4.196,3.44,
4.14,4.108,3.32,
4.14,4.172,3.4,
3.988,4.124,0.04,
4.092,4.132,0.08,
4.004,4.204,0,
4.012,4.204,0.08,
4.132,4.14,0.04,
4.044,4.132,0.08,
4.14,4.228,0.04,
4.004,4.204,0.08,
4.18,4.124,0.04,
4.172,4.132,0.08,
4.012,4.18,0.04,
4.092,4.156,0,
4.02,4.22,3.4,
4.052,4.22,3.4,
4.196,4.164,3.32,
4.196,4.204,3.32,
4.124,4.148,3.4,
4.172,4.164,3.36,
4.092,4.212,3.44,
4.116,4.164,3.36,
4.18,4.22,3.4,
4.124,4.164,3.32,
4.188,4.22,3.44,
4.124,4.204,3.32,
4.188,4.156,3.44,
4.172,4.18,3.36,
4.076,4.196,3.44,
4.14,4.196,3.36,
4.124,4.18,3.4,
4.124,4.18,3.32,
4.14,4.196,3.44,
4.124,4.18,3.36,
4.14,4.196,3.44,
4.124,4.204,3.36,
4.14,4.164,3.4,
4.172,4.156,3.36,
4.108,4.22,3.32,
4.1,4.212,3.36,
4.188,4.164,3.4,
4.116,4.212,3.36,
4.18,4.164,3.44,
4.18,4.156,3.32,
4.092,4.196,3.4,
4.14,4.18,3.44,
4.108,4.196,3.32,
4.14,4.18,3.36,
4.108,4.196,3.4,
4.124,4.18,3.36,
4.14,4.196,3.4,
4.14,4.18,3.32,
4.108,4.204,3.44,
4.124,4.196,3.36,
4.172,4.156,3.4,
4.092,4.164,3.36,
4.164,4.22,3.36,
4.1,4.164,3.44,
4.188,4.22,3.32,
4.124,4.172,3.36,
4.188,4.22,3.4,
4.124,4.204,3.36,
4.188,4.156,3.4,
4.18,4.18,3.44,
4.084,4.196,3.32,
4.14,4.18,3.44,
4.124,4.196,3.32,
4.124,4.18,3.4,
4.14,4.196,3.32,
4.124,4.196,3.36,
4.14,4.18,3.4,
4.124,4.204,3.32,
4.14,4.156,3.4,
4.172,4.204,3.36,
4.1,4.156,3.4,
4.164,4.212,3.36,
4.084,4.164,3.44,
4.188,4.22,3.44,
4.116,4.164,3.32,
4.124,4.204,3.36,
4.188,4.148,3.44,
4.172,4.196,3.44,
4.068,4.164,3.32,
4.14,4.172,3.36,
4.092,4.212,3.4,
4.116,4.22,3.32,
4.188,4.172,3.44,
4.188,4.212,3.36,
4.124,4.156,3.44,
4.18,4.196,3.36,
4.092,4.108,3.4,
4.148,4.196,3.32,
4.028,4.148,3.44,
4.148,4.18,3.32,
4.068,4.196,3.44,
4.14,4.18,3.36,
4.124,4.196,3.44,
4.14,4.204,3.4,
4.124,4.172,3.32,
4.124,4.14,3.36,
4.164,4.204,3.4,
4.076,4.196,3.36,
4.172,4.172,3.36,
4.148,4.172,3.36,
4.116,4.22,3.44,
4.116,4.22,3.4,
4.188,4.172,3.32,
4.18,4.18,3.32,
4.124,4.196,3.44,
4.14,4.18,3.36,
4.124,4.196,3.44,
4.124,4.18,3.4,
4.14,4.196,3.32,
4.14,4.18,3.4,
4.124,4.196,3.32,
4.124,4.18,3.36,
4.14,4.196,3.4,
4.14,4.18,3.36,
4.124,4.196,3.44,
4.14,4.18,3.32,
4.116,4.196,3.4,
4.14,4.18,3.36,
4.124,4.196,3.4,
4.124,4.18,3.36,
4.14,4.196,3.36,
4.124,4.196,3.32,
4.14,4.18,3.44,
4.14,4.196,3.32,
4.124,4.108,3.44,
4.164,4.196,3.4,
4.004,4.164,3.32,
4.108,4.188,3.44,
4.124,4.164,3.32,
4.132,4.188,3.32,
4.1,4.156,3.44,
4.076,4.164,3.32,
4.132,4.188,3.44,
4.132,4.188,3.36,
4.1,4.164,3.44,
4.132,3.62,3.32,
4.1,4.364,3.44,
3.092,3.636,3.32,
4.316,4.356,3.44,
3.1,4.228,3.44,
4.316,3.612,3.36,
3.116,4.364,3.44,
4.196,3.708,3.36,
4.316,4.348,3.44,
3.252,3.636,3.32,
4.292,3.644,3.36,
3.172,4.3,3.4,
3.172,4.204,3.44,
4.236,4.18,3.32,
4.148,4.196,3.44,
4.116,4.172,3.32,
4.14,4.196,3.36,
4.108,4.164,3.44,
4.108,4.18,3.36,
4.14,4.196,3.44,
4.14,4.196,3.44,
4.124,4.164,3.32,
4.14,4.196,3.32,
4.108,4.164,3.44,
4.14,4.18,3.36,
4.108,4.196,3.44,
4.124,3.628,3.44,
4.14,4.364,3.32,
3.164,4.348,3.32,
4.316,3.7,3.44,
4.308,3.652,3.36,
3.212,4.308,3.44,
3.156,4.3,3.36,
4.252,3.572,3.44,
4.26,3.484,3.44,
3.092,4.34,3.32,
3.02,3.62,3.36,
4.284,4.228,3.44,
4.196,3.612,3.36,
3.172,4.292,3.44,
3.092,4.252,3.36,
4.252,3.652,3.44,
4.196,4.188,3.32,
3.196,4.164,3.44,
4.132,4.164,3.36,
4.108,4.188,3.44,
4.132,4.164,3.44,
4.1,4.188,3.32,
4.108,4.188,3.4,
4.132,4.164,3.32,
4.108,4.188,3.36,
4.132,4.164,3.4,
4.132,4.124,3.36,
4.108,4.196,3.44,
4.044,4.188,3.44,
4.14,4.164,3.32,
4.132,4.164,3.32,
4.108,4.188,3.4,
4.132,4.164,3.4,
4.1,4.188,0,
4.108,4.196,0.08,
4.124,4.132,0,
4.14,4.148,0.04,
4.076,4.196,3.4,
4.092,4.164,3.36,
4.14,4.188,3.44,
4.108,4.188,3.36,
4.132,4.164,3.4,
4.108,4.148,3.32,
4.132,4.196,3.44,
4.068,4.188,3.44,
4.14,4.164,3.32,
4.108,4.164,3.44,
4.132,4.196,3.32,
4.108,4.164,3.4,
4.132,4.196,3.32,
4.108,4.164,3.32,
4.14,4.188,3.4,
4.14,4.188,3.44,
4.108,4.164,3.32,
4.14,4.164,3.36,
4.108,4.188,3.44,
4.108,4.164,3.32,
4.132,4.188,3.44,
4.108,4.188,3.32,
4.132,4.164,3.4,
4.132,4.188,3.36,
4.108,4.164,3.44,
4.108,4.188,3.44,
4.14,4.124,3.32,
4.132,4.196,3.44,
4.036,4.132,3.32,
4.14,4.132,3.36,
4.052,4.196,3.44,
4.068,4.188,3.36,
4.14,4.164,3.44,
4.108,4.188,3.32,
4.132,4.164,3.4,
4.108,4.148,3.44,
4.14,4.188,3.36,
4.076,4.196,3.36,
4.14,4.108,3.44,
3.988,3.612,3.32,
4.14,4.356,3.44,
3.148,3.62,3.32,
4.308,4.348,3.44,
4.276,4.244,3.4,
3.164,3.58,3.36,
4.196,4.348,3.44,
3.124,3.62,3.36,
4.3,4.228,3.36,
3.14,3.58,3.44,
4.172,4.26,3.36,
3.1,3.516,3.44,
4.22,3.58,3.44,
3.036,4.252,0.04,
3.092,4.196,0.08,
4.204,4.164,0,
4.14,4.116,0.08,
4.108,4.228,0,
4.012,4.204,0.08,
4.204,4.188,0.04,
4.188,4.188,0.08,
4.156,4.204,0.04,
4.156,4.188,0.08,
4.18,4.204,0,
4.172,4.188,0.08,
4.156,4.204,0,
4.172,4.204,0.08,
4.156,4.172,0,
4.124,4.188,0,
4.188,4.204,0.08,
4.156,4.204,0.04,
4.18,4.132,3.4,
4.18,4.18,3.32,
4.076,4.204,3.44,
4.148,4.188,3.32,
4.18,4.204,3.4,
4.164,4.188,3.36,
4.18,4.204,3.4,
4.18,4.188,3.36,
4.156,4.204,3.4,
4.164,4.188,3.36,
4.18,4.204,3.32,
4.172,4.204,3.36,
4.156,4.188,3.44,
4.172,4.204,3.36,
4.164,4.188,3.4,
4.164,4.204,3.32,
4.172,4.188,3.44,
4.164,4.188,3.44,
4.172,4.204,3.32,
4.18,4.204,3.36,
4.156,4.18,3.4,
4.132,4.188,3.4,
4.188,4.204,3.32,
4.164,4.204,3.32,
4.188,4.188,3.44,
4.164,4.204,3.32,
4.188,4.172,3.44,
4.14,4.18,3.36,
4.188,4.204,3.44,
4.172,4.188,3.36,
4.14,4.204,3.44,
4.172,4.204,3.32,
4.156,4.188,3.4,
4.156,4.204,3.36,
4.18,4.188,3.36,
4.164,4.204,3.36,
4.18,4.108,3.4,
4.172,4.188,3.4,
4.044,4.156,3.32,
4.14,4.212,3.32,
4.092,4.14,3.4,
4.18,4.172,3.44,
4.068,4.156,3.32,
4.108,4.172,3.32,
4.084,4.156,3.44,
4.108,4.204,3.44,
4.084,3.564,3.32,
4.156,4.364,3.36,
3.06,3.596,3.44,
4.308,4.356,3.36,
3.092,3.604,3.44,
4.292,4.348,3.4,
3.1,3.596,3.32,
4.292,3.66,3.36,
3.1,4.26,3.44,
3.172,4.124,3.36,
4.204,4.196,3.4,
4.132,4.164,3.44,
4.036,4.188,3.32,
4.108,4.164,3.32,
4.132,4.188,3.4,
4.1,4.164,3.36,
4.124,4.188,3.4,
4.108,4.164,3.36,
4.132,4.188,3.44,
4.14,4.164,3.4,
4.1,4.188,3.32,
4.1,4.188,3.32,
4.132,4.164,3.44,
4.108,4.164,3.36,
4.132,4.188,3.4,
4.132,4.188,3.4,
4.1,4.164,3.32,
4.108,4.164,3.4,
4.132,4.188,3.32,
4.108,4.164,3.4,
4.132,4.188,0.04,
4.132,4.164,0.08,
4.108,4.188,0,
4.124,4.164,0.08,
4.092,4.188,0,
4.108,4.164,0.08,
4.132,4.188,0,
4.108,4.164,0.08,
4.132,4.188,0.04,
4.1,4.164,0.08,
4.132,4.188,0.04,
4.14,4.164,0.08,
4.108,4.188,0.04,
4.132,4.164,0.08,
4.1,4.188,0.04,
4.124,4.164,0.04,
4.1,4.188,0.08,
4.132,4.164,0.08,
4.1,4.188,0,
4.132,4.164,0.08,
4.1,4.188,0,
4.108,4.164,0.08,
4.132,4.188,0,
4.132,4.164,0.08,
4.1,4.188,0.04,
4.108,4.164,0.08,
4.132,4.188,0.04,
4.132,4.164,0.08,
4.1,4.188,0.04,
4.124,4.188,0.08,
4.1,4.148,0,
4.076,4.188,0.08,
4.132,4.164,0,
4.108,4.164,0.08,
4.132,4.188,0.04,
4.1,4.164,0.08,
4.132,4.188,0.04,
4.132,4.164,0.08,
4.108,4.188,0.04,
4.1,4.164,0.08,
4.132,4.188,0.04,
4.132,4.164,0.08,
4.108,4.188,0,
4.132,4.188,0.08,
4.108,4.148,0,
4.132,4.188,0.04,
4.076,4.164,0.08,
4.132,4.164,0.08,
4.1,4.188,0.04,
4.108,4.164,0.08,
4.132,4.188,0,
4.108,4.164,0.08,
4.132,4.188,0.04,
4.132,4.164,0.04,
4.108,4.188,0.08,
4.1,4.164,0.08,
4.132,4.188,0.04,
4.108,4.164,0.08,
4.132,4.188,0,
4.132,4.164,0.08,
4.1,4.188,0.04,
4.108,4.164,0.08,
4.132,4.188,0.04,
4.132,4.164,0.08,
4.1,4.18,0,
4.132,4.188,0.08,
4.1,4.164,0,
4.132,4.164,0.08,
4.1,4.188,0,
4.108,4.164,0.08,
4.132,4.188,0,
4.132,4.164,0.08,
4.1,4.188,0.04,
4.132,4.164,0.08,
4.1,4.188,0,
4.108,4.164,0.08,
4.132,4.188,0,
4.1,4.188,0.08,
4.132,4.164,0.04,
4.1,4.188,0.08,
4.132,4.164,0,
4.108,4.188,0.08,
4.132,4.164,0,
4.132,4.188,0.08,
4.1,4.164,0.04,
4.108,4.156,0.08,
4.132,4.188,0,
4.132,4.164,0,
4.1,4.188,0.08,
4.108,4.164,0.08,
4.14,4.188,0,
4.108,4.164,0.08,
4.132,4.188,0,
4.108,4.188,0.04,
4.132,4.164,0.08,
4.132,4.164,0.08,
4.1,4.188,0,
4.108,4.164,0.08,
4.132,4.188,0,
4.108,4.188,0.08,
4.132,4.164,0,
4.132,4.164,0.08,
4.1,4.188,0.04,
4.132,4.188,0.08,
4.1,4.164,0,
4.1,4.164,0.08,
4.132,4.188,0,
4.108,4.188,0.08,
4.132,4.164,0,
4.132,4.164,0.08,
4.108,4.188,0,
4.1,4.188,0.08,
4.132,4.164,0,
4.108,4.164,0.08,
4.132,4.188,0.04,
4.108,4.164,0.08,
4.132,4.188,0.04,
4.132,4.164,0.08,
4.108,4.188,0,
4.132,4.164,0.08,
4.1,4.188,0,
4.108,4.164,0.08,
4.132,4.188,0.04,
4.1,4.164,0.08,
4.132,4.188,0.04,
4.132,4.188,0.08,
4.1,4.164,0,
4.132,4.164,0.08,
4.1,4.188,0.04,
4.132,4.188,0.08,
4.108,4.164,0,
4.14,4.188,0.08,
4.108,4.164,0,
4.108,4.164,0.08,
4.14,4.188,0,
4.1,4.164,0.08,
4.132,4.188,0.04,
4.108,4.164,0.08,
4.132,4.188,0.04,
4.108,4.164,0.08,
4.132,4.188,0,
4.108,4.164,0.08,
4.132,4.188,0,
4.132,4.188,0.08,
4.1,4.156,0.04,
4.108,4.188,0.08,
4.132,4.164,0.04,
4.132,4.164,0.08,
4.1,4.188,0.04,
4.108,4.188,0.08,
4.132,4.164,0.04,
4.132,4.188,0.08,
4.1,4.164,0.04,
4.108,4.188,0.08,
4.132,4.164,0.04,
4.132,4.164,0.08,
4.108,4.188,0,
4.108,4.164,0.08,
4.132,4.188,0.04,
4.132,4.164,0.08,
4.108,4.188,0,
4.132,4.164,0.04,
4.108,4.188,0.08,
4.108,4.164,0.08,
4.132,4.188,0,
4.108,4.164,0.08,
4.132,4.188,0.04,
4.1,4.188,0.08,
4.132,4.164,0,
4.1,4.164,0.08,
4.14,4.188,0,
4.14,4.164,0.08,
4.108,4.188,0,
4.108,4.164,0.08,
4.14,4.188,0,
4.1,4.188,0.08,
4.132,4.164,0.04,
4.132,4.164,0.08,
4.108,4.188,0,
4.132,4.164,0.08,
4.1,4.188,0.04,
4.132,4.188,0.08,
4.1,4.164,0.04,
4.132,4.164,0.08,
4.1,4.188,0,
4.108,4.164,0.08,
4.132,4.188,0,
4.108,4.164,0.08,
4.132,4.188,0.04,
4.108,4.164,0.08,
4.132,4.188,0.04,
4.132,4.188,0.08,
4.108,4.164,0,
4.132,4.188,0.12,
4.108,4.164,0,
4.108,3.572,0.08,
4.132,4.252,0,
4.188,4.196,0.08,
3.068,4.164,0.04,
4.148,4.132,0.08,
4.108,4.196,0.04,
4.06,4.108,0.08,
4.14,4.228,0,
4.036,4.188,0.04,
4.204,4.204,0.08,
4.18,4.204,0.08,
4.156,4.188,0,
4.188,4.188,0.08,
4.156,4.204,0.04,
4.164,4.204,0.08,
4.188,4.188,0,
4.164,4.204,0.08,
4.188,4.188,0,
4.164,4.188,0.08,
4.188,4.204,0,
4.172,4.188,0,
4.156,4.204,0.08,
4.156,4.188,0.08,
4.18,4.204,0,
4.164,4.204,0.08,
4.188,4.188,0,
4.164,4.204,0.08,
4.18,4.188,0,
4.164,4.188,0.08,
4.188,4.204,0,
4.164,4.204,0.08,
4.18,4.188,0,
4.156,4.204,0.08,
4.18,4.188,0.04,
4.156,4.204,0.08,
4.188,4.188,0,
4.156,4.204,0.08,
4.18,4.188,0,
4.164,4.204,0,
4.18,4.188,0.08,
4.164,4.204,0.08,
4.18,4.188,0,
4.164,4.204,0.08,
4.188,4.188,0,
