Power Reception/Metingen 3/Meting met pin 0 -85 -95 165 -9.csv

CH1,CH2,CH3,Start,Increment,
Volt,Volt,Volt,-29.975,0.05
4.18,4.204,0.08,
4.164,4.188,0,
4.164,4.204,0.08,
4.188,4.188,0,
4.188,4.188,0.08,
4.164,4.212,0,
4.164,4.188,0.08,
4.188,4.204,0,
4.164,4.188,0.08,
4.188,4.212,0,
4.188,4.188,0.08,
4.156,4.204,0,
4.188,4.188,0.08,
4.156,4.204,0,
4.164,4.204,0,
4.188,4.18,0.08,
4.164,4.204,0.08,
4.188,4.188,0,
4.164,4.188,0.08,
4.18,4.204,0,
4.164,4.204,0.08,
4.188,4.188,0,
4.164,4.188,0.08,
4.188,4.204,0,
4.164,4.188,0.08,
4.188,4.204,0,
4.164,4.188,0.08,
4.188,4.204,0,
4.164,4.204,0.08,
4.188,4.188,0,
4.164,4.188,0.08,
4.188,4.22,0,
4.164,4.204,0.08,
4.188,4.188,0,
4.156,4.204,0.08,
4.188,4.188,0,
4.188,4.188,0.04,
4.156,4.204,0.08,
4.164,4.188,0.08,
4.188,4.204,0,
4.164,4.188,0.08,
4.188,4.204,0,
4.164,4.188,0.08,
4.188,4.22,0,
4.164,4.204,0.08,
4.188,4.188,0,
4.188,4.188,0.08,
4.156,4.204,0,
4.164,4.188,0.08,
4.188,4.204,0,
4.164,4.204,0.04,
4.188,4.188,0.08,
4.164,4.204,0.08,
4.188,4.188,0,
4.164,4.188,0.08,
4.188,4.204,0,
4.164,4.204,0.08,
4.188,4.188,0,
4.164,4.188,0.08,
4.188,4.204,0,
4.164,4.204,0.08,
4.188,4.188,0,
4.164,4.204,0.08,
4.188,4.188,0,
4.164,4.204,0.08,
4.18,4.188,0,
4.164,4.204,0.08,
4.188,4.188,0,
4.164,4.204,0.08,
4.188,4.188,0,
4.164,4.188,0.08,
4.188,4.212,0,
4.164,4.204,0.08,
4.188,4.188,0,
4.164,4.188,0.08,
4.188,4.212,0,
4.164,4.204,0.08,
4.188,4.188,0,
4.164,4.188,0.08,
4.188,4.204,0,
4.164,4.204,0.08,
4.188,4.188,0.04,
4.164,4.204,0.08,
4.188,4.188,0,
4.188,4.204,0.08,
4.148,4.18,0,
4.164,4.204,0.08,
4.188,4.188,0,
4.164,4.204,0,
4.188,4.188,0.08,
4.164,4.204,0.08,
4.188,4.188,0,
4.188,4.204,0.08,
4.156,4.18,0,
4.164,4.188,0.08,
4.188,4.204,0.04,
4.164,4.204,0.08,
4.188,4.188,0,
4.188,4.204,0.08,
4.156,4.188,0,
4.164,4.188,0.08,
4.188,4.204,0,
4.164,4.188,0.08,
4.18,4.204,0,
4.164,4.204,0.08,
4.188,4.188,0,
4.164,4.204,0.08,
4.18,4.188,0,
4.188,4.204,0.08,
4.164,4.188,0,
4.164,4.18,0.08,
4.188,4.212,0,
4.164,4.188,0.08,
4.188,4.204,0,
4.164,4.188,0.08,
4.18,4.212,0,
4.164,4.188,0.08,
4.188,4.204,0,
4.156,4.204,0.08,
4.188,4.188,0,
4.188,4.188,0.08,
4.156,4.204,0,
4.18,4.204,0.08,
4.164,4.188,0,
4.164,4.204,0.08,
4.188,4.188,0,
4.164,4.188,0.08,
4.188,4.22,0,
4.164,4.204,0.08,
4.18,4.188,0,
4.164,4.188,0.08,
4.188,4.22,0,
4.156,4.188,0.08,
4.188,4.204,0,
4.164,4.204,0.08,
4.188,4.188,0,
4.188,4.204,0.08,
4.164,4.18,0,
4.164,4.204,0.08,
4.188,4.188,0,
4.164,4.204,0.08,
4.188,4.188,0,
4.164,4.188,0.08,
4.188,4.204,0,
4.188,4.188,0.08,
4.164,4.22,0,
4.164,4.204,0.08,
4.188,4.188,0,
4.164,4.204,0.08,
4.188,4.188,0,
4.188,4.188,0.08,
4.164,4.22,0,
4.188,4.204,0.08,
4.164,4.188,0.04,
4.164,4.188,0.08,
4.18,4.204,0,
4.188,4.204,0.08,
4.164,4.188,0,
4.164,4.188,0.08,
4.188,4.212,0,
4.18,4.204,0.08,
4.164,4.188,0,
4.188,4.204,0.08,
4.076,4.148,0,
4.156,4.22,0.08,
4.196,4.188,0,
4.188,4.188,0.08,
4.164,4.212,0.04,
4.164,4.188,0.08,
4.188,4.204,0,
4.164,4.188,0.08,
4.188,4.204,0,
4.188,4.204,0,
4.156,4.18,0.08,
4.164,4.204,0.08,
4.188,4.188,0,
4.084,4.148,0.08,
4.196,4.22,0,
4.188,4.22,0.08,
4.092,4.148,0.04,
4.036,4.124,0.08,
4.196,4.22,0,
4.1,4.164,0.08,
4.116,4.188,0.04,
4.116,4.188,0.08,
4.092,4.156,0.04,
4.116,4.164,0,
4.1,4.188,0.08,
4.116,4.164,0.08,
4.1,4.188,0,
4.164,4.22,0.04,
3.876,4.052,0.12,
4.22,4.26,0.08,
3.468,3.844,0,
4.196,4.228,0.08,
3.46,3.82,0,
4.14,4.196,0.08,
4.108,4.164,0.04,
4.14,4.164,0.08,
4.116,4.196,0,
4.14,4.196,0.08,
4.108,4.164,0,
4.108,4.164,0.08,
4.14,4.196,0,
4.14,4.164,0.08,
4.108,4.196,0,
4.14,4.164,0.08,
4.116,4.196,0.04,
4.14,4.164,0.08,
4.108,4.196,0,
4.14,4.196,0.08,
4.108,4.164,0.04,
4.14,4.196,0.08,
4.108,4.172,0,
4.14,4.196,0.08,
4.108,4.172,0,
4.14,4.196,0.08,
4.108,4.164,0,
4.14,4.196,0.08,
4.108,4.164,0,
4.14,4.196,0.08,
4.116,4.164,0,
4.14,4.172,0.08,
4.108,4.196,0,
4.14,4.164,0.08,
4.108,4.196,0,
4.14,4.196,0.08,
4.108,4.164,0,
4.14,4.164,0.08,
4.108,4.196,0,
4.116,4.18,0.08,
4.14,4.196,0,
4.14,4.196,0.08,
4.108,4.172,0,
4.14,4.164,0.08,
4.108,4.196,0,
4.14,4.172,0.08,
4.108,4.196,0,
4.124,4.172,0.08,
4.14,4.196,0,
4.14,4.196,0.08,
4.108,4.164,0,
4.14,4.196,0.08,
4.108,4.164,0,
4.108,4.196,0.08,
4.14,4.164,0,
4.108,4.196,0.08,
4.14,4.164,0,
4.14,4.172,0.08,
4.108,4.196,0,
4.14,4.196,0.08,
4.108,4.164,0,
4.14,4.196,0.08,
4.108,4.164,0,
4.14,4.196,0.08,
4.108,4.164,0,
4.14,4.164,0.08,
4.108,4.196,0,
4.108,4.196,0.08,
4.14,4.164,0,
4.108,4.196,0.08,
4.14,4.164,0,
4.14,4.196,0.08,
4.108,4.164,0,
4.14,4.196,0.08,
4.116,4.164,0,
4.108,4.196,0,
4.14,4.164,0.08,
4.14,4.196,0.08,
4.108,4.164,0,
4.124,4.18,0.08,
4.14,4.196,0,
4.14,4.18,0.08,
4.108,4.196,0,
4.14,4.196,0.08,
4.108,4.164,0,
4.1,4.188,0.08,
4.132,4.164,0,
4.132,4.196,0.08,
4.1,4.164,0,
4.132,4.164,0,
4.1,4.196,0.08,
4.132,4.188,0.08,
4.1,4.164,0,
4.084,4.148,0.08,
4.132,4.196,0,
4.1,4.188,0.08,
4.132,4.164,0,
4.108,4.164,0.08,
4.14,4.196,0,
4.14,4.196,0.08,
4.108,4.164,0,
4.14,4.172,0,
4.108,4.196,0.08,
4.14,4.196,0.08,
4.108,4.164,0,
4.108,4.196,0.08,
4.14,4.164,0,
4.108,4.196,0.08,
4.14,4.164,0,
4.14,4.172,0.08,
4.108,4.196,0,
4.14,4.164,0.08,
4.108,4.196,0,
4.108,4.196,0.08,
4.14,4.172,0,
4.14,4.196,0.08,
4.108,4.164,0,
4.14,4.172,0.08,
4.108,4.196,0,
4.124,4.164,0.08,
4.14,4.196,0,
4.14,4.196,0.08,
4.124,4.172,0,
4.14,4.196,0.08,
4.108,4.172,0,
4.132,4.18,0.08,
4.116,4.196,0,
4.14,4.164,0.08,
4.108,4.196,0,
4.14,4.196,0.08,
4.108,4.164,0,
4.14,4.196,0.08,
4.116,4.164,0,
4.14,4.196,0.08,
4.108,4.164,0,
4.14,4.172,0.08,
4.108,4.196,0,
4.14,4.196,0,
4.116,4.172,0.2,
4.14,4.164,0.08,
4.108,4.196,0,
4.14,4.196,0.08,
4.108,4.164,0,
4.14,4.196,0.08,
4.108,4.164,0,
4.14,4.196,0.08,
4.108,4.172,0,
4.14,4.164,0.08,
4.108,4.196,0,
4.14,4.196,0.08,
4.108,4.172,0,
4.14,4.196,0.08,
4.108,4.172,0,
4.14,4.196,0.08,
4.108,4.164,0,
4.14,4.196,0.08,
4.108,4.172,0,
4.14,4.164,0.08,
4.108,4.196,0,
4.14,4.172,0.08,
4.108,4.196,0,
4.14,4.164,0.08,
4.108,4.196,0,
4.14,4.196,0.08,
4.108,4.164,0,
4.14,4.164,0.08,
4.108,4.196,0,
4.14,4.196,0.08,
4.108,4.172,0,
4.14,4.196,0.08,
4.108,4.164,0,
4.132,4.196,0.08,
4.108,4.164,0,
4.14,4.18,0,
4.108,4.196,0.08,
4.14,4.196,0.08,
4.108,4.164,0,
4.14,4.196,0.08,
4.116,4.164,0,
4.108,4.196,0.08,
4.14,4.164,0,
4.108,4.164,0.08,
4.14,4.196,0,
4.108,4.196,0.08,
4.132,4.172,0,
4.1,4.172,0.08,
4.14,4.196,0,
4.108,4.164,0.08,
4.14,4.196,0,
4.1,4.196,0.08,
4.14,4.164,0,
4.108,4.196,0.08,
4.14,4.164,0,
4.14,4.196,0.08,
4.1,4.164,0,
4.108,4.164,0.08,
4.132,4.196,0,
4.14,4.172,0.08,
4.1,4.196,0,
4.14,4.196,0.08,
4.116,4.164,0,
4.14,4.164,0.08,
4.108,4.196,0,
4.14,4.164,0,
4.108,4.196,0.08,
4.108,4.164,0.08,
4.132,4.196,0,
4.108,4.196,0.08,
4.14,4.164,0,
4.132,4.196,0.08,
4.108,4.164,0,
4.14,4.196,0.08,
4.116,4.164,0,
4.108,4.164,0.08,
4.14,4.196,0,
4.14,4.164,0.08,
4.108,4.196,0,
4.108,4.164,0.08,
4.14,4.196,0,
4.14,4.196,0,
4.108,4.164,0.08,
4.18,4.22,0.08,
3.708,3.956,0,
4.14,4.196,0.08,
4.068,4.14,0,
4.044,4.14,0.08,
4.204,4.228,0.04,
4.188,4.204,0.08,
4.156,4.188,0,
4.188,4.188,0.08,
4.156,4.204,0,
4.164,4.204,0.08,
4.188,4.188,0,
4.164,4.204,0.08,
4.188,4.188,0,
4.164,4.204,0.08,
4.188,4.188,0,
4.164,4.188,0.08,
4.188,4.204,0,
4.164,4.188,0.08,
4.188,4.22,0,
4.188,4.204,0.08,
4.164,4.188,0,
4.188,4.188,0.08,
4.156,4.212,0,
4.164,4.204,0.08,
4.188,4.188,0,
4.188,4.188,0.08,
4.164,4.204,0,
4.18,4.188,0.08,
4.164,4.204,0,
4.188,4.204,0.08,
4.156,4.188,0,
4.188,4.188,0.08,
4.156,4.204,0,
4.18,4.204,0.08,
4.164,4.188,0,
4.164,4.204,0.08,
4.18,4.188,0,
4.164,4.204,0.08,
4.188,4.188,0,
4.188,4.204,0.08,
4.164,4.188,0,
4.164,4.204,0.08,
4.188,4.188,0,
4.164,4.204,0.08,
4.188,4.188,0,
4.164,4.204,0.08,
4.188,4.188,0,
4.164,4.204,0.08,
4.188,4.188,0,
4.164,4.204,0.08,
4.188,4.188,0,
4.156,4.204,0.08,
4.188,4.188,0,
4.164,4.204,0.08,
4.188,4.188,0,
4.164,4.204,0.08,
4.188,4.188,0,
4.164,4.204,0.08,
4.188,4.188,0,
4.164,4.204,0,
4.188,4.188,3.36,
4.164,4.204,3.36,
4.188,4.188,3.4,
4.124,4.204,3.36,
4.188,4.172,3.32,
4.164,4.204,3.32,
4.188,4.188,3.4,
4.18,4.188,3.36,
4.164,4.22,3.4,
4.164,4.188,3.36,
4.188,4.204,3.44,
4.18,4.204,3.4,
4.052,4.124,3.32,
4.012,4.116,3.32,
4.156,4.204,3.4,
4.068,4.148,3.32,
4.236,4.252,3.44,
4.172,4.204,3.4,
4.108,4.164,3.32,
4.124,4.196,3.44,
4.148,4.18,3.32,
4.132,4.18,3.36,
4.228,4.236,3.44,
4.228,4.244,3.36,
4.116,4.156,3.4,
4.124,4.164,3.4,
4.148,4.196,3.32,
4.124,4.18,3.32,
4.164,4.204,3.4,
4.148,4.18,3.36,
4.132,4.196,3.44,
4.124,4.164,3.44,
4.164,4.204,3.32,
4.124,4.204,3.32,
4.164,4.164,3.44,
4.124,4.164,3.36,
4.164,4.204,3.44,
4.14,4.196,3.36,
4.108,4.164,3.36,
4.132,4.188,3.32,
4.108,4.164,3.44,
4.132,4.196,3.36,
4.108,4.164,3.4,
4.132,4.196,3.36,
4.116,4.172,3.4,
4.132,4.196,3.32,
4.108,4.164,3.4,
4.132,4.196,3.32,
4.108,4.164,3.44,
4.132,4.196,3.36,
4.108,4.172,3.44,
4.132,4.196,3.4,
4.108,4.164,3.32,
4.132,4.196,3.4,
4.108,4.164,3.32,
4.132,4.164,3.36,
4.108,4.196,3.4,
4.108,4.164,3.36,
4.132,4.196,3.4,
4.108,4.196,3.4,
4.132,4.164,3.32,
4.132,4.164,3.44,
4.116,4.196,3.32,
4.132,4.196,3.36,
4.108,4.164,3.44,
4.132,4.164,3.4,
4.108,4.196,3.32,
4.132,4.164,3.32,
4.116,4.196,3.44,
4.108,4.196,3.36,
4.132,4.164,3.4,
4.132,4.196,3.4,
4.124,4.164,3.32,
4.14,4.196,3.32,
4.036,4.116,3.44,
4.132,4.164,3.44,
4.108,4.188,3.32,
4.132,4.196,3.36,
4.108,4.164,3.4,
4.132,4.196,3.4,
4.108,4.164,3.32,
4.132,4.164,3.36,
4.108,4.196,3.44,
4.108,4.164,3.36,
4.132,4.196,3.4,
4.108,4.196,3.36,
4.14,4.164,3.44,
4.036,4.124,3.32,
4.164,4.22,3.44,
4.14,4.196,3.36,
4.108,4.164,3.4,
4.132,4.188,3.36,
4.108,4.164,3.4,
4.132,4.164,3.4,
4.108,4.196,3.32,
4.1,4.196,3.36,
4.14,4.156,3.44,
4.108,4.204,3.36,
4.156,4.164,3.4,
4.156,4.204,3.44,
4.012,4.116,3.32,
4.084,4.18,3.32,
4.108,4.156,3.44,
4.116,4.188,3.36,
4.084,4.156,3.44,
4.028,4.204,3.4,
4.148,4.124,3.36,
4.124,4.196,3.32,
4.052,4.148,3.4,
4.116,4.188,3.36,
4.076,4.156,3.44,
4.028,4.132,3.36,
4.116,4.188,3.44,
4.108,4.188,3.44,
4.02,4.132,3.32,
4.044,4.148,3.44,
4.108,4.188,3.32,
4.108,4.14,3.36,
4.036,4.188,3.44,
4.108,4.188,3.32,
4.02,4.132,3.44,
3.988,4.116,3.44,
4.1,4.188,3.32,
3.964,4.1,3.4,
4.124,4.196,3.32,
4.036,4.148,3.36,
4.132,4.196,3.4,
4.1,4.164,3.32,
4.14,4.196,3.4,
4.14,4.196,3.36,
3.988,4.108,3.4,
4.084,4.172,3.44,
4.004,4.132,0,
4.02,4.14,0.08,
4.14,4.204,0.04,
4.14,4.204,0.08,
4.036,4.14,0,
4.02,4.14,0.08,
4.164,4.22,0.04,
4.148,4.108,0,
4.012,4.204,0.08,
4.108,4.172,0.08,
3.988,4.1,0,
4.028,4.132,0.08,
4.156,4.22,0,
4.076,4.156,0,
4.196,4.22,3.44,
4.092,4.156,3.32,
4.188,4.22,3.4,
4.188,4.164,3.36,
4.108,4.22,3.32,
4.124,4.196,3.36,
4.14,4.164,3.36,
4.124,4.172,3.36,
4.14,4.196,3.4,
4.14,4.18,3.36,
4.124,4.196,3.32,
4.124,4.196,3.32,
4.14,4.164,3.44,
4.14,4.196,3.36,
4.124,4.172,3.4,
4.124,4.196,3.44,
4.14,4.164,3.32,
4.14,4.196,3.32,
4.108,4.164,3.4,
4.124,4.196,3.36,
4.14,4.164,3.44,
4.124,4.172,3.44,
4.14,4.196,3.32,
4.124,4.196,3.4,
4.14,4.164,3.32,
4.14,4.196,3.32,
4.116,4.172,3.4,
4.108,4.164,3.32,
4.14,4.196,3.4,
4.124,4.18,3.32,
4.14,4.196,3.44,
4.14,4.172,3.36,
4.124,4.196,3.44,
4.14,4.196,3.36,
4.124,4.164,3.44,
4.148,4.196,3.36,
3.988,4.108,3.44,
4.124,4.188,3.32,
4.1,4.156,3.4,
4.1,4.156,3.32,
4.124,4.188,3.4,
4.124,4.188,3.4,
4.1,4.164,3.32,
4.1,4.164,3.32,
4.124,4.196,3.4,
3.876,4.044,3.32,
4.204,4.252,3.44,
4.196,4.228,3.36,
3.772,3.988,3.4,
3.572,3.884,3.44,
4.196,4.236,3.32,
4.18,4.22,3.36,
3.58,3.892,3.44,
4.108,4.164,3.32,
4.14,4.196,3.44,
4.108,4.164,3.36,
4.14,4.196,3.4,
4.14,4.164,3.32,
4.108,4.196,3.44,
4.204,4.26,3.32,
3.596,3.9,3.44,
3.82,4.012,3.36,
4.196,4.228,3.44,
4.204,4.228,3.44,
3.588,3.892,3.32,
3.684,3.94,3.36,
4.18,4.22,3.4,
4.14,4.196,3.36,
4.1,4.164,3.44,
4.1,4.196,3.44,
4.14,4.164,3.32,
4.108,4.196,3.32,
4.14,4.164,3.4,
4.108,4.164,3.32,
4.14,4.196,3.4,
4.14,4.196,3.36,
4.028,4.124,3.44,
4.14,4.196,3.4,
4.092,4.156,3.32,
4.14,4.164,3.36,
4.108,4.196,3.4,
4.108,4.164,3.44,
4.14,4.196,0.04,
4.14,4.164,0.08,
4.1,4.196,0,
4.1,4.196,0.08,
4.14,4.164,0.04,
4.14,4.164,3.36,
4.1,4.196,3.44,
4.108,4.164,3.36,
4.14,4.196,3.44,
4.108,4.196,3.32,
4.14,4.164,3.44,
4.108,4.164,3.36,
4.14,4.196,3.44,
4.076,4.148,3.36,
4.14,4.196,3.44,
4.108,4.164,3.36,
4.14,4.196,3.4,
4.14,4.164,3.32,
4.1,4.196,3.4,
4.1,4.196,3.36,
4.14,4.164,3.44,
4.14,4.196,3.4,
4.108,4.164,3.32,
4.14,4.196,3.32,
4.108,4.164,3.4,
4.108,4.196,3.4,
4.14,4.164,3.32,
4.14,4.164,3.36,
4.108,4.196,3.44,
4.14,4.164,3.32,
4.1,4.196,3.4,
4.028,4.196,3.36,
4.14,4.124,3.44,
4.068,4.196,3.36,
4.14,4.14,3.4,
4.108,4.164,3.4,
4.132,4.196,3.32,
4.108,4.196,3.44,
4.14,4.164,3.32,
4.068,4.14,3.32,
4.14,4.196,3.4,
4.108,4.196,3.44,
4.132,4.164,3.32,
4.004,4.116,3.4,
4.14,4.204,3.32,
4.108,4.164,3.36,
4.14,4.196,3.44,
4.076,4.148,3.32,
4.14,4.196,3.4,
4.1,4.196,3.32,
4.14,4.164,3.4,
4.14,4.196,3.32,
4.036,4.124,3.4,
4.196,4.252,3.36,
3.828,4.02,3.44,
4.196,4.244,3.4,
3.628,3.908,3.32,
4.18,4.22,3.36,
3.62,3.908,0,
4.036,4.124,0.08,
4.212,4.236,0,
4.204,4.236,0.08,
4.164,4.188,0,
4.188,4.204,0.08,
4.156,4.18,0,
4.164,4.204,0.04,
4.18,4.18,0.08,
4.164,4.188,0.08,
4.188,4.204,0,
4.164,4.204,0.08,
4.188,4.18,0,
4.164,4.188,0.08,
4.18,4.204,0,
4.164,4.188,0.04,
4.18,4.212,3.36,
4.188,4.148,3.36,
4.084,4.22,3.4,
4.164,4.188,3.36,
4.188,4.212,3.32,
4.18,4.204,3.36,
4.14,4.172,3.44,
4.188,4.188,3.36,
4.156,4.204,3.44,
4.164,4.204,3.32,
4.188,4.188,3.44,
4.188,4.188,3.32,
4.156,4.204,3.4,
4.188,4.204,3.36,
4.156,4.188,3.44,
4.156,4.188,3.4,
4.188,4.204,3.32,
4.156,4.188,3.4,
4.188,4.204,3.32,
4.188,4.188,3.36,
4.148,4.204,3.4,
4.164,4.188,3.36,
4.188,4.204,3.32,
4.156,4.204,3.4,
4.188,4.188,3.32,
4.188,4.18,3.36,
4.148,4.22,3.4,
4.188,4.204,3.36,
4.124,4.164,3.44,
4.18,4.204,3.4,
4.14,4.18,3.32,
4.18,4.188,3.32,
4.156,4.204,3.4,
4.164,4.188,3.36,
4.18,4.204,3.4,
4.188,4.204,3.36,
4.132,4.172,3.44,
4.036,4.124,3.36,
4.196,4.22,3.32,
4.044,4.132,3.36,
4.116,4.196,3.44,
4.1,4.188,3.32,
4.116,4.164,3.44,
4.204,4.244,3.44,
3.788,4.004,3.32,
3.396,4.228,3.4,
4.196,3.796,3.32,
4.18,4.012,3.4,
3.788,4.22,3.32,
4.108,4.196,3.36,
4.14,4.172,3.4,
4.108,4.164,3.32,
4.14,4.196,3.44,
4.108,4.196,3.32,
4.14,4.164,3.44,
4.108,4.196,3.36,
4.14,4.164,3.4,
4.108,4.196,3.32,
4.14,4.164,3.4,
4.108,4.164,3.4,
4.14,4.196,3.32,
4.108,4.164,3.36,
4.14,4.196,3.44,
4.132,4.164,3.4,
4.108,4.196,3.32,
4.108,4.196,3.44,
4.14,4.164,3.32,
4.14,4.196,3.36,
4.108,4.164,3.4,
4.108,4.196,3.36,
4.14,4.164,3.44,
4.108,4.196,3.32,
4.14,4.172,3.4,
4.14,4.196,3.36,
4.108,4.164,3.44,
4.108,4.164,3.36,
4.14,4.196,3.44,
4.092,4.196,3.36,
4.14,4.156,0,
4.14,4.196,0.08,
4.076,4.148,0.04,
4.14,4.196,0.08,
4.108,4.164,0,
4.116,4.196,0.08,
4.14,4.164,0,
4.14,4.196,0.08,
4.108,4.172,0,
4.108,4.164,0.08,
4.14,4.196,0.04,
4.116,4.164,0.08,
4.14,4.196,0,
4.14,4.196,0.08,
4.116,4.164,0.04,
4.108,4.164,0.08,
4.14,4.196,0,
4.14,4.196,0.08,
4.068,4.148,0.04,
4.108,4.164,0.08,
4.14,4.196,0,
4.108,4.196,0.08,
4.14,4.164,0.04,
4.108,4.196,0.08,
4.14,4.164,0.04,
4.14,4.164,0.08,
4.108,4.196,0.04,
4.108,4.164,0.08,
4.14,4.196,0,
4.14,4.196,0.08,
4.108,4.164,0.04,
4.108,4.164,0.04,
4.14,4.196,0.08,
4.108,4.164,0.08,
4.132,4.196,0.04,
4.108,4.164,0.08,
4.14,4.196,0.04,
4.108,4.164,0.08,
4.14,4.196,0,
4.14,4.196,0.08,
4.108,4.164,0.04,
4.14,4.196,0.08,
4.092,4.156,0,
4.108,4.196,0.08,
4.14,4.164,0,
4.14,4.196,0.08,
4.108,4.164,0,
4.108,4.164,0.08,
4.14,4.196,0.04,
4.14,4.196,0.08,
4.108,4.164,0.04,
4.14,4.196,0.08,
4.108,4.164,0.04,
4.14,4.196,0.08,
4.108,4.172,0.04,
4.108,4.164,0.04,
4.14,4.196,0.08,
4.108,4.164,0.08,
4.14,4.196,0.04,
4.108,4.172,0.08,
4.14,4.196,0,
4.14,4.196,0.08,
4.108,4.164,0,
4.108,4.196,0.08,
4.14,4.164,0,
4.14,4.172,0.08,
4.116,4.196,0,
4.108,4.196,0.08,
4.14,4.164,0,
4.14,4.196,0.08,
4.108,4.164,0,
4.108,4.164,0.08,
4.132,4.196,0,
4.14,4.196,0.08,
4.108,4.172,0.04,
4.14,4.196,0.08,
4.108,4.164,0.04,
4.14,4.196,0.08,
4.068,4.14,0,
4.108,4.196,0.08,
4.14,4.164,0,
4.108,4.196,0.08,
4.14,4.164,0,
4.108,4.196,0.04,
4.14,4.164,0.08,
4.14,4.164,0.08,
4.108,4.196,0,
4.14,4.196,0.08,
4.108,4.164,0.04,
4.108,4.164,0.04,
4.14,4.196,0.08,
4.14,4.164,0.08,
4.108,4.196,0,
4.14,4.164,0.08,
4.108,4.196,0,
4.108,4.164,0.08,
4.14,4.196,0,
4.14,4.196,0.08,
4.108,4.164,0,
4.108,4.188,0.08,
4.132,4.164,0.04,
4.108,4.196,0.08,
4.14,4.164,0,
4.132,4.164,0.08,
4.108,4.196,0.04,
4.108,4.164,0.08,
4.14,4.196,0.04,
4.116,4.196,0.08,
4.14,4.164,0,
4.14,4.172,0.08,
4.108,4.196,0,
4.108,4.164,0.08,
4.14,4.196,0,
4.14,4.196,0.08,
4.108,4.172,0,
4.132,4.164,0.08,
4.108,4.196,0,
4.108,4.164,0.08,
4.132,4.196,0,
4.108,4.164,0.08,
4.14,4.196,0,
4.132,4.196,0.08,
4.108,4.164,0,
4.108,4.164,0.08,
4.14,4.196,0,
4.14,4.196,0.08,
4.116,4.164,0,
4.076,4.196,0.08,
4.14,4.148,0,
4.108,4.196,0.08,
4.14,4.164,0,
4.14,4.196,0.08,
4.108,4.164,0,
4.108,4.196,0.08,
4.14,4.164,0,
4.132,4.164,0.08,
4.108,4.196,0.04,
4.108,4.196,0.08,
4.14,4.164,0,
4.108,4.164,0.08,
4.14,4.196,0,
4.108,4.196,0.08,
4.132,4.164,0,
4.108,4.196,0.08,
4.132,4.172,0.04,
4.108,4.164,0.08,
4.14,4.196,0.04,
4.108,4.196,0.04,
4.14,4.164,0.08,
4.108,4.164,0.08,
4.14,4.196,0,
4.108,4.196,0.08,
4.132,4.164,0,
4.108,4.164,0.08,
4.14,4.196,0,
4.108,4.196,0.08,
4.14,4.164,0,
4.108,4.196,0.08,
4.14,4.164,0,
4.132,4.164,0.08,
4.108,4.196,0.04,
4.108,4.196,0.04,
4.14,4.164,0.08,
4.108,4.188,0.08,
4.132,4.164,0,
4.14,4.164,0.08,
4.108,4.196,0,
4.108,4.164,0.08,
4.14,4.196,0,
4.108,4.164,0.08,
4.14,4.196,0,
4.116,4.196,0.08,
4.14,4.164,0.04,
4.14,4.164,0.08,
4.108,4.196,0,
4.108,4.164,0.08,
4.132,4.196,0,
4.108,4.164,0,
4.132,4.196,0.08,
4.132,4.164,0.08,
4.108,4.196,0,
4.108,4.164,0.08,
4.14,4.196,0.04,
4.108,4.196,0.08,
4.132,4.164,0,
4.108,4.196,0.08,
4.14,4.164,0.04,
4.18,4.22,0.08,
3.708,3.964,0.04,
4.052,4.14,0.08,
4.204,4.228,0,
4.204,4.228,0.08,
4.156,4.188,0,
4.164,4.188,0.08,
4.18,4.204,0,
4.164,4.188,0.08,
4.188,4.212,0,
4.164,4.204,0.08,
4.188,4.188,0,
4.164,4.204,0.08,
4.18,4.188,0,
4.156,4.188,0.08,
4.188,4.22,0,
4.164,4.204,0.08,
4.188,4.188,0,
4.188,4.204,0.04,
4.156,4.188,0.08,
4.164,4.204,0.08,
4.188,4.188,0,
4.164,4.188,0.08,
4.188,4.22,0,
4.164,4.204,0,
4.188,4.188,0.08,
4.188,4.204,0.08,
4.156,4.188,0,
4.164,4.188,0.08,
4.188,4.204,0,
4.164,4.204,0.08,
4.188,4.188,0.04,
4.164,4.204,0.08,
4.18,4.188,0,
4.164,4.204,0.08,
4.188,4.188,0,
4.164,4.204,0.08,
4.188,4.188,0,
4.164,4.204,0,
4.188,4.188,0.08,
4.164,4.204,0.08,
4.18,4.188,0,
4.164,4.204,0.08,
4.188,4.188,0,
4.164,4.204,0,
4.18,4.188,0.08,
4.164,4.204,0.08,
4.188,4.188,0,
4.188,4.204,0.08,
4.164,4.188,0,
4.164,4.188,0.08,
4.188,4.204,0,
4.188,4.188,0.08,
4.156,4.22,0,
4.188,4.204,0.08,
4.132,4.18,0,
4.164,4.188,0.08,
4.188,4.204,0,
4.164,4.188,0.08,
4.188,4.204,0,
4.164,4.204,0.08,
4.18,4.188,0,
4.164,4.188,0.08,
4.188,4.204,0,
4.188,4.188,0.08,
4.164,4.22,0,
4.164,4.188,0.08,
4.188,4.22,0,
4.164,4.188,0.08,
4.188,4.22,0,
4.164,4.188,0.08,
4.188,4.204,0,
4.164,4.204,0.08,
4.188,4.188,0,
4.164,4.204,0.08,
4.188,4.18,0,
4.164,4.204,0.08,
4.18,4.188,0,
4.188,4.204,0.08,
4.164,4.188,0,
4.188,4.204,0.08,
4.164,4.188,0,
4.164,4.188,0.08,
4.188,4.204,0,
4.164,4.204,0.08,
4.188,4.18,0,
4.164,4.204,0.08,
4.188,4.188,0,
4.18,4.204,0.08,
4.156,4.188,0,
4.156,4.188,0.08,
4.188,4.204,0.04,
4.156,4.204,0.08,
4.188,4.188,0.04,
4.164,4.204,0.08,
4.188,4.188,0,
4.156,4.204,0.08,
4.188,4.188,0,
4.164,4.188,0.08,
4.18,4.204,0.04,
4.164,4.204,0.08,
4.188,4.188,0,
4.164,4.188,0.08,
4.188,4.212,0,
4.164,4.204,0.08,
4.188,4.188,0,
4.164,4.188,0.08,
4.188,4.212,0,
4.164,4.204,0.08,
4.188,4.188,0.04,
4.164,4.188,0.08,
4.188,4.204,0.04,
4.164,4.204,0.08,
4.188,4.18,0.04,
4.188,4.188,0.08,
4.164,4.204,0,
4.164,4.204,0.08,
4.188,4.188,0,
4.164,4.204,0.08,
4.188,4.188,0,
4.164,4.188,0.08,
4.188,4.204,0.04,
4.164,4.204,0.08,
4.188,4.188,0,
4.188,4.204,0.08,
4.156,4.188,0,
4.188,4.188,0.08,
4.164,4.22,0,
4.164,4.188,0.08,
4.188,4.204,0,
4.164,4.204,0.08,
4.188,4.188,0,
4.164,4.188,0.08,
4.188,4.204,0,
4.164,4.204,0.08,
4.188,4.188,0,
4.156,4.204,0.08,
4.188,4.188,0,
4.164,4.204,0.08,
4.188,4.188,0,
4.188,4.204,0.08,
4.156,4.188,0,
4.188,4.204,0.08,
4.156,4.188,0,
4.164,4.204,0.08,
4.188,4.188,0,
4.164,4.204,0.08,
4.188,4.188,0,
4.164,4.204,0.08,
4.188,4.188,0.04,
4.164,4.188,0.08,
4.188,4.204,0,
4.188,4.204,0.08,
4.156,4.188,0,
4.18,4.204,0.08,
4.156,4.188,0,
4.164,4.204,0.08,
