Power Reception/Metingen 3/Meting met pin 1 -114 -125 108 -10.csv

CH1,CH2,CH3,Start,Increment,
Volt,Volt,Volt,-29.975,0.05
2.7,2.7,0.08,
2.7,2.7,0,
2.7,2.7,0.08,
2.7,2.7,0,
2.7,2.7,0.08,
2.7,2.7,0.04,
2.7,2.7,0.08,
2.7,2.7,0,
2.7,2.7,0.08,
2.7,2.7,0.04,
2.7,2.7,0.04,
2.7,2.7,0.08,
2.7,2.7,0.08,
2.7,2.7,0.04,
2.7,2.7,0.08,
2.7,2.7,0,
2.7,2.7,0,
2.7,2.7,0.08,
2.7,2.7,0.08,
2.7,2.7,0.04,
2.7,2.7,0.08,
2.7,2.7,0,
2.7,2.7,0.08,
2.7,2.7,0.04,
2.7,2.7,0.08,
2.7,2.7,0.04,
2.7,2.7,0.08,
2.7,2.7,0,
2.7,2.7,0.08,
2.7,2.7,0,
2.7,2.7,0.08,
2.7,2.7,0.04,
2.7,2.7,0.08,
2.7,2.7,0,
2.7,2.7,0.08,
2.7,2.7,0.04,
2.7,2.7,0.08,
2.7,2.7,0,
2.7,2.7,0.08,
2.7,2.7,0,
2.7,2.7,0.08,
2.7,2.7,0.04,
2.7,2.7,0.08,
2.7,2.7,0.04,
2.7,2.7,0.08,
2.7,2.7,0,
2.7,2.7,0.08,
2.7,2.7,0.04,
2.7,2.7,0.08,
2.7,2.7,0.04,
2.7,2.7,0.08,
2.7,2.7,0,
2.7,2.7,0.08,
2.7,2.7,0,
2.7,2.7,0.08,
2.7,2.7,0,
2.7,2.7,0,
2.7,2.7,0.08,
2.7,2.7,0.08,
2.7,2.7,0,
2.7,2.7,0.08,
2.7,2.7,0,
2.7,2.7,0.08,
2.7,2.7,0,
2.7,2.7,0.08,
2.7,2.7,0,
2.7,2.7,0.08,
2.7,2.7,0.04,
2.7,2.7,0.08,
2.7,2.7,0.04,
2.7,2.7,0.08,
2.7,2.7,0.04,
2.7,2.7,0.08,
2.7,2.7,0.04,
2.7,2.7,0.08,
2.7,2.7,0.04,
2.7,2.7,0.04,
2.7,2.7,0.08,
2.7,2.7,0.08,
2.7,2.7,0,
2.7,2.7,0.08,
2.7,2.7,0,
2.7,2.7,0.08,
2.7,2.7,0,
2.7,2.7,0.08,
2.7,2.7,0,
2.7,2.7,0.08,
2.7,2.7,0,
2.7,2.7,0.04,
2.7,2.7,0.08,
2.7,2.7,0.08,
3.98,3.988,0,
3.988,4.004,0.08,
4.204,4.204,0,
4.188,4.196,0.08,
4.204,4.22,0.04,
4.204,4.22,0.08,
4.188,4.196,0,
4.204,4.196,0,
4.196,4.22,0.08,
4.204,4.196,0.04,
4.196,4.22,0.08,
4.204,4.22,0.08,
4.196,4.196,0,
4.204,4.22,0.08,
4.196,4.196,0,
4.196,4.22,0.08,
4.212,4.196,0,
4.196,4.22,0.08,
4.212,4.196,0,
4.204,4.22,0.08,
4.196,4.196,0,
4.196,4.22,0.08,
4.212,4.196,0,
4.196,4.196,0.04,
4.22,4.22,0.08,
4.204,4.22,0.08,
4.196,4.196,0,
4.228,4.22,0.08,
4.196,4.196,0,
4.196,4.22,0.08,
4.22,4.196,0.04,
4.196,4.196,0.08,
4.212,4.22,0,
4.22,4.22,0.08,
4.196,4.196,0,
4.196,4.204,0.08,
4.212,4.22,0.04,
4.196,4.22,0.08,
4.22,4.196,0,
4.196,4.22,0.08,
4.22,4.204,0,
4.204,4.22,0.08,
4.196,4.196,0,
4.22,4.22,0.08,
4.196,4.196,0,
4.196,4.22,0.08,
4.22,4.196,0.04,
4.196,4.22,0.08,
4.212,4.204,0,
4.22,4.22,0.08,
4.196,4.196,0,
4.196,4.22,0.08,
4.22,4.196,0,
4.196,4.22,0.08,
4.22,4.196,0.04,
4.22,4.22,0.08,
4.196,4.196,0,
4.196,4.22,0,
4.22,4.196,0.08,
4.196,4.22,0.08,
4.22,4.196,0,
4.196,4.22,0.08,
4.22,4.196,0,
4.196,4.22,0,
4.22,4.196,3.44,
4.22,4.22,3.36,
4.196,4.196,3.4,
4.204,4.22,3.44,
4.1,4.156,3.32,
4.14,4.188,3.32,
4.124,4.164,3.4,
4.132,4.172,3.44,
4.148,4.196,3.32,
4.148,4.196,3.36,
4.132,4.18,3.32,
4.164,4.196,3.32,
4.108,4.164,3.4,
4.108,4.164,3.36,
4.228,4.244,3.4,
4.22,4.228,3.36,
4.1,4.156,3.44,
4.124,4.188,3.36,
4.14,4.164,3.32,
4.124,4.18,3.4,
4.148,4.196,3.32,
4.132,4.18,3.36,
4.236,4.236,3.32,
4.204,4.22,3.44,
4.1,4.148,3.32,
4.124,4.188,3.44,
4.14,4.164,3.32,
4.124,4.172,3.36,
4.148,4.196,3.44,
4.132,4.18,3.36,
4.148,4.196,3.44,
4.108,4.196,3.32,
4.164,4.164,3.44,
4.164,4.164,3.36,
4.1,4.196,3.4,
4.148,4.164,3.36,
4.108,4.188,3.44,
4.108,4.164,3.4,
4.132,4.188,3.32,
4.132,4.164,3.44,
4.108,4.188,3.32,
4.132,4.164,3.44,
4.108,4.188,3.32,
4.124,4.164,3.36,
4.108,4.188,3.44,
4.108,4.164,3.32,
4.132,4.188,3.44,
4.108,4.164,3.36,
4.132,4.18,3.44,
4.132,4.164,3.36,
4.108,4.188,3.44,
4.132,4.164,3.4,
4.108,4.188,3.32,
4.108,4.164,3.32,
4.132,4.188,3.44,
4.108,4.164,3.44,
4.132,4.188,3.32,
4.108,4.164,3.44,
4.132,4.188,3.32,
4.108,4.164,3.36,
4.132,4.188,3.32,
4.108,4.164,3.36,
4.132,4.188,3.44,
4.108,4.164,3.36,
4.132,4.188,3.4,
4.108,4.164,3.32,
4.132,4.188,3.44,
4.132,4.164,3.36,
4.108,4.188,3.36,
4.108,4.164,3.44,
4.132,4.188,3.32,
4.108,4.164,3.32,
4.132,4.188,3.4,
4.02,4.116,3.44,
4.124,4.188,3.32,
4.108,4.164,3.36,
4.132,4.188,3.44,
4.108,4.164,3.36,
4.132,4.188,3.4,
4.108,4.188,3.32,
4.132,4.164,3.44,
4.108,4.18,3.44,
4.132,4.164,3.36,
4.132,4.164,3.36,
4.108,4.188,3.44,
4.108,4.164,3.44,
4.132,4.188,3.32,
4.02,4.108,3.36,
4.172,4.22,3.4,
4.108,4.164,3.36,
4.132,4.188,3.4,
4.108,4.164,3.44,
4.132,4.188,3.32,
4.132,4.188,3.44,
4.084,4.156,3.32,
4.092,4.156,3.32,
4.164,4.196,3.4,
4.148,4.196,3.36,
4.052,4.124,3.44,
3.988,4.1,3.32,
4.092,4.172,3.44,
4.076,4.172,3.32,
4.108,4.148,3.44,
4.012,4.124,3.32,
4.148,4.204,3.4,
4.036,4.132,3.44,
4.116,4.18,3.32,
4.116,4.132,3.32,
4.036,4.172,3.44,
4.108,4.172,3.36,
3.996,4.108,3.44,
4.1,4.172,3.36,
4.004,4.108,3.44,
4.092,4.116,3.44,
4.012,4.172,3.32,
4.092,4.172,3.36,
4.028,4.132,3.44,
4.02,4.132,3.44,
4.092,4.172,3.32,
4.092,4.172,3.32,
3.972,4.084,3.44,
4.092,4.172,3.44,
3.972,4.108,3.32,
3.94,4.092,3.36,
4.116,4.188,3.44,
4.092,4.172,3.4,
4.116,4.156,3.32,
4.14,4.188,3.32,
3.964,4.076,3.4,
3.996,4.108,3.36,
4.092,4.164,3.44,
3.988,4.108,3.36,
4.108,4.172,0.04,
4.132,4.116,0.08,
4.012,4.196,0,
4.124,4.196,0.08,
4.02,4.124,0,
4.004,4.116,0.08,
4.164,4.22,0,
4.14,4.188,0.08,
3.956,4.092,0.04,
4.084,4.164,0.08,
4.004,4.124,0.04,
4.02,4.124,0.04,
4.188,4.212,3.36,
4.188,4.204,3.44,
4.108,4.164,3.32,
4.18,4.204,3.4,
4.108,4.164,3.32,
4.172,4.204,3.36,
4.108,4.164,3.44,
4.124,4.164,3.36,
4.14,4.188,3.36,
4.148,4.196,3.32,
4.1,4.156,3.4,
4.124,4.188,3.44,
4.14,4.164,3.32,
4.124,4.188,3.32,
4.14,4.164,3.4,
4.124,4.188,3.4,
4.14,4.164,3.32,
4.124,4.188,3.32,
4.14,4.164,3.4,
4.108,4.164,3.36,
4.14,4.188,3.44,
4.14,4.188,3.36,
4.116,4.164,3.36,
4.124,4.188,3.44,
4.14,4.164,3.32,
4.14,4.188,3.32,
4.108,4.164,3.44,
4.132,4.164,3.36,
4.108,4.188,3.4,
4.14,4.164,3.36,
4.108,4.188,3.32,
4.14,4.164,3.32,
4.116,4.188,3.44,
4.108,4.164,3.44,
4.14,4.188,3.32,
4.14,4.164,3.36,
4.116,4.188,3.44,
4.14,4.164,3.32,
4.108,4.188,3.4,
4.124,4.188,3.36,
4.14,4.164,3.36,
4.14,4.164,3.36,
4.108,4.188,3.4,
4.14,4.188,3.32,
4.116,4.164,3.44,
4.14,4.188,3.32,
4.116,4.164,3.4,
4.14,4.188,3.36,
4.116,4.164,3.36,
4.14,4.164,3.36,
4.108,4.188,3.44,
4.14,4.188,3.32,
4.116,4.164,3.4,
4.14,4.164,3.36,
4.108,4.188,3.44,
4.116,4.188,3.36,
4.14,4.164,3.4,
4.108,4.164,3.44,
4.14,4.188,3.32,
4.14,4.164,3.32,
4.108,4.188,3.4,
4.14,4.164,3.32,
4.108,4.188,3.44,
4.116,4.188,3.36,
4.14,4.164,3.32,
4.108,4.164,3.32,
4.132,4.188,3.4,
4.108,4.164,3.44,
4.132,4.188,3.32,
4.108,4.164,3.36,
4.14,4.188,3.44,
4.14,4.164,3.32,
4.116,4.188,3.44,
4.132,4.188,3.32,
4.116,4.164,3.44,
4.02,4.188,3.36,
4.14,4.116,3.4,
4.06,4.124,3.36,
4.14,4.188,3.32,
4.116,4.164,3.32,
4.132,4.188,3.44,
4.132,4.164,3.36,
4.108,4.188,3.44,
4.108,4.164,3.4,
4.132,4.188,3.32,
4.14,4.188,3.4,
4.108,4.164,3.32,
4.14,4.164,3.36,
4.108,4.188,3.44,
4.108,4.164,3.36,
4.132,4.188,3.4,
4.14,4.164,3.44,
4.116,4.188,3.32,
3.98,4.076,3.36,
4.164,4.22,3.32,
4.148,4.196,3.32,
4.012,4.108,3.44,
4.092,4.172,3.32,
4.116,4.156,3.4,
4.068,4.132,3.32,
4.116,4.188,3.44,
4.108,4.156,3.36,
4.084,4.172,3.4,
4.084,4.156,3.36,
4.116,4.172,3.44,
3.092,3.62,3.32,
4.308,4.364,3.44,
3.116,3.636,3.36,
4.3,4.348,3.44,
4.18,4.236,3.36,
3.156,3.66,3.44,
3.148,3.636,3.32,
4.292,4.356,3.44,
4.196,4.252,3.44,
3.18,3.66,3.32,
3.156,3.652,3.36,
4.204,4.26,3.4,
4.14,4.188,3.36,
4.108,4.164,3.44,
4.108,4.164,3.4,
4.132,4.188,3.32,
4.132,4.188,3.32,
4.108,4.164,3.44,
4.116,4.164,3.36,
4.132,4.188,3.4,
4.108,4.164,3.32,
4.14,4.188,3.4,
4.108,4.164,3.36,
4.132,4.188,3.44,
4.108,4.164,3.36,
4.132,4.188,3.44,
3.148,3.636,3.44,
4.3,4.364,3.36,
3.18,3.66,3.32,
4.3,4.348,3.4,
3.164,3.644,3.36,
4.204,4.228,3.44,
3.172,4.228,3.36,
4.188,3.636,3.44,
4.196,4.252,3.44,
3.172,3.644,3.32,
4.18,3.628,3.36,
3.156,4.228,3.44,
3.116,3.62,3.44,
4.204,4.236,3.32,
3.132,3.62,3.44,
4.204,4.228,3.32,
4.156,4.22,3.36,
4.108,4.164,3.4,
4.124,4.164,3.44,
4.108,4.188,3.32,
4.108,4.164,3.36,
4.132,4.188,3.36,
4.108,4.164,3.32,
4.132,4.188,3.44,
4.108,4.164,3.32,
4.124,4.188,3.44,
4.108,4.188,3.32,
4.132,4.164,3.4,
4.132,4.164,3.4,
4.1,4.188,3.32,
4.132,4.164,3.36,
4.1,4.188,3.4,
4.1,4.164,3.4,
4.132,4.188,0,
4.132,4.164,0.08,
4.1,4.188,0,
4.132,4.188,0,
4.108,4.156,3.36,
4.1,4.164,3.32,
4.132,4.188,3.4,
4.108,4.164,3.32,
4.132,4.188,3.44,
4.132,4.164,3.32,
4.108,4.188,3.44,
4.124,4.164,3.32,
4.108,4.188,3.44,
4.06,4.14,3.36,
4.132,4.188,3.36,
4.1,4.164,3.44,
4.132,4.188,3.32,
4.108,4.188,3.32,
4.14,4.164,3.4,
4.132,4.188,3.36,
4.076,4.148,3.4,
4.076,4.156,3.36,
4.132,4.196,3.44,
4.076,4.188,3.4,
4.14,4.148,3.32,
4.132,4.164,3.36,
4.1,4.188,3.44,
4.108,4.188,3.36,
4.132,4.164,3.4,
4.132,4.196,3.32,
4.036,4.124,3.44,
4.044,4.196,3.44,
4.14,4.132,3.32,
4.108,4.164,3.36,
4.132,4.188,3.44,
4.1,4.164,3.44,
4.132,4.188,3.32,
4.108,4.164,3.36,
4.132,4.188,3.44,
4.076,4.148,3.32,
4.132,4.196,3.44,
3.996,4.108,3.36,
4.14,4.196,3.44,
4.172,4.204,3.44,
3.148,3.62,3.36,
4.292,4.348,3.4,
3.148,3.636,3.32,
4.284,4.348,3.4,
3.196,3.652,3.32,
3.172,3.644,3.44,
4.156,4.212,3.32,
4.18,4.22,3.32,
3.172,3.636,3.44,
4.196,4.228,3.36,
3.204,3.66,3.44,
4.14,4.188,3.4,
4.068,4.132,0.04,
4.02,4.108,0.08,
4.212,4.244,0,
4.188,4.204,0,
4.156,4.188,0.08,
4.188,4.204,0.08,
4.148,4.18,0,
4.18,4.188,0.08,
4.156,4.204,0,
4.188,4.204,0.08,
4.156,4.188,0,
4.156,4.204,0.08,
4.18,4.188,0,
4.18,4.188,0.04,
4.164,4.204,0.08,
4.164,4.188,0.08,
4.18,4.204,0,
4.084,4.204,0,
4.188,4.14,3.4,
4.188,4.204,3.36,
4.148,4.188,3.4,
4.156,4.188,3.32,
4.188,4.204,3.4,
4.188,4.188,3.36,
4.156,4.204,3.4,
4.164,4.188,3.44,
4.18,4.204,3.36,
4.164,4.188,3.44,
4.18,4.204,3.32,
4.164,4.188,3.4,
4.188,4.204,3.32,
4.164,4.204,3.32,
4.18,4.188,3.44,
4.14,4.172,3.36,
4.188,4.204,3.44,
4.18,4.188,3.32,
4.156,4.204,3.44,
4.18,4.204,3.36,
4.164,4.188,3.44,
4.188,4.188,3.36,
4.156,4.204,3.36,
4.188,4.204,3.44,
4.14,4.18,3.32,
4.188,4.204,3.32,
4.14,4.18,3.4,
4.156,4.188,3.36,
4.188,4.204,3.4,
4.156,4.188,3.44,
4.18,4.204,3.32,
4.164,4.188,3.36,
4.188,4.204,3.36,
4.164,4.188,3.32,
4.188,4.204,3.44,
4.18,4.204,3.36,
4.028,4.116,3.36,
4.14,4.188,3.44,
4.1,4.164,3.32,
4.132,4.148,3.32,
4.076,4.196,3.44,
4.108,4.164,3.36,
4.14,4.196,3.4,
4.148,4.196,3.36,
4.06,4.132,3.44,
4.116,4.156,3.32,
4.092,4.188,3.44,
4.308,4.348,3.36,
3.092,3.58,3.44,
3.1,3.596,3.36,
4.292,4.348,3.44,
3.076,3.58,3.44,
4.276,4.324,3.32,
3.1,3.596,3.36,
4.204,4.244,3.44,
4.132,4.188,3.36,
4.028,4.108,3.32,
4.124,4.188,3.44,
4.1,4.156,3.32,
4.132,4.156,3.4,
4.1,4.188,3.32,
4.1,4.156,3.36,
4.124,4.188,3.44,
4.132,4.188,3.36,
4.1,4.156,3.4,
4.132,4.18,3.36,
4.1,4.156,3.32,
4.108,4.164,3.36,
4.132,4.188,3.44,
4.132,4.164,3.32,
4.1,4.188,3.4,
4.132,4.188,3.32,
4.076,4.148,3.4,
4.108,4.188,3.36,
4.132,4.156,3.4,
4.068,4.132,3.36,
4.14,4.188,0.04,
4.092,4.156,0.08,
4.132,4.188,0,
4.108,4.164,0.08,
4.132,4.188,0,
4.1,4.18,0.08,
4.132,4.164,0,
4.1,4.18,0.08,
4.132,4.156,0,
4.132,4.188,0.08,
4.108,4.164,0,
4.132,4.164,0.08,
4.108,4.188,0,
4.132,4.156,0.08,
4.1,4.188,0,
4.108,4.188,0.08,
4.132,4.156,0,
4.108,4.164,0.08,
4.132,4.188,0.04,
4.108,4.164,0,
4.124,4.18,0.08,
4.124,4.164,0.08,
4.1,4.18,0,
4.132,4.164,0.08,
4.1,4.188,0,
4.092,4.156,0.08,
4.132,4.18,0,
4.108,4.164,0.08,
4.132,4.188,0.04,
4.132,4.188,0.08,
4.1,4.156,0,
4.132,4.188,0.08,
4.1,4.156,0.04,
4.108,4.164,0.08,
4.132,4.188,0.04,
4.108,4.164,0.08,
4.132,4.188,0.04,
4.132,4.188,0.08,
4.1,4.156,0,
4.108,4.164,0,
4.124,4.18,0.12,
2.924,3.404,0.04,
4.196,4.228,0.12,
3.124,3.604,0.08,
4.276,4.332,0,
4.14,4.196,0.08,
4.1,4.164,0.04,
4.108,4.164,0.08,
4.132,4.188,0,
4.068,4.188,0.08,
4.14,4.148,0,
4.14,4.164,0.04,
4.108,4.188,0.08,
4.108,4.164,0.08,
4.132,4.188,0,
4.14,4.164,0.08,
4.108,4.188,0.04,
4.108,4.164,0.08,
4.132,4.188,0.04,
4.132,4.188,0.08,
4.108,4.164,0,
4.14,4.196,0.04,
4.108,4.164,0.08,
4.108,4.196,0.08,
4.14,4.164,0,
4.108,4.164,0.08,
4.14,4.188,0,
4.14,4.188,0.08,
4.108,4.164,0.04,
4.132,4.164,0.08,
4.108,4.188,0,
4.108,4.188,0.08,
4.14,4.164,0,
4.14,4.188,0.08,
4.108,4.164,0,
4.132,4.188,0.08,
4.108,4.164,0,
4.132,4.164,0.08,
4.108,4.188,0,
4.132,4.164,0.08,
4.108,4.188,0,
4.108,4.164,0.08,
4.132,4.188,0,
4.108,4.188,0.08,
4.132,4.164,0,
4.108,4.188,0.08,
4.132,4.164,0,
4.108,4.164,0.08,
4.132,4.188,0,
4.108,4.164,0.08,
4.132,4.188,0.04,
4.132,4.164,0.08,
4.108,4.188,0,
4.132,4.164,0.08,
4.1,4.188,0,
4.132,4.164,0.08,
4.108,4.188,0,
4.108,4.188,0.08,
4.132,4.164,0.04,
4.108,4.164,0.08,
4.132,4.188,0.04,
4.108,4.164,0.08,
4.132,4.188,0,
4.132,4.188,0.08,
4.108,4.164,0,
4.108,4.188,0.08,
4.132,4.164,0,
4.108,4.164,0.08,
4.132,4.188,0,
4.132,4.164,0.08,
4.1,4.188,0.04,
4.116,4.164,0.08,
4.14,4.188,0,
4.14,4.164,0.08,
4.108,4.188,0,
4.14,4.188,0.08,
4.108,4.164,0,
4.108,4.188,0.08,
4.132,4.164,0,
4.108,4.188,0.08,
4.132,4.164,0.04,
4.108,4.164,0.08,
4.132,4.188,0,
4.108,4.164,0.08,
4.132,4.188,0.04,
4.132,4.188,0.08,
4.1,4.164,0,
4.108,4.188,0.08,
4.132,4.164,0,
4.108,4.188,0.08,
4.132,4.164,0.04,
4.132,4.164,0.08,
4.1,4.188,0,
4.108,4.164,0,
4.132,4.188,0.08,
4.108,4.164,0.08,
4.132,4.188,0,
4.116,4.188,0.08,
4.132,4.164,0,
4.132,4.164,0.08,
4.108,4.188,0,
4.132,4.164,0.08,
4.108,4.188,0,
4.132,4.188,0.08,
4.108,4.164,0,
4.132,4.188,0.04,
4.108,4.164,0.08,
4.132,4.164,0.08,
4.108,4.188,0,
4.132,4.188,0.08,
4.108,4.164,0,
4.108,4.188,0.08,
4.14,4.164,0,
4.14,4.164,0.08,
4.108,4.188,0,
4.14,4.164,0.08,
4.108,4.188,0,
4.108,4.188,0.08,
4.132,4.164,0,
4.132,4.164,0.08,
4.108,4.188,0,
4.132,4.188,0.08,
4.108,4.164,0.04,
4.092,4.164,0.08,
4.132,4.188,0,
4.132,4.164,0.08,
4.108,4.188,0,
4.132,4.164,0.08,
4.108,4.188,0,
4.132,4.164,0.08,
4.108,4.188,0,
4.108,4.188,0.08,
4.132,4.164,0,
4.108,4.164,0.08,
4.132,4.188,0,
4.108,4.188,0.08,
4.132,4.164,0,
4.132,4.164,0.08,
4.108,4.188,0,
4.132,4.164,0.08,
4.1,4.188,0,
4.132,4.188,0.08,
4.1,4.164,0,
4.132,4.188,0.08,
4.108,4.164,0,
4.132,4.164,0.08,
4.108,4.188,0,
4.132,4.188,0.08,
4.108,4.164,0,
4.132,4.188,0,
4.108,4.164,0.08,
4.108,4.164,0.08,
4.14,4.196,0,
4.124,4.188,0,
4.14,4.164,0.08,
4.14,4.188,0.08,
4.108,4.164,0,
4.132,4.188,0.08,
4.108,4.164,0.04,
4.132,4.164,0.08,
4.108,4.188,0,
4.132,4.188,0.08,
4.108,4.164,0,
4.108,4.164,0,
4.132,4.188,0.08,
4.132,4.164,0.08,
4.108,4.188,0,
4.132,4.164,0.08,
4.108,4.188,0,
4.132,4.188,0.08,
4.108,4.164,0,
4.116,4.164,0.08,
4.132,4.188,0.04,
4.108,4.164,0.08,
4.132,4.188,0,
4.108,4.188,0.08,
4.14,4.164,0,
4.108,4.188,0.08,
4.132,4.164,0,
4.132,4.164,0,
4.108,4.188,0.08,
4.132,4.188,0.04,
4.1,4.156,0.08,
4.132,4.164,0.08,
4.108,4.188,0,
4.108,4.164,0.08,
4.132,4.188,0,
4.108,4.164,0.08,
4.132,4.188,0,
4.108,4.188,0.08,
4.132,4.164,0,
4.108,4.188,0.08,
4.14,4.164,0,
4.116,4.188,0.08,
4.14,4.164,0,
4.132,4.188,0.08,
4.108,4.164,0,
4.108,4.188,0.08,
4.132,4.164,0,
4.108,4.164,0.08,
4.132,4.188,0,
4.108,4.188,0.08,
4.132,4.164,0,
4.132,4.164,0.08,
4.108,4.188,0.04,
4.108,4.164,0.08,
4.132,4.188,0,
4.108,4.188,0.08,
4.132,4.164,0.04,
4.1,4.164,0.08,
4.132,4.188,0,
4.116,4.188,0.08,
4.132,4.164,0,
3.1,3.588,0.08,
4.196,4.228,0,
4.164,4.212,0.08,
4.108,4.164,0,
4.132,4.188,0.08,
4.092,4.156,0,
4.028,4.124,0.08,
4.204,4.228,0,
4.164,4.204,0.08,
4.188,4.188,0,
4.188,4.188,0.08,
4.156,4.204,0,
4.18,4.204,0.08,
4.156,4.188,0,
4.164,4.188,0.08,
4.188,4.204,0,
4.188,4.188,0.08,
4.164,4.204,0,
4.164,4.204,0.08,
4.188,4.188,0,
4.164,4.188,0.08,
4.188,4.204,0,
4.18,4.188,0.08,
4.164,4.204,0.04,
4.164,4.188,0.08,
4.188,4.204,0,
4.156,4.188,0.08,
4.188,4.204,0,
4.18,4.188,0.08,
4.156,4.204,0,
4.156,4.204,0.08,
4.18,4.188,0,
4.156,4.204,0.08,
4.188,4.188,0,
4.164,4.204,0.08,
4.188,4.188,0,
4.188,4.204,0,
4.156,4.188,0.08,
4.156,4.188,0.08,
4.188,4.204,0,
4.156,4.188,0.08,
4.18,4.204,0,
4.164,4.188,0.08,
4.188,4.204,0,
4.164,4.204,0.08,
4.188,4.188,0.04,
4.164,4.188,0.08,
4.18,4.204,0,
4.156,4.188,0.08,
4.18,4.204,0,
4.164,4.188,0.04,
4.188,4.204,0.08,
4.164,4.188,0.08,
4.18,4.204,0,
4.164,4.204,0.08,
4.188,4.188,0,
4.164,4.188,0.08,
4.188,4.204,0.04,
4.164,4.188,0.08,
4.188,4.204,0,
4.164,4.188,0.08,
4.188,4.204,0,
4.188,4.188,0.08,
4.156,4.204,0,
4.164,4.204,0.08,
4.188,4.188,0,
4.164,4.204,0.08,
4.18,4.188,0.04,
4.164,4.188,0.08,
4.188,4.204,0,
4.164,4.188,0.08,
4.188,4.204,0,
4.188,4.188,0.04,
4.164,4.204,0.08,
4.18,4.204,0.08,
4.156,4.188,0,
4.18,4.204,0.08,
4.156,4.188,0,
4.164,4.188,0.08,
4.188,4.204,0,
4.164,4.204,0.08,
4.188,4.188,0,
4.164,4.204,0.08,
4.18,4.188,0.04,
4.156,4.188,0.08,
4.18,4.204,0,
4.18,4.188,0.08,
4.156,4.204,0,
4.156,4.188,0.08,
4.18,4.204,0.04,
4.156,4.204,0.08,
4.188,4.188,0,
4.188,4.204,0.08,
4.156,4.188,0.04,
4.164,4.188,0.08,
4.188,4.204,0,
4.188,4.204,0.08,
4.156,4.188,0,
4.164,4.188,0,
4.188,4.204,0.08,
4.164,4.188,0.08,
4.188,4.204,0,
4.164,4.188,0,
4.188,4.204,0.08,
4.164,4.204,0.04,
4.188,4.188,0.08,
4.156,4.204,0.08,
4.188,4.188,0,
4.164,4.188,0.08,
4.188,4.204,0,
4.132,4.204,0.08,
4.18,4.18,0,
4.164,4.204,0.08,
4.188,4.188,0,
4.18,4.188,0.08,
4.156,4.204,0,
4.156,4.188,0.08,
4.18,4.204,0,
4.156,4.188,0.08,
4.188,4.204,0,
4.164,4.188,0.08,
4.188,4.204,0.04,
4.156,4.188,0.08,
4.188,4.204,0,
4.164,4.204,0.08,
4.188,4.188,0,
4.164,4.188,0.08,
4.188,4.204,0.04,
4.164,4.204,0.08,
4.18,4.188,0,
4.164,4.204,0.08,
4.188,4.188,0,
4.164,4.204,0.08,
4.188,4.188,0,
4.156,4.188,0.08,
4.188,4.204,0,
4.156,4.204,0.08,
4.188,4.188,0,
4.164,4.188,0.08,
4.188,4.204,0.04,
4.164,4.204,0.08,
4.188,4.188,0,
4.188,4.204,0.08,
4.164,4.188,0,
4.164,4.204,0.08,
4.188,4.188,0,
4.164,4.204,0.08,
4.188,4.188,0,
4.188,4.204,0.08,
4.156,4.188,0,
4.164,4.204,0.08,
4.18,4.188,0,
4.164,4.188,0.08,
4.188,4.204,0,
4.164,4.204,0.08,
4.188,4.188,0,
4.156,4.188,0.08,
4.188,4.204,0.04,
4.164,4.188,0.08,
4.188,4.204,0,
4.18,4.188,0.08,
4.164,4.204,0,
4.164,4.188,0.08,
4.188,4.204,0,
4.164,4.188,0.08,
4.188,4.204,0,
4.164,4.188,0.08,
4.188,4.204,0,
4.156,4.188,0.08,
4.188,4.204,0.04,
4.164,4.204,0.08,
4.188,4.188,0,
4.156,4.188,0.08,
4.18,4.204,0,
4.18,4.204,0.08,
4.012,4.1,0,
4.148,4.196,0.08,
4.092,4.14,0,
4.14,4.164,0.08,
4.108,4.196,0,
4.108,4.164,0.08,
4.148,4.196,0,
4.14,4.148,0.08,
4.076,4.196,0,
4.14,4.196,0.08,
4.068,4.148,0,
4.1,4.164,0.08,
4.196,4.22,0.04,
4.188,4.188,0,
4.156,4.204,0.08,
4.188,4.188,0,
4.156,4.204,0.08,
4.156,4.188,0.08,
4.188,4.204,0,
4.164,4.204,0.08,
4.188,4.188,0,
4.148,4.204,0.08,
4.18,4.18,0,
4.164,4.204,0.08,
4.188,4.188,0,
4.164,4.204,0.08,
4.188,4.188,0,
4.164,4.188,0.08,
4.18,4.204,0,
4.164,4.188,0.08,
4.18,4.204,0,
4.164,4.188,0,
4.188,4.204,0.08,
4.188,4.204,0.08,
4.156,4.188,0,
4.156,4.204,0.08,
4.188,4.188,0,
4.18,4.188,0.08,
4.164,4.204,0,
4.18,4.204,0.04,
4.164,4.188,0.08,
4.164,4.204,0.08,
4.188,4.188,0,
4.164,4.188,0.08,
4.188,4.212,0,
4.164,4.188,0.08,
4.188,4.204,0.04,
4.188,4.204,0.04,
4.156,4.188,0.08,
4.164,4.204,0.08,
4.188,4.188,0,
4.164,4.204,0.08,
4.188,4.188,0,
4.188,4.204,0.08,
4.156,4.188,0,
4.156,4.188,0.08,
4.188,4.204,0,
4.164,4.188,0.08,
4.188,4.204,0,
4.164,4.204,0.08,
4.188,4.188,0.04,
4.164,4.188,0.08,
4.188,4.204,0,
4.18,4.204,0.08,
4.164,4.188,0,
4.156,4.188,0.08,
4.188,4.204,0,
4.156,4.188,0.08,
4.188,4.204,0.04,
4.164,4.204,0.08,
4.188,4.188,0,
4.164,4.188,0.08,
4.188,4.204,0.04,
4.164,4.188,0.08,
4.188,4.204,0,
4.164,4.188,0.08,
4.188,4.204,0,
4.164,4.188,0.08,
4.188,4.204,0,
4.164,4.204,0.08,
4.188,4.188,0,
4.164,4.188,0.08,
4.18,4.204,0,
4.164,4.204,0.08,
4.188,4.188,0,
4.164,4.204,0.08,
4.188,4.188,0,
4.164,4.204,0.08,
4.188,4.188,0,
4.156,4.188,0.08,
4.18,4.204,0.04,
4.188,4.204,0.08,
4.156,4.188,0,
4.164,4.188,0,
4.188,4.204,0.08,
4.164,4.188,0.04,
4.18,4.204,0.08,
4.164,4.188,0.08,
4.188,4.204,0,
4.164,4.204,0.08,
4.188,4.188,0,
4.164,4.204,0.08,
4.188,4.188,0,
4.164,4.204,0.08,
4.18,4.188,0.04,
4.164,4.204,0.08,
4.188,4.188,0,
4.164,4.204,0.08,
4.188,4.188,0,
4.164,4.188,0.08,
4.18,4.204,0.04,
4.164,4.204,0.08,
4.188,4.188,0,
4.18,4.188,0.08,
4.164,4.204,0,
4.164,4.188,0.04,
4.188,4.204,0.08,
4.164,4.204,0.08,
4.188,4.188,0,
4.164,4.204,0.08,
4.188,4.188,0,
4.164,4.188,0.04,
4.188,4.204,0.08,
4.164,4.188,0.08,
4.188,4.204,0,
4.164,4.204,0.08,
4.188,4.188,0,
4.188,4.188,0.08,
4.156,4.204,0,
4.164,4.204,0.08,
4.188,4.188,0,
4.164,4.188,0.08,
4.188,4.204,0,
4.164,4.188,0.08,
4.18,4.204,0.04,
4.18,4.188,0.08,
4.156,4.204,0,
4.164,4.204,0.08,
4.188,4.188,0,
4.164,4.188,0,
4.188,4.204,0.08,
4.156,4.188,0.08,
4.188,4.204,0,
4.164,4.204,0.08,
4.188,4.188,0,
4.18,4.188,0.08,
4.156,4.204,0.04,
4.164,4.188,0.08,
4.188,4.204,0,
4.164,4.188,0.08,
4.188,4.204,0,
4.164,4.204,0.08,
4.188,4.188,0.04,
4.156,4.188,0.08,
4.188,4.204,0.04,
4.164,4.204,0,
4.188,4.188,0.08,
4.164,4.204,0.04,
4.188,4.188,0.08,
