Power Reception/Metingen 3/Meting met pin 0 -109 -116 136 -7.csv

CH1,CH2,CH3,Start,Increment,
Volt,Volt,Volt,-29.975,0.05
4.188,4.22,0.08,
4.164,4.196,0,
4.188,4.196,0.08,
4.164,4.22,0,
4.188,4.196,0.08,
4.164,4.22,0,
4.188,4.22,0.08,
4.164,4.188,0,
4.188,4.196,0.08,
4.164,4.22,0,
4.188,4.196,0.08,
4.164,4.22,0,
4.164,4.22,0,
4.188,4.188,0.08,
4.164,4.196,0.08,
4.188,4.22,0,
4.188,4.196,0.08,
4.164,4.22,0,
4.188,4.196,0.08,
4.164,4.22,0,
4.164,4.196,0.08,
4.188,4.22,0,
4.164,4.196,0.08,
4.188,4.22,0,
4.164,4.196,0,
4.188,4.22,0.08,
4.188,4.22,0.08,
4.164,4.188,0,
4.188,4.22,0.08,
4.164,4.188,0,
4.196,4.196,0.08,
4.172,4.22,0,
4.196,4.196,0.08,
4.172,4.22,0,
4.196,4.196,0.08,
4.164,4.22,0,
4.188,4.196,0.08,
4.164,4.22,0,
4.188,4.22,0.08,
4.164,4.196,0,
4.188,4.22,0,
4.164,4.188,0.08,
4.164,4.22,0.08,
4.188,4.196,0,
4.188,4.22,0,
4.164,4.196,0.08,
4.188,4.188,0.08,
4.164,4.22,0,
4.164,4.196,0.08,
4.188,4.22,0,
4.188,4.22,0.08,
4.164,4.196,0,
4.188,4.22,0.08,
4.164,4.188,0,
4.188,4.22,0.08,
4.164,4.196,0,
4.164,4.196,0.08,
4.188,4.22,0,
4.164,4.196,0,
4.188,4.22,0.08,
4.188,4.196,0.08,
4.164,4.22,0,
4.164,4.196,0.08,
4.188,4.22,0,
4.188,4.188,0,
4.164,4.22,0.08,
4.188,4.196,0.08,
4.164,4.22,0,
4.156,4.212,0,
4.188,4.188,0.08,
4.196,4.188,0.08,
4.164,4.22,0,
4.196,4.22,0.08,
4.1,4.172,0,
4.204,4.228,0.08,
4.108,4.164,0,
4.148,4.204,0.08,
4.132,4.188,0,
4.132,4.188,0.08,
4.204,4.228,0,
4.196,4.22,0.08,
4.164,4.196,0,
4.188,4.196,0.08,
4.164,4.22,0,
4.164,4.196,0,
4.188,4.22,0.08,
4.188,4.196,0,
4.164,4.22,0.08,
4.188,4.188,0.08,
4.164,4.22,0,
4.188,4.22,0.08,
4.164,4.188,0,
4.164,4.196,0.08,
4.188,4.22,0,
4.164,4.22,0.08,
4.188,4.196,0,
4.188,4.196,0.08,
4.164,4.22,0,
4.164,4.22,0.08,
4.188,4.188,0,
4.188,4.22,0.08,
4.164,4.188,0,
4.188,4.196,0,
4.164,4.212,0.08,
4.188,4.196,0.08,
4.164,4.22,0,
4.188,4.196,0.08,
4.164,4.22,0,
4.188,4.22,0.08,
4.164,4.196,0,
4.164,4.196,0.08,
4.196,4.22,0,
4.196,4.196,0.08,
4.172,4.22,0,
4.188,4.196,0.08,
4.164,4.22,0,
4.188,4.22,0.08,
4.164,4.196,0,
4.164,4.22,0.08,
4.188,4.196,0.04,
4.188,4.196,0.08,
4.164,4.22,0,
4.188,4.196,0.08,
4.164,4.22,0,
4.164,4.22,0.08,
4.188,4.188,0.04,
4.188,4.196,0.08,
4.164,4.22,0,
4.188,4.22,0.08,
4.164,4.196,0,
4.164,4.22,0.08,
4.188,4.196,0,
4.188,4.196,0.08,
4.164,4.22,0,
4.188,4.22,0.08,
4.164,4.196,0,
4.188,4.22,0.08,
4.164,4.188,0,
4.164,4.196,0.08,
4.188,4.22,0,
4.164,4.188,0.08,
4.188,4.22,0,
4.188,4.22,0.08,
4.164,4.188,0,
4.188,4.22,0.08,
4.164,4.188,0,
4.188,4.196,0.08,
4.164,4.22,0,
4.164,4.212,0.08,
4.188,4.188,0,
4.172,4.22,0.08,
4.196,4.196,0,
4.196,4.196,0,
4.164,4.22,0.08,
4.188,4.188,0.08,
4.164,4.22,0,
4.164,4.196,0.08,
4.188,4.22,0,
4.188,4.188,0.08,
4.164,4.22,0,
4.188,4.22,0.08,
4.164,4.196,0,
4.188,4.196,0.08,
4.164,4.22,0,
4.164,4.22,0.08,
4.188,4.196,0,
4.164,4.196,0,
4.188,4.22,0.08,
4.188,4.188,0,
4.148,4.22,0.08,
4.188,4.22,0,
4.164,4.196,0.08,
4.164,4.196,0.08,
4.188,4.22,0,
4.164,4.22,0.08,
4.188,4.188,0,
4.164,4.196,0.08,
4.188,4.22,0,
4.188,4.22,0.08,
4.164,4.196,0,
4.164,4.22,0.08,
4.188,4.188,0,
4.188,4.196,0.08,
4.164,4.22,0,
4.188,4.212,0.08,
4.164,4.196,0,
4.188,4.22,0.08,
4.164,4.196,0,
4.188,4.22,0.08,
4.164,4.196,0,
4.164,4.196,0.08,
4.196,4.22,0,
4.164,4.22,0.08,
4.196,4.188,0,
4.188,4.22,0,
4.164,4.188,0.08,
4.188,4.188,0,
4.164,4.22,0.08,
4.188,4.22,0.08,
4.164,4.196,0,
4.188,4.22,0,
4.164,4.188,0.08,
4.164,4.22,0,
4.188,4.188,0.08,
4.188,4.196,0.08,
4.164,4.22,0,
4.188,4.196,0.08,
4.164,4.22,0,
4.188,4.22,0,
4.164,4.188,0.08,
4.188,4.188,0.08,
4.164,4.22,0,
4.164,4.22,0,
4.188,4.196,0.08,
4.164,4.196,0,
4.188,4.22,0.08,
4.164,4.22,0.08,
4.188,4.196,0,
4.188,4.22,0,
4.164,4.196,0.08,
4.164,4.22,0,
4.188,4.188,0.08,
4.188,4.22,0.08,
4.164,4.196,0,
4.164,4.22,0.08,
4.188,4.188,0,
4.188,4.188,0,
4.164,4.22,0.08,
4.188,4.22,0,
4.164,4.188,0.08,
4.18,4.196,0.08,
4.196,4.22,0,
4.18,4.22,0.08,
4.196,4.196,0,
4.188,4.22,0.08,
4.164,4.188,0,
4.188,4.196,0.08,
4.164,4.22,0,
4.188,4.196,0.08,
4.164,4.22,0,
4.164,4.22,0,
4.188,4.196,0.08,
4.164,4.196,0.08,
4.188,4.22,0,
4.188,4.196,0.08,
4.164,4.22,0,
4.164,4.196,0.08,
4.188,4.22,0,
4.188,4.196,0.08,
4.164,4.22,0,
4.188,4.22,0.08,
4.164,4.196,0,
4.188,4.22,0.08,
4.164,4.188,0,
4.164,4.196,0.08,
4.188,4.22,0,
4.188,4.196,0.08,
4.164,4.22,0,
4.164,4.196,0,
4.188,4.22,0.08,
4.188,4.196,0,
4.164,4.22,0.08,
4.164,4.188,0.08,
4.188,4.22,0,
4.188,4.22,0.08,
4.164,4.196,0,
4.188,4.196,0.08,
4.164,4.22,0,
4.164,4.196,0.08,
4.188,4.22,0,
4.164,4.196,0.08,
4.196,4.22,0,
4.18,4.22,0.08,
4.196,4.196,0,
4.188,4.22,0.08,
4.164,4.188,0,
4.188,4.188,0,
4.164,4.22,0.08,
4.164,4.22,0,
4.188,4.196,0.08,
4.164,4.196,0.08,
4.188,4.22,0,
4.188,4.212,0.08,
4.164,4.188,0,
4.188,4.196,0.08,
4.164,4.22,0,
4.188,4.22,0,
4.164,4.196,0.08,
4.188,4.22,0.08,
4.164,4.188,0,
4.164,4.196,0.08,
4.188,4.22,0,
4.164,4.188,0.08,
4.188,4.22,0,
4.188,4.188,0.08,
4.164,4.22,0,
4.188,4.196,0.08,
4.164,4.22,0,
4.188,4.22,0.08,
4.164,4.196,0,
4.188,4.22,0.08,
4.164,4.196,0,
4.188,4.196,0.08,
4.164,4.22,0,
4.188,4.22,0.08,
4.164,4.196,0,
4.164,4.196,0.08,
4.188,4.212,0,
4.164,4.204,0.08,
4.188,4.188,0,
4.196,4.188,0.08,
4.164,4.22,0,
4.164,4.196,0,
4.196,4.22,0.08,
4.188,4.22,0.08,
4.164,4.188,0,
4.188,4.22,0.08,
4.164,4.188,0,
4.164,4.204,0.08,
4.188,4.188,0,
4.188,4.204,0,
4.164,4.188,0.08,
4.164,4.188,0.08,
4.188,4.204,0,
4.164,4.212,0.08,
4.188,4.188,0,
4.188,4.204,0.08,
4.164,4.188,0,
4.188,4.204,0.08,
4.164,4.188,0,
4.188,4.188,0.08,
4.164,4.212,0,
4.188,4.196,0.08,
4.164,4.22,0,
4.164,4.196,0.08,
4.188,4.22,0,
4.188,4.22,0.08,
4.164,4.196,0,
4.164,4.188,0.08,
4.188,4.22,0,
4.164,4.22,0.08,
4.188,4.196,0,
4.188,4.212,0.08,
4.164,4.188,0,
4.188,4.204,0.08,
4.164,4.196,0,
4.188,4.22,0.08,
4.164,4.196,0,
4.188,4.22,0.08,
4.164,4.188,0,
4.164,4.22,0,
4.196,4.188,0.08,
4.196,4.22,0.08,
4.164,4.188,0,
4.188,4.188,0.08,
4.164,4.212,0,
4.164,4.188,0.08,
4.188,4.22,0,
4.188,4.22,0.08,
4.164,4.188,0,
4.188,4.188,0.08,
4.164,4.212,0,
4.164,4.196,0.08,
4.188,4.22,0,
4.164,4.188,0.08,
4.188,4.22,0,
4.188,4.188,0,
4.164,4.22,0.08,
4.156,4.22,0.08,
4.188,4.188,0,
4.188,4.22,0.08,
4.164,4.188,0.04,
4.188,4.204,0.08,
4.164,4.196,0,
4.164,4.196,0.08,
4.188,4.22,0,
4.188,4.22,0.08,
4.164,4.188,0,
4.164,4.196,0,
4.188,4.22,0.08,
4.164,4.196,0,
4.188,4.22,0.08,
4.188,4.22,0.08,
4.164,4.188,0,
4.164,4.196,0.08,
4.188,4.212,0,
4.188,4.22,0,
4.164,4.196,0.08,
4.188,4.22,0.08,
4.164,4.188,0,
4.164,4.196,0.08,
4.196,4.22,0,
4.196,4.196,0.08,
4.164,4.22,0,
4.188,4.22,0.08,
4.164,4.188,0,
4.188,4.22,0.08,
4.164,4.196,0,
4.164,4.196,0.08,
4.188,4.22,0,
4.188,4.22,0.08,
4.164,4.196,0,
4.188,4.22,0.08,
4.164,4.188,0,
4.164,4.212,0.08,
4.188,4.188,0,
4.164,4.22,0,
4.188,4.188,0.08,
4.164,4.22,0.08,
4.188,4.188,0,
4.188,4.22,0.08,
4.164,4.196,0,
4.164,4.22,0.08,
4.188,4.188,0,
4.164,4.196,0.08,
4.188,4.22,0,
4.164,4.22,0.08,
4.188,4.188,0,
4.164,4.196,0.08,
4.188,4.212,0,
4.188,4.196,0.08,
4.164,4.22,0,
4.164,4.188,0.08,
4.188,4.22,0,
4.164,4.188,0.08,
4.188,4.22,0,
4.188,4.196,0.04,
4.164,4.22,0.08,
4.164,4.188,0.08,
4.188,4.22,0,
4.164,4.22,0.08,
4.196,4.196,0.04,
4.196,4.196,0.08,
4.172,4.22,0.04,
4.196,4.22,0,
4.164,4.188,0.08,
4.188,4.196,0.08,
4.164,4.22,0,
4.164,4.212,0.08,
4.188,4.188,0,
4.164,4.188,0.08,
4.188,4.22,0,
4.188,4.188,0.08,
4.164,4.22,0,
4.188,4.196,0.08,
4.164,4.22,0,
4.188,4.22,0.08,
4.164,4.196,0,
4.164,4.188,0.08,
4.188,4.22,0,
4.188,4.188,0.08,
4.164,4.22,0,
4.188,4.22,0.08,
4.164,4.188,0,
4.164,4.188,0.08,
4.188,4.22,0,
4.188,4.196,0.08,
4.164,4.22,0,
4.164,4.22,0.08,
4.188,4.188,0,
4.164,4.196,0.08,
4.188,4.22,0,
4.164,4.196,0.08,
4.188,4.212,0,
4.188,4.188,0.08,
4.164,4.212,0,
4.188,4.196,0.04,
4.164,4.22,3.4,
4.188,4.204,3.36,
4.108,4.156,3.36,
4.1,4.18,3.36,
4.204,4.228,3.32,
4.196,4.22,3.32,
4.164,4.196,3.4,
4.188,4.212,3.36,
4.172,4.188,3.36,
4.156,4.188,3.36,
4.188,4.22,3.32,
4.188,4.132,3.36,
4.044,4.228,3.4,
4.068,4.148,3.4,
4.244,4.26,3.32,
4.22,4.228,3.44,
4.124,4.164,3.32,
4.164,4.204,3.32,
4.132,4.188,3.4,
4.14,4.188,3.36,
4.164,4.204,3.4,
4.244,4.252,3.36,
4.132,4.164,3.44,
4.172,4.204,3.32,
4.124,4.164,3.44,
4.164,4.204,3.36,
4.132,4.188,3.44,
4.164,4.204,3.36,
4.14,4.188,3.4,
4.164,4.188,3.4,
4.132,4.204,3.32,
4.172,4.204,3.32,
4.132,4.18,3.4,
4.132,4.212,3.4,
4.172,4.18,3.32,
4.132,4.188,3.36,
4.164,4.204,3.36,
4.148,4.204,3.44,
4.132,4.188,3.32,
4.132,4.204,3.4,
4.148,4.188,3.32,
4.148,4.204,3.36,
4.132,4.18,3.4,
4.132,4.204,3.4,
4.148,4.188,3.32,
4.132,4.204,3.36,
4.148,4.188,3.32,
4.148,4.188,3.32,
4.132,4.204,3.44,
4.148,4.204,3.36,
4.132,4.18,3.32,
4.132,4.188,3.4,
4.148,4.204,3.32,
4.132,4.204,3.32,
4.148,4.18,3.4,
4.132,4.18,3.36,
4.148,4.204,3.36,
4.132,4.204,3.32,
4.148,4.188,3.4,
4.132,4.204,3.32,
4.148,4.188,3.44,
4.132,4.188,3.36,
4.148,4.204,3.44,
4.132,4.188,3.44,
4.148,4.204,3.32,
4.132,4.188,3.32,
4.148,4.204,3.4,
4.132,4.188,3.32,
4.148,4.204,3.4,
4.132,4.204,3.36,
4.148,4.188,3.44,
4.148,4.204,3.32,
4.052,4.14,3.4,
4.148,4.204,3.36,
4.132,4.188,3.36,
4.132,4.188,3.44,
4.148,4.204,3.32,
4.132,4.204,3.32,
4.148,4.18,3.44,
4.132,4.188,3.32,
4.148,4.204,3.44,
4.132,4.188,3.36,
4.148,4.204,3.4,
4.132,4.188,3.36,
4.148,4.204,3.32,
4.132,4.188,3.4,
4.148,4.204,3.32,
4.052,4.148,3.36,
4.18,4.228,3.32,
4.132,4.204,3.36,
4.148,4.188,3.4,
4.132,4.188,3.4,
4.148,4.204,3.32,
4.148,4.204,3.36,
4.116,4.18,3.4,
4.132,4.188,3.36,
4.172,4.22,3.36,
4.172,4.204,3.36,
4.036,4.14,3.44,
4.1,4.18,3.36,
4.14,4.196,3.4,
4.14,4.18,3.4,
4.1,4.204,3.32,
4.052,4.164,3.36,
4.156,4.228,3.44,
4.132,4.204,3.32,
4.068,4.164,3.44,
4.14,4.22,3.36,
4.076,4.172,3.4,
4.06,4.164,3.36,
4.132,4.204,3.44,
4.132,4.204,3.4,
4.044,4.156,3.32,
4.124,4.204,3.32,
4.06,4.156,3.44,
4.132,4.204,3.36,
4.068,4.164,3.4,
4.084,4.18,3.44,
4.124,4.204,3.32,
4.116,4.156,3.32,
4.028,4.204,3.4,
4.116,4.196,3.36,
4.02,4.156,3.4,
4.02,4.156,3.36,
4.148,4.22,3.44,
4.116,4.204,3.36,
4.164,4.18,3.32,
4.148,4.204,3.32,
4.02,4.132,3.4,
4.06,4.164,3.4,
4.124,4.196,3.36,
4.036,4.156,3.36,
4.148,4.22,0,
4.052,4.164,0.04,
4.148,4.22,0.08,
4.148,4.22,0,
4.052,4.164,0.08,
4.18,4.236,0.08,
4.02,4.14,0,
4.036,4.14,0.08,
4.156,4.204,0.04,
4.116,4.164,0.08,
4.044,4.204,0,
4.204,4.244,0,
4.132,4.18,3.44,
4.196,4.22,3.32,
4.108,4.18,3.4,
4.188,4.22,3.32,
4.132,4.18,3.4,
4.196,4.22,3.36,
4.1,4.164,3.44,
4.1,4.204,3.36,
4.164,4.164,3.44,
4.148,4.204,3.32,
4.132,4.18,3.44,
4.148,4.204,3.32,
4.132,4.188,3.4,
4.148,4.204,3.36,
4.132,4.18,3.36,
4.148,4.204,3.32,
4.132,4.18,3.44,
4.18,4.212,3.32,
4.124,4.188,3.4,
4.124,4.18,3.36,
4.196,4.22,3.36,
4.132,4.18,3.36,
4.196,4.22,3.32,
4.196,4.22,3.32,
4.116,4.172,3.44,
4.148,4.172,3.36,
4.108,4.204,3.44,
4.132,4.188,3.36,
4.156,4.204,3.4,
4.148,4.204,3.32,
4.132,4.188,3.44,
4.148,4.188,3.32,
4.132,4.204,3.4,
4.132,4.188,3.36,
4.172,4.22,3.32,
4.116,4.18,3.4,
4.164,4.22,3.32,
4.132,4.188,3.32,
4.196,4.228,3.44,
4.124,4.22,3.36,
4.196,4.18,3.36,
4.132,4.188,3.4,
4.196,4.22,3.32,
4.172,4.22,3.32,
4.124,4.18,3.44,
4.148,4.188,3.36,
4.14,4.204,3.36,
4.148,4.204,3.36,
4.132,4.188,3.4,
4.148,4.204,3.36,
4.132,4.188,3.32,
4.148,4.188,3.36,
4.132,4.204,3.32,
4.172,4.204,3.36,
4.108,4.18,3.44,
4.164,4.188,3.4,
4.14,4.212,3.32,
4.108,4.204,3.32,
4.164,4.18,3.4,
4.124,4.18,3.36,
4.196,4.22,3.44,
4.132,4.18,3.32,
4.196,4.22,3.36,
4.18,4.172,3.44,
4.092,4.22,3.32,
4.124,4.18,3.32,
4.188,4.22,3.44,
4.188,4.22,3.36,
4.124,4.18,3.44,
4.196,4.22,3.4,
4.1,4.18,3.32,
4.148,4.204,3.32,
4.108,4.164,3.4,
4.148,4.188,3.36,
4.132,4.204,3.4,
4.084,4.148,3.36,
4.164,4.212,3.36,
4.164,4.204,3.44,
4.132,4.188,3.32,
4.148,4.204,3.36,
4.132,4.188,3.44,
4.18,4.22,3.44,
4.108,4.164,3.32,
4.108,4.18,3.44,
4.188,4.22,3.32,
4.132,4.18,3.32,
4.188,4.22,3.4,
4.196,4.22,3.36,
4.124,4.18,3.36,
4.164,4.188,3.36,
4.132,4.204,3.4,
4.148,4.188,3.4,
4.132,4.204,3.32,
4.148,4.188,3.36,
4.132,4.204,3.44,
4.148,4.188,3.32,
4.132,4.204,3.4,
4.132,4.204,3.32,
4.148,4.188,3.4,
4.148,4.204,3.4,
4.132,4.188,3.32,
4.148,4.188,3.44,
4.132,4.204,3.32,
4.148,4.188,3.4,
4.132,4.204,3.32,
4.148,4.188,3.36,
4.132,4.204,3.32,
4.148,4.204,3.36,
4.132,4.188,3.44,
4.148,4.204,3.36,
4.132,4.188,3.4,
4.148,4.204,3.32,
4.132,4.188,3.4,
4.148,4.204,3.32,
4.132,4.188,3.44,
4.148,4.204,3.32,
4.132,4.188,3.4,
4.148,4.204,3.36,
4.132,4.188,3.32,
4.148,4.188,3.36,
4.132,4.204,3.44,
4.148,4.204,3.36,
4.132,4.188,3.4,
4.148,4.204,3.4,
4.132,4.188,3.32,
4.148,4.188,3.32,
4.132,4.204,3.4,
4.148,4.188,3.32,
4.132,4.204,3.44,
4.132,4.188,3.36,
4.148,4.204,3.44,
4.148,4.204,3.44,
4.132,4.188,3.32,
4.148,4.204,3.4,
4.132,4.18,3.32,
4.148,4.188,3.36,
4.132,4.204,3.36,
4.132,4.204,3.4,
4.148,4.18,3.32,
4.148,4.204,3.44,
4.132,4.188,3.32,
4.148,4.204,3.36,
4.132,4.188,3.44,
4.172,4.22,3.36,
4.004,4.132,3.36,
4.052,4.156,3.36,
4.148,4.212,3.32,
4.124,4.204,3.32,
4.14,4.18,3.4,
4.14,4.204,3.36,
4.124,4.18,3.36,
4.124,4.204,3.36,
4.14,4.18,3.32,
4.124,4.204,3.36,
4.14,4.18,3.4,
3.604,3.956,3.44,
4.268,4.316,3.32,
3.356,3.86,3.44,
4.228,4.268,3.32,
4.276,4.316,3.4,
3.404,3.884,3.32,
4.196,4.252,3.36,
4.1,4.164,3.44,
4.132,4.18,3.36,
4.148,4.204,3.44,
4.148,4.188,3.36,
4.124,4.204,3.44,
4.188,4.212,3.36,
3.548,3.916,3.44,
4.268,4.332,3.36,
3.42,3.9,3.44,
4.22,4.252,3.44,
3.412,3.9,3.32,
4.204,4.26,3.44,
3.324,3.86,3.32,
3.38,3.9,3.36,
4.204,4.26,3.4,
4.148,4.204,3.36,
4.124,4.188,3.44,
4.148,4.188,3.4,
4.124,4.204,3.32,
4.148,4.204,3.36,
4.084,4.156,0.76,
4.148,4.204,0.08,
4.108,4.172,0,
4.148,4.204,0.08,
4.124,4.18,0.04,
4.148,4.204,0.04,
4.092,4.172,3.4,
4.148,4.204,3.4,
4.124,4.18,3.32,
4.148,4.204,3.44,
4.092,4.164,3.36,
4.164,4.212,3.4,
4.124,4.18,3.32,
4.132,4.204,3.32,
4.148,4.18,3.4,
4.148,4.188,3.36,
4.124,4.204,3.4,
4.148,4.204,3.44,
4.124,4.18,3.32,
4.148,4.204,3.32,
4.132,4.18,3.4,
4.148,4.204,3.36,
4.124,4.188,3.4,
4.148,4.18,3.44,
4.124,4.204,3.32,
4.148,4.204,3.4,
4.124,4.18,3.32,
4.148,4.188,3.36,
4.124,4.204,3.44,
4.148,4.204,3.36,
4.132,4.188,3.4,
4.06,4.148,3.32,
4.164,4.22,3.4,
4.148,4.204,3.4,
4.068,4.14,3.32,
4.148,4.188,3.36,
4.132,4.204,3.4,
4.148,4.204,3.44,
4.132,4.18,3.32,
4.148,4.204,3.32,
4.092,4.164,3.4,
4.148,4.204,3.36,
4.124,4.18,3.44,
4.148,4.204,3.36,
4.02,4.14,3.44,
4.116,4.204,3.36,
4.148,4.164,3.32,
4.148,4.204,3.36,
4.092,4.156,3.4,
4.18,4.212,3.36,
3.452,3.9,3.44,
4.284,4.34,3.44,
3.412,3.9,3.32,
3.388,4.252,3.44,
4.204,3.876,3.32,
4.204,3.876,3.4,
3.396,4.252,3.32,
4.044,4.148,3.36,
4.204,4.236,0,
4.196,4.22,0.08,
4.164,4.188,0.04,
4.164,4.188,0.08,
4.188,4.22,0.04,
4.164,4.196,0.08,
4.188,4.22,0,
4.164,4.188,0.08,
4.188,4.22,0,
4.164,4.22,0.08,
4.188,4.188,0.04,
4.188,4.22,0.08,
4.132,4.18,0,
4.196,4.22,0.08,
4.164,4.196,0.04,
4.188,4.196,0.08,
4.164,4.22,0,
4.14,4.22,0.08,
4.196,4.18,3.44,
4.188,4.18,3.36,
4.148,4.22,3.4,
4.164,4.22,3.36,
4.188,4.188,3.32,
4.044,4.132,3.36,
4.204,4.228,3.44,
4.06,4.148,3.32,
4.204,4.228,3.4,
4.188,4.188,3.36,
4.164,4.22,3.32,
4.188,4.22,3.4,
4.164,4.188,3.32,
4.164,4.22,3.36,
4.188,4.188,3.4,
4.164,4.188,3.36,
4.188,4.22,3.4,
4.188,4.188,3.36,
4.164,4.22,3.36,
4.164,4.188,3.36,
4.188,4.22,3.36,
4.164,4.188,3.36,
4.188,4.22,3.4,
4.188,4.188,3.32,
4.148,4.22,3.4,
4.188,4.22,3.32,
4.156,4.188,3.4,
4.156,4.188,3.36,
4.188,4.22,3.36,
4.188,4.22,3.36,
4.156,4.188,3.32,
4.188,4.196,3.36,
4.164,4.22,3.32,
4.164,4.22,3.4,
4.196,4.188,3.32,
4.196,4.22,3.36,
4.068,4.148,3.4,
4.148,4.204,3.36,
4.1,4.172,3.32,
4.1,4.172,3.36,
4.164,4.22,3.44,
4.164,4.204,3.36,
4.108,4.164,3.4,
4.124,4.18,3.32,
4.156,4.212,3.4,
4.164,4.204,3.4,
4.132,4.188,3.32,
4.156,4.204,3.36,
4.076,4.156,3.44,
4.116,4.18,3.36,
4.14,4.204,3.44,
4.3,4.34,3.32,
3.404,3.916,3.44,
4.252,4.3,3.44,
3.38,3.892,3.32,
4.22,4.252,3.36,
3.428,3.892,3.4,
4.148,4.188,3.36,
4.124,4.204,3.32,
4.148,4.188,3.36,
4.124,4.204,3.32,
4.132,4.188,3.44,
4.148,4.204,3.32,
4.148,4.18,3.32,
4.124,4.204,3.44,
4.148,4.188,3.32,
4.124,4.204,3.4,
4.148,4.204,3.36,
4.124,4.18,3.4,
4.148,4.204,3.36,
4.124,4.18,3.44,
4.148,4.188,3.4,
4.124,4.204,3.32,
4.124,4.204,3.32,
4.148,4.18,3.44,
4.148,4.204,3.36,
4.124,4.18,0,
4.124,4.204,0.08,
4.148,4.188,0.04,
4.148,4.204,0.04,
4.124,4.18,0.08,
4.148,4.204,0.08,
4.124,4.18,0,
4.148,4.204,0.08,
4.124,4.18,0.04,
4.148,4.204,0.08,
4.068,4.156,0,
4.1,4.18,0.08,
4.148,4.204,0.04,
4.124,4.188,0.08,
4.148,4.204,0,
4.148,4.204,0.08,
4.124,4.18,0,
4.148,4.204,0.08,
4.132,4.188,0,
4.148,4.188,0.08,
4.124,4.204,0.04,
4.148,4.204,0.08,
4.124,4.18,0,
4.132,4.204,0.08,
4.148,4.18,0,
4.148,4.188,0.08,
4.132,4.204,0,
4.148,4.204,0.08,
4.124,4.18,0,
4.1,4.164,0.08,
4.148,4.204,0,
4.148,4.204,0.08,
4.124,4.188,0,
4.148,4.204,0.08,
4.124,4.188,0,
4.148,4.18,0.08,
4.132,4.204,0.04,
4.148,4.188,0.08,
4.124,4.204,0,
4.148,4.204,0.08,
4.124,4.18,0,
4.148,4.204,0.08,
4.124,4.18,0.04,
4.148,4.204,0.08,
4.124,4.18,0,
4.148,4.204,0.08,
4.124,4.188,0,
4.148,4.188,0.08,
4.124,4.204,0.04,
4.132,4.204,0.08,
4.148,4.188,0.04,
4.132,4.204,0.08,
4.148,4.18,0,
4.148,4.204,0.08,
4.124,4.18,0.04,
4.148,4.204,0.08,
4.124,4.18,0,
4.148,4.188,0.08,
4.132,4.204,0,
4.132,4.204,0.08,
4.148,4.18,0.04,
4.148,4.204,0.08,
4.124,4.18,0,
4.124,4.204,0.08,
4.148,4.188,0.04,
4.148,4.204,0.08,
4.132,4.188,0.04,
4.148,4.204,0.08,
4.124,4.18,0,
4.148,4.204,0.04,
4.124,4.18,0.08,
4.148,4.188,0.08,
4.124,4.204,0.04,
4.132,4.204,0.08,
4.148,4.18,0,
4.148,4.188,0.08,
4.132,4.204,0,
4.132,4.188,0.08,
4.148,4.204,0,
4.148,4.188,0.08,
4.124,4.204,0,
4.148,4.18,0.08,
4.124,4.204,0,
4.148,4.18,0.08,
4.124,4.204,0,
4.148,4.204,0.08,
4.124,4.18,0,
4.148,4.204,0.08,
4.124,4.18,0,
4.148,4.188,0.08,
4.132,4.204,0,
4.148,4.204,0.08,
4.132,4.18,0,
4.132,4.204,0.08,
4.148,4.18,0,
4.132,4.204,0.08,
4.148,4.18,0.04,
4.148,4.204,0.08,
4.124,4.18,0,
4.148,4.204,0.08,
4.132,4.18,0,
4.132,4.204,0.08,
4.148,4.188,0,
4.148,4.204,0.08,
4.124,4.188,0.04,
4.148,4.204,0.08,
4.132,4.18,0,
4.148,4.204,0.08,
4.124,4.18,0,
4.148,4.188,0.08,
4.124,4.204,0.04,
4.148,4.204,0.08,
4.124,4.18,0.04,
4.132,4.188,0.08,
4.148,4.204,0,
4.148,4.188,0.04,
4.124,4.204,0.08,
4.132,4.188,0.08,
4.148,4.204,0,
4.148,4.204,0.08,
4.124,4.188,0,
4.132,4.204,0.08,
4.148,4.18,0,
4.148,4.188,0.08,
4.124,4.204,0,
4.148,4.204,0.08,
4.132,4.18,0,
4.148,4.204,0.08,
4.124,4.188,0.04,
4.148,4.204,0.08,
4.124,4.18,0,
4.148,4.188,0.08,
4.124,4.204,0,
4.148,4.204,0.08,
4.132,4.188,0.04,
4.132,4.204,0.08,
4.148,4.188,0.04,
4.148,4.188,0.08,
4.132,4.204,0,
4.148,4.204,0.04,
4.132,4.18,0.08,
4.148,4.204,0.08,
4.1,4.18,0,
4.148,4.204,0.04,
4.124,4.18,0.08,
4.132,4.204,0.08,
4.148,4.188,0,
4.148,4.204,0.04,
4.132,4.188,0.08,
4.148,4.204,0.08,
4.124,4.18,0.04,
4.148,4.204,0.08,
4.124,4.188,0,
4.148,4.188,0.08,
4.124,4.204,0,
4.148,4.188,0.08,
4.132,4.204,0,
4.148,4.204,0.08,
4.124,4.18,0.04,
4.148,4.204,0.08,
4.124,4.18,0.04,
4.148,4.204,0.08,
4.132,4.18,0.04,
4.148,4.204,0.08,
4.132,4.188,0,
4.148,4.204,0.08,
4.132,4.18,0,
4.148,4.188,0.08,
4.124,4.204,0,
4.148,4.188,0.08,
4.132,4.204,0,
4.148,4.204,0.04,
4.124,4.18,0.08,
4.148,4.188,0.08,
4.124,4.204,0,
4.132,4.204,0.08,
4.148,4.18,0,
4.148,4.204,0.08,
4.132,4.188,0.04,
4.148,4.204,0.08,
4.132,4.18,0,
4.148,4.188,0.08,
4.124,4.204,0,
4.148,4.204,0.08,
4.132,4.188,0.04,
4.148,4.188,0.08,
4.132,4.204,0,
4.148,4.204,0.08,
4.124,4.188,0.04,
4.148,4.204,0.08,
4.124,4.18,0.04,
4.132,4.204,0.08,
4.148,4.18,0,
4.148,4.204,0,
4.132,4.188,0.08,
4.132,4.18,0,
4.18,4.22,0.08,
4.18,3.876,0.08,
3.396,4.236,0,
4.076,4.156,0.08,
4.22,4.244,0,
4.188,4.22,0.08,
4.164,4.188,0.04,
4.188,4.212,0.08,
4.164,4.188,0,
4.188,4.22,0.08,
4.164,4.196,0,
4.188,4.22,0.08,
4.164,4.188,0.04,
4.164,4.188,0.08,
4.188,4.22,0,
4.188,4.22,0.08,
4.164,4.188,0,
4.188,4.22,0.08,
4.164,4.188,0,
4.188,4.196,0.08,
4.164,4.22,0,
4.188,4.22,0.08,
4.164,4.188,0.04,
4.188,4.22,0.08,
4.164,4.188,0,
4.164,4.22,0.08,
4.188,4.188,0,
4.164,4.22,0.08,
4.196,4.188,0.04,
4.196,4.188,0.08,
4.164,4.22,0,
4.196,4.22,0.08,
4.164,4.188,0,
4.164,4.188,0.08,
4.188,4.22,0,
4.188,4.22,0.04,
4.164,4.196,0.08,
4.164,4.188,0.08,
4.188,4.22,0,
4.164,4.188,0.08,
4.188,4.22,0,
4.188,4.188,0.08,
4.164,4.22,0.04,
4.188,4.188,0.08,
4.164,4.22,0,
4.188,4.22,0.08,
4.164,4.188,0,
4.164,4.188,0.08,
4.188,4.22,0,
4.188,4.22,0.08,
4.164,4.188,0,
4.188,4.22,0.08,
4.164,4.196,0,
