Power Payload/Metingen 5/Payload 1 150.csv

CH1,CH2,CH3,Start,Increment,
Volt,Volt,Volt,-5.995,0.01
4.164,4.18,0.16,
4.148,4.196,0.04,
4.164,4.196,0.04,
4.148,4.164,0.16,
4.164,4.18,0.04,
4.156,4.196,0.16,
4.164,4.196,0.16,
4.148,4.172,0.04,
4.164,4.18,0.16,
4.132,4.196,0.04,
4.164,4.18,0.12,
4.148,4.196,0.04,
4.164,4.18,0.04,
4.148,4.196,0.16,
4.164,4.18,0.04,
4.148,4.196,0.16,
4.164,4.18,0.16,
4.148,4.196,0.04,
4.148,4.196,0.04,
4.172,4.18,0.16,
4.164,4.18,0.04,
4.148,4.196,0.16,
4.164,4.196,0.16,
4.148,4.172,0.04,
4.164,4.18,0.12,
4.148,4.196,0.04,
4.164,4.18,0.04,
4.148,4.196,0.16,
4.164,4.18,0.16,
4.148,4.196,0.04,
4.164,4.196,0.16,
4.148,4.18,0.04,
4.164,4.18,0.04,
4.148,4.196,0.16,
4.164,4.196,0.12,
4.148,4.172,0.04,
4.164,4.196,0.16,
4.148,4.164,0.04,
4.164,4.18,0.04,
4.148,4.196,0.12,
4.164,4.196,0.04,
4.148,4.18,0.16,
4.172,4.196,0.04,
4.148,4.172,0.16,
4.164,4.18,0.04,
4.156,4.196,0.16,
4.164,4.196,0.04,
4.148,4.172,0.12,
4.164,4.18,0.04,
4.124,4.196,0.12,
4.164,4.196,0.16,
4.148,4.172,0.04,
4.164,4.18,0.04,
4.148,4.196,0.12,
4.164,4.18,0.12,
4.148,4.196,0.04,
4.164,4.196,0.16,
4.148,4.164,0.04,
4.164,4.196,0.04,
4.148,4.18,0.16,
4.164,4.196,0.04,
4.148,4.18,0.16,
4.164,4.18,0.12,
4.148,4.196,0.04,
4.164,4.18,0.04,
4.148,4.196,0.16,
4.164,4.196,0.04,
4.148,4.172,3.44,
4.164,4.18,3.36,
4.148,4.196,3.44,
4.164,4.196,3.36,
4.148,4.172,3.44,
4.164,4.172,3.36,
4.148,4.196,3.44,
4.164,4.196,3.44,
4.148,4.172,3.32,
4.164,4.196,3.44,
4.148,4.172,3.36,
4.164,4.18,3.36,
4.124,4.196,3.44,
4.164,4.196,3.32,
4.132,4.18,3.44,
4.164,4.18,3.36,
4.148,4.196,3.44,
4.172,4.18,3.44,
4.148,4.196,3.32,
4.164,4.18,3.44,
4.148,4.196,3.32,
4.148,4.196,3.44,
4.164,4.172,3.32,
4.164,4.196,3.44,
4.148,4.164,3.32,
4.164,4.172,3.44,
4.148,4.196,3.32,
4.164,4.196,3.36,
4.132,4.18,3.44,
4.164,4.18,3.44,
4.148,4.196,3.36,
4.164,4.18,3.44,
4.148,4.196,3.32,
4.164,4.196,3.36,
4.148,4.18,3.44,
4.164,4.196,3.44,
4.148,4.172,3.36,
4.164,4.18,3.36,
4.148,4.196,3.44,
4.164,4.196,3.32,
4.148,4.172,3.44,
4.164,4.18,3.36,
4.148,4.196,3.44,
4.164,4.18,3.44,
4.148,4.196,3.36,
4.164,4.18,3.32,
4.148,4.196,3.44,
4.164,4.196,3.36,
4.148,4.172,3.44,
4.164,4.196,3.36,
4.148,4.172,3.44,
4.164,4.18,3.36,
4.148,4.196,3.44,
4.164,4.18,3.44,
4.148,4.196,3.32,
4.164,4.18,3.44,
4.148,4.196,3.36,
4.164,4.18,3.44,
4.148,4.196,3.32,
4.164,4.18,3.44,
4.14,4.196,3.32,
4.148,4.196,3.44,
4.164,4.18,3.36,
4.164,4.196,3.36,
4.148,4.18,3.44,
4.148,4.172,3.44,
4.164,4.196,3.32,
4.164,4.196,3.36,
4.148,4.18,3.44,
4.164,4.196,3.36,
4.148,4.18,3.44,
4.148,4.196,3.44,
4.172,4.18,3.32,
4.156,4.18,3.44,
4.172,4.196,3.32,
4.172,4.196,3.36,
4.148,4.18,3.44,
4.172,4.18,3.44,
4.156,4.196,3.36,
4.156,4.18,3.36,
4.172,4.196,3.44,
4.172,4.196,3.44,
4.148,4.18,3.32,
4.172,4.196,3.36,
4.148,4.18,3.44,
4.172,4.196,3.36,
4.148,4.18,3.44,
4.172,4.196,3.36,
4.156,4.18,3.44,
4.172,4.18,3.36,
4.156,4.196,3.44,
4.172,4.18,3.44,
4.148,4.196,3.32,
4.148,4.18,3.36,
4.164,4.196,3.44,
4.164,4.18,3.36,
4.148,4.196,3.44,
4.164,4.196,3.36,
4.148,4.164,3.44,
4.164,4.18,3.32,
4.148,4.196,3.44,
4.148,4.18,3.36,
4.164,4.196,3.44,
4.164,4.196,3.44,
4.148,4.172,3.36,
4.148,4.18,3.36,
4.164,4.196,3.44,
4.164,4.18,3.44,
4.148,4.196,3.36,
4.164,4.18,3.44,
4.148,4.196,3.36,
4.148,4.18,3.36,
4.164,4.196,3.44,
4.164,4.18,3.44,
4.148,4.196,3.32,
4.148,4.18,3.36,
4.164,4.196,3.44,
4.156,4.196,3.36,
4.164,4.18,3.44,
4.164,4.18,3.36,
4.148,4.196,3.44,
4.164,4.196,3.36,
4.148,4.18,3.44,
4.164,4.18,3.44,
4.148,4.196,3.36,
4.148,4.18,3.36,
4.164,4.196,3.44,
4.164,4.18,3.36,
4.148,4.196,3.44,
4.164,4.18,3.32,
4.148,4.196,3.44,
4.164,4.18,3.36,
4.148,4.196,3.44,
4.164,4.196,3.44,
4.148,4.156,3.32,
4.148,4.148,3.36,
4.164,4.196,3.44,
4.164,4.18,3.36,
4.148,4.196,3.44,
4.164,4.196,3.36,
4.116,4.172,3.44,
4.116,4.196,3.44,
4.172,4.148,3.36,
4.172,4.156,3.36,
4.156,4.196,3.44,
4.164,4.196,3.36,
4.148,4.172,3.44,
4.164,4.18,3.36,
4.108,4.196,3.44,
4.116,4.156,3.36,
4.172,4.196,3.44,
4.164,4.18,3.36,
4.148,4.196,3.44,
4.164,4.196,3.36,
4.148,4.172,3.44,
4.124,4.196,3.44,
4.164,4.18,3.32,
4.164,4.18,3.36,
4.148,4.196,3.44,
4.164,4.18,3.36,
4.148,4.196,3.44,
4.164,4.18,3.32,
4.148,4.196,3.44,
4.164,4.18,3.36,
4.156,4.196,3.44,
4.148,4.172,3.36,
4.164,4.196,3.44,
4.164,4.196,3.44,
4.148,4.172,3.32,
4.164,4.18,3.44,
4.148,4.196,3.36,
4.164,4.196,3.44,
4.148,4.18,3.36,
4.148,4.18,3.44,
4.164,4.196,3.32,
4.164,4.18,3.44,
4.148,4.196,3.32,
4.164,4.18,3.36,
4.148,4.196,3.44,
4.164,4.196,3.36,
4.148,4.172,3.44,
4.164,4.18,3.36,
4.148,4.196,3.44,
4.164,4.18,3.36,
4.148,4.196,3.44,
4.164,4.196,3.36,
4.148,4.06,3.44,
4.164,4.164,3.44,
4.148,4.132,3.32,
4.164,4.116,3.44,
4.148,4.172,3.32,
4.164,4.164,3.44,
3.964,4.148,3.36,
4.108,4.164,3.36,
4.068,4.14,3.44,
4.036,4.14,3.36,
4.14,4.164,3.44,
4.108,4.164,3.36,
4.092,4.148,3.44,
4.108,4.164,3.44,
4.084,4.14,3.32,
4.068,4.164,3.44,
4.108,4.14,3.32,
4.108,4.164,3.36,
4.092,4.132,3.44,
4.108,4.14,3.36,
4.084,4.164,3.44,
4.108,4.148,3.36,
4.076,4.164,3.44,
4.108,4.164,3.44,
4.076,4.132,3.36,
4.084,4.124,3.44,
4.108,4.172,3.36,
4.108,4.132,3.36,
4.092,4.164,3.44,
4.108,4.164,3.44,
4.076,4.116,3.36,
4.044,4.164,3.44,
4.124,4.124,3.36,
4.068,4.164,3.36,
4.108,4.092,3.44,
4.108,4.164,3.44,
4.036,4.124,3.32,
4.108,4.164,3.36,
4.06,4.092,3.44,
4.108,4.164,3.36,
3.996,4.124,3.44,
4.108,4.164,3.36,
4.06,4.116,3.44,
4.108,4.164,3.44,
4.004,4.124,3.32,
4.108,4.172,3.44,
4.044,4.132,3.36,
4.108,4.164,3.44,
4.044,4.14,3.36,
4.108,4.164,3.44,
4.06,4.132,3.36,
4.076,4.148,3.44,
4.116,4.172,3.36,
4.108,4.188,3.44,
4.084,4.076,3.36,
4.108,4.124,3.36,
4.068,4.14,3.44,
4.076,4.124,3.44,
4.132,4.14,3.32,
4.148,4.14,3.36,
4.004,4.124,3.44,
4.076,4.14,3.36,
4.052,4.124,3.44,
4.052,4.124,3.36,
4.076,4.14,3.44,
4.06,4.14,3.36,
4.084,4.124,3.44,
4.076,4.14,3.44,
4.052,4.124,3.32,
4.076,4.14,3.36,
4.044,4.116,3.44,
4.052,4.124,3.36,
4.076,4.156,3.44,
4.076,4.14,3.36,
4.052,4.124,3.44,
4.076,4.14,3.44,
4.044,4.124,3.36,
4.06,4.124,3.32,
4.076,4.14,3.44,
4.052,4.124,3.36,
4.084,4.156,3.44,
4.06,4.132,3.36,
4.076,4.156,3.44,
4.076,4.148,3.44,
4.044,4.124,3.32,
4.044,4.124,3.36,
4.084,4.148,3.44,
4.084,4.156,3.44,
4.06,4.124,3.36,
4.084,4.116,3.44,
4.052,4.156,3.32,
4.084,4.124,3.36,
4.052,4.156,3.44,
4.06,4.14,3.44,
4.084,4.116,3.36,
4.084,4.14,3.44,
4.036,4.124,3.36,
4.084,4.124,3.44,
4.052,4.14,3.32,
4.044,4.14,3.44,
4.076,4.124,3.36,
4.076,4.14,3.44,
4.052,4.124,3.36,
4.052,4.124,3.4,
4.076,4.156,3.48,
4.076,4.132,3.44,
4.044,4.156,3.4,
4.06,4.188,3.44,
4.076,3.372,3.4,
4.044,3.46,3.4,
4.084,3.548,3.44,
4.084,3.532,3.4,
4.068,3.572,3.48,
4.14,3.556,3.48,
2.876,3.58,3.4,
2.956,3.596,3.4,
3.052,3.564,3.44,
3.036,3.564,3.4,
3.076,3.588,3.48,
3.06,3.564,3.44,
3.084,3.588,3.36,
3.076,3.572,3.36,
3.1,3.596,3.44,
3.068,3.572,3.44,
3.1,3.596,3.36,
3.068,3.572,3.44,
3.1,4.364,3.32,
3.1,4.284,3.44,
3.076,4.212,3.36,
3.1,4.22,3.36,
3.068,4.18,3.44,
3.068,4.196,3.36,
4.316,4.132,3.44,
4.252,4.156,3.36,
4.18,4.132,3.44,
4.188,4.132,3.36,
4.148,4.196,3.44,
4.164,4.196,3.36,
4.076,4.132,3.44,
4.076,4.132,3.44,
4.108,4.196,3.32,
4.084,4.196,3.44,
4.164,4.18,3.4,
4.164,4.188,3.4,
4.076,4.132,3.48,
4.076,4.196,3.44,
4.164,3.348,3.36,
4.164,3.42,3.32,
4.132,3.524,3.44,
4.164,3.508,3.36,
4.076,3.556,3.44,
4.172,3.516,3.36,
2.844,4.34,3.44,
2.916,4.348,3.36,
3.028,4.244,3.44,
2.972,4.244,3.44,
3.068,4.188,3.32,
3.004,4.204,3.36,
4.284,4.14,3.44,
4.3,4.132,3.36,
4.204,4.164,3.44,
4.22,4.148,3.32,
4.172,4.196,3.44,
4.172,4.188,3.36,
4.084,4.132,3.44,
4.076,4.132,3.44,
4.108,4.156,3.36,
4.084,4.132,3.36,
4.164,4.164,3.44,
4.164,4.148,3.36,
4.076,4.196,3.44,
4.076,4.18,3.36,
4.108,4.196,3.44,
4.068,4.188,3.36,
4.108,4.172,3.44,
4.084,4.172,3.36,
4.172,4.188,3.44,
4.164,4.188,3.36,
4.148,4.164,3.44,
4.164,4.188,3.36,
4.132,4.164,3.44,
4.148,4.124,3.36,
4.164,4.196,3.44,
4.164,4.188,3.36,
4.132,4.172,3.44,
4.132,4.188,3.44,
4.156,4.132,3.32,
4.076,4.132,3.44,
4.164,4.164,3.32,
4.132,4.188,3.36,
4.156,3.34,3.44,
4.156,4.196,3.44,
4.076,4.156,3.36,
4.076,4.172,3.32,
4.108,4.148,3.44,
4.148,4.164,3.44,
2.836,4.148,3.36,
4.14,4.164,3.36,
4.1,4.132,3.44,
4.116,4.164,3.44,
4.076,4.116,3.32,
4.108,4.148,3.44,
4.084,4.164,3.32,
4.108,4.164,3.36,
4.084,4.132,3.44,
4.108,4.14,3.36,
4.036,4.164,3.44,
4.092,4.164,3.44,
4.108,4.132,3.32,
4.108,4.132,3.32,
4.076,4.164,3.44,
4.092,4.132,3.44,
4.108,4.164,3.36,
4.108,4.132,3.36,
4.076,4.164,3.44,
4.108,4.132,3.36,
4.076,4.164,3.44,
4.108,4.132,3.4,
4.076,4.164,3.44,
4.068,4.14,3.4,
4.108,4.196,3.44,
4.084,4.188,3.48,
4.108,4.156,3.36,
4.108,3.86,3.44,
4.068,3.34,3.36,
4.084,3.484,3.36,
4.164,3.556,3.44,
4.156,3.532,3.44,
4.116,4.332,3.36,
3.612,4.244,3.36,
2.836,4.172,3.44,
2.98,4.156,3.4,
3.06,4.212,3.44,
3.036,4.196,3.44,
4.284,4.156,3.32,
4.188,4.188,3.36,
4.116,3.356,3.44,
4.092,3.452,3.36,
4.172,3.548,3.44,
4.172,3.508,3.36,
4.116,4.332,3.44,
4.148,4.228,3.36,
2.86,4.172,3.44,
2.924,4.18,3.36,
3.052,4.148,3.44,
2.988,4.148,3.36,
4.268,4.196,3.44,
4.172,4.196,3.44,
4.116,4.148,3.32,
4.116,4.124,3.36,
4.092,4.156,3.44,
4.092,4.164,3.36,
4.164,4.132,3.44,
4.164,4.132,3.36,
4.092,4.164,3.44,
4.068,4.132,3.36,
4.1,4.196,3.44,
4.076,4.196,3.36,
4.108,4.172,3.44,
4.068,4.188,3.36,
4.108,4.164,3.44,
4.076,4.188,3.36,
4.164,4.164,3.44,
4.132,4.188,3.44,
4.164,4.164,3.36,
4.124,4.188,3.44,
4.156,4.164,3.36,
4.156,4.188,3.44,
4.124,4.124,3.32,
4.124,4.132,3.44,
4.156,4.188,3.36,
4.156,4.188,3.44,
4.124,3.356,3.36,
4.148,4.196,3.44,
4.068,4.148,3.36,
4.076,4.148,3.36,
4.148,4.164,3.44,
4.164,4.164,3.36,
2.86,4.132,3.44,
4.14,4.14,3.36,
4.092,4.196,3.44,
4.092,4.188,3.36,
4.108,3.388,3.44,
4.076,4.188,3.44,
4.108,4.148,3.32,
4.068,4.148,3.36,
4.164,4.196,3.44,
4.156,4.196,3.44,
2.908,4.164,3.32,
4.132,4.188,3.44,
4.092,4.172,3.32,
4.092,4.188,3.36,
4.164,4.132,3.44,
4.164,4.156,3.36,
4.132,4.132,3.44,
4.156,4.164,3.44,
4.124,4.132,3.36,
4.156,4.132,3.44,
4.076,4.164,3.36,
4.1,4.132,3.44,
4.068,4.164,3.36,
4.076,4.156,3.44,
4.1,4.132,3.32,
4.108,4.132,3.44,
4.076,4.164,3.36,
4.076,4.132,3.36,
4.108,4.164,3.44,
4.076,4.156,3.44,
4.108,4.132,3.36,
4.076,4.132,3.44,
4.108,4.156,3.36,
4.076,4.14,3.44,
4.108,4.196,3.36,
4.076,4.188,3.36,
4.108,4.172,3.44,
4.068,4.164,3.36,
4.108,4.188,3.44,
4.076,4.188,3.36,
4.164,4.124,3.44,
4.156,4.156,3.44,
4.124,4.124,3.36,
4.132,4.132,3.36,
4.156,4.164,3.44,
4.156,4.132,3.36,
4.068,4.164,3.44,
4.068,4.132,3.36,
4.1,4.164,3.44,
4.076,4.132,3.44,
4.108,4.164,3.36,
4.076,4.132,3.36,
4.108,4.164,3.44,
4.084,4.132,3.44,
4.1,4.164,3.36,
4.076,4.132,3.36,
4.108,4.164,3.44,
4.076,4.132,3.36,
4.108,4.164,3.44,
4.076,4.14,3.44,
4.108,4.196,3.32,
4.068,4.188,3.44,
4.108,4.164,3.36,
4.076,4.188,3.44,
4.108,4.164,3.36,
4.076,4.188,3.36,
4.164,4.124,3.44,
4.156,4.132,3.36,
4.132,4.164,3.44,
4.156,4.156,3.36,
4.132,4.132,3.44,
4.148,4.124,3.44,
4.068,4.156,3.32,
4.076,4.132,3.36,
4.108,4.164,3.44,
4.076,4.132,3.36,
4.1,4.164,3.44,
4.06,4.14,3.36,
4.108,4.164,3.44,
4.076,4.132,3.44,
4.108,4.164,3.32,
4.068,4.132,3.36,
4.108,4.164,3.44,
4.076,4.132,3.36,
4.108,4.18,3.44,
4.108,4.196,3.44,
4.068,4.164,3.32,
4.1,4.188,3.44,
4.076,4.164,3.32,
4.084,4.172,3.36,
4.148,4.188,3.44,
4.164,4.156,3.44,
4.132,4.124,3.32,
4.132,4.132,3.36,
4.156,4.156,3.44,
4.156,4.132,3.44,
4.124,4.164,3.32,
4.052,4.132,3.44,
4.1,4.164,3.36,
4.076,4.164,3.44,
4.108,4.132,3.32,
4.068,4.132,3.36,
4.108,4.164,3.44,
4.076,4.164,3.44,
4.108,4.132,3.36,
4.108,4.132,3.44,
4.068,4.164,3.32,
4.076,4.132,3.44,
4.108,4.164,3.36,
4.076,4.148,3.36,
4.108,4.196,3.44,
4.076,4.188,3.44,
4.108,4.164,3.36,
4.108,4.188,3.44,
4.076,4.164,3.32,
4.076,4.188,3.36,
4.164,4.132,3.44,
4.164,4.132,3.44,
4.116,4.164,3.36,
4.132,4.164,3.44,
4.164,4.132,3.32,
4.156,4.132,3.36,
4.084,4.164,3.44,
4.076,4.148,3.44,
4.108,4.164,3.36,
4.108,4.164,3.36,
4.076,4.132,3.44,
4.108,4.164,3.36,
4.076,4.14,3.44,
4.092,4.164,3.44,
4.108,4.14,3.36,
4.108,4.132,3.36,
4.076,4.164,3.44,
4.076,4.164,3.44,
4.108,4.132,3.32,
4.108,4.132,3.44,
4.084,4.196,3.36,
4.084,4.196,3.36,
4.108,4.172,3.44,
4.108,4.188,3.36,
4.076,4.164,3.44,
4.076,4.188,3.44,
4.164,4.132,3.32,
4.164,4.156,3.36,
4.132,4.132,3.44,
4.156,4.132,3.44,
4.132,4.164,3.36,
4.148,4.156,3.32,
4.076,4.132,3.44,
4.1,4.132,3.36,
4.076,4.164,3.44,
4.108,4.132,3.44,
4.068,4.156,3.36,
4.076,4.132,3.44,
4.108,4.164,3.36,
4.076,4.132,3.44,
4.1,4.164,3.32,
4.068,4.132,3.44,
4.108,4.164,3.32,
4.076,4.164,3.44,
4.108,4.132,3.32,
4.108,4.132,3.36,
4.068,4.196,3.44,
4.076,4.188,3.44,
4.108,4.164,3.36,
4.108,4.188,3.36,
4.076,4.164,3.44,
4.068,4.188,3.44,
4.164,4.132,3.36,
4.132,4.132,3.36,
4.156,4.156,3.44,
4.132,4.132,3.36,
4.156,4.156,3.44,
4.156,4.156,3.44,
4.068,4.132,3.32,
4.068,4.156,3.36,
4.1,4.132,3.44,
4.076,4.132,3.36,
4.108,4.164,3.44,
4.076,4.132,3.36,
4.108,4.164,3.44,
4.108,4.132,3.32,
4.068,4.164,3.44,
4.108,4.132,3.44,
4.068,4.164,3.32,
4.076,4.164,3.36,
4.108,4.132,3.44,
4.076,4.148,3.44,
4.108,4.196,3.32,
4.108,4.188,3.36,
4.076,4.164,3.44,
4.108,4.188,3.36,
4.068,4.156,3.44,
4.076,4.188,3.44,
4.164,4.124,3.36,
4.156,4.156,3.36,
4.124,4.124,3.44,
4.124,4.132,3.36,
4.156,4.164,3.44,
4.156,4.156,3.36,
4.052,4.132,3.44,
4.1,4.132,3.44,
4.068,4.164,3.32,
4.076,4.164,3.44,
4.108,4.132,3.32,
4.108,4.132,3.44,
4.068,4.164,3.36,
4.068,4.156,3.44,
4.108,4.132,3.32,
4.076,4.14,3.44,
4.108,4.164,3.36,
4.108,4.132,3.36,
4.076,4.188,3.44,
4.076,4.196,3.44,
4.108,4.172,3.36,
4.076,4.188,3.44,
4.108,4.164,3.32,
4.076,4.188,3.44,
4.156,4.156,3.36,
4.164,4.132,3.36,
4.14,4.156,3.44,
4.156,4.132,3.44,
4.124,4.156,3.36,
4.156,4.132,3.44,
4.124,4.156,3.32,
4.1,4.132,3.36,
4.068,4.164,3.44,
4.068,4.132,3.36,
4.108,4.164,3.44,
4.076,4.132,3.32,
4.108,4.164,3.44,
4.108,4.132,3.36,
4.068,4.164,3.44,
4.076,4.132,3.36,
4.108,4.164,3.44,
4.1,4.164,3.44,
4.068,4.124,3.32,
4.068,4.132,3.44,
4.108,4.196,3.32,
4.108,4.196,3.44,
4.076,4.172,3.36,
4.108,4.156,3.44,
4.052,4.188,3.32,
4.076,4.188,3.44,
4.164,4.124,3.32,
4.164,4.156,3.44,
4.132,4.124,3.36,
4.124,4.132,3.44,
4.156,4.164,3.36,
4.156,4.132,3.44,
4.068,4.164,3.32,
4.06,4.132,3.36,
4.1,4.164,3.44,
4.076,4.14,3.44,
4.108,4.164,3.36,
4.076,4.132,3.44,
4.108,4.164,3.36,
4.076,4.164,3.44,
4.108,4.132,3.32,
4.076,4.132,3.36,
4.108,4.164,3.44,
4.108,4.132,3.44,
4.068,4.164,3.36,
4.108,4.148,3.36,
4.076,4.196,3.44,
4.076,4.196,3.44,
4.108,4.164,3.36,
4.068,4.188,3.36,
4.108,4.164,3.44,
4.076,4.188,3.44,
4.164,4.132,3.36,
4.156,4.124,3.44,
4.124,4.156,3.36,
4.156,4.132,3.44,
4.132,4.156,3.36,
4.156,4.132,3.44,
4.076,4.164,3.32,
4.068,4.164,3.44,
4.1,4.132,3.36,
4.076,4.164,3.44,
4.108,4.132,3.32,
4.068,4.132,3.44,
4.1,4.164,3.36,
4.108,4.132,3.44,
4.076,4.164,3.32,
4.076,4.164,3.44,
4.108,4.132,3.36,
4.076,4.164,3.36,
4.108,4.14,3.44,
4.076,4.14,3.36,
4.108,4.196,3.44,
4.108,4.188,3.44,
4.068,4.164,3.36,
4.076,4.172,3.36,
4.108,4.188,3.44,
4.076,4.188,3.44,
4.164,4.124,3.36,
4.124,4.132,3.44,
4.156,4.156,3.36,
4.156,4.132,3.44,
4.124,4.164,3.36,
4.156,4.132,3.44,
4.068,4.164,3.36,
4.076,4.132,3.44,
4.108,4.164,3.32,
4.076,4.132,3.36,
4.108,4.164,3.44,
4.068,4.14,3.44,
4.108,4.164,3.36,
4.076,4.156,3.44,
4.108,4.132,3.32,
4.108,4.132,3.32,
4.068,4.164,3.44,
4.076,4.132,3.44,
4.108,4.164,3.36,
4.108,4.148,3.44,
4.076,4.196,3.36,
4.068,4.196,3.44,
4.108,4.172,3.32,
4.076,4.188,3.36,
4.108,4.164,3.44,
4.092,4.188,3.36,
4.164,4.132,3.44,
4.164,4.132,3.36,
4.132,4.164,3.44,
4.156,4.164,3.36,
4.132,4.132,3.44,
4.148,4.164,3.44,
4.076,4.14,3.36,
4.076,4.14,3.44,
4.108,4.164,3.36,
4.108,4.132,3.44,
4.068,4.164,3.36,
4.076,4.132,3.36,
4.108,4.164,3.44,
4.108,4.156,3.36,
4.076,4.124,3.44,
4.068,4.132,3.44,
4.108,4.164,3.32,
4.108,4.132,3.44,
4.076,4.188,3.36,
4.108,4.196,3.36,
4.068,4.172,3.44,
4.108,4.172,3.36,
4.076,4.188,3.44,
4.076,4.188,3.32,
4.156,4.156,3.44,
4.132,4.124,3.36,
4.164,4.156,3.44,
4.156,4.156,3.36,
4.132,4.132,3.44,
4.156,4.124,3.44,
4.116,4.164,0.04,
4.1,4.164,0.04,
4.068,4.132,0.16,
4.068,4.132,0.12,
4.1,4.164,0.04,
4.06,4.164,0.16,
4.108,4.132,0.04,
4.076,4.132,0.04,
4.108,4.164,0.16,
4.108,4.132,0.04,
4.068,4.164,0.16,
4.076,4.132,0.04,
4.108,4.164,0.16,
4.076,4.132,0.16,
4.108,4.196,0.04,
4.068,4.196,0.16,
4.108,4.172,0.04,
4.076,4.188,0.12,
4.108,4.164,0.04,
4.06,4.188,0.04,
4.164,4.124,0.16,
4.164,4.132,0.04,
4.132,4.156,0.16,
4.132,4.132,0.04,
4.156,4.156,0.16,
4.156,4.132,0.04,
4.068,4.164,0.16,
4.068,4.132,0.04,
4.1,4.164,0.12,
4.076,4.132,0.04,
4.1,4.164,0.16,
4.076,4.164,0.04,
4.108,4.132,0.16,
4.076,4.132,0.16,
4.108,4.164,0.04,
4.076,4.132,0.04,
4.108,4.164,0.16,
4.076,4.164,0.04,
4.108,4.132,0.16,
4.076,4.124,0.16,
4.108,4.196,0.04,
4.108,4.196,0.04,
4.076,4.172,0.16,
4.108,4.188,0.04,
4.076,4.164,0.16,
4.06,4.188,0.04,
4.164,4.132,0.16,
4.164,4.132,0.04,
4.132,4.156,0.16,
4.156,4.124,0.04,
4.124,4.164,0.16,
4.156,4.132,0.04,
4.076,4.164,0.16,
4.076,4.132,0.16,
4.1,4.164,0.04,
4.068,4.132,0.16,
4.108,4.164,0.04,
4.076,4.164,0.04,
4.108,4.14,0.16,
4.076,4.116,0.12,
4.108,4.164,0.04,
4.076,4.164,0.12,
4.108,4.132,0.04,
4.076,4.164,0.12,
4.108,4.132,0.04,
4.052,4.164,0.16,
4.108,4.14,0.04,
4.108,4.164,0.04,
4.068,4.132,0.16,
4.076,4.164,0.04,
4.108,4.116,0.16,
4.108,4.14,0.16,
4.076,4.164,0.04,
4.076,4.132,0.04,
4.108,4.164,0.16,
4.108,4.164,0.04,
4.036,4.132,0.16,
4.084,4.132,0.04,
4.108,4.164,0.16,
4.108,4.124,0.12,
4.076,4.164,0.04,
4.076,4.164,0.04,
4.108,4.14,0.16,
4.076,4.164,0.04,
4.108,4.124,0.16,
4.06,4.164,0.04,
4.108,4.132,0.12,
4.108,4.164,0.04,
4.076,4.132,0.16,
4.108,4.132,0.04,
4.06,4.164,0.16,
4.076,4.156,0.04,
4.108,4.132,0.16,
4.076,4.164,0.04,
4.108,4.132,0.16,
4.068,4.164,0.04,
4.108,4.132,0.16,
4.076,4.132,0.04,
4.108,4.164,0.16,
4.076,4.132,0.16,
4.108,4.164,0.04,
4.076,4.132,0.04,
4.108,4.164,0.12,
4.108,4.164,0.12,
4.076,4.124,0.04,
4.068,4.14,0.16,
4.108,4.164,0.04,
4.108,4.14,0.12,
4.076,4.164,0.04,
4.108,4.132,0.04,
4.06,4.164,0.16,
4.076,4.132,0.04,
4.108,4.164,0.16,
4.076,4.164,0.12,
4.108,4.132,0.04,
4.068,4.132,0.04,
4.108,4.164,0.16,
4.076,4.132,0.04,
4.108,4.164,0.12,
4.076,4.132,0.04,
4.108,4.164,0.16,
4.076,4.132,0.16,
4.108,4.164,0.04,
4.076,4.132,0.04,
4.108,4.164,0.16,
4.068,4.14,0.04,
4.108,4.164,0.16,
4.108,4.132,0.04,
4.076,4.164,0.16,
4.108,4.132,0.04,
4.068,4.156,0.16,
4.084,4.132,0.04,
4.108,4.164,0.16,
4.076,4.164,0.04,
4.108,4.132,0.16,
4.076,4.14,0.16,
4.108,4.164,0.04,
4.076,4.14,0.16,
4.108,4.164,0.04,
4.108,4.132,0.04,
4.068,4.164,0.16,
4.076,4.164,0.04,
4.108,4.132,0.16,
4.076,4.132,0.12,
4.108,4.164,0.04,
4.076,4.164,0.04,
4.108,4.132,0.12,
4.108,4.196,0.04,
4.076,4.132,0.16,
4.076,4.132,0.16,
4.108,4.164,0.04,
4.076,4.132,0.12,
4.108,4.156,0.04,
4.164,4.156,0.12,
4.076,4.132,0.04,
4.068,4.14,0.16,
4.108,4.164,0.04,
4.076,4.132,0.12,
4.108,4.164,0.04,
4.108,4.132,0.04,
4.068,4.164,0.16,
4.076,4.164,0.04,
4.108,4.14,0.16,
4.108,4.164,0.04,
4.076,4.132,0.16,
4.06,4.164,0.16,
4.108,4.14,0.04,
4.108,4.148,0.04,
4.076,4.196,0.16,
4.084,4.196,0.04,
4.116,4.164,0.16,
4.108,4.188,0.04,
4.084,4.164,0.16,
4.092,4.188,0.16,
4.164,4.124,0.04,
4.164,4.132,0.04,
4.132,4.164,0.16,
4.164,4.148,0.12,
4.132,4.164,0.04,
4.156,4.132,0.04,
4.06,4.164,0.16,
4.076,4.164,0.04,
4.108,4.132,0.16,
4.108,4.132,0.16,
4.076,4.156,0.04,
4.068,4.132,0.12,
4.108,4.164,0.04,
4.108,4.132,0.12,
4.076,4.164,0.04,
4.108,4.132,0.04,
4.068,4.164,0.16,
4.076,4.164,0.12,
4.108,4.14,0.04,
4.076,4.132,0.04,
4.108,4.196,0.16,
4.068,4.188,0.04,
4.108,4.164,0.16,
4.076,4.188,0.16,
4.108,4.164,0.04,
4.076,4.188,0.04,
4.164,4.132,0.12,
4.156,4.132,0.04,
4.132,4.156,0.16,
4.132,4.156,0.04,
4.156,4.132,0.16,
4.148,4.14,0.04,
4.068,4.164,0.16,
4.1,4.164,0.16,
4.068,4.132,0.04,
4.1,4.132,0.04,
4.076,4.164,0.16,
4.076,4.132,0.04,
4.108,4.164,0.16,
4.076,4.164,0.04,
4.108,4.132,0.16,
4.068,4.132,0.12,
4.108,4.164,0.04,
4.076,4.132,0.04,
4.108,4.164,0.16,
4.076,4.14,0.04,
4.108,4.196,0.16,
4.076,4.188,0.16,
4.108,4.164,0.04,
4.108,4.188,0.16,
4.076,4.164,0.04,
4.076,4.188,0.04,
4.164,4.124,0.16,
4.156,4.132,0.16,
4.132,4.156,0.04,
4.156,4.132,0.04,
4.124,4.156,0.16,
4.156,4.132,0.04,
4.068,4.164,0.12,
4.1,4.164,0.12,
4.076,4.132,0.04,
4.076,4.164,0.04,
4.108,4.132,0.16,
4.108,4.132,0.16,
4.076,4.164,0.04,
