Power Payload/Metingen 5/Payload 2 230.csv

CH1,CH2,CH3,Start,Increment,
Volt,Volt,Volt,-5.995,0.01
4.076,4.132,0.04,
4.156,4.164,0.16,
4.164,4.156,0.16,
4.076,4.132,0.04,
4.1,4.164,0.04,
4.068,4.132,0.16,
4.076,4.164,0.16,
4.108,4.132,0.04,
4.076,4.132,0.12,
4.108,4.164,0.04,
4.076,4.156,0.16,
4.108,4.132,0.04,
4.108,4.164,0.16,
4.076,4.132,0.04,
4.076,4.132,0.04,
4.108,4.164,0.16,
4.108,4.132,0.04,
4.068,4.164,0.16,
4.068,4.164,0.04,
4.108,4.132,0.16,
4.076,4.164,0.04,
4.108,4.132,0.16,
4.108,4.164,0.04,
4.076,4.132,0.16,
4.108,4.164,0.04,
4.076,4.132,0.16,
4.1,4.164,0.04,
4.076,4.132,0.16,
4.108,4.14,0.04,
4.068,4.164,0.16,
4.108,4.164,0.16,
4.076,4.132,0.04,
4.1,4.14,0.04,
4.068,4.164,0.16,
4.108,4.164,0.04,
4.076,4.14,0.16,
4.108,4.132,0.16,
4.076,4.164,0.04,
4.076,4.164,0.16,
4.108,4.132,0.04,
4.108,4.14,0.04,
4.076,4.164,0.16,
4.108,4.164,0.04,
4.076,4.132,0.16,
4.076,4.164,0.04,
4.108,4.132,0.16,
4.076,4.164,0.04,
4.108,4.132,0.16,
4.108,4.156,0.04,
4.076,4.132,0.16,
4.076,4.132,0.04,
4.108,4.156,0.16,
4.1,4.164,0.16,
4.076,4.132,0.04,
4.076,4.132,0.16,
4.108,4.164,0.04,
4.1,4.164,0.16,
4.068,4.132,0.04,
4.076,4.164,0.16,
4.108,4.132,0.04,
4.076,4.164,0.16,
4.108,4.132,0.04,
4.108,4.164,0.12,
4.076,4.132,0.04,
4.108,4.132,0.04,
4.076,4.164,0.16,
4.108,4.164,0.04,
4.076,4.132,0.16,
4.108,4.132,0.04,
4.076,4.164,0.16,
4.108,4.164,0.04,
4.076,4.132,0.16,
4.108,4.164,0.16,
4.076,4.132,0.04,
4.076,4.132,0.04,
4.108,4.164,0.16,
4.108,4.132,0.16,
4.076,4.164,0.04,
4.076,4.156,0.04,
4.108,4.132,0.16,
4.1,4.164,0.04,
4.076,4.132,0.16,
4.108,4.132,0.04,
4.076,4.164,0.16,
4.108,4.164,0.04,
4.068,4.14,0.16,
4.1,4.14,0.04,
4.068,4.164,0.16,
4.076,4.132,0.12,
4.108,4.164,0.04,
4.084,4.164,0.04,
4.108,4.132,0.16,
4.1,4.132,0.16,
4.076,4.196,0.04,
4.076,4.196,0.04,
4.108,4.172,0.16,
4.076,4.188,0.04,
4.108,4.164,0.16,
4.076,4.188,0.04,
4.164,4.14,0.16,
4.164,4.124,0.04,
4.132,4.156,0.16,
4.132,4.132,0.04,
4.156,4.156,0.16,
4.156,4.156,0.04,
4.084,4.132,0.16,
4.076,4.156,0.16,
4.1,4.132,0.04,
4.076,4.132,0.16,
4.108,4.156,0.04,
4.076,4.156,0.16,
4.108,4.132,0.04,
4.108,4.164,0.04,
4.076,4.124,0.16,
4.076,4.156,0.04,
4.108,4.132,0.16,
4.1,4.164,0.04,
4.076,4.132,0.16,
4.108,4.14,0.04,
4.06,4.196,0.16,
4.108,4.196,0.04,
4.076,4.164,0.16,
4.108,4.188,0.04,
4.076,4.148,0.16,
4.084,4.188,0.04,
4.164,4.132,0.16,
4.156,4.156,0.16,
4.124,4.124,0.04,
4.156,4.132,0.04,
4.092,4.164,0.16,
4.156,4.164,0.04,
4.068,4.132,0.16,
4.1,4.156,0.12,
4.068,4.132,0.04,
4.076,4.164,0.12,
4.1,4.132,0.04,
4.076,4.156,0.12,
4.108,4.132,0.04,
4.068,4.132,0.04,
4.108,4.164,0.16,
4.108,4.156,0.04,
4.076,4.092,0.16,
4.108,4.1,0.12,
4.068,4.164,0.04,
4.076,4.148,0.12,
4.108,4.196,0.04,
4.108,4.188,0.08,
4.004,4.164,3.44,
4.036,4.188,3.36,
4.108,4.164,3.44,
4.092,4.188,3.44,
4.164,4.124,3.36,
4.164,4.132,3.44,
4.132,4.156,3.36,
4.156,4.132,3.36,
4.132,4.156,3.44,
4.156,4.132,3.36,
4.068,4.164,3.44,
4.1,4.132,3.44,
4.076,4.164,3.32,
4.068,4.156,3.44,
4.1,4.124,3.32,
4.076,4.132,3.44,
4.1,4.156,3.32,
4.076,4.164,3.44,
4.108,4.132,3.36,
4.1,4.164,3.36,
4.052,4.132,3.44,
4.108,4.132,3.44,
4.068,4.164,3.32,
4.076,4.148,3.44,
4.108,4.196,3.36,
4.076,4.196,3.44,
4.1,4.172,3.32,
4.068,4.188,3.36,
4.1,4.172,3.44,
4.092,4.188,3.44,
4.164,4.124,3.32,
4.164,4.132,3.44,
4.132,4.164,3.36,
4.14,4.164,3.44,
4.164,4.14,3.36,
4.156,4.148,3.44,
4.068,4.164,3.32,
4.108,4.148,3.36,
4.068,4.164,3.44,
4.108,4.164,3.44,
4.076,4.132,3.36,
4.076,4.164,3.44,
4.108,4.132,3.36,
4.092,4.164,3.36,
4.108,4.132,3.44,
4.092,4.14,3.44,
4.108,4.164,3.32,
4.108,4.164,3.44,
4.076,4.132,3.32,
4.06,4.148,3.44,
4.108,4.196,3.32,
4.1,4.188,3.36,
4.068,4.164,3.44,
4.108,4.188,3.36,
4.076,4.164,3.44,
4.092,4.18,3.36,
4.164,4.124,3.44,
4.156,4.132,3.44,
4.124,4.156,3.32,
4.156,4.132,3.36,
4.124,4.156,3.44,
4.156,4.14,3.44,
4.068,4.164,3.32,
4.076,4.164,3.44,
4.1,4.132,3.36,
4.068,4.132,3.36,
4.108,4.164,3.44,
4.1,4.164,3.44,
4.076,4.14,3.36,
4.108,4.164,3.44,
4.076,4.132,3.32,
4.068,4.14,3.36,
4.108,4.156,3.44,
4.108,4.132,3.44,
4.076,4.188,3.36,
4.108,4.196,3.44,
4.076,4.164,3.36,
4.076,4.188,3.36,
4.108,4.164,3.44,
4.076,4.188,3.36,
4.156,4.14,3.44,
4.164,4.124,3.36,
4.132,4.156,3.44,
4.132,4.156,3.44,
4.156,4.132,3.32,
4.156,4.156,3.36,
4.076,4.132,3.44,
4.06,4.148,3.32,
4.1,4.164,3.44,
4.076,4.132,3.44,
4.1,4.164,3.36,
4.1,4.164,3.36,
4.068,4.132,3.44,
4.108,4.164,3.44,
4.076,4.132,3.36,
4.076,4.164,3.36,
4.108,4.132,3.44,
4.108,4.156,3.44,
4.068,4.132,3.32,
4.108,4.14,3.44,
4.076,4.196,3.32,
4.076,4.188,3.36,
4.108,4.164,3.44,
4.108,4.164,3.44,
4.076,4.188,3.32,
4.076,4.188,3.36,
4.164,4.124,3.44,
4.156,4.132,3.36,
4.132,4.156,3.44,
4.156,4.156,3.36,
4.124,4.132,3.44,
4.156,4.132,3.36,
4.068,4.164,3.44,
4.068,4.156,3.36,
4.1,4.132,3.44,
4.1,4.132,3.36,
4.068,4.164,3.44,
4.076,4.132,3.36,
4.108,4.164,3.44,
4.108,4.132,3.44,
4.076,4.164,3.36,
4.076,4.164,3.32,
4.108,4.132,3.44,
4.076,4.156,3.36,
4.108,4.132,3.44,
4.068,4.148,3.44,
4.108,4.196,3.36,
4.076,4.188,3.44,
4.108,4.172,3.36,
4.108,4.188,3.36,
4.076,4.164,3.44,
4.076,4.188,3.44,
4.164,4.116,3.36,
4.156,4.156,3.44,
4.132,4.052,3.32,
4.132,4.108,3.36,
4.156,4.172,3.44,
4.156,4.164,3.44,
4.044,4.132,3.32,
4.1,4.164,3.44,
3.94,4.132,3.32,
4.02,4.164,3.44,
4.116,4.044,3.32,
4.108,4.164,3.44,
4.084,4.132,3.32,
4.108,4.132,3.44,
4.068,4.164,3.32,
4.108,4.164,3.36,
3.956,4.108,3.44,
4.108,4.116,3.44,
4.076,4.164,3.36,
4.108,4.14,3.44,
4.076,4.196,3.32,
4.108,4.188,3.44,
4.036,4.164,3.36,
4.036,4.188,3.36,
4.108,4.164,3.44,
4.068,4.188,3.44,
4.164,4.132,3.32,
4.156,4.132,3.44,
4.124,4.156,3.36,
4.156,4.132,3.44,
4.124,4.164,3.36,
4.148,4.132,3.36,
4.068,4.164,3.44,
4.076,4.156,3.44,
4.1,4.132,3.32,
4.076,4.132,3.44,
4.108,4.164,3.36,
4.076,4.164,3.44,
4.108,4.132,3.36,
4.076,4.156,3.44,
4.108,4.132,3.32,
4.076,4.156,3.36,
4.108,4.132,3.44,
4.108,4.164,3.36,
4.076,4.132,3.44,
4.068,4.148,3.36,
4.108,4.196,3.44,
4.108,4.188,3.36,
4.076,4.164,3.44,
4.076,4.188,3.36,
4.108,4.164,3.44,
4.092,4.188,3.36,
4.164,4.124,3.44,
4.156,4.132,3.44,
4.124,4.156,3.32,
4.156,4.156,3.36,
4.124,4.14,3.44,
4.14,4.164,3.44,
4.068,4.132,3.36,
4.1,4.132,3.44,
4.068,4.164,3.36,
4.1,4.044,3.36,
4.076,4.164,3.44,
4.1,4.164,3.44,
4.068,4.132,3.36,
4.076,4.164,3.44,
4.108,4.132,3.32,
3.948,4.164,3.36,
4.108,4.132,3.44,
4.108,4.132,3.36,
4.068,4.196,3.44,
4.108,4.196,3.44,
4.076,4.164,3.36,
4.108,4.188,3.36,
4.076,4.164,3.44,
4.068,4.188,3.36,
4.164,4.132,3.44,
4.164,4.124,3.36,
4.132,4.156,3.44,
4.156,4.132,3.44,
4.124,4.156,3.32,
4.156,4.132,3.36,
4.076,4.164,3.44,
4.068,4.164,3.44,
4.1,4.132,3.36,
4.1,4.132,3.4,
4.068,4.164,3.48,
4.076,4.164,3.4,
4.108,4.14,3.44,
4.108,4.196,3.4,
4.068,3.348,3.48,
4.108,3.388,3.4,
4.068,3.5,3.44,
4.108,3.484,3.4,
4.076,3.556,3.44,
4.164,3.5,3.44,
2.844,3.58,3.4,
2.884,3.564,3.4,
2.996,3.58,3.48,
2.964,3.564,3.4,
3.068,3.596,3.44,
2.956,3.588,3.48,
3.084,3.564,3.36,
3.084,3.572,3.32,
3.06,3.596,3.44,
3.1,3.572,3.36,
3.06,3.596,3.44,
3.1,3.572,3.44,
3.068,4.364,3.36,
3.076,4.324,3.44,
3.1,4.204,3.32,
3.1,4.204,3.36,
3.076,4.156,3.44,
3.068,4.172,3.36,
4.308,4.148,3.44,
4.284,4.172,3.44,
4.148,4.196,3.32,
4.148,4.188,3.44,
4.092,4.132,3.32,
4.116,4.14,3.36,
4.092,4.196,3.44,
4.124,4.196,3.4,
4.164,4.132,3.44,
4.148,4.116,3.4,
4.076,4.196,3.48,
4.084,4.188,3.44,
4.164,3.364,3.36,
4.164,3.452,3.44,
4.068,3.556,3.32,
4.036,3.508,3.44,
4.164,3.58,3.36,
4.164,3.532,3.36,
2.852,4.34,3.44,
2.924,4.252,3.36,
3.06,4.18,3.44,
2.988,4.156,3.32,
3.092,4.212,3.44,
3.012,4.196,3.44,
4.284,4.156,3.36,
4.212,3.404,3.32,
4.116,4.228,3.44,
4.1,4.188,3.44,
4.172,4.228,3.36,
4.164,4.204,3.36,
4.108,4.172,3.44,
2.932,4.188,3.36,
4.172,4.172,3.44,
4.132,4.188,3.44,
4.196,4.164,3.36,
4.172,4.188,3.36,
4.132,4.164,3.44,
4.156,4.188,3.36,
4.132,4.164,3.44,
4.156,4.188,3.36,
4.124,4.132,3.44,
4.156,4.132,3.44,
4.124,4.164,3.32,
4.156,4.148,3.36,
4.124,4.196,3.44,
4.156,4.196,3.36,
4.076,3.396,3.44,
4.084,3.484,3.36,
4.108,4.236,3.44,
4.092,4.188,3.44,
4.164,4.156,3.36,
4.164,4.164,3.44,
2.924,4.148,3.36,
3.02,4.164,3.44,
4.18,4.132,3.36,
4.132,4.132,3.44,
4.092,4.164,3.32,
4.116,4.164,3.36,
4.092,4.132,3.44,
4.108,4.148,3.36,
4.076,4.196,3.44,
4.108,4.188,3.44,
4.076,4.164,3.32,
4.076,4.188,3.36,
4.108,4.172,3.44,
4.084,4.188,3.36,
4.164,4.124,3.44,
4.132,4.132,3.36,
4.156,4.196,3.44,
4.156,4.196,3.44,
4.124,4.156,3.32,
4.156,3.412,3.36,
4.068,4.196,3.44,
4.076,4.172,3.36,
4.164,4.148,3.44,
4.164,4.164,3.44,
4.116,4.148,3.32,
4.156,4.164,3.44,
2.948,4.132,3.32,
4.132,4.132,3.44,
4.092,4.164,3.32,
4.116,4.164,3.44,
4.092,4.132,3.32,
4.108,4.14,3.44,
4.068,4.196,3.32,
4.108,4.196,3.36,
4.076,4.172,3.44,
4.108,4.188,3.44,
4.084,4.164,3.36,
4.076,4.188,3.44,
4.164,4.132,3.36,
4.164,4.124,3.36,
4.124,4.156,3.44,
4.156,4.132,3.44,
4.132,4.196,3.36,
4.156,4.196,3.44,
4.076,4.132,3.32,
4.076,4.132,3.36,
4.108,4.18,3.44,
4.084,4.172,3.36,
4.164,4.196,3.44,
4.164,4.196,3.36,
4.076,4.132,3.44,
4.076,4.132,3.36,
4.156,4.18,3.44,
4.132,4.132,3.36,
4.164,4.196,3.44,
4.164,3.348,3.36,
4.076,4.196,3.44,
4.076,4.172,3.44,
4.148,4.148,3.32,
4.076,4.164,3.36,
4.164,4.148,3.44,
4.164,4.132,3.36,
2.844,4.196,3.44,
4.132,4.196,3.44,
4.092,4.132,3.36,
4.116,4.132,3.44,
4.084,4.156,3.32,
4.076,4.164,3.44,
4.164,4.132,3.32,
4.164,4.132,3.44,
4.076,4.164,3.32,
4.076,4.164,3.36,
4.1,4.14,3.44,
4.076,4.164,3.44,
4.108,4.132,3.32,
4.108,4.164,3.36,
4.076,4.14,3.44,
4.108,4.132,3.36,
4.076,4.164,3.44,
4.108,4.132,3.44,
4.076,4.164,3.36,
4.108,4.132,3.44,
4.076,4.164,3.36,
4.108,4.164,3.36,
4.068,4.132,3.44,
4.108,4.164,3.36,
4.076,4.132,3.44,
4.108,4.132,3.36,
4.068,4.164,3.44,
4.108,4.164,3.36,
4.076,4.132,3.44,
4.108,4.164,3.44,
4.068,4.132,3.32,
4.076,4.164,3.36,
4.108,4.132,3.44,
4.108,4.164,3.44,
4.076,4.14,3.36,
4.068,4.164,3.44,
4.108,4.132,3.32,
4.108,4.132,3.44,
4.076,4.164,3.36,
4.108,4.164,3.44,
4.076,4.132,3.32,
4.076,4.132,3.36,
4.108,4.156,3.44,
4.076,4.164,3.36,
4.108,4.132,3.44,
4.108,4.132,3.44,
4.076,4.164,3.36,
4.108,4.14,3.44,
4.068,4.164,3.36,
4.108,4.164,3.36,
4.076,4.132,3.44,
4.108,4.132,3.44,
4.076,4.164,3.36,
4.108,4.164,3.36,
4.076,4.132,3.44,
4.108,4.164,3.44,
4.076,4.132,3.36,
4.108,4.148,3.44,
4.068,4.164,3.32,
4.076,4.164,3.44,
4.108,4.132,3.36,
4.108,4.164,3.36,
4.068,4.132,3.44,
4.108,4.164,3.44,
4.084,4.132,3.32,
4.108,4.164,3.36,
4.076,4.132,3.44,
4.108,4.164,3.36,
4.068,4.132,3.44,
4.108,4.164,3.44,
4.068,4.132,3.32,
4.076,4.164,3.44,
4.108,4.132,3.36,
4.108,4.156,3.44,
4.076,4.132,3.36,
4.108,4.132,3.44,
4.068,4.164,3.36,
4.108,4.164,3.44,
4.076,4.132,3.36,
4.108,4.132,3.44,
4.076,4.164,3.36,
4.108,4.14,3.36,
4.068,4.164,3.44,
4.076,4.132,3.44,
4.108,4.164,3.32,
4.108,4.156,3.44,
4.076,4.132,3.32,
4.076,4.164,3.44,
4.108,4.14,3.32,
4.108,4.132,3.44,
4.068,4.164,3.36,
4.108,4.164,3.36,
4.068,4.132,3.44,
4.108,4.156,3.36,
4.076,4.132,3.44,
4.108,4.164,3.44,
4.068,4.132,3.36,
4.108,4.132,3.36,
4.076,4.196,3.44,
4.108,4.196,3.32,
4.068,4.172,3.44,
4.108,4.172,3.44,
4.076,4.188,3.36,
4.076,4.188,3.44,
4.164,4.132,3.36,
4.164,4.124,3.44,
4.132,4.156,3.36,
4.156,4.132,3.44,
4.132,4.164,3.36,
4.156,4.164,3.44,
4.06,4.132,3.36,
4.068,4.164,3.44,
4.1,4.132,3.32,
4.068,4.164,3.44,
4.108,4.132,3.36,
4.076,4.164,3.36,
4.108,4.132,3.44,
4.108,4.116,3.44,
4.076,4.164,3.32,
4.076,4.164,3.36,
4.108,4.132,3.44,
4.108,4.164,3.44,
4.068,4.132,3.36,
4.036,4.132,3.44,
4.108,4.196,3.36,
4.108,4.196,3.44,
4.068,4.172,3.32,
4.108,4.188,3.44,
4.068,4.164,3.36,
4.084,4.188,3.44,
4.164,4.132,3.36,
4.164,4.132,3.44,
4.124,4.156,3.36,
4.132,4.132,3.44,
4.156,4.156,3.36,
4.156,4.164,3.44,
4.068,4.132,3.36,
4.1,4.164,3.44,
4.068,4.132,3.36,
4.076,4.164,3.36,
4.108,4.132,3.44,
4.076,4.164,3.36,
4.108,4.132,3.44,
4.108,4.164,3.36,
4.076,4.132,3.44,
4.108,4.132,3.32,
4.068,4.164,3.44,
4.108,4.164,3.36,
4.076,4.132,3.44,
4.108,4.132,3.36,
4.068,4.196,3.44,
4.108,4.188,3.36,
4.068,4.164,3.44,
4.076,4.188,3.44,
4.108,4.164,3.36,
4.068,4.188,3.36,
4.164,4.124,3.44,
4.156,4.132,3.44,
4.124,4.156,3.36,
4.156,4.156,3.44,
4.124,4.132,3.32,
4.156,4.164,3.44,
4.068,4.14,3.32,
4.1,4.132,3.44,
4.076,4.156,3.36,
4.108,4.156,3.44,
4.068,4.14,3.32,
4.076,4.132,3.44,
4.108,4.164,3.36,
4.108,4.156,3.36,
4.076,4.132,3.44,
4.076,4.132,3.36,
4.108,4.164,3.44,
4.108,4.156,3.44,
4.076,4.132,3.32,
4.108,4.14,3.36,
4.076,4.196,3.44,
4.108,4.172,3.36,
4.068,4.196,3.44,
4.076,4.188,3.44,
4.108,4.164,3.32,
4.084,4.188,3.44,
4.164,4.132,3.36,
4.132,4.156,3.36,
4.164,4.132,3.44,
4.132,4.164,3.44,
4.156,4.132,3.32,
4.156,4.14,3.44,
4.068,4.164,3.36,
4.076,4.164,3.36,
4.108,4.14,3.44,
4.108,4.164,3.36,
4.076,4.132,3.44,
4.076,4.148,3.44,
4.108,4.164,3.32,
4.108,4.148,3.44,
4.084,4.164,3.36,
4.108,4.164,3.44,
4.076,4.132,3.36,
4.108,4.132,3.44,
4.084,4.164,3.32,
4.092,4.148,3.36,
4.108,4.196,3.44,
4.076,4.188,3.36,
4.108,4.164,3.44,
4.108,4.188,3.44,
4.068,4.156,3.36,
4.084,4.18,3.36,
4.164,4.132,3.44,
4.132,4.156,3.36,
4.156,4.132,3.44,
4.156,4.132,3.44,
4.116,4.164,3.36,
4.14,4.132,3.44,
4.076,4.156,3.32,
4.076,4.164,3.36,
4.108,4.132,3.44,
4.076,4.164,3.36,
4.108,4.132,3.44,
4.108,4.132,3.36,
4.068,4.156,3.44,
4.076,4.132,3.36,
4.108,4.164,3.44,
4.076,4.132,3.36,
4.108,4.164,3.44,
4.108,4.132,3.36,
4.068,4.196,3.44,
4.108,4.172,3.44,
4.068,4.196,3.32,
4.108,4.188,3.36,
4.068,4.172,3.44,
4.084,4.188,3.36,
4.148,4.132,3.44,
4.164,4.124,3.36,
4.132,4.156,3.44,
4.132,4.132,3.36,
4.156,4.164,3.44,
4.156,4.132,3.44,
4.084,4.156,3.36,
4.092,4.132,3.44,
4.06,4.164,3.36,
4.076,4.164,3.44,
4.1,4.132,3.36,
4.068,4.164,3.44,
4.108,4.132,3.36,
4.068,4.132,3.44,
4.108,4.164,3.36,
4.108,4.132,3.36,
4.068,4.164,3.44,
4.108,4.164,3.32,
4.068,4.132,3.44,
4.076,4.132,3.44,
4.108,4.196,3.36,
4.076,4.196,3.44,
4.108,4.164,3.36,
4.108,4.188,3.36,
4.076,4.164,3.44,
4.076,4.188,3.36,
4.164,4.132,3.44,
4.164,4.132,3.36,
4.124,4.156,3.44,
4.132,4.156,3.44,
4.156,4.132,3.36,
4.156,4.164,3.36,
4.068,4.132,3.44,
4.068,4.132,3.44,
4.1,4.164,3.32,
4.076,4.14,3.44,
4.1,4.164,3.32,
4.108,4.156,3.36,
4.068,4.132,3.44,
4.108,4.164,3.44,
4.076,4.132,3.36,
4.076,4.164,3.44,
4.108,4.14,3.36,
4.108,4.132,3.36,
4.076,4.164,3.44,
4.108,4.14,3.44,
4.068,4.196,3.36,
4.108,4.188,3.36,
4.076,4.172,3.44,
4.076,4.188,3.44,
4.108,4.164,3.32,
4.076,4.188,3.44,
4.164,4.132,3.32,
4.132,4.132,3.36,
4.156,4.156,3.44,
4.156,4.132,3.44,
4.124,4.164,3.32,
4.156,4.164,3.36,
4.068,4.132,3.44,
4.076,4.164,3.36,
4.1,4.14,3.44,
4.068,4.14,3.36,
4.1,4.164,3.44,
4.076,4.132,3.44,
4.108,4.164,3.36,
4.076,4.156,3.36,
4.108,4.132,3.44,
4.108,4.156,3.36,
4.076,4.132,3.44,
4.076,4.132,3.44,
4.108,4.164,3.32,
4.076,4.14,3.36,
4.1,4.196,3.44,
4.108,4.172,3.44,
4.068,4.188,3.36,
4.076,4.188,3.44,
4.108,4.164,3.32,
4.084,4.188,3.36,
4.164,4.124,3.44,
4.132,4.132,3.44,
4.156,4.156,3.36,
4.124,4.132,3.44,
4.156,4.156,3.36,
4.148,4.132,3.36,
4.068,4.164,3.44,
4.076,4.132,3.44,
4.1,4.164,3.32,
4.076,4.156,3.36,
4.108,4.132,3.44,
4.076,4.164,3.36,
4.108,4.132,3.44,
4.108,4.164,3.32,
4.076,4.132,3.44,
4.1,4.132,3.36,
4.076,4.164,3.44,
4.108,4.156,3.36,
4.076,4.132,3.44,
4.108,4.148,3.44,
4.076,4.196,3.36,
4.076,4.172,3.36,
4.108,4.188,3.44,
4.076,4.172,3.44,
4.108,4.188,3.36,
4.076,4.18,3.36,
4.164,4.132,3.44,
4.132,4.132,3.44,
4.156,4.156,3.32,
4.156,4.156,3.44,
4.124,4.132,3.36,
4.14,4.164,3.36,
4.068,4.132,3.44,
4.1,4.164,3.44,
4.068,4.132,3.32,
4.076,4.132,3.44,
4.108,4.164,3.36,
4.076,4.132,3.44,
4.108,4.164,3.36,
4.108,4.156,3.44,
4.068,4.132,3.32,
4.076,4.164,3.36,
4.108,4.132,3.44,
4.076,4.132,3.36,
4.108,4.196,3.44,
4.068,4.196,3.36,
4.108,4.172,3.44,
4.108,4.188,3.36,
4.068,4.164,3.44,
4.068,4.188,3.44,
4.164,4.132,3.36,
4.164,4.124,3.44,
4.132,4.156,3.36,
4.156,4.132,3.44,
4.132,4.156,3.32,
4.156,4.164,3.36,
4.076,4.132,3.44,
4.068,4.164,3.36,
4.1,4.132,3.44,
4.068,4.132,3.44,
4.1,4.164,3.36,
4.076,4.132,3.36,
4.108,4.164,3.44,
4.076,4.132,3.44,
4.108,4.164,3.32,
4.076,4.164,3.44,
4.108,4.132,3.36,
4.108,4.132,3.44,
4.068,4.164,3.32,
4.108,4.14,3.36,
4.076,4.196,3.44,
4.108,4.18,3.36,
4.076,4.196,3.44,
4.068,4.188,3.44,
4.108,4.156,3.36,
4.076,4.188,3.44,
4.164,4.132,3.32,
4.164,4.132,3.36,
4.14,4.164,3.44,
4.164,4.164,3.36,
4.124,4.132,3.44,
4.164,4.164,3.36,
4.076,4.14,3.44,
4.068,4.148,3.44,
4.108,4.164,3.36,
4.108,4.148,3.36,
4.076,4.164,3.44,
4.108,4.164,3.44,
4.084,4.132,3.32,
4.108,4.156,3.44,
4.076,4.132,3.36,
4.108,4.164,3.44,
4.084,4.132,3.32,
4.108,4.164,3.44,
4.076,4.132,3.32,
4.076,4.148,3.44,
4.108,4.196,3.32,
4.108,4.196,3.32,
4.068,4.172,3.44,
4.108,4.188,3.44,
4.076,4.164,3.36,
4.076,4.188,3.44,
4.164,4.124,3.36,
4.124,4.132,3.44,
4.156,4.156,3.36,
4.156,4.132,3.44,
4.124,4.156,3.36,
4.156,4.132,3.36,
4.06,4.164,3.44,
4.076,4.132,3.44,
4.1,4.164,3.32,
4.076,4.164,3.36,
4.108,4.132,3.44,
4.076,4.156,3.36,
4.108,4.132,3.44,
4.06,4.164,3.32,
4.108,4.132,3.44,
4.108,4.132,3.44,
4.076,4.164,3.36,
4.076,4.132,3.44,
4.108,4.164,3.36,
4.076,4.132,3.36,
4.108,4.196,3.44,
4.076,4.188,3.44,
4.108,4.164,3.32,
4.076,4.188,3.44,
4.108,4.164,3.32,
4.084,4.188,3.44,
4.164,4.124,3.32,
4.156,4.132,3.36,
4.124,4.156,3.44,
4.132,4.156,3.36,
4.156,4.132,3.44,
4.156,4.156,3.44,
4.068,4.132,3.36,
4.076,4.132,3.44,
4.1,4.156,3.36,
4.1,4.132,3.44,
4.068,4.164,3.36,
4.068,4.164,3.36,
4.108,4.132,3.44,
4.076,4.156,3.44,
4.108,4.132,3.32,
4.076,4.132,3.44,
4.108,4.164,3.32,
4.076,4.164,3.36,
4.108,4.132,3.44,
4.1,4.132,3.36,
4.076,4.196,3.44,
4.076,4.172,3.44,
4.108,4.188,3.32,
4.076,4.188,3.44,
4.108,4.156,0.12,
4.084,4.172,0.16,
4.164,4.124,0.04,
4.132,4.124,0.04,
4.156,4.156,0.16,
4.132,4.156,0.04,
4.156,4.132,0.16,
4.14,4.156,0.04,
4.06,4.124,0.16,
4.076,4.132,0.04,
4.1,4.164,0.16,
4.1,4.164,0.04,
4.076,4.132,0.16,
4.06,4.164,0.16,
4.108,4.132,0.04,
4.1,4.14,0.04,
4.068,4.164,0.16,
4.076,4.132,0.04,
4.108,4.164,0.12,
4.076,4.132,0.04,
4.108,4.196,0.16,
4.068,4.196,0.16,
4.108,4.164,0.04,
4.076,4.188,0.04,
4.108,4.164,0.16,
4.076,4.188,0.04,
4.164,4.132,0.16,
4.164,4.132,0.04,
4.132,4.156,0.16,
4.132,4.156,0.04,
4.156,4.132,0.16,
4.156,4.132,0.04,
4.076,4.156,0.16,
4.068,4.164,0.04,
4.1,4.132,0.16,
4.1,4.132,0.04,
4.068,4.164,0.16,
4.076,4.164,0.16,
4.108,4.132,0.04,
4.076,4.164,0.04,
4.108,4.14,0.16,
4.068,4.164,0.04,
4.108,4.124,0.16,
4.108,4.164,0.04,
4.068,4.116,0.16,
4.108,4.164,0.04,
4.068,4.132,0.16,
4.108,4.132,0.04,
4.068,4.164,0.16,
4.108,4.132,0.16,
4.044,4.188,0.04,
4.108,4.196,0.16,
4.068,4.124,0.04,
4.068,4.132,0.04,
4.108,4.164,0.16,
4.076,4.132,0.04,
4.156,4.164,0.16,
4.164,4.164,0.16,
4.068,4.124,0.04,
4.068,4.164,0.12,
4.108,4.132,0.04,
4.076,4.156,0.04,
4.108,4.132,0.16,
4.1,4.164,0.04,
4.068,4.132,0.16,
4.108,4.164,0.16,
4.068,4.132,0.04,
4.076,4.164,0.04,
4.108,4.132,0.16,
4.076,4.164,0.04,
4.108,4.14,0.16,
4.108,4.164,0.04,
4.068,4.132,0.16,
4.108,4.164,0.04,
4.076,4.14,0.16,
4.108,4.132,0.12,
4.076,4.164,0.04,
4.076,4.164,0.16,
4.108,4.132,0.04,
4.108,4.164,0.04,
4.076,4.132,0.16,
4.076,4.164,0.12,
4.108,4.124,0.04,
4.108,4.164,0.12,
4.068,4.132,0.04,
4.108,4.164,0.04,
4.076,4.132,0.16,
4.108,4.156,0.04,
4.06,4.132,0.16,
4.108,4.156,0.04,
4.076,4.132,0.16,
4.076,4.164,0.04,
4.108,4.132,0.16,
4.076,4.164,0.04,
4.108,4.132,0.16,
4.108,4.132,0.04,
4.076,4.164,0.16,
4.108,4.156,0.04,
4.076,4.132,0.16,
4.076,4.164,0.04,
4.108,4.132,0.16,
4.076,4.164,0.04,
4.108,4.132,0.16,
4.108,4.132,0.12,
4.076,4.164,0.04,
4.108,4.164,0.16,
4.076,4.14,0.04,
4.108,4.164,0.16,
4.076,4.132,0.04,
4.076,4.164,0.04,
4.108,4.132,0.16,
4.108,4.164,0.04,
4.076,4.132,0.16,
4.076,4.164,0.04,
4.108,4.132,0.16,
4.108,4.14,0.12,
4.068,4.164,0.04,
4.076,4.164,0.04,
4.108,4.132,0.16,
4.108,4.164,0.16,
4.076,4.132,0.04,
4.076,4.164,0.16,
4.108,4.132,0.04,
4.108,4.164,0.04,
4.084,4.132,0.16,
4.108,4.148,0.04,
4.092,4.164,0.16,
4.108,4.164,0.04,
4.068,4.132,0.16,
4.108,4.148,0.04,
4.076,4.164,0.16,
4.108,4.164,0.12,
4.076,4.14,0.04,
4.108,4.148,0.16,
4.084,4.164,0.04,
4.108,4.164,0.12,
4.084,4.132,0.04,
4.108,4.132,0.12,
4.076,4.156,0.04,
4.108,4.164,0.16,
4.084,4.132,0.04,
4.108,4.164,0.04,
4.076,4.132,0.16,
4.076,4.132,0.04,
4.108,4.164,0.16,
4.068,4.164,0.04,
4.108,4.14,0.16,
4.108,4.14,0.04,
4.076,4.196,0.16,
4.108,4.196,0.04,
4.068,4.172,0.16,
