Power Payload/Metingen 2/Payload 1 190.csv

CH1,CH2,CH3,Start,Increment,
Volt,Volt,Volt,-5.995,0.01
4.108,4.164,0.12,
4.076,4.148,0.04,
4.076,4.164,0.16,
4.108,4.132,0.04,
4.108,4.164,0.16,
4.076,4.14,0.04,
4.108,4.164,0.16,
4.076,4.14,0.04,
4.108,4.148,0.04,
4.068,4.164,0.16,
4.108,4.164,0.04,
4.076,4.148,0.16,
4.108,4.164,0.04,
4.076,4.148,0.16,
4.108,4.148,0.16,
4.076,4.164,0.04,
4.108,4.164,0.04,
4.084,4.132,0.16,
4.108,4.164,0.04,
4.076,4.148,0.16,
4.108,4.164,0.04,
4.076,4.148,0.16,
4.108,4.164,0.04,
4.076,4.148,0.16,
4.108,4.164,0.12,
4.076,4.148,0.04,
4.076,4.148,0.12,
4.116,4.164,0.04,
4.116,4.164,0.04,
4.092,4.148,0.16,
4.084,4.164,0.04,
4.116,4.132,0.12,
4.116,4.164,0.04,
4.076,4.148,0.16,
4.116,4.14,0.04,
4.068,4.172,0.12,
4.076,4.164,0.16,
4.116,4.148,0.04,
4.116,4.164,0.16,
4.084,4.148,0.04,
4.116,4.164,0.04,
4.076,4.148,0.16,
4.116,4.164,0.04,
4.092,4.132,0.16,
4.092,4.148,0.04,
4.116,4.164,0.16,
4.116,4.164,0.04,
4.076,4.148,0.16,
4.108,4.164,0.12,
4.076,4.148,0.04,
4.108,4.164,0.16,
4.076,4.148,0.04,
4.108,4.164,0.16,
4.076,4.14,0.04,
4.108,4.164,0.16,
4.076,4.148,0.04,
4.108,4.164,0.04,
4.068,4.14,0.16,
4.108,4.164,0.04,
4.076,4.148,0.16,
4.108,4.164,0.04,
4.084,4.148,0.16,
4.108,4.164,0.04,
4.076,4.148,0.16,
4.108,4.148,0.04,
4.084,4.164,0.16,
4.108,4.164,0.04,
4.076,4.148,0.12,
4.108,4.164,0.04,
4.076,4.148,0.16,
4.108,4.164,0.16,
4.076,4.14,0.04,
4.108,4.164,0.04,
4.076,4.14,0.16,
4.108,4.164,0.16,
4.068,4.132,0.04,
4.108,4.164,0.04,
4.068,4.132,0.16,
4.108,4.164,0.04,
4.076,4.148,0.16,
4.108,4.164,0.04,
4.076,4.148,0.16,
4.108,4.164,0.04,
4.084,4.132,0.12,
4.108,4.164,0.04,
4.084,4.132,0.16,
4.108,4.164,0.12,
4.06,4.14,0.04,
4.108,4.164,0.16,
4.068,4.14,0.04,
4.108,4.164,0.04,
4.076,4.148,0.16,
4.108,4.164,0.04,
4.076,4.148,0.16,
4.108,4.164,0.04,
4.076,4.14,0.16,
4.108,4.164,0.04,
4.076,4.14,0.16,
4.108,4.14,0.04,
4.076,4.164,0.16,
4.108,4.164,0.04,
4.076,4.148,0.16,
4.108,4.164,0.12,
4.076,4.14,0.04,
4.108,4.164,0.16,
4.084,4.132,0.04,
4.108,4.164,0.04,
4.076,4.14,0.16,
4.108,4.164,0.04,
4.076,4.148,0.16,
4.108,4.164,0.04,
4.076,4.132,0.16,
4.108,4.164,0.12,
4.076,4.132,0.04,
4.108,4.164,0.04,
4.068,4.148,0.16,
4.108,4.164,0.04,
4.076,4.14,0.16,
4.108,4.148,0.04,
4.076,4.164,0.16,
4.108,4.164,0.16,
4.068,4.148,0.04,
4.108,4.164,0.16,
4.084,4.132,0.04,
4.108,4.164,0.04,
4.084,4.148,0.16,
4.108,4.164,0.04,
4.068,4.14,0.12,
4.108,4.164,0.04,
4.076,4.148,0.16,
4.108,4.148,0.12,
4.076,4.164,0.04,
4.108,4.164,0.16,
4.076,4.14,0.04,
4.108,4.164,0.04,
4.076,4.132,0.16,
4.108,4.164,0.16,
4.076,4.14,0.04,
4.108,4.148,0.16,
4.084,4.164,0.04,
4.108,4.164,0.04,
4.068,4.148,0.16,
4.108,4.148,0.04,
4.076,4.164,0.16,
4.108,4.164,0.04,
4.076,4.14,0.16,
4.108,4.148,0.04,
4.076,4.164,0.16,
4.108,4.164,0.16,
4.076,4.14,0.04,
4.076,4.164,0.04,
4.108,4.132,0.16,
4.108,4.164,0.16,
4.084,4.132,0.04,
4.108,4.164,0.04,
4.068,4.148,0.16,
4.108,4.164,0.12,
4.076,4.148,0.04,
4.108,4.164,0.04,
4.084,4.148,0.16,
4.108,4.148,0.04,
4.076,4.164,0.16,
4.108,4.164,0.04,
4.084,4.132,0.16,
4.108,4.164,0.04,
4.076,4.148,0.16,
4.108,4.164,0.04,
4.076,4.132,0.16,
4.108,4.164,0.04,
4.076,4.148,0.16,
4.108,4.164,0.04,
4.068,4.148,0.16,
4.108,4.164,0.16,
4.076,4.148,0.04,
4.108,4.164,0.04,
4.084,4.148,0.16,
4.108,4.164,0.16,
4.084,4.14,0.04,
4.084,4.164,0.04,
4.116,4.148,0.16,
4.108,4.164,0.04,
4.084,4.132,0.12,
4.108,4.164,0.04,
4.084,4.14,0.12,
4.108,4.164,0.04,
4.076,4.14,0.12,
4.108,4.164,0.04,
4.076,4.148,0.16,
4.108,4.164,0.16,
4.076,4.148,0.04,
4.108,4.148,0.12,
4.076,4.164,0.04,
4.108,4.164,0.04,
4.084,4.148,0.16,
4.108,4.164,0.12,
4.068,4.14,0.04,
4.108,4.164,0.04,
4.076,4.14,0.16,
4.108,4.164,0.16,
4.076,4.148,0.04,
4.108,4.164,0.04,
4.068,4.14,0.16,
4.108,4.132,0.04,
4.084,4.164,0.16,
4.108,4.164,0.04,
4.068,4.148,0.16,
4.108,4.148,0.04,
4.068,4.164,0.16,
4.108,4.164,0.04,
4.076,4.148,0.16,
4.108,4.148,0.04,
4.084,4.164,0.16,
4.108,4.164,0.12,
4.076,4.132,0.04,
4.108,4.164,0.08,
4.076,4.148,3.44,
4.108,4.164,3.44,
4.076,4.148,3.32,
4.108,4.164,3.36,
4.092,4.132,3.44,
4.108,4.164,3.44,
4.084,4.148,3.32,
4.108,4.164,3.36,
4.084,4.132,3.44,
4.108,4.164,3.44,
4.076,4.148,3.36,
4.068,4.172,3.44,
4.116,4.148,3.32,
4.116,4.164,3.44,
4.092,4.132,3.32,
4.116,4.164,3.36,
4.092,4.14,3.44,
4.068,4.148,3.36,
4.116,4.164,3.44,
4.116,4.164,3.44,
4.084,4.14,3.32,
4.084,4.148,3.44,
4.116,4.164,3.32,
4.076,4.148,3.36,
4.116,4.172,3.44,
4.108,4.164,3.44,
4.084,4.148,3.36,
4.092,4.164,3.36,
4.116,4.148,3.44,
4.084,4.148,3.36,
4.116,4.164,3.44,
4.116,4.164,3.36,
4.084,4.148,3.44,
4.108,4.164,3.44,
4.076,4.148,3.32,
4.108,4.148,3.36,
4.076,4.164,3.44,
4.076,4.164,3.36,
4.108,4.132,3.44,
4.108,4.164,3.44,
4.076,4.148,3.32,
4.108,4.164,3.44,
4.068,4.14,3.36,
4.108,4.164,3.36,
4.084,4.14,3.44,
4.108,4.164,3.36,
4.076,4.148,3.44,
4.108,4.164,3.44,
4.084,4.148,3.32,
4.108,4.164,3.44,
4.084,4.148,3.36,
4.108,4.164,3.44,
4.076,4.148,3.36,
4.108,4.164,3.44,
4.084,4.148,3.32,
4.108,4.164,3.44,
4.076,4.132,3.36,
4.108,4.164,3.36,
4.076,4.132,3.44,
4.108,4.164,3.36,
4.068,4.148,3.44,
4.108,4.164,3.32,
4.076,4.132,3.44,
4.108,4.164,3.36,
4.084,4.148,3.44,
4.108,4.164,3.44,
4.076,4.14,3.36,
4.108,4.164,3.36,
4.084,4.14,3.44,
4.108,4.164,3.36,
4.084,4.148,3.44,
4.108,4.164,3.44,
4.076,4.148,3.32,
4.108,4.164,3.44,
4.084,4.148,3.32,
4.108,4.164,3.44,
4.076,4.132,3.36,
4.108,4.148,3.44,
4.076,4.164,3.36,
4.108,4.164,3.36,
4.076,4.124,3.44,
4.108,4.164,3.44,
4.076,4.148,3.32,
4.108,4.164,3.44,
4.044,4.148,3.36,
4.108,4.164,3.44,
4.076,4.148,3.36,
4.108,4.164,3.44,
4.084,4.132,3.36,
4.108,4.164,3.36,
4.092,4.14,3.44,
4.108,4.164,3.36,
4.076,4.148,3.44,
4.108,4.164,3.36,
4.092,4.148,3.44,
4.108,4.164,3.36,
4.076,4.132,3.44,
4.108,4.164,3.36,
4.076,4.132,3.44,
4.108,4.164,3.44,
4.068,4.148,3.36,
4.108,4.148,3.36,
4.084,4.164,3.44,
4.108,4.164,3.36,
4.076,4.148,3.44,
4.108,4.164,3.44,
4.084,4.148,3.32,
4.108,4.164,3.44,
4.084,4.14,3.36,
4.108,4.164,3.36,
4.092,4.148,3.44,
4.108,4.164,3.36,
4.068,4.14,3.44,
4.108,4.164,3.36,
4.076,4.148,3.44,
4.108,4.164,3.44,
4.084,4.14,3.32,
4.108,4.148,3.36,
4.076,4.164,3.44,
4.108,4.164,3.36,
4.076,4.148,3.44,
4.108,4.164,3.36,
4.084,4.148,3.44,
4.108,4.164,3.44,
4.084,4.132,3.36,
4.108,4.164,3.44,
4.076,4.148,3.36,
4.108,4.164,3.44,
4.068,4.148,3.36,
4.108,4.164,3.36,
4.076,4.148,3.44,
4.108,4.164,3.44,
4.092,4.148,3.36,
4.092,4.116,3.44,
4.108,4.172,3.36,
4.108,4.164,3.44,
4.084,4.148,3.36,
4.036,4.164,3.44,
4.116,4.132,3.36,
4.108,4.148,3.44,
4.068,4.164,3.36,
4.108,4.164,3.44,
4.068,4.116,3.32,
4.108,4.164,3.32,
4.076,4.148,3.44,
4.108,4.164,3.36,
4.036,4.148,3.44,
4.108,4.164,3.44,
4.084,4.124,3.36,
4.108,4.148,3.44,
4.076,4.164,3.32,
4.108,4.164,3.36,
4.06,4.14,3.44,
4.108,4.164,3.36,
4.084,4.148,3.44,
4.108,4.164,3.36,
4.076,4.148,3.44,
4.108,4.164,3.44,
4.084,4.14,3.36,
4.108,4.148,3.36,
4.076,4.164,3.44,
4.108,4.164,3.36,
4.068,4.148,3.44,
4.108,4.164,3.32,
4.076,4.132,3.44,
4.108,4.164,3.36,
4.076,4.132,3.44,
4.108,4.164,3.36,
4.084,4.132,3.44,
4.108,4.148,3.44,
4.068,4.164,3.32,
4.108,4.164,3.44,
4.06,4.14,3.32,
4.108,4.164,3.44,
4.076,4.148,3.32,
4.076,4.164,3.36,
4.108,4.14,3.44,
4.108,4.164,3.36,
4.076,4.148,3.44,
4.108,4.164,3.36,
4.068,4.148,3.44,
4.108,4.164,3.36,
4.076,4.148,3.44,
4.084,4.164,3.44,
4.108,4.148,3.36,
4.108,4.164,3.44,
4.084,4.148,3.32,
4.108,4.164,3.44,
4.076,4.108,3.36,
4.092,4.124,3.36,
4.108,4.164,3.44,
4.108,4.164,3.44,
4.036,4.148,3.32,
4.06,4.164,3.36,
4.108,4.148,3.44,
4.108,4.164,3.36,
4.068,4.132,3.44,
4.108,4.164,3.44,
4.092,4.124,3.32,
4.108,4.164,3.36,
4.084,4.148,3.44,
4.108,4.164,3.44,
4.044,4.116,3.36,
4.108,4.164,3.44,
4.076,4.148,3.32,
4.108,4.148,3.44,
4.036,4.164,3.36,
4.108,4.132,3.36,
4.084,4.172,3.44,
4.108,4.164,3.36,
4.076,4.148,3.44,
4.068,4.164,3.4,
4.116,4.148,3.48,
4.116,4.164,3.4,
4.092,4.148,3.48,
4.116,4.196,3.4,
4.084,3.42,3.44,
4.116,3.516,3.4,
4.092,3.604,3.44,
4.164,3.596,3.4,
2.924,3.636,3.48,
3.012,3.62,3.4,
3.108,3.644,3.44,
3.092,3.628,3.4,
3.14,3.652,3.48,
3.124,3.628,3.4,
3.156,3.652,3.48,
3.14,3.628,3.44,
3.156,3.66,3.36,
3.14,3.644,3.36,
3.164,3.66,3.44,
3.14,3.66,3.44,
3.164,3.628,3.32,
3.164,3.644,3.32,
3.14,4.372,3.44,
3.164,4.276,3.44,
3.14,4.188,3.36,
3.148,4.196,3.44,
4.332,4.164,3.32,
4.228,4.156,3.36,
4.132,4.212,3.44,
4.156,4.196,3.36,
4.108,4.14,3.44,
4.092,4.148,3.44,
4.172,4.196,3.36,
4.172,4.196,3.4,
4.084,4.18,3.48,
4.076,4.188,3.4,
4.164,4.132,3.44,
4.164,4.196,3.4,
4.14,3.412,3.48,
4.156,3.452,3.44,
4.076,3.588,3.32,
4.164,3.572,3.36,
2.908,3.636,3.44,
2.948,3.596,3.44,
3.092,3.644,3.36,
3.06,3.628,3.36,
3.148,4.356,3.44,
3.084,4.228,3.44,
3.172,4.172,3.36,
3.14,4.156,3.36,
4.3,4.22,3.44,
4.172,4.196,3.36,
4.116,3.436,3.44,
4.1,3.508,3.44,
4.188,4.244,3.32,
4.164,4.196,3.44,
2.956,4.164,3.32,
3.028,4.172,3.36,
4.188,4.148,3.44,
4.14,4.172,3.36,
4.1,4.148,3.44,
4.116,4.148,3.44,
4.084,4.196,3.32,
4.116,4.196,3.36,
4.092,4.14,3.44,
4.092,4.196,3.36,
4.164,3.42,3.44,
4.172,3.476,3.44,
4.084,4.204,3.32,
4.164,4.212,3.44,
2.94,4.148,3.36,
2.98,4.132,3.36,
4.156,4.196,3.44,
4.172,3.42,3.44,
4.092,4.196,3.36,
4.068,4.148,3.44,
4.164,4.212,3.36,
2.916,4.196,3.44,
4.148,3.444,3.32,
4.092,3.516,3.44,
4.172,4.244,3.32,
4.164,4.196,3.44,
2.972,4.156,3.32,
3.036,4.172,3.36,
4.188,4.148,3.44,
4.14,4.172,3.36,
4.1,4.148,3.44,
4.116,4.164,3.44,
4.076,4.148,3.32,
4.116,4.164,3.36,
4.084,4.148,3.44,
4.084,4.164,3.44,
4.116,4.148,3.36,
4.116,4.164,3.44,
4.084,4.148,3.32,
4.116,4.164,3.44,
4.092,4.148,3.32,
4.116,4.164,3.44,
4.092,4.124,3.36,
4.116,4.1,3.44,
4.076,4.172,3.36,
4.108,4.172,3.44,
4.044,4.076,3.32,
4.02,4.1,3.44,
4.116,4.22,3.32,
4.116,4.204,3.36,
3.996,4.188,3.44,
4.028,4.18,3.44,
4.196,4.204,3.32,
4.18,4.204,3.32,
4.156,4.18,3.44,
4.172,4.196,3.36,
4.148,4.18,3.44,
4.18,4.18,3.36,
4.156,4.196,3.44,
4.156,4.196,3.36,
4.172,4.18,3.44,
4.172,4.18,3.44,
4.156,4.196,3.36,
4.172,4.18,3.44,
4.156,4.196,3.36,
4.156,4.18,3.44,
4.172,4.196,3.32,
4.172,4.196,3.36,
4.156,4.18,3.44,
4.148,4.196,3.36,
4.172,4.18,3.44,
4.172,4.196,3.36,
4.148,4.18,3.44,
4.172,4.18,3.44,
4.156,4.196,3.36,
4.172,4.196,3.36,
4.148,4.18,3.44,
4.148,4.196,3.36,
4.164,4.18,3.44,
4.156,4.196,3.44,
4.172,4.18,3.32,
4.156,4.196,3.36,
4.172,4.18,3.44,
4.172,4.196,3.44,
4.148,4.18,3.36,
4.156,4.18,3.36,
4.172,4.196,3.44,
4.172,4.196,3.44,
4.148,4.18,3.32,
4.156,4.196,3.36,
4.172,4.18,3.44,
4.148,4.196,3.44,
4.172,4.18,3.36,
4.156,4.196,3.44,
4.172,4.108,3.32,
4.172,4.164,3.36,
4.148,4.132,3.44,
4.164,4.124,3.36,
4.052,4.172,3.44,
4.076,4.164,3.36,
4.116,4.148,3.44,
4.06,4.164,3.44,
4.132,4.148,3.32,
4.116,4.164,3.44,
4.076,4.148,3.32,
4.116,4.148,3.44,
4.092,4.164,3.32,
4.116,4.148,3.44,
4.092,4.164,3.32,
4.116,4.164,3.36,
4.092,4.148,3.44,
4.092,4.164,3.44,
4.116,4.148,3.36,
4.092,4.164,3.44,
4.116,4.148,3.32,
4.092,4.164,3.36,
4.116,4.148,3.44,
4.116,4.164,3.36,
4.092,4.148,3.44,
4.116,4.124,3.44,
4.092,4.172,3.32,
4.092,4.164,3.36,
4.116,4.124,3.44,
4.06,4.164,3.36,
4.124,4.14,3.44,
4.108,4.164,3.36,
4.06,4.132,3.44,
4.116,4.164,3.44,
4.076,4.132,3.32,
4.108,4.1,3.36,
4.052,4.172,3.44,
4.06,4.172,3.36,
4.116,4.116,3.44,
4.036,4.172,3.44,
4.116,4.124,3.32,
4.116,4.172,3.44,
4.036,4.132,3.36,
4.116,4.172,3.44,
4.044,4.148,3.32,
4.116,4.132,3.44,
4.052,4.172,3.32,
4.116,4.172,3.36,
4.076,4.14,3.44,
4.06,4.164,3.32,
4.116,4.14,3.44,
4.116,4.14,3.36,
4.068,4.172,3.44,
4.084,4.14,3.44,
4.116,4.196,3.32,
4.068,4.164,3.44,
4.116,4.148,3.36,
4.084,4.164,3.44,
4.164,4.148,3.36,
4.116,4.164,3.36,
4.092,4.148,3.44,
4.116,4.164,3.36,
4.092,4.148,3.44,
4.1,4.164,3.36,
4.116,4.148,3.44,
4.1,4.164,3.36,
4.116,4.148,3.44,
4.116,4.148,3.32,
4.092,4.164,3.44,
4.116,4.164,3.36,
4.1,4.148,3.44,
4.116,4.164,3.36,
4.092,4.148,3.44,
4.116,4.188,3.44,
4.092,4.092,3.32,
4.116,4.116,3.44,
4.1,4.148,3.36,
4.14,4.124,3.44,
4.02,4.156,3.36,
4.044,4.132,3.36,
4.084,4.156,3.44,
4.084,4.132,3.44,
4.052,4.156,3.32,
4.084,4.156,3.36,
4.068,4.132,3.44,
4.084,4.132,3.36,
4.06,4.156,3.44,
4.068,4.132,3.44,
4.084,4.156,3.32,
4.084,4.132,3.32,
4.06,4.156,3.44,
4.084,4.132,3.44,
4.068,4.156,3.36,
4.084,4.156,3.44,
4.06,4.132,3.32,
4.084,4.132,3.44,
4.052,4.156,3.36,
4.084,4.132,3.36,
4.068,4.156,3.44,
4.084,4.132,3.44,
4.06,4.156,3.36,
4.084,4.132,3.36,
4.06,4.156,3.44,
4.068,4.132,3.36,
4.084,4.156,3.44,
4.06,4.156,3.4,
4.084,4.116,3.48,
4.084,4.156,3.4,
4.06,4.132,3.48,
4.084,4.196,3.4,
4.036,3.428,3.48,
4.084,3.516,3.4,
4.06,3.604,3.44,
4.14,3.588,3.4,
2.94,3.636,3.48,
3.004,3.636,3.4,
3.1,3.612,3.44,
3.084,3.62,3.4,
3.132,3.652,3.44,
3.108,3.628,3.4,
3.14,3.652,3.48,
3.124,3.628,3.44,
3.156,3.652,3.36,
3.156,3.628,3.36,
3.124,3.652,3.44,
3.156,3.644,3.44,
3.124,3.628,3.36,
3.124,3.636,3.44,
3.156,4.372,3.32,
3.14,4.284,3.44,
3.164,4.188,3.36,
3.14,4.172,3.36,
4.332,4.22,3.44,
4.228,4.212,3.36,
4.132,4.18,3.44,
4.116,4.188,3.44,
4.188,4.132,3.32,
4.172,4.148,3.44,
4.148,4.196,3.32,
4.148,4.18,3.36,
4.076,4.196,3.44,
4.084,4.196,3.4,
4.164,4.132,3.44,
4.172,4.172,3.4,
4.132,4.124,3.48,
4.164,4.196,3.44,
4.084,3.412,3.36,
4.14,3.5,3.36,
4.06,3.588,3.44,
4.164,3.572,3.44,
2.908,3.628,3.36,
2.98,3.596,3.36,
3.1,4.356,3.44,
3.06,4.316,3.36,
3.132,4.204,3.44,
3.068,4.22,3.44,
4.3,4.164,3.32,
4.276,4.172,3.36,
4.148,4.148,3.44,
4.164,4.172,3.36,
4.108,4.156,3.44,
4.132,4.148,3.36,
4.092,4.172,3.44,
4.116,4.148,3.36,
4.092,4.172,3.44,
4.116,4.172,3.44,
4.092,4.148,3.36,
4.116,4.164,3.36,
4.092,4.148,3.44,
4.116,4.148,3.44,
4.092,4.172,3.36,
4.092,4.148,3.36,
4.116,4.164,3.44,
4.116,4.148,3.36,
4.092,4.172,3.44,
4.092,4.148,3.44,
4.116,4.172,3.36,
4.116,4.148,3.44,
4.092,4.172,3.32,
4.116,4.148,3.36,
4.092,4.164,3.44,
4.116,4.164,3.44,
4.092,4.148,3.36,
4.092,4.148,3.44,
4.108,4.164,3.36,
4.108,4.164,3.36,
4.092,4.148,3.44,
4.084,4.164,3.44,
4.116,4.148,3.36,
4.108,4.148,3.36,
4.092,4.164,3.44,
4.108,4.164,3.32,
4.084,4.148,3.44,
4.092,4.164,3.36,
4.116,4.148,3.44,
4.108,4.164,3.44,
4.092,4.148,3.36,
4.092,4.164,3.36,
4.116,4.148,3.44,
4.108,4.164,3.36,
4.076,4.148,3.44,
4.108,4.148,3.36,
4.092,4.212,3.44,
4.108,4.196,3.44,
4.076,4.148,3.32,
4.092,4.14,3.36,
4.172,4.164,3.44,
4.164,4.164,3.44,
4.084,4.148,3.36,
4.076,4.164,3.44,
4.116,4.148,3.32,
4.108,4.148,3.36,
4.092,4.164,3.44,
4.108,4.148,3.44,
4.092,4.196,3.36,
4.076,4.18,3.36,
4.116,4.196,3.44,
4.076,4.196,3.44,
4.172,4.148,3.36,
4.164,4.196,3.44,
4.14,4.156,3.36,
4.164,4.132,3.36,
4.1,4.164,3.44,
4.164,3.412,3.36,
4.116,4.204,3.44,
4.108,4.164,3.44,
4.052,4.22,3.36,
2.9,4.196,3.44,
4.156,4.18,3.36,
4.108,4.196,3.36,
4.188,4.132,3.44,
4.164,4.132,3.4,
4.14,4.164,3.44,
4.156,4.132,3.4,
4.076,4.196,3.48,
4.108,4.196,3.4,
4.076,4.02,0.08,
4.068,3.404,0.16,
4.164,3.58,0.04,
4.164,3.564,0.04,
3.892,3.636,0.16,
3.132,3.604,0.04,
2.892,4.34,0.16,
3.06,4.252,0.16,
3.156,4.18,0.04,
3.1,4.188,0.04,
4.284,4.156,0.16,
4.188,4.172,0.12,
4.124,4.148,0.04,
4.132,4.14,0.12,
4.1,4.196,0.04,
4.116,4.196,0.04,
4.084,4.172,0.16,
4.076,4.188,0.04,
4.164,4.164,0.16,
4.14,4.188,0.16,
4.164,4.14,0.04,
4.156,4.14,0.16,
4.132,4.164,0.04,
4.156,4.14,0.16,
4.076,4.164,0.04,
4.076,4.164,0.16,
4.108,4.148,0.04,
4.084,4.132,0.04,
4.108,4.164,0.16,
4.108,4.148,0.04,
4.076,4.164,0.16,
4.108,4.148,0.04,
4.076,4.164,0.16,
4.108,4.164,0.04,
4.084,4.148,0.16,
4.092,4.148,0.12,
4.108,4.164,0.04,
4.108,4.164,0.04,
4.076,4.148,0.16,
4.108,4.148,0.04,
4.076,4.196,0.16,
4.108,4.196,0.12,
4.076,4.172,0.04,
4.092,4.188,0.04,
4.164,4.164,0.16,
4.164,4.188,0.04,
4.132,4.132,0.16,
4.132,4.164,0.16,
4.156,4.132,0.08,
4.156,4.132,0.12,
4.076,4.196,0.04,
4.076,4.188,0.04,
4.108,3.436,0.16,
4.076,3.532,0.04,
4.164,4.3,0.16,
4.156,4.268,0.12,
2.98,4.188,0.04,
3.036,4.188,0.04,
4.244,4.156,0.16,
4.22,4.172,0.16,
4.132,4.148,0.04,
4.14,4.164,0.04,
4.1,4.148,0.16,
4.092,4.148,0.04,
4.116,4.164,0.16,
4.116,4.148,0.04,
4.084,4.196,0.16,
4.108,4.172,0.04,
4.084,4.188,0.16,
4.084,4.188,0.16,
4.164,4.164,0.04,
4.132,4.188,0.04,
4.164,4.132,0.16,
4.156,4.148,0.04,
4.132,4.188,0.16,
4.148,4.196,0.04,
4.076,4.156,0.16,
4.076,4.188,0.12,
4.148,3.452,0.04,
4.164,4.148,0.12,
4.116,4.172,0.04,
4.156,4.164,0.04,
2.996,4.148,0.16,
4.108,4.148,0.04,
4.092,4.164,0.16,
4.108,4.148,0.04,
4.076,4.164,0.16,
4.108,4.164,0.04,
4.076,4.148,0.16,
4.108,4.148,0.16,
4.092,4.196,0.04,
4.108,4.196,0.04,
4.076,4.172,0.16,
4.076,4.196,0.12,
4.164,4.164,0.04,
4.164,4.188,0.04,
4.14,4.148,0.16,
4.132,4.132,0.04,
4.156,4.164,0.12,
4.156,4.132,0.04,
4.092,4.196,0.16,
4.068,4.196,0.04,
4.108,4.14,0.16,
4.076,4.132,0.04,
4.164,4.164,0.16,
4.164,4.148,0.04,
4.076,4.164,0.16,
4.076,4.132,0.16,
4.108,4.196,0.04,
4.108,4.172,0.04,
4.076,4.196,0.12,
4.068,4.172,0.04,
4.164,4.196,0.16,
4.132,4.188,0.04,
4.156,4.172,0.16,
4.132,4.172,0.04,
4.156,4.188,0.16,
4.132,4.188,0.04,
4.156,4.164,0.16,
4.124,4.188,0.04,
4.156,4.132,0.16,
4.156,4.196,0.04,
4.124,3.404,0.16,
4.148,4.212,0.16,
4.068,4.156,0.04,
4.164,4.156,0.04,
2.924,4.204,0.16,
4.156,4.196,0.04,
4.1,4.004,0.16,
4.092,3.452,0.16,
4.172,4.18,0.04,
4.164,4.172,0.04,
3.828,4.148,0.16,
2.988,4.148,0.12,
4.124,4.164,0.04,
4.116,4.164,0.04,
4.092,4.148,0.16,
4.092,4.164,0.04,
4.116,4.148,0.16,
4.108,4.164,0.16,
4.092,4.148,0.04,
4.076,4.148,0.16,
4.116,4.196,0.04,
4.092,4.196,0.12,
4.116,4.172,0.04,
4.092,4.172,0.04,
4.172,4.188,0.16,
4.164,4.188,0.04,
4.132,4.132,0.16,
4.132,4.132,0.04,
4.156,4.164,0.16,
4.156,4.148,0.04,
4.076,4.164,0.16,
4.076,4.148,0.16,
4.108,4.164,0.04,
4.108,4.148,0.04,
4.076,4.164,0.12,
4.108,4.164,0.16,
4.076,4.148,0.04,
4.108,4.148,0.12,
4.084,4.164,0.04,
4.108,4.148,0.04,
4.076,4.164,0.16,
4.108,4.148,0.04,
4.084,4.164,0.16,
4.108,4.148,0.04,
4.092,4.164,0.16,
4.108,4.148,0.04,
4.076,4.196,0.16,
4.092,4.196,0.16,
4.108,4.172,0.04,
4.092,4.164,0.04,
4.164,4.196,0.16,
4.164,4.188,0.16,
4.116,4.132,0.04,
4.132,4.132,0.04,
4.156,4.164,0.16,
4.148,4.164,0.04,
4.068,4.132,0.16,
4.076,4.164,0.12,
4.108,4.148,0.04,
4.108,4.148,0.04,
4.084,4.164,0.16,
4.076,4.148,0.04,
4.108,4.164,0.16,
4.076,4.148,0.16,
4.108,4.164,0.04,
4.084,4.14,0.04,
4.108,4.164,0.16,
4.108,4.148,0.12,
4.092,4.164,0.04,
4.076,4.164,0.04,
4.108,4.148,0.16,
4.108,4.148,0.12,
4.076,4.196,0.04,
4.108,4.188,0.04,
4.076,4.172,0.16,
4.084,4.188,0.04,
4.164,4.164,0.16,
4.156,4.188,0.04,
4.132,4.132,0.16,
4.156,4.14,0.04,
4.124,4.164,0.16,
4.156,4.164,0.04,
4.068,4.14,0.12,
4.076,4.148,0.04,
4.108,4.164,0.12,
4.108,4.164,0.16,
4.068,4.14,0.04,
4.108,4.148,0.04,
4.092,4.164,0.16,
4.084,4.148,0.12,
4.108,4.164,0.04,
4.108,4.164,0.04,
4.076,4.148,0.16,
4.108,4.148,0.04,
4.076,4.164,0.16,
4.108,4.148,0.04,
4.076,4.196,0.16,
4.108,4.196,0.16,
4.092,4.18,0.04,
4.076,4.188,0.12,
4.164,4.164,0.04,
4.148,4.188,0.04,
4.164,4.148,0.16,
4.156,4.132,0.16,
4.132,4.164,0.04,
4.156,4.132,0.16,
4.092,4.164,0.04,
4.076,4.148,0.16,
4.108,4.164,0.04,
4.076,4.164,0.04,
4.108,4.148,0.16,
4.108,4.14,0.04,
4.084,4.164,0.16,
4.108,4.148,0.04,
4.084,4.164,0.16,
4.108,4.164,0.12,
4.076,4.14,0.04,
4.108,4.164,0.16,
4.084,4.148,0.04,
4.108,4.148,0.04,
4.076,4.164,0.16,
4.108,4.132,0.12,
4.076,4.196,0.04,
4.108,4.196,0.04,
4.084,4.18,0.16,
4.076,4.188,0.04,
4.164,4.164,0.16,
4.164,4.188,0.12,
4.148,4.132,0.04,
4.156,4.132,0.12,
4.124,4.164,0.04,
4.156,4.164,0.04,
4.076,4.132,0.16,
4.076,4.148,0.04,
4.108,4.164,0.12,
4.108,4.164,0.04,
4.068,4.14,0.12,
4.108,4.164,0.04,
4.092,4.148,0.16,
4.108,4.14,0.04,
4.076,4.164,0.16,
4.108,4.14,0.04,
4.076,4.164,0.16,
4.108,4.164,0.04,
4.076,4.148,0.12,
4.108,4.14,0.04,
4.068,4.164,0.16,
4.108,4.148,0.04,
4.084,4.196,0.16,
4.108,4.196,0.04,
4.068,4.172,0.16,
4.076,4.188,0.16,
4.164,4.164,0.04,
4.164,4.188,0.04,
4.132,4.132,0.16,
4.124,4.132,0.12,
4.156,4.164,0.04,
4.156,4.148,0.16,
4.076,4.164,0.04,
4.108,4.164,0.04,
4.068,4.148,0.16,
4.108,4.164,0.04,
4.076,4.14,0.16,
4.108,4.148,0.12,
4.084,4.164,0.04,
4.108,4.164,0.04,
4.084,4.148,0.16,
4.108,4.148,0.04,
4.092,4.164,0.16,
4.108,4.164,0.12,
4.076,4.14,0.04,
4.108,4.164,0.16,
4.076,4.148,0.04,
4.108,4.148,0.04,
4.076,4.196,0.16,
4.108,4.196,0.04,
4.076,4.172,0.16,
4.092,4.188,0.12,
4.164,4.172,0.04,
4.132,4.188,0.04,
4.164,4.132,0.16,
4.132,4.132,0.12,
4.156,4.164,0.04,
4.156,4.148,0.04,
4.068,4.164,0.16,
