Power Payload/Metingen 2/Payload 1 290.csv

CH1,CH2,CH3,Start,Increment,
Volt,Volt,Volt,-5.995,0.01
4.156,4.148,0.04,
4.132,4.164,0.12,
4.148,4.164,0.16,
4.076,4.132,0.04,
4.108,4.148,0.16,
4.084,4.164,0.04,
4.092,4.148,0.04,
4.108,4.164,0.16,
4.076,4.148,0.04,
4.108,4.164,0.16,
4.092,4.164,0.12,
4.108,4.148,0.04,
4.108,4.148,0.16,
4.076,4.164,0.04,
4.092,4.148,0.04,
4.108,4.196,0.16,
4.108,4.196,0.04,
4.076,4.172,0.16,
4.108,4.172,0.16,
4.076,4.188,0.04,
4.092,4.188,0.04,
4.164,4.156,0.16,
4.164,4.132,0.04,
4.124,4.164,0.12,
4.132,4.148,0.04,
4.156,4.164,0.16,
4.156,4.148,0.16,
4.1,4.164,0.04,
4.108,4.148,0.04,
4.076,4.164,0.16,
4.084,4.164,0.12,
4.108,4.14,0.04,
4.108,4.164,0.16,
4.076,4.14,0.04,
4.092,4.148,0.12,
4.108,4.164,0.04,
4.108,4.148,0.04,
4.068,4.164,0.16,
4.108,4.164,0.16,
4.068,4.148,0.04,
4.092,4.148,0.12,
4.108,4.196,0.04,
4.108,4.196,0.04,
4.076,4.18,0.16,
4.092,4.188,0.12,
4.108,4.172,0.04,
4.092,4.188,0.04,
4.164,4.132,0.16,
4.164,4.132,0.04,
4.132,4.164,0.12,
4.156,4.148,0.16,
4.132,4.164,0.04,
4.156,4.14,0.16,
4.076,4.164,0.04,
4.076,4.148,0.04,
4.108,4.164,0.16,
4.108,4.148,0.04,
4.084,4.172,0.16,
4.108,4.148,0.04,
4.084,4.164,0.16,
4.092,4.148,0.16,
4.108,4.164,0.04,
4.084,4.164,0.12,
4.116,4.148,0.04,
4.084,4.148,0.04,
4.116,4.164,0.16,
4.092,4.148,0.04,
4.116,4.204,0.12,
4.076,4.196,0.16,
4.116,4.18,0.04,
4.092,4.196,0.04,
4.116,4.172,0.16,
4.092,4.196,0.16,
4.172,4.132,0.04,
4.164,4.148,0.04,
4.148,4.164,0.16,
4.164,4.164,0.04,
4.14,4.132,0.16,
4.164,4.148,0.04,
4.076,4.164,0.16,
4.092,4.148,0.04,
4.108,4.164,0.16,
4.108,4.148,0.04,
4.076,4.164,0.16,
4.092,4.148,0.04,
4.108,4.164,0.16,
4.092,4.164,0.16,
4.108,4.14,0.04,
4.108,4.148,0.04,
4.076,4.164,0.16,
4.092,4.164,0.04,
4.108,4.148,0.16,
4.108,4.14,0.04,
4.068,4.196,0.16,
4.108,4.196,0.16,
4.084,4.172,0.04,
4.108,4.188,0.04,
4.076,4.164,0.16,
4.076,4.188,0.16,
4.164,4.132,0.04,
4.164,4.164,0.16,
4.132,4.132,0.04,
4.156,4.148,0.16,
4.124,4.164,0.04,
4.156,4.148,0.16,
4.076,4.164,0.04,
4.068,4.148,0.04,
4.108,4.164,0.16,
4.076,4.164,0.04,
4.108,4.148,0.16,
4.092,4.148,0.04,
4.108,4.164,0.16,
4.108,4.148,0.04,
4.076,4.164,0.16,
4.092,4.164,0.16,
4.108,4.148,0.04,
4.092,4.164,0.04,
4.108,4.14,0.16,
4.084,4.148,0.16,
4.108,4.196,0.04,
4.108,4.196,0.16,
4.084,4.164,0.04,
4.108,4.188,0.04,
4.068,4.172,0.16,
4.092,4.188,0.16,
4.164,4.124,0.04,
4.164,4.092,0.04,
4.132,4.172,0.16,
4.156,4.164,0.16,
4.124,4.148,0.04,
4.156,4.164,0.04,
4.052,4.148,0.16,
4.012,4.164,0.04,
4.116,4.148,0.16,
4.092,4.164,0.16,
4.116,4.148,0.04,
4.116,4.164,0.04,
4.084,4.148,0.16,
4.084,4.164,0.04,
4.116,4.076,0.16,
4.092,4.132,0.12,
4.116,4.22,0.04,
4.092,4.212,0.04,
4.116,4.18,0.16,
4.116,4.196,0.04,
3.988,4.18,0.16,
4.068,4.18,0.04,
4.196,4.196,0.16,
4.172,4.18,0.16,
4.148,4.196,0.04,
4.172,4.18,0.04,
4.156,4.196,0.16,
4.172,4.18,0.04,
4.148,4.196,0.16,
4.156,4.18,0.04,
4.172,4.196,0.16,
4.172,4.18,0.04,
4.148,4.196,0.16,
4.148,4.18,0.04,
4.172,4.196,0.16,
4.156,4.196,0.04,
4.172,4.18,0.16,
4.172,4.18,0.12,
4.148,4.196,0.04,
4.156,4.18,0.04,
4.172,4.196,0.12,
4.172,4.196,0.12,
4.148,4.18,0.04,
4.148,4.18,0.16,
4.172,4.196,0.04,
4.156,4.196,0.04,
4.172,4.18,0.16,
4.148,4.196,0.04,
4.172,4.18,0.16,
4.156,4.18,0.12,
4.172,4.196,0.04,
4.172,4.18,0.12,
4.148,4.196,0.04,
4.156,4.18,0.12,
4.172,4.196,0.04,
4.172,4.18,0.04,
4.156,4.196,0.16,
4.172,4.18,0.12,
4.148,4.196,0.04,
4.156,4.18,0.04,
4.172,4.196,0.16,
4.172,4.18,0.04,
4.148,4.196,0.16,
4.156,4.196,0.16,
4.172,4.18,0.04,
4.156,4.18,0.04,
4.172,4.196,0.16,
4.172,4.18,0.04,
4.148,4.196,0.12,
4.156,4.18,0.12,
4.172,4.196,0.04,
4.172,4.18,0.04,
4.148,4.196,0.16,
4.172,4.196,0.12,
4.148,4.18,0.04,
4.156,4.196,0.04,
4.172,4.18,0.16,
4.172,4.196,0.04,
4.148,4.172,0.16,
4.156,4.18,0.12,
4.172,4.196,0.04,
4.156,4.196,0.16,
4.172,4.18,0.04,
4.172,4.18,0.04,
4.124,4.196,0.16,
4.156,4.196,0.04,
4.172,4.18,0.12,
4.148,4.18,0.04,
4.172,4.196,0.16,
4.156,4.18,0.16,
4.172,4.196,0.04,
4.172,4.18,0.04,
4.148,4.196,0.16,
4.156,4.18,0.04,
4.172,4.196,0.16,
4.156,4.196,0.16,
4.172,4.18,0.04,
4.172,4.196,0.04,
4.148,4.18,0.16,
4.156,4.18,0.12,
4.172,4.196,0.04,
4.172,4.196,0.04,
4.148,4.18,0.16,
4.172,4.18,0.04,
4.148,4.196,0.16,
4.156,4.196,0.16,
4.172,4.18,0.04,
4.172,4.18,0.04,
4.148,4.196,0.16,
4.156,4.196,0.16,
4.172,4.18,0.04,
4.172,4.18,0.16,
4.148,4.196,0.04,
4.156,4.196,0.04,
4.172,4.18,0.16,
4.156,4.18,0.04,
4.172,4.196,0.16,
4.172,4.196,0.12,
4.148,4.18,0.04,
4.156,4.196,0.04,
4.172,4.172,0.16,
4.172,4.18,0.04,
4.148,4.196,0.16,
4.172,4.196,0.16,
4.148,4.18,0.04,
4.172,4.18,0.16,
4.14,4.196,0.04,
4.172,4.18,0.04,
4.148,4.196,0.12,
4.156,4.18,0.04,
4.172,4.196,0.16,
4.172,4.18,0.04,
4.148,4.196,3.44,
4.172,4.196,3.44,
4.148,4.18,3.32,
4.156,4.196,3.36,
4.172,4.172,3.44,
4.172,4.196,3.44,
4.156,4.18,3.32,
4.172,4.196,3.44,
4.156,4.18,3.36,
4.172,4.18,3.36,
4.14,4.196,3.44,
4.172,4.196,3.44,
4.148,4.18,3.36,
4.172,4.196,3.44,
4.156,4.18,3.32,
4.172,4.18,3.44,
4.148,4.196,3.32,
4.172,4.196,3.44,
4.156,4.18,3.32,
4.172,4.196,3.36,
4.148,4.172,3.44,
4.172,4.18,3.44,
4.148,4.196,3.36,
4.172,4.196,3.36,
4.156,4.18,3.44,
4.172,4.18,3.36,
4.132,4.196,3.44,
4.156,4.18,3.44,
4.172,4.196,3.36,
4.172,4.18,3.36,
4.148,4.196,3.44,
4.156,4.18,3.36,
4.172,4.196,3.44,
4.156,4.18,3.36,
4.172,4.196,3.44,
4.172,4.18,3.44,
4.148,4.196,3.32,
4.156,4.18,3.36,
4.172,4.196,3.44,
4.172,4.196,3.36,
4.148,4.18,3.44,
4.172,4.196,3.44,
4.148,4.18,3.32,
4.172,4.18,3.44,
4.148,4.196,3.32,
4.172,4.18,3.36,
4.148,4.196,3.44,
4.172,4.18,3.44,
4.156,4.196,3.32,
4.172,4.18,3.36,
4.148,4.196,3.44,
4.148,4.196,3.36,
4.172,4.18,3.44,
4.156,4.196,3.36,
4.172,4.18,3.44,
4.172,4.18,3.44,
4.148,4.196,3.32,
4.156,4.196,3.44,
4.172,4.18,3.36,
4.172,4.196,3.44,
4.156,4.172,3.32,
4.148,4.156,3.36,
4.172,4.196,3.44,
4.156,4.196,3.36,
4.172,4.18,3.44,
4.172,4.18,3.44,
4.132,4.196,3.36,
4.116,4.196,3.36,
4.172,4.18,3.44,
4.172,4.196,3.44,
4.148,4.18,3.36,
4.172,4.18,3.44,
4.148,4.196,3.36,
4.156,4.196,3.36,
4.172,4.18,3.44,
4.148,4.196,3.44,
4.172,4.18,3.32,
4.156,4.18,3.44,
4.172,4.196,3.36,
4.172,4.18,3.44,
4.148,4.196,3.32,
4.172,4.196,3.44,
4.148,4.18,3.32,
4.156,4.18,3.44,
4.172,4.196,3.32,
4.172,4.18,3.32,
4.148,4.196,3.44,
4.156,4.196,3.44,
4.172,4.18,3.36,
4.172,4.196,3.36,
4.148,4.18,3.44,
4.172,4.196,3.36,
4.148,4.18,3.44,
4.172,4.196,3.36,
4.156,4.18,3.44,
4.148,4.196,3.36,
4.172,4.18,3.44,
4.172,4.18,3.44,
4.156,4.196,3.32,
4.172,4.18,3.36,
4.156,4.196,3.44,
4.156,4.196,3.36,
4.172,4.18,3.44,
4.156,4.196,3.44,
4.172,4.18,3.32,
4.172,4.18,3.32,
4.148,4.196,3.44,
4.156,4.196,3.36,
4.172,4.18,3.44,
4.172,4.196,3.36,
4.148,4.18,3.44,
4.148,4.18,3.44,
4.172,4.196,3.36,
4.172,4.18,3.44,
4.156,4.196,3.32,
4.172,4.18,3.36,
4.148,4.196,3.44,
4.156,4.196,3.44,
4.172,4.18,3.32,
4.172,4.18,3.44,
4.148,4.196,3.36,
4.172,4.196,3.36,
4.148,4.18,3.44,
4.156,4.196,3.36,
4.172,4.18,3.44,
4.172,4.18,3.44,
4.148,4.196,3.32,
4.156,4.196,3.36,
4.172,4.18,3.44,
4.172,4.18,3.44,
4.148,4.196,3.32,
4.172,4.18,3.44,
4.148,4.196,3.32,
4.156,4.196,3.44,
4.172,4.156,3.32,
4.172,4.196,3.44,
4.148,4.18,3.36,
4.156,4.196,3.44,
4.172,4.18,3.36,
4.116,4.196,3.36,
4.172,4.18,3.44,
4.172,4.196,3.44,
4.148,4.156,3.36,
4.156,4.18,3.36,
4.172,4.196,3.44,
4.148,4.18,3.44,
4.172,4.196,3.36,
4.124,4.196,3.44,
4.164,4.172,3.32,
4.172,4.196,3.36,
4.148,4.172,3.44,
4.148,4.196,3.44,
4.172,4.18,3.32,
4.132,4.18,3.44,
4.172,4.196,3.36,
4.164,4.18,3.36,
4.148,4.196,3.44,
4.148,4.196,3.44,
4.172,4.18,3.32,
4.148,4.196,3.44,
4.172,4.172,3.32,
4.172,4.196,3.36,
4.148,4.18,3.44,
4.156,4.196,3.44,
4.172,4.18,3.36,
4.172,4.18,3.36,
4.14,4.196,3.44,
4.172,4.18,3.36,
4.148,4.196,3.44,
4.172,4.18,3.36,
4.148,4.196,3.44,
4.172,4.18,3.36,
4.148,4.196,3.44,
4.156,4.196,3.44,
4.172,4.18,3.32,
4.148,4.18,3.44,
4.172,4.196,3.36,
4.156,4.18,3.44,
4.172,4.196,3.32,
4.172,4.18,3.32,
4.148,4.196,3.44,
4.172,4.196,3.36,
4.148,4.18,3.44,
4.156,4.18,3.36,
4.172,4.196,3.44,
4.172,4.196,3.44,
4.148,4.18,3.32,
4.156,4.18,3.44,
4.172,4.196,3.32,
4.172,4.18,3.36,
4.148,4.196,3.44,
4.172,4.18,3.44,
4.148,4.196,3.36,
4.156,4.196,3.44,
4.172,4.18,3.32,
4.148,4.18,3.44,
4.172,4.196,3.36,
4.148,4.196,3.44,
4.172,4.148,3.36,
4.172,4.172,3.36,
4.148,4.116,3.44,
4.148,4.164,3.36,
4.172,4.124,3.44,
4.172,4.172,3.44,
4.116,4.148,3.36,
4.132,4.14,3.44,
4.036,4.18,3.32,
4.06,4.172,3.44,
4.124,4.124,3.36,
4.124,4.132,3.44,
4.092,4.172,3.36,
4.068,4.172,3.36,
4.14,4.116,3.44,
4.116,4.164,3.44,
4.06,4.132,3.36,
4.052,4.164,3.36,
4.116,4.116,3.44,
4.116,4.108,3.36,
4.036,4.172,3.44,
4.116,4.108,3.44,
4.068,4.172,3.32,
4.108,4.124,3.44,
4.036,4.172,3.32,
4.036,4.172,3.36,
4.116,4.14,3.44,
4.116,4.132,3.44,
4.028,4.172,3.32,
4.052,4.172,3.44,
4.116,4.148,3.36,
4.116,4.172,3.36,
4.06,4.148,3.44,
4.076,4.148,3.44,
4.132,4.172,3.36,
4.132,4.148,3.36,
4.092,4.196,3.44,
4.116,4.148,3.32,
4.092,4.172,3.44,
4.092,4.172,3.44,
4.116,4.148,3.36,
4.092,4.148,3.44,
4.164,4.172,3.32,
4.116,4.164,3.36,
4.084,4.148,3.44,
4.116,4.148,3.36,
4.092,4.172,3.44,
4.116,4.164,3.36,
4.092,4.148,3.44,
4.092,4.164,3.44,
4.116,4.148,3.32,
4.092,4.148,3.44,
4.116,4.164,3.36,
4.116,4.148,3.36,
4.092,4.172,3.44,
4.1,4.18,3.44,
4.116,4.132,3.36,
4.116,4.092,3.44,
4.084,4.14,3.32,
4.092,4.124,3.36,
4.116,4.156,3.44,
4.148,4.156,3.44,
4.06,4.124,3.32,
4.076,4.132,3.44,
4.012,4.156,3.36,
4.068,4.164,3.44,
4.084,4.132,3.32,
4.084,4.156,3.44,
4.06,4.132,3.36,
4.06,4.156,3.36,
4.092,4.132,3.44,
4.1,4.156,3.36,
4.068,4.132,3.44,
4.1,4.132,3.36,
4.068,4.156,3.44,
4.068,4.132,3.44,
4.092,4.156,3.36,
4.084,4.156,3.36,
4.068,4.116,3.44,
4.084,4.132,3.44,
4.068,4.156,3.36,
4.068,4.156,3.36,
4.084,4.124,3.44,
4.084,4.132,3.36,
4.036,4.156,3.44,
4.068,4.156,3.36,
4.084,4.132,3.44,
4.084,4.132,3.4,
4.052,4.156,3.44,
4.084,4.196,3.4,
4.06,3.436,3.44,
4.084,3.548,3.4,
4.06,3.612,3.44,
4.084,3.604,3.4,
4.06,3.644,3.48,
4.14,3.628,3.4,
2.948,3.652,3.48,
3.06,3.66,3.4,
3.124,3.628,3.44,
3.1,3.644,3.4,
3.148,3.66,3.48,
3.164,3.66,3.4,
3.124,3.628,3.48,
3.148,3.644,3.44,
3.164,3.66,3.32,
3.164,3.644,3.36,
3.148,3.66,3.44,
3.164,3.636,3.44,
3.14,4.364,3.36,
3.148,4.252,3.36,
3.18,4.18,3.44,
3.18,4.196,3.36,
3.148,4.156,3.44,
3.14,4.156,3.44,
4.316,4.212,3.36,
4.204,4.212,3.44,
4.124,4.148,3.32,
4.14,4.148,3.36,
4.1,4.196,3.44,
4.092,4.196,3.36,
4.172,4.18,3.44,
4.172,4.196,3.4,
4.076,4.132,3.44,
4.076,4.196,3.4,
4.172,3.42,3.48,
4.172,3.484,3.44,
4.148,3.604,3.36,
4.164,3.564,3.36,
4.076,3.628,3.44,
4.172,3.604,3.36,
2.924,4.34,3.44,
2.98,4.356,3.44,
3.116,4.212,3.32,
3.06,4.22,3.44,
3.148,4.172,3.36,
3.076,4.156,3.36,
4.284,4.22,3.44,
4.308,4.196,3.32,
4.164,4.148,3.44,
4.164,4.164,3.44,
4.108,4.148,3.36,
4.1,4.148,3.36,
4.188,4.204,3.44,
4.164,4.196,3.44,
4.084,4.18,3.32,
4.108,4.196,3.36,
4.092,4.172,3.44,
4.076,4.196,3.44,
4.172,4.172,3.36,
4.164,4.188,3.44,
4.148,4.172,3.32,
4.164,4.188,3.36,
4.14,4.172,3.44,
4.164,4.188,3.44,
4.132,4.132,3.36,
4.148,4.092,3.36,
4.164,4.188,3.44,
4.156,3.404,3.44,
4.132,4.212,3.32,
4.156,4.172,3.44,
4.084,4.148,3.36,
4.028,4.132,3.36,
4.156,4.196,3.44,
2.9,4.196,3.4,
4.188,4.156,3.48,
4.116,4.188,3.44,
4.092,3.412,3.36,
4.076,3.532,3.44,
4.164,3.612,3.36,
4.164,3.58,3.44,
4.124,4.34,3.36,
4.156,4.284,3.44,
2.908,4.188,3.32,
3.004,4.196,3.44,
3.116,4.156,3.36,
3.06,4.172,3.44,
4.284,4.148,3.36,
4.244,4.148,3.44,
4.132,4.204,3.32,
4.14,4.196,3.44,
4.1,4.172,3.36,
4.116,4.188,3.36,
4.092,4.164,3.44,
4.092,4.188,3.36,
4.164,4.132,3.44,
4.164,4.156,3.36,
4.14,4.132,3.44,
4.156,4.14,3.36,
4.132,4.196,3.44,
4.156,4.196,3.4,
4.068,4.156,3.44,
4.076,4.188,3.48,
4.108,3.412,3.36,
4.084,3.556,3.44,
4.164,3.612,3.36,
4.164,3.604,3.36,
4.116,4.34,3.44,
4.14,4.268,3.44,
2.916,4.18,3.32,
3.044,4.196,3.36,
3.124,4.156,3.44,
3.1,4.172,3.44,
4.284,4.148,3.36,
4.204,4.148,3.36,
4.124,4.196,3.44,
4.14,4.196,3.44,
4.1,4.172,3.36,
4.116,4.188,3.36,
4.092,4.164,3.44,
4.092,4.188,3.36,
4.164,4.132,3.44,
4.164,4.14,3.44,
4.132,4.164,3.36,
4.156,4.164,3.36,
4.132,4.148,3.44,
4.156,4.148,3.44,
4.076,4.164,3.36,
4.076,4.164,3.36,
4.108,4.14,3.44,
4.108,4.148,3.44,
4.076,4.164,3.32,
4.092,4.164,3.36,
4.108,4.14,3.44,
4.108,4.164,3.44,
4.068,4.148,3.32,
4.108,4.164,3.36,
4.084,4.14,3.44,
4.108,4.14,3.32,
4.084,4.164,3.44,
4.108,4.148,3.44,
4.092,4.164,3.36,
4.108,4.148,3.36,
4.076,4.164,3.44,
4.084,4.164,3.44,
4.108,4.148,3.32,
4.092,4.164,3.44,
4.108,4.14,3.36,
4.108,4.148,3.44,
4.084,4.164,3.36,
4.108,4.148,3.36,
4.092,4.164,3.44,
4.108,4.164,3.36,
4.084,4.148,3.44,
4.076,4.164,3.44,
4.108,4.148,3.32,
4.108,4.148,3.44,
4.084,4.164,3.32,
4.108,4.148,3.44,
4.084,4.164,3.36,
4.108,4.164,3.36,
4.076,4.148,3.44,
4.108,4.148,3.36,
4.084,4.164,3.44,
4.108,4.164,3.44,
4.076,4.148,3.32,
4.108,4.164,3.36,
4.084,4.132,3.44,
4.108,4.148,3.44,
4.076,4.164,3.36,
4.108,4.148,3.36,
4.084,4.164,3.44,
4.108,4.148,3.44,
4.084,4.164,3.32,
4.084,4.148,3.44,
4.108,4.172,3.36,
4.108,4.196,3.44,
4.092,4.172,3.36,
4.108,4.188,3.44,
4.076,3.564,3.32,
4.084,3.444,3.36,
4.124,4.268,3.44,
4.164,4.244,3.36,
4.132,4.18,3.44,
4.156,4.188,3.44,
3.148,4.156,3.36,
2.956,4.172,3.44,
4.204,4.148,3.32,
4.196,4.148,3.36,
4.116,4.196,3.44,
4.132,4.196,3.36,
4.1,4.156,3.44,
4.116,3.436,3.36,
4.084,4.228,3.44,
4.076,4.204,3.44,
4.164,4.156,3.36,
4.164,4.172,3.36,
4.116,4.148,3.44,
2.956,4.164,3.36,
4.172,4.148,3.44,
4.148,4.164,3.44,
4.1,4.148,3.36,
4.116,4.148,3.44,
4.084,4.196,3.36,
4.092,4.196,3.44,
4.108,4.148,3.32,
4.108,4.132,3.36,
4.092,4.164,3.44,
4.092,4.132,3.36,
4.164,4.164,3.44,
4.164,4.148,3.36,
4.084,4.164,3.44,
4.076,4.164,3.32,
4.108,4.14,3.44,
4.076,4.164,3.44,
4.108,4.148,3.36,
4.076,4.164,3.32,
4.108,4.14,3.44,
4.108,4.124,3.44,
4.068,4.196,3.32,
4.108,4.196,3.36,
4.084,4.172,3.44,
4.108,4.188,3.44,
4.076,4.172,3.36,
4.06,4.188,3.44,
4.164,4.164,3.36,
4.164,4.196,3.44,
4.132,4.132,3.36,
4.156,4.196,3.44,
4.124,3.404,3.36,
4.156,4.204,3.44,
4.132,4.156,3.36,
4.164,4.172,3.32,
4.068,4.148,3.44,
4.164,4.148,3.44,
2.9,4.172,3.32,
4.148,4.148,3.36,
4.1,4.212,3.44,
4.116,4.196,3.44,
4.092,3.452,3.32,
4.116,4.156,3.44,
4.092,4.172,3.32,
4.092,4.148,3.44,
4.172,4.204,3.36,
4.164,4.196,3.44,
2.988,4.18,3.32,
4.132,4.188,3.32,
4.1,4.172,3.44,
4.076,4.188,3.36,
4.172,4.132,3.44,
4.164,4.132,3.44,
4.132,4.164,3.32,
4.156,4.164,3.44,
4.124,4.132,3.32,
4.156,4.148,3.36,
4.068,4.164,3.44,
4.076,4.164,3.44,
4.108,4.14,3.36,
4.108,4.164,3.36,
4.076,4.124,3.44,
4.108,4.164,3.44,
4.076,4.148,3.32,
4.108,4.148,3.44,
4.076,4.164,3.36,
4.108,4.164,3.44,
4.06,4.14,3.36,
4.108,4.164,3.44,
4.084,4.132,3.32,
4.108,4.148,3.36,
4.084,4.196,3.44,
4.108,4.196,3.44,
4.084,4.172,3.32,
4.108,4.188,3.36,
4.068,4.164,3.44,
4.092,4.188,3.44,
4.164,4.132,3.36,
4.164,4.132,3.44,
4.132,4.164,3.36,
4.156,4.148,3.44,
4.124,4.164,3.32,
4.156,4.164,3.36,
4.076,4.148,3.44,
4.108,4.164,3.44,
4.076,4.148,3.36,
4.092,4.164,3.44,
4.108,4.148,3.36,
4.092,4.148,3.44,
4.108,4.164,3.32,
4.108,4.148,3.36,
4.076,4.164,3.44,
4.108,4.148,3.36,
4.092,4.164,3.44,
4.108,4.164,3.36,
4.076,4.14,3.44,
4.108,4.148,3.32,
4.084,4.196,3.44,
4.092,4.196,3.44,
4.108,4.172,3.32,
4.076,4.188,3.36,
4.108,4.164,3.44,
4.092,4.188,3.36,
4.164,4.132,3.44,
4.164,4.132,3.36,
4.132,4.164,3.44,
4.132,4.148,3.44,
4.156,4.164,3.36,
4.156,4.164,3.44,
4.076,4.132,3.36,
4.108,4.148,3.44,
4.076,4.164,3.32,
4.108,4.148,3.36,
4.084,4.164,3.44,
4.108,4.148,3.36,
4.068,4.164,3.44,
4.084,4.164,3.36,
4.108,4.148,3.44,
4.108,4.164,3.44,
4.084,4.132,3.32,
4.108,4.132,3.44,
4.076,4.196,3.36,
4.108,4.196,3.44,
4.084,4.18,3.32,
4.108,4.188,3.44,
4.084,4.164,0.04,
4.076,4.188,0.04,
4.156,4.148,0.16,
4.164,4.156,0.04,
4.132,4.124,0.16,
4.156,4.132,0.04,
4.132,4.164,0.16,
4.156,4.164,0.04,
4.092,4.148,0.12,
4.1,4.148,0.04,
4.06,4.164,0.16,
4.068,4.148,0.16,
4.108,4.164,0.04,
4.108,4.164,0.04,
4.076,4.14,0.16,
4.108,4.14,0.04,
4.076,4.164,0.16,
4.108,4.148,0.16,
4.076,4.164,0.04,
4.108,4.164,0.12,
4.076,4.132,0.04,
4.084,4.148,0.04,
4.108,4.196,0.16,
4.108,4.196,0.12,
4.076,4.172,0.04,
4.108,4.188,0.16,
4.076,4.164,0.04,
4.084,4.188,0.04,
4.164,4.132,0.16,
4.164,4.132,0.16,
4.124,4.164,0.04,
4.156,4.164,0.16,
4.124,4.132,0.04,
4.156,4.148,0.04,
4.076,4.164,0.16,
4.068,4.164,0.04,
4.108,4.14,0.16,
4.084,4.148,0.04,
4.108,4.164,0.16,
4.108,4.164,0.04,
4.076,4.148,0.16,
4.108,4.164,0.04,
4.068,4.132,0.16,
4.108,4.164,0.04,
4.092,4.132,0.16,
4.108,4.164,0.04,
4.084,4.132,0.16,
4.108,4.148,0.12,
4.084,4.196,0.04,
4.108,4.196,0.04,
4.076,4.172,0.16,
4.108,4.188,0.16,
4.084,4.172,0.04,
4.092,4.188,0.04,
4.164,4.132,0.16,
4.164,4.132,0.04,
4.124,4.164,0.16,
4.156,4.148,0.12,
4.132,4.164,0.04,
4.156,4.148,0.04,
4.076,4.164,0.12,
4.076,4.148,0.04,
4.108,4.164,0.16,
4.092,4.164,0.12,
4.108,4.132,0.04,
4.108,4.148,0.16,
4.084,4.164,0.04,
4.108,4.148,0.04,
4.076,4.164,0.16,
4.108,4.148,0.16,
4.068,4.164,0.04,
4.108,4.148,0.04,
4.084,4.164,0.16,
4.108,4.148,0.12,
4.092,4.196,0.04,
4.108,4.196,0.04,
4.076,4.172,0.16,
4.108,4.188,0.16,
4.084,4.164,0.04,
4.092,4.188,0.04,
4.164,4.132,0.16,
4.164,4.164,0.04,
4.124,4.132,0.16,
4.132,4.148,0.04,
4.156,4.164,0.16,
4.156,4.148,0.04,
4.076,4.164,0.16,
4.108,4.148,0.04,
4.076,4.164,0.12,
4.092,4.164,0.04,
4.108,4.148,0.16,
4.108,4.164,0.12,
4.076,4.148,0.04,
4.108,4.164,0.04,
4.084,4.132,0.16,
4.108,4.14,0.04,
4.076,4.164,0.16,
4.108,4.148,0.04,
4.076,4.164,0.16,
4.108,4.148,0.16,
4.076,4.196,0.04,
4.076,4.188,0.04,
4.108,4.172,0.12,
4.084,4.196,0.04,
4.108,4.164,0.16,
4.092,4.188,0.04,
4.164,4.132,0.16,
4.164,4.148,0.12,
4.132,4.164,0.04,
4.164,4.148,0.04,
4.124,4.164,0.16,
4.164,4.164,0.16,
4.076,4.148,0.04,
4.092,4.148,0.16,
4.108,4.164,0.04,
4.108,4.148,0.16,
4.084,4.164,0.04,
4.084,4.148,0.12,
4.116,4.164,0.04,
4.092,4.164,0.16,
4.116,4.148,0.04,
4.076,4.164,0.04,
4.108,4.148,0.16,
4.092,4.148,0.04,
4.116,4.196,0.16,
4.092,4.196,0.04,
4.116,4.164,0.16,
4.092,4.188,0.04,
4.116,4.172,0.16,
4.092,4.188,0.12,
4.156,4.148,0.04,
4.164,4.132,0.04,
4.132,4.164,0.16,
4.156,4.148,0.16,
4.132,4.164,0.04,
4.156,4.148,0.04,
4.1,4.164,0.16,
4.076,4.148,0.04,
4.108,4.164,0.16,
4.108,4.164,0.12,
4.076,4.148,0.04,
4.076,4.164,0.04,
4.108,4.148,0.16,
4.092,4.164,0.04,
4.108,4.14,0.16,
4.108,4.148,0.04,
4.076,4.164,0.16,
4.108,4.164,0.04,
4.084,4.148,0.16,
4.108,4.148,0.04,
4.06,4.196,0.16,
4.076,4.196,0.04,
4.108,4.172,0.16,
4.108,4.188,0.04,
4.084,4.164,0.16,
4.092,4.188,0.04,
4.164,4.132,0.16,
4.164,4.156,0.04,
4.132,4.132,0.16,
4.156,4.164,0.04,
4.124,4.132,0.16,
4.156,4.148,0.16,
4.068,4.164,0.04,
4.076,4.164,0.04,
4.108,4.148,0.16,
4.108,4.148,0.04,
4.076,4.164,0.12,
4.108,4.164,0.04,
4.076,4.14,0.16,
4.108,4.164,0.04,
4.076,4.148,0.16,
4.092,4.148,0.16,
4.108,4.164,0.04,
4.108,4.164,0.04,
4.084,4.132,0.16,
4.108,4.148,0.16,
4.076,4.196,0.04,
4.108,4.196,0.16,
4.076,4.172,0.04,
4.108,4.172,0.04,
4.084,4.188,0.16,
4.092,4.188,0.12,
4.164,4.14,0.04,
4.164,4.132,0.04,
4.14,4.164,0.16,
4.156,4.148,0.04,
4.124,4.164,0.16,
4.156,4.148,0.16,
4.076,4.164,0.04,
4.068,4.164,0.12,
4.108,4.148,0.04,
4.108,4.164,0.12,
4.084,4.148,0.04,
4.092,4.164,0.12,
4.108,4.148,0.04,
4.108,4.14,0.04,
4.084,4.164,0.16,
4.108,4.164,0.04,
4.084,4.148,0.16,
4.108,4.164,0.04,
4.084,4.148,0.16,
4.092,4.148,0.04,
4.108,4.196,0.16,
4.108,4.196,0.04,
4.092,4.172,0.16,
4.108,4.188,0.04,
4.076,4.164,0.16,
4.092,4.188,0.04,
4.164,4.132,0.16,
4.164,4.164,0.16,
4.132,4.132,0.04,
4.156,4.148,0.04,
4.124,4.164,0.16,
4.148,4.164,0.16,
4.076,4.148,0.04,
4.076,4.148,0.04,
4.108,4.164,0.16,
4.108,4.164,0.16,
4.084,4.148,0.04,
4.108,4.148,0.04,
4.084,4.164,0.12,
4.084,4.164,0.04,
4.108,4.148,0.16,
4.108,4.164,0.04,
4.076,4.14,0.16,
4.108,4.14,0.04,
4.076,4.164,0.16,
4.108,4.148,0.04,
4.076,4.196,0.16,
4.108,4.196,0.16,
4.068,4.172,0.04,
4.108,4.188,0.12,
4.076,4.172,0.04,
4.092,4.188,0.16,
4.164,4.132,0.04,
4.156,4.164,0.04,
4.132,4.132,0.16,
4.156,4.148,0.04,
4.132,4.164,0.16,
4.156,4.148,0.04,
4.076,4.164,0.16,
4.108,4.148,0.04,
4.044,4.164,0.16,
4.108,4.164,0.04,
4.076,4.14,0.16,
4.084,4.148,0.04,
4.108,4.164,0.16,
4.108,4.164,0.04,
4.092,4.148,0.16,
4.108,4.164,0.12,
4.076,4.14,0.04,
4.108,4.132,0.04,
4.076,4.196,0.16,
4.108,4.196,0.04,
4.092,4.18,0.16,
4.108,4.196,0.16,
