Measurements/Power Payload/Metingen 5/Payload 2 190.csv

CH1,CH2,CH3,Start,Increment,
Volt,Volt,Volt,-5.995,0.01
4.068,4.132,0.04,
4.1,4.164,0.16,
4.076,4.132,0.16,
4.1,4.164,0.04,
4.108,4.132,0.04,
4.068,4.156,0.16,
4.076,4.132,0.04,
4.1,4.164,0.16,
4.076,4.132,0.04,
4.1,4.18,0.16,
4.068,4.196,0.04,
4.108,4.164,0.16,
4.1,4.164,0.04,
4.076,4.188,0.16,
4.068,4.188,0.04,
4.148,4.14,0.16,
4.164,4.124,0.04,
4.132,4.148,0.16,
4.132,4.156,0.16,
4.156,4.124,0.04,
4.156,4.156,0.04,
4.092,4.132,0.16,
4.06,4.156,0.12,
4.1,4.132,0.04,
4.1,4.132,0.04,
4.068,4.156,0.16,
4.076,4.156,0.04,
4.1,4.132,0.16,
4.076,4.156,0.04,
4.108,4.132,0.16,
4.068,4.132,0.04,
4.1,4.164,0.16,
4.1,4.156,0.12,
4.076,4.124,0.04,
4.1,4.132,0.04,
4.068,4.196,0.12,
4.1,4.196,0.12,
4.068,4.164,0.04,
4.1,4.188,0.16,
4.068,4.164,0.04,
4.068,4.188,0.04,
4.164,4.124,0.16,
4.164,4.124,0.04,
4.132,4.156,0.16,
4.156,4.132,0.04,
4.124,4.156,0.16,
4.156,4.132,0.04,
4.076,4.164,0.16,
4.068,4.132,0.04,
4.1,4.156,0.16,
4.068,4.156,0.04,
4.1,4.132,0.16,
4.076,4.132,0.16,
4.1,4.156,0.04,
4.1,4.132,0.16,
4.068,4.156,0.04,
4.076,4.156,0.04,
4.1,4.124,0.16,
4.076,4.156,0.16,
4.108,4.132,0.04,
4.068,4.132,0.04,
4.108,4.196,0.16,
4.1,4.188,0.04,
4.06,4.164,0.12,
4.076,4.188,0.16,
4.1,4.164,0.04,
4.076,4.188,0.16,
4.164,4.124,0.04,
4.156,4.124,0.16,
4.124,4.156,0.04,
4.124,4.132,0.04,
4.156,4.156,0.16,
4.156,4.156,0.16,
4.068,4.132,0.04,
4.068,4.132,0.04,
4.1,4.156,0.16,
4.068,4.156,0.04,
4.1,4.132,0.16,
4.1,4.132,0.16,
4.068,4.156,0.04,
4.1,4.132,0.16,
4.068,4.156,0.04,
4.076,4.156,0.04,
4.108,4.132,0.16,
4.1,4.132,0.04,
4.068,4.156,0.16,
4.076,4.132,0.12,
4.108,4.196,0.04,
4.1,4.188,0.08,
4.068,4.164,3.44,
4.108,4.188,3.44,
4.068,4.156,3.36,
4.076,4.18,3.44,
4.164,4.124,3.36,
4.156,4.124,3.36,
4.132,4.156,3.44,
4.156,4.156,3.44,
4.116,4.124,3.36,
4.148,4.156,3.44,
4.068,4.132,3.36,
4.06,4.132,3.44,
4.092,4.196,3.36,
4.1,4.188,3.36,
4.06,4.132,3.44,
4.1,4.124,3.36,
4.076,4.156,3.44,
4.068,4.156,3.36,
4.164,4.132,3.44,
4.156,4.124,3.44,
4.076,4.196,3.32,
4.068,4.18,3.32,
4.1,4.196,3.44,
4.076,4.188,3.44,
4.1,4.164,3.36,
4.06,4.188,3.44,
4.164,4.164,3.32,
4.148,4.188,3.36,
4.164,4.172,3.44,
4.156,4.188,3.44,
4.124,4.148,3.36,
4.132,4.188,3.36,
4.156,4.164,3.44,
4.156,4.188,3.44,
4.132,4.164,3.32,
4.156,4.172,3.36,
4.1,4.132,3.44,
4.156,4.196,3.44,
4.132,3.34,3.36,
4.156,3.404,3.36,
4.132,4.196,3.44,
4.148,4.148,3.36,
4.076,4.196,3.44,
4.164,4.196,3.36,
2.86,4.124,3.44,
2.924,4.124,3.44,
4.14,4.156,3.32,
4.076,4.124,3.44,
4.164,4.196,3.32,
4.164,4.196,3.36,
4.068,4.156,3.44,
4.068,4.188,3.44,
4.1,4.164,3.32,
4.06,4.188,3.36,
4.164,4.156,3.44,
4.156,4.188,3.44,
4.124,4.132,3.36,
4.156,4.124,3.44,
4.124,4.196,3.36,
4.156,3.34,3.44,
4.116,4.196,3.32,
4.156,4.172,3.44,
4.068,4.148,3.32,
4.068,4.148,3.44,
4.148,4.196,3.36,
4.148,4.188,3.44,
2.86,4.156,3.36,
4.116,4.188,3.36,
4.092,3.388,3.44,
4.084,4.164,3.36,
4.164,4.132,3.44,
4.156,4.164,3.32,
4.116,4.132,3.44,
4.156,4.132,3.44,
2.932,4.188,3.32,
4.116,4.172,3.36,
4.068,4.196,3.44,
4.108,4.188,3.44,
4.076,4.164,3.36,
4.076,4.188,3.44,
4.164,4.116,3.36,
4.132,4.124,3.36,
4.164,4.156,3.44,
4.156,4.132,3.44,
4.132,4.156,3.36,
4.156,4.132,3.36,
4.06,4.164,3.44,
4.068,4.156,3.36,
4.1,4.132,3.44,
4.076,4.164,3.44,
4.1,4.132,3.36,
4.068,4.132,3.36,
4.108,4.164,3.44,
4.068,4.156,3.44,
4.108,4.132,3.32,
4.1,4.132,3.44,
4.068,4.156,3.32,
4.076,4.164,3.44,
4.1,4.132,3.36,
4.1,4.14,3.44,
4.076,4.196,3.32,
4.1,4.188,3.36,
4.068,4.164,3.44,
4.076,4.188,3.36,
4.108,4.164,3.44,
4.076,4.188,3.36,
4.164,4.124,3.44,
4.132,4.132,3.44,
4.156,4.156,3.32,
4.156,4.132,3.44,
4.132,4.156,3.36,
4.156,4.132,3.36,
4.068,4.156,3.44,
4.1,4.156,3.44,
4.068,4.132,3.36,
4.076,4.156,3.36,
4.108,4.132,3.44,
4.1,4.164,3.36,
4.076,4.132,3.44,
4.108,4.156,3.36,
4.068,4.132,3.44,
4.108,4.156,3.32,
4.068,4.132,3.44,
4.076,4.132,3.36,
4.108,4.164,3.44,
4.068,4.132,3.44,
4.108,4.196,3.36,
4.068,4.188,3.44,
4.108,4.164,3.32,
4.076,4.188,3.36,
4.108,4.164,3.44,
4.076,4.188,3.44,
4.164,4.092,3.36,
4.156,4.156,3.36,
4.124,4.132,3.44,
4.156,4.132,3.32,
4.124,4.156,3.44,
4.156,4.132,3.36,
4.02,4.164,3.44,
4.108,4.092,3.36,
4.068,4.164,3.44,
4.1,4.132,3.44,
4.068,4.164,3.32,
4.076,4.156,3.36,
4.108,4.132,3.44,
4.012,4.156,3.44,
4.108,4.124,3.32,
4.068,4.132,3.44,
4.108,4.156,3.32,
4.1,4.132,3.44,
4.068,4.156,3.36,
4.1,4.14,3.36,
4.06,4.196,3.44,
4.1,4.188,3.36,
4.076,4.164,3.44,
4.076,4.188,3.44,
4.1,4.164,3.32,
4.076,4.188,3.44,
4.164,4.124,3.36,
4.132,4.156,3.36,
4.156,4.124,3.44,
4.124,4.124,3.44,
4.156,4.156,3.32,
4.148,4.132,3.36,
4.068,4.156,3.44,
4.1,4.116,3.36,
4.068,4.164,3.44,
4.068,4.132,3.36,
4.1,4.164,3.44,
4.108,4.156,3.44,
4.068,4.132,3.32,
4.052,4.164,3.36,
4.108,4.132,3.44,
4.068,4.132,3.44,
4.108,4.156,3.32,
4.068,4.132,3.44,
4.108,4.18,3.32,
4.068,4.196,3.44,
4.108,4.172,3.32,
4.1,4.188,3.36,
4.076,4.164,3.44,
4.068,4.188,3.44,
4.148,4.14,3.36,
4.164,4.124,3.36,
4.132,4.156,3.44,
4.156,4.124,3.44,
4.124,4.156,3.36,
4.156,4.1,3.36,
4.076,4.164,3.44,
4.1,4.156,3.44,
4.068,4.132,3.32,
4.068,4.124,3.36,
4.1,4.164,3.44,
4.028,4.132,3.36,
4.108,4.164,3.44,
4.076,4.132,3.44,
4.108,4.164,3.32,
4.068,4.132,3.36,
4.108,4.164,3.44,
4.076,4.132,3.44,
4.108,4.164,3.32,
4.068,4.124,3.44,
4.108,4.196,3.36,
4.076,4.196,3.36,
4.108,4.164,3.44,
4.1,4.188,3.44,
4.076,4.156,3.32,
4.06,4.188,3.36,
4.164,4.124,3.44,
4.164,4.156,3.44,
4.124,4.124,3.32,
4.156,4.124,3.44,
4.116,4.156,3.32,
4.156,4.156,3.36,
4.076,4.132,3.44,
4.1,4.156,3.36,
4.068,4.132,3.44,
4.068,4.164,3.44,
4.1,4.116,3.36,
4.108,4.14,3.36,
4.076,4.164,3.44,
4.1,4.1,3.36,
4.068,4.164,3.44,
4.1,4.164,3.44,
4.052,4.132,3.32,
4.108,4.132,3.36,
4.068,4.164,3.44,
4.036,4.148,3.36,
4.108,4.196,3.44,
4.108,4.196,3.44,
4.076,4.164,3.32,
4.108,4.188,3.44,
4.068,4.164,3.32,
4.092,4.188,3.36,
4.164,4.124,3.44,
4.164,4.132,3.36,
4.132,4.156,3.44,
4.156,4.156,3.44,
4.132,4.132,3.32,
4.156,4.132,3.44,
4.068,4.156,3.36,
4.068,4.156,3.44,
4.1,4.132,3.36,
4.076,4.132,3.36,
4.108,4.164,3.44,
4.108,4.14,3.36,
4.068,4.164,3.44,
4.108,4.164,3.36,
4.068,4.132,3.44,
4.108,4.132,3.36,
4.068,4.164,3.44,
4.076,4.164,3.32,
4.108,4.132,3.44,
4.108,4.148,3.44,
4.076,4.196,3.36,
4.084,4.188,3.36,
4.108,4.172,3.44,
4.076,4.188,3.44,
4.108,4.156,3.32,
4.092,4.188,3.36,
4.164,4.124,3.44,
4.164,4.132,3.44,
4.132,4.156,3.36,
4.156,4.156,3.44,
4.124,4.132,3.32,
4.148,4.132,3.36,
4.068,4.164,3.44,
4.076,4.132,3.44,
4.1,4.164,3.36,
4.1,4.164,3.36,
4.068,4.124,3.44,
4.076,4.164,3.44,
4.1,4.132,3.32,
4.076,4.14,3.36,
4.108,4.164,3.44,
4.068,4.132,3.36,
4.108,4.156,3.44,
4.076,4.164,3.44,
4.108,4.132,3.36,
4.076,4.132,3.44,
4.108,4.196,3.36,
4.076,4.172,3.36,
4.108,4.188,3.44,
4.076,4.188,3.44,
4.108,4.172,3.32,
4.084,4.188,3.36,
4.164,4.132,3.44,
4.156,4.132,3.36,
4.124,4.164,3.44,
4.164,4.132,3.44,
4.14,4.164,3.36,
4.156,4.132,3.44,
4.076,4.164,3.32,
4.108,4.164,3.36,
4.076,4.132,3.44,
4.108,4.132,3.44,
4.084,4.156,3.36,
4.108,4.156,3.44,
4.084,4.132,3.32,
4.108,4.132,3.44,
4.068,4.164,3.32,
4.108,4.132,3.44,
4.068,4.156,3.36,
4.1,4.132,3.36,
4.068,4.188,3.44,
4.068,4.196,3.36,
4.108,4.172,3.44,
4.076,4.164,3.36,
4.108,4.196,3.44,
4.076,4.188,3.36,
4.148,4.14,3.44,
4.132,4.132,3.44,
4.164,4.156,3.36,
4.132,4.132,3.44,
4.164,4.164,3.36,
4.156,4.14,3.36,
4.084,4.164,3.44,
4.1,4.148,3.36,
4.068,4.164,3.44,
4.108,4.164,3.44,
4.084,4.132,3.32,
4.084,4.156,3.36,
4.108,4.132,3.44,
4.108,4.156,3.36,
4.084,4.132,3.44,
4.108,4.164,3.36,
4.076,4.132,3.44,
4.068,4.156,3.44,
4.108,4.132,3.36,
4.076,4.164,3.36,
4.1,4.124,3.44,
4.108,4.132,3.36,
4.076,4.164,3.44,
4.068,4.148,3.44,
4.108,4.188,3.32,
4.108,4.196,3.44,
4.052,4.14,3.36,
4.076,4.132,3.44,
4.108,4.164,3.36,
4.092,4.132,3.44,
4.14,4.164,3.32,
4.164,4.164,3.44,
4.092,4.132,3.36,
4.076,4.132,3.44,
4.108,4.164,3.36,
4.108,4.164,3.36,
4.076,4.14,3.44,
4.108,4.14,3.36,
4.076,4.164,3.44,
4.108,4.164,3.36,
4.068,4.132,3.44,
4.092,4.164,3.36,
4.108,4.132,3.44,
4.076,4.156,3.44,
4.108,4.132,3.32,
4.108,4.132,3.36,
4.076,4.164,3.44,
4.108,4.164,3.44,
4.084,4.132,3.32,
4.1,4.132,3.44,
4.068,4.164,3.36,
4.076,4.132,3.32,
4.108,4.164,3.44,
4.108,4.164,3.36,
4.076,4.132,3.44,
4.068,4.156,3.36,
4.108,4.132,3.44,
4.1,4.132,3.36,
4.076,4.164,3.44,
4.108,4.156,3.36,
4.076,4.132,3.44,
4.1,4.132,3.36,
4.076,4.164,3.44,
4.068,4.156,3.44,
4.108,4.132,3.32,
4.076,4.132,3.44,
4.108,4.164,3.32,
4.076,4.156,3.36,
4.108,4.132,3.44,
4.108,4.132,3.36,
4.068,4.164,3.44,
4.076,4.132,3.44,
4.108,4.164,3.36,
4.076,4.164,3.36,
4.108,4.132,3.44,
4.076,4.132,3.36,
4.108,4.164,3.44,
4.076,4.156,3.36,
4.108,4.132,3.44,
4.076,4.164,3.36,
4.108,4.132,3.44,
4.076,4.132,3.44,
4.108,4.164,3.32,
4.076,4.156,3.36,
4.108,4.132,3.44,
4.076,4.132,3.44,
4.108,4.164,3.36,
4.076,4.156,3.36,
4.108,4.132,3.44,
4.108,4.156,3.44,
4.076,4.132,3.36,
4.068,4.156,3.36,
4.108,4.132,3.44,
4.108,4.156,3.36,
4.076,4.132,3.44,
4.076,4.132,3.44,
4.108,4.156,3.36,
4.108,4.156,3.44,
4.076,4.124,3.32,
4.076,4.156,3.44,
4.108,4.124,3.36,
4.076,4.132,3.36,
4.108,4.164,3.44,
4.108,4.132,3.36,
4.06,4.164,3.44,
4.108,4.132,3.44,
4.068,4.164,3.36,
4.068,4.132,3.36,
4.108,4.164,3.44,
4.1,4.132,3.36,
4.076,4.156,3.44,
4.108,4.156,3.44,
4.076,4.132,3.36,
4.076,4.164,3.36,
4.108,4.132,3.44,
4.076,4.132,3.36,
4.108,4.164,3.44,
4.108,4.132,3.36,
4.076,4.164,3.44,
4.076,4.156,3.44,
4.108,4.132,3.32,
4.068,4.132,3.36,
4.108,4.188,3.44,
4.076,4.196,3.44,
4.108,4.164,3.36,
4.1,4.164,3.36,
4.068,4.188,3.44,
4.076,4.188,3.36,
4.148,4.14,3.44,
4.164,4.124,3.44,
4.132,4.156,3.32,
4.156,4.132,3.44,
4.124,4.156,3.36,
4.156,4.132,3.36,
4.076,4.164,3.44,
4.068,4.164,3.44,
4.1,4.132,3.36,
4.076,4.164,3.44,
4.108,4.124,3.36,
4.108,4.124,3.44,
4.068,4.164,3.32,
4.076,4.164,3.36,
4.108,4.132,3.44,
4.068,4.164,3.44,
4.108,4.132,3.36,
4.068,4.132,3.44,
4.108,4.164,3.32,
4.108,4.132,3.44,
4.068,4.196,3.32,
4.108,4.196,3.36,
4.076,4.164,3.44,
4.076,4.188,3.44,
4.108,4.164,3.36,
4.076,4.188,3.44,
4.164,4.124,3.32,
4.164,4.156,3.44,
4.124,4.124,3.36,
4.156,4.132,3.36,
4.124,4.164,3.44,
4.156,4.132,3.44,
4.06,4.156,3.32,
4.1,4.156,3.36,
4.068,4.132,3.44,
4.068,4.132,3.36,
4.108,4.156,3.44,
4.076,4.132,3.44,
4.108,4.164,3.36,
4.068,4.156,3.36,
4.108,4.132,3.44,
4.108,4.156,3.36,
4.068,4.132,3.44,
4.108,4.156,3.44,
4.068,4.124,3.36,
4.076,4.14,3.36,
4.108,4.196,3.44,
4.108,4.188,3.36,
4.076,4.164,3.44,
4.108,4.188,3.36,
4.068,4.164,3.44,
4.076,4.188,3.44,
4.164,4.124,3.36,
4.156,4.132,3.36,
4.124,4.156,3.44,
4.156,4.156,3.44,
4.124,4.132,3.32,
4.156,4.132,3.44,
4.068,4.164,3.32,
4.068,4.164,3.36,
4.1,4.132,3.44,
4.1,4.156,3.44,
4.068,4.132,3.36,
4.108,4.164,3.36,
4.068,4.132,3.44,
4.108,4.156,3.44,
4.076,4.132,3.32,
4.108,4.132,3.44,
4.068,4.164,3.36,
4.108,4.156,3.36,
4.068,4.132,3.44,
4.076,4.132,3.44,
4.108,4.196,3.32,
4.068,4.188,3.44,
4.108,4.164,3.32,
4.076,4.188,3.36,
4.108,4.164,3.44,
4.076,4.188,3.44,
4.164,4.132,3.36,
4.156,4.132,3.32,
4.124,4.156,3.44,
4.132,4.156,3.44,
4.156,4.132,3.36,
4.148,4.132,3.36,
4.076,4.164,3.44,
4.076,4.132,3.44,
4.1,4.156,3.32,
4.068,4.156,3.36,
4.108,4.132,3.44,
4.108,4.164,3.44,
4.068,4.132,3.36,
4.076,4.164,3.36,
4.108,4.132,3.44,
4.068,4.132,3.44,
4.1,4.164,3.36,
4.068,4.164,3.44,
4.108,4.14,3.36,
4.076,4.132,3.36,
4.1,4.196,3.44,
4.076,4.196,3.36,
4.108,4.172,3.44,
4.108,4.188,3.44,
4.076,4.172,3.36,
4.076,4.188,3.36,
4.164,4.124,3.44,
4.164,4.132,3.44,
4.14,4.164,3.32,
4.132,4.132,3.44,
4.156,4.164,3.32,
4.156,4.14,3.44,
4.068,4.164,3.36,
4.076,4.14,3.36,
4.108,4.164,3.44,
4.076,4.164,3.36,
4.108,4.132,3.44,
4.108,4.132,3.36,
4.084,4.156,3.44,
4.108,4.164,3.44,
4.076,4.132,3.32,
4.108,4.132,3.36,
4.076,4.156,3.44,
4.1,4.132,3.44,
4.068,4.188,3.36,
4.108,4.196,3.36,
4.068,4.164,3.44,
4.076,4.188,3.36,
4.108,4.156,3.44,
4.076,4.188,3.36,
4.148,4.14,3.44,
4.164,4.124,3.44,
4.124,4.156,3.36,
4.156,4.132,3.36,
4.124,4.156,3.44,
4.156,4.156,3.44,
4.076,4.132,3.32,
4.068,4.156,3.36,
4.1,4.132,3.44,
4.1,4.132,3.36,
4.068,4.164,3.44,
4.068,4.132,3.44,
4.108,4.164,3.32,
4.076,4.156,3.44,
4.108,4.132,3.36,
4.1,4.164,3.36,
4.068,4.132,3.44,
4.076,4.156,3.36,
4.108,4.132,3.44,
4.1,4.132,3.44,
4.076,4.196,3.32,
4.068,4.196,3.36,
4.108,4.172,3.44,
4.076,4.188,3.44,
4.108,4.164,3.32,
4.076,4.188,3.36,
4.164,4.124,3.44,
4.164,4.132,3.44,
4.132,4.156,3.36,
4.156,4.132,3.44,
4.124,4.156,3.32,
4.156,4.132,3.44,
4.068,4.164,3.32,
4.068,4.156,3.36,
4.1,4.132,3.44,
4.1,4.156,3.36,
4.068,4.132,3.44,
4.108,4.156,3.44,
4.076,4.132,3.36,
4.076,4.164,3.44,
4.108,4.132,3.32,
4.1,4.164,3.44,
4.068,4.132,3.36,
4.076,4.156,3.44,
4.108,4.132,3.36,
4.068,4.14,3.36,
4.108,4.196,3.44,
4.1,4.188,3.36,
4.068,4.164,3.44,
4.076,4.172,3.36,
4.108,4.188,3.44,
4.068,4.188,3.44,
4.164,4.124,3.36,
4.156,4.132,3.44,
4.124,4.156,3.32,
4.156,4.156,3.36,
4.124,4.124,3.44,
4.148,4.156,3.36,
4.068,4.132,3.44,
4.1,4.132,3.44,
4.068,4.156,3.32,
4.1,4.156,3.44,
4.068,4.132,3.36,
4.1,4.164,3.36,
4.068,4.124,3.44,
4.076,4.132,3.36,
4.1,4.156,3.44,
4.1,4.156,3.44,
4.076,4.132,3.32,
4.108,4.156,3.44,
4.06,4.132,3.36,
4.076,4.148,3.36,
4.108,4.196,3.44,
4.1,4.188,3.36,
4.076,4.132,3.44,
4.076,4.188,3.36,
4.108,4.164,3.44,
4.092,4.188,3.36,
4.164,4.124,3.44,
4.156,4.132,3.44,
4.092,4.156,3.32,
4.124,4.156,3.44,
4.156,4.124,3.32,
4.156,4.124,3.36,
4.06,4.164,3.44,
4.076,4.132,3.44,
4.1,4.164,3.36,
4.1,4.156,3.44,
4.068,4.132,3.36,
4.1,4.132,3.44,
4.068,4.164,3.36,
4.068,4.156,3.44,
4.108,4.132,3.36,
4.108,4.156,3.44,
4.068,4.132,3.32,
4.076,4.156,3.44,
4.1,4.132,3.32,
4.076,4.148,3.44,
4.108,4.196,3.36,
4.1,4.188,3.36,
4.068,4.164,3.44,
4.108,4.188,3.44,
4.076,4.164,3.32,
4.092,4.188,3.36,
4.164,4.124,3.44,
4.156,4.124,3.44,
4.132,4.156,3.36,
4.156,4.132,3.36,
4.124,4.156,3.44,
4.148,4.132,3.36,
4.068,4.156,3.44,
4.1,4.156,3.36,
4.068,4.132,3.44,
4.108,4.132,3.36,
4.068,4.164,3.44,
4.076,4.156,3.44,
4.1,4.132,3.36,
4.1,4.132,3.36,
4.076,4.164,3.44,
4.1,4.132,3.44,
4.076,4.156,3.36,
4.1,4.132,3.44,
4.076,4.188,3.36,
4.108,4.196,3.36,
4.068,4.172,3.44,
4.068,4.188,3.36,
4.108,4.164,3.44,
4.068,4.188,3.36,
4.148,4.132,3.44,
4.164,4.156,3.36,
4.132,4.124,3.44,
4.156,4.132,3.44,
4.124,4.156,3.36,
4.156,4.132,3.36,
4.084,4.156,3.44,
4.068,4.156,3.32,
4.1,4.132,3.44,
4.076,4.132,3.36,
4.1,4.156,3.44,
4.1,4.132,3.44,
4.076,4.156,3.36,
4.1,4.132,3.36,
4.068,4.156,3.44,
4.1,4.156,3.36,
4.076,4.132,3.44,
4.108,4.156,3.36,
4.068,4.132,3.44,
4.1,4.132,3.36,
4.068,4.196,3.44,
4.1,4.172,3.36,
4.068,4.196,3.44,
4.1,4.164,3.44,
4.076,4.188,3.36,
4.076,4.188,3.36,
4.164,4.124,3.44,
4.156,4.156,3.36,
4.132,4.124,3.44,
4.132,4.156,3.36,
4.156,4.132,3.44,
4.148,4.132,3.36,
4.068,4.156,3.44,
4.1,4.156,3.44,
4.068,4.132,3.32,
4.076,4.132,3.32,
4.1,4.156,3.44,
4.108,4.132,3.36,
4.068,4.156,3.44,
4.108,4.164,3.44,
4.068,4.14,3.36,
4.076,4.164,3.44,
4.108,4.132,3.32,
4.076,4.164,3.44,
4.1,4.14,3.36,
4.076,4.132,3.44,
4.108,4.196,3.32,
4.108,4.196,3.44,
4.076,4.172,3.36,
4.108,4.188,3.44,
4.076,4.164,3.32,
4.084,4.188,3.44,
4.164,4.132,3.36,
4.164,4.132,3.44,
4.132,4.156,3.32,
4.156,4.164,3.36,
4.124,4.132,3.44,
4.156,4.14,3.36,
4.068,4.164,3.44,
4.076,4.156,3.36,
4.108,4.132,3.44,
4.108,4.132,3.44,
4.076,4.156,3.32,
4.108,4.164,3.36,
4.068,4.132,3.44,
4.076,4.132,3.44,
4.1,4.156,3.36,
4.1,4.132,3.44,
4.068,4.156,3.32,
4.108,4.132,3.36,
4.076,4.164,3.44,
4.1,4.132,3.44,
4.068,4.196,3.36,
4.076,4.188,3.44,
4.1,4.164,3.36,
4.108,4.188,3.44,
4.068,4.156,3.36,
4.084,4.188,3.36,
4.164,4.124,3.44,
4.132,4.148,3.44,
4.156,4.124,3.32,
4.156,4.132,3.44,
4.116,4.164,3.32,
4.148,4.132,3.36,
4.068,4.156,3.44,
4.1,4.156,3.44,
4.068,4.132,3.36,
4.076,4.156,3.36,
4.108,4.132,3.44,
4.076,4.156,3.36,
4.1,4.132,3.44,
4.076,4.156,3.36,
4.108,4.132,3.44,
4.076,4.132,3.32,
4.1,4.164,3.44,
4.076,4.156,3.44,
4.1,4.132,3.36,
4.108,4.132,3.44,
4.068,4.196,3.36,
4.076,4.188,3.36,
4.108,4.156,3.44,
4.1,4.172,3.44,
4.076,4.188,3.32,
4.076,4.188,3.44,
4.164,4.124,3.32,
4.156,4.132,3.44,
4.124,4.156,3.36,
4.156,4.132,3.44,
4.124,4.164,3.36,
4.14,4.156,3.36,
4.068,4.132,3.44,
4.1,4.132,3.44,
4.068,4.156,3.36,
4.076,4.156,3.36,
4.108,4.132,3.44,
4.108,4.156,3.36,
4.068,4.132,3.44,
4.1,4.132,3.36,
4.068,4.164,3.44,
4.108,4.156,3.44,
4.068,4.132,3.36,
4.068,4.132,3.36,
4.108,4.18,3.44,
4.108,4.196,3.44,
4.068,4.172,0.04,
4.076,4.188,0.12,
4.1,4.172,0.04,
4.076,4.188,0.12,
4.14,4.14,0.04,
4.164,4.116,0.04,
4.132,4.156,0.16,
4.156,4.132,0.16,
4.124,4.164,0.04,
4.156,4.132,0.04,
4.068,4.156,0.16,
4.092,4.156,0.16,
4.044,4.132,0.04,
4.068,4.132,0.04,
4.1,4.156,0.16,
4.076,4.164,0.16,
4.1,4.132,0.04,
4.1,4.132,0.04,
4.068,4.164,0.16,
4.068,4.132,0.04,
4.108,4.164,0.16,
4.076,4.132,0.04,
4.1,4.164,0.16,
4.108,4.156,0.16,
4.068,4.132,0.04,
4.108,4.132,0.16,
4.076,4.164,0.04,
4.076,4.132,0.04,
4.108,4.164,0.16,
4.1,4.196,0.04,
4.076,4.132,0.16,
4.1,4.156,0.04,
4.068,4.124,0.16,
4.076,4.132,0.04,
4.116,4.156,0.16,
4.164,4.156,0.16,
4.076,4.132,0.04,
4.1,4.132,0.12,
4.068,4.164,0.04,
4.1,4.156,0.04,
4.068,4.132,0.16,
4.1,4.164,0.16,
4.068,4.132,0.04,
4.068,4.132,0.16,
4.108,4.164,0.04,
4.1,4.132,0.04,
4.076,4.156,0.16,
4.108,4.132,0.04,
4.076,4.164,0.16,
4.1,4.132,0.04,
4.076,4.156,0.16,
4.076,4.164,0.04,
4.108,4.132,0.12,
4.076,4.164,0.04,
4.108,4.132,0.16,
4.076,4.164,0.04,
4.108,4.132,0.16,
4.108,4.132,0.04,
4.076,4.164,0.16,
4.076,4.132,0.16,
4.108,4.156,0.04,
4.1,4.156,0.04,
4.068,4.132,0.16,
4.1,4.156,0.04,
4.076,4.132,0.16,
4.076,4.132,0.16,
4.1,4.156,0.04,
4.076,4.132,0.04,
4.1,4.164,0.12,
4.108,4.132,0.04,
4.076,4.156,0.16,
4.1,4.164,0.04,
4.076,4.132,0.16,
4.076,4.164,0.16,
4.108,4.132,0.04,
4.1,4.156,0.04,
4.06,4.132,0.16,
4.108,4.132,0.04,
4.076,4.164,0.16,
4.108,4.164,0.04,
4.076,4.132,0.16,
4.108,4.164,0.04,
4.068,4.132,0.16,
4.076,4.164,0.12,
4.1,4.132,0.04,
4.108,4.132,0.04,
4.076,4.164,0.16,
4.108,4.132,0.16,
4.068,4.164,0.04,
4.068,4.124,0.04,
4.108,4.164,0.16,
4.076,4.156,0.04,
4.1,4.132,0.16,
4.076,4.132,0.16,
4.108,4.164,0.04,
4.052,4.156,0.12,
4.1,4.132,0.04,
4.108,4.132,0.04,
4.068,4.164,0.16,
4.076,4.132,0.04,
4.108,4.164,0.16,
4.108,4.132,0.16,
4.068,4.164,0.04,
4.076,4.156,0.16,
4.108,4.132,0.04,
4.076,4.132,0.04,
4.108,4.164,0.16,
4.068,4.132,0.16,
4.108,4.156,0.04,
4.108,4.132,0.16,
4.068,4.164,0.04,
4.108,4.164,0.04,
4.068,4.124,0.16,
4.076,4.132,0.04,
4.108,4.164,0.16,
4.076,4.164,0.04,
4.108,4.148,0.16,
4.1,4.14,0.04,
4.044,4.164,0.16,
4.068,4.164,0.04,
4.108,4.14,0.16,
4.108,4.132,0.16,
4.076,4.164,0.04,
4.108,4.132,0.12,
4.076,4.164,0.04,
4.076,4.14,0.04,
4.108,4.18,0.16,
4.108,4.18,0.04,
4.076,4.196,0.16,
4.108,4.188,0.04,
4.076,4.164,0.16,
4.076,4.188,0.04,
4.148,4.14,0.16,
4.164,4.132,0.04,
4.14,4.156,0.16,
4.156,4.132,0.04,
4.132,4.156,0.12,
4.156,4.124,0.12,
4.084,4.156,0.04,
4.1,4.132,0.04,
4.068,4.164,0.16,
4.076,4.132,0.04,
4.1,4.156,0.16,
4.068,4.132,0.16,
4.108,4.164,0.04,
4.1,4.132,0.04,
4.076,4.164,0.16,
4.108,4.132,0.04,
4.068,4.156,0.16,
4.068,4.156,0.04,
4.108,4.132,0.16,
4.1,4.132,0.04,
4.068,4.196,0.16,
4.076,4.196,0.16,
4.108,4.164,0.04,
4.076,4.188,0.04,
4.108,4.164,0.16,
4.068,4.188,0.04,
4.164,4.124,0.16,
4.164,4.124,0.04,
4.124,4.156,0.16,
4.124,4.132,0.12,
4.156,4.156,0.04,
4.156,4.156,0.04,
4.068,4.132,0.12,
4.068,4.132,0.04,
4.1,4.164,0.16,
4.1,4.132,0.12,
4.068,4.156,0.04,
4.108,4.156,0.04,
4.068,4.132,0.16,
4.076,4.132,0.04,
4.108,4.164,0.16,
4.076,4.164,0.04,
4.108,4.132,0.12,
4.076,4.156,0.16,
4.1,4.132,0.04,
4.076,4.132,0.04,
4.108,4.196,0.16,
4.1,4.196,0.04,
4.068,4.164,0.16,
4.108,4.172,0.04,
4.068,4.188,0.16,
4.076,4.188,0.04,
4.164,4.124,0.16,
4.156,4.156,0.04,
4.124,4.124,0.16,
4.156,4.132,0.04,
4.124,4.156,0.16,
4.156,4.132,0.16,
4.068,4.164,0.04,
4.1,4.156,0.12,
4.068,4.132,0.04,
4.068,4.164,0.16,
4.1,4.132,0.04,
4.076,4.156,0.16,
4.108,4.132,0.04,
4.068,4.132,0.12,
4.108,4.156,0.04,
4.076,4.132,0.04,
4.108,4.164,0.12,
4.1,4.164,0.12,
4.076,4.124,0.04,
4.068,4.14,0.16,
4.1,4.196,0.04,
4.076,4.188,0.04,
4.108,4.164,0.16,
4.1,4.188,0.04,
4.068,4.164,0.16,
4.076,4.188,0.16,
4.164,4.124,0.04,
4.156,4.156,0.16,
4.124,4.124,0.04,
4.156,4.132,0.04,
4.124,4.156,0.16,
4.148,4.132,0.04,
4.068,4.164,0.16,
4.1,4.132,0.16,
4.068,4.164,0.04,
4.1,4.132,0.12,
4.076,4.164,0.04,
4.1,4.132,0.16,
